fixrevision,buggy_revision,project,szz_date,fix_date,issuecode
672043e496ed5ce0bc75e2a0723cbf3c94d230bb,,jcr,2004-10-05 21:57:45,2004-11-05T14:19:20+00:00,JCR-15
40214101f31960958bcab0065d1a208decaf3dfa,,jcr,2005-03-11 07:10:51,2005-03-20T14:05:48+00:00,JCR-31
10c2f354605ef7c4b12690f62222319ef41152ba,,jcr,2004-09-26 10:13:43,2004-12-10T16:10:53+00:00,JCR-22
f18c55c86005ca412ee051541f03dd903c199398,,jcr,2005-02-05 04:07:43,2005-02-10T18:08:27+00:00,JCR-42
968b5838ee9f650fcd1c420939c4ba9809a44012,,jcr,2005-01-24 06:11:20,2005-03-16T13:30:49+00:00,JCR-6
22dff4df0aed2c7ac289b08857b25ff6eafc5a65,,jcr,2005-03-23 01:49:33,2005-03-30T15:40:52+00:00,JCR-6
0e67fc3c628492fe397f49b8594e6b8357ce734c,,jcr,2004-10-02 02:08:24,2005-01-03T15:01:28+00:00,JCR-36
1913470d3aa9a4ffd0d11173855f0e4c4909f885,,jcr,2005-02-02 23:27:46,2005-02-24T22:08:45+00:00,JCR-51
f18c55c86005ca412ee051541f03dd903c199398,,jcr,2005-02-10 22:34:52,2005-02-10T18:08:27+00:00,JCR-42
60c808a137efecaa997d7fdc3477f941aa5fb2e5,,jcr,2005-03-14 02:23:25,2005-03-20T13:24:31+00:00,JCR-3
0250028b330ed682c3962aa71713c76f973e647e,,jcr,2005-01-26 05:34:30,2005-03-04T17:40:12+00:00,JCR-45
874ef60b8e5bde1dd36e2a32f6c4b7dde20c9fac,,jcr,2005-02-05 06:43:55,2005-03-17T16:08:52+00:00,JCR-70
430af008fd60c6f089290bc2a62f4423a88ae45a,,jcr,2005-03-07 03:02:39,2005-03-16T13:36:05+00:00,JCR-6
f8c526f477b27519e47cc384c646c745792e1e41,,jcr,2004-12-03 06:05:34,2004-12-15T15:36:23+00:00,JCR-3
4869724aa00d6f1b8199cc6dfcb8488104a9e0e5,,jcr,2005-01-04 04:01:28,2005-03-03T12:54:18+00:00,JCR-45
fe79d7a3f1ee69e3844cc15abc6845ae82dbe8e3,,jcr,2004-10-05 21:57:45,2005-01-14T09:20:13+00:00,JCR-3
40214101f31960958bcab0065d1a208decaf3dfa,,jcr,2005-03-21 01:24:31,2005-03-20T14:05:48+00:00,JCR-31
10c2f354605ef7c4b12690f62222319ef41152ba,,jcr,2004-11-07 01:40:33,2004-12-10T16:10:53+00:00,JCR-20
643276a150006731ee05d2b53049e7814fb84142,,jcr,2004-11-06 21:28:19,2004-11-17T10:00:58+00:00,JCR-17
41f7bbcefb8e320dd24bb19a0ec65d891fee4101,,jcr,2004-10-26 06:49:43,2005-03-18T16:55:03+00:00,JCR-62
41f7bbcefb8e320dd24bb19a0ec65d891fee4101,,jcr,2004-10-16 05:57:12,2005-03-18T16:55:03+00:00,JCR-6
0e67fc3c628492fe397f49b8594e6b8357ce734c,,jcr,2004-12-20 23:29:45,2005-01-03T15:01:28+00:00,JCR-3
b3356f9caf10cca51fe5f9d1b503198894d5d256,,jcr,2005-01-30 00:20:38,2005-03-30T14:23:01+00:00,JCR-8
efe633ca5d47974d44069fed3c6dc30ceb583755,,jcr,2005-02-22 07:03:31,2005-03-18T13:52:31+00:00,JCR-72
10c2f354605ef7c4b12690f62222319ef41152ba,,jcr,2004-10-27 04:44:46,2004-12-10T16:10:53+00:00,JCR-20
643276a150006731ee05d2b53049e7814fb84142,,jcr,2004-10-19 02:12:33,2004-11-17T10:00:58+00:00,JCR-17
cc14ab987cea8d4ad557b4084ab5ad5b28be918b,,jcr,2004-10-27 04:44:46,2004-11-02T21:34:17+00:00,JCR-15
874ef60b8e5bde1dd36e2a32f6c4b7dde20c9fac,,jcr,2005-02-04 22:33:49,2005-03-17T16:08:52+00:00,JCR-70
60c808a137efecaa997d7fdc3477f941aa5fb2e5,,jcr,2005-03-14 02:23:25,2005-03-20T13:24:31+00:00,JCR-31
efe633ca5d47974d44069fed3c6dc30ceb583755,,jcr,2005-03-11 02:36:44,2005-03-18T13:52:31+00:00,JCR-72
9ec9d3d0548513ebb7f7108f7ec6d2851e3c6e5b,,jcr,2005-02-05 04:07:43,2005-03-16T21:39:22+00:00,JCR-40
4869724aa00d6f1b8199cc6dfcb8488104a9e0e5,,jcr,2004-09-26 10:13:43,2005-03-03T12:54:18+00:00,JCR-45
968b5838ee9f650fcd1c420939c4ba9809a44012,,jcr,2004-10-22 06:17:01,2005-03-16T13:30:49+00:00,JCR-6
e034de2f86ce8e44c3676aa3a7f76018f0361d70,,jcr,2004-10-15 02:41:53,2004-10-18T13:12:33+00:00,JCR-10
874ef60b8e5bde1dd36e2a32f6c4b7dde20c9fac,,jcr,2004-12-14 00:58:24,2005-03-17T16:08:52+00:00,JCR-70
0e67fc3c628492fe397f49b8594e6b8357ce734c,,jcr,2004-10-21 05:12:27,2005-01-03T15:01:28+00:00,JCR-36
9ec9d3d0548513ebb7f7108f7ec6d2851e3c6e5b,,jcr,2005-02-22 07:03:31,2005-03-16T21:39:22+00:00,JCR-40
1913470d3aa9a4ffd0d11173855f0e4c4909f885,,jcr,2005-01-29 04:46:52,2005-02-24T22:08:45+00:00,JCR-51
0250028b330ed682c3962aa71713c76f973e647e,,jcr,2005-02-27 09:51:46,2005-03-04T17:40:12+00:00,JCR-45
71d082fe5b0b3c1303849fdf8cbc2843afd27486,,jcr,2005-01-31 23:31:59,2005-02-18T11:15:01+00:00,JCR-49
f8957a704cd301c5707292108df2b1920568efde,,jcr,2005-03-08 01:26:02,2005-03-17T08:47:16+00:00,JCR-71
efe633ca5d47974d44069fed3c6dc30ceb583755,,jcr,2005-02-02 23:27:46,2005-03-18T13:52:31+00:00,JCR-72
e709e26425a18c81332ea98a21b4bc9bc715bcc8,,jcr,2004-10-02 02:08:24,2004-10-28T14:15:55+00:00,JCR-14
b3356f9caf10cca51fe5f9d1b503198894d5d256,,jcr,2005-01-30 00:20:38,2005-03-30T14:23:01+00:00,JCR-89
ffcd6cde30cc115094294b98181a6834153d759f,,jcr,2005-02-22 07:03:31,2005-03-18T14:00:26+00:00,JCR-72
00ec73d793fea7af7d46b4280c3a3117114169fb,,jcr,2005-03-11 02:04:16,2005-03-29T09:34:12+00:00,JCR-81
38a6a164785ef5f71a76a81b5100f5f113c9979d,,jcr,2004-10-02 02:08:24,2005-01-03T13:21:07+00:00,JCR-3
fe79d7a3f1ee69e3844cc15abc6845ae82dbe8e3,,jcr,2004-12-11 04:40:34,2005-01-14T09:20:13+00:00,JCR-3
e709e26425a18c81332ea98a21b4bc9bc715bcc8,,jcr,2004-10-28 04:47:13,2004-10-28T14:15:55+00:00,JCR-14
968b5838ee9f650fcd1c420939c4ba9809a44012,,jcr,2005-02-09 23:38:18,2005-03-16T13:30:49+00:00,JCR-6
41f7bbcefb8e320dd24bb19a0ec65d891fee4101,,jcr,2004-10-02 02:08:24,2005-03-18T16:55:03+00:00,JCR-62
a17fa85a3f5468792ef17e69dec3b44909c2088e,,jcr,2004-11-17 07:14:39,2004-12-10T11:07:35+00:00,JCR-27
10c2f354605ef7c4b12690f62222319ef41152ba,,jcr,2004-11-17 23:00:58,2004-12-10T16:10:53+00:00,JCR-20
35be395ac924e23bdb0ffda5a60f4cb17ceb4284,,jcr,2005-03-07 03:02:39,2005-03-31T15:41:11+00:00,JCR-84
10c2f354605ef7c4b12690f62222319ef41152ba,,jcr,2004-10-15 02:41:53,2004-12-10T16:10:53+00:00,JCR-22
03b38f475111ffbb797293575660634dee18bb68,,jcr,2004-09-26 10:13:43,2004-12-15T16:26:30+00:00,JCR-3
00ec73d793fea7af7d46b4280c3a3117114169fb,,jcr,2005-03-24 00:27:15,2005-03-29T09:34:12+00:00,JCR-8
10c2f354605ef7c4b12690f62222319ef41152ba,,jcr,2004-11-11 04:38:38,2004-12-10T16:10:53+00:00,JCR-23
2706c2e4d941ce8804f11a15036e1b94b9613b32,,jcr,2005-02-05 06:43:55,2005-03-29T14:22:33+00:00,JCR-8
efe633ca5d47974d44069fed3c6dc30ceb583755,,jcr,2005-02-26 05:48:02,2005-03-18T13:52:31+00:00,JCR-72
0e67fc3c628492fe397f49b8594e6b8357ce734c,,jcr,2004-12-20 23:29:45,2005-01-03T15:01:28+00:00,JCR-36
10c2f354605ef7c4b12690f62222319ef41152ba,,jcr,2004-10-02 02:08:24,2004-12-10T16:10:53+00:00,JCR-22
8e30d8632e9e616f40998248ee6747b0b8cf894d,,jcr,2005-01-30 00:20:38,2005-04-01T09:23:37+00:00,JCR-9
00ec73d793fea7af7d46b4280c3a3117114169fb,,jcr,2005-02-26 05:48:02,2005-03-29T09:34:12+00:00,JCR-8
efe633ca5d47974d44069fed3c6dc30ceb583755,,jcr,2005-01-29 04:46:52,2005-03-18T13:52:31+00:00,JCR-72
0e67fc3c628492fe397f49b8594e6b8357ce734c,,jcr,2004-10-05 21:57:45,2005-01-03T15:01:28+00:00,JCR-3
968b5838ee9f650fcd1c420939c4ba9809a44012,,jcr,2004-09-26 10:13:43,2005-03-16T13:30:49+00:00,JCR-6
8037888407b5c57316a876a6daae53f93e95204a,,jcr,2005-02-05 06:43:55,2005-02-11T14:54:40+00:00,JCR-41
9ec9d3d0548513ebb7f7108f7ec6d2851e3c6e5b,,jcr,2005-02-04 00:23:20,2005-03-16T21:39:22+00:00,JCR-40
22dff4df0aed2c7ac289b08857b25ff6eafc5a65,,jcr,2005-02-27 09:51:46,2005-03-30T15:40:52+00:00,JCR-69
0250028b330ed682c3962aa71713c76f973e647e,,jcr,2004-12-20 23:29:45,2005-03-04T17:40:12+00:00,JCR-45
38a6a164785ef5f71a76a81b5100f5f113c9979d,,jcr,2004-10-02 02:08:24,2005-01-03T13:21:07+00:00,JCR-35
03b38f475111ffbb797293575660634dee18bb68,,jcr,2004-12-16 04:36:23,2004-12-15T16:26:30+00:00,JCR-33
e034de2f86ce8e44c3676aa3a7f76018f0361d70,,jcr,2004-10-05 21:57:45,2004-10-18T13:12:33+00:00,JCR-10
dcaaff96b5eb9953788ea1d0919c3adb652b1ff0,,jcr,2005-01-29 04:46:52,2005-02-22T14:00:36+00:00,JCR-47
4869724aa00d6f1b8199cc6dfcb8488104a9e0e5,,jcr,2004-11-22 06:16:49,2005-03-03T12:54:18+00:00,JCR-45
643276a150006731ee05d2b53049e7814fb84142,,jcr,2004-10-05 21:57:45,2004-11-17T10:00:58+00:00,JCR-18
6511bd32386f0393d43a377489e52773d6b33010,,jcr,2005-04-01 21:23:37,2005-04-01T09:34:07+00:00,JCR-9
874ef60b8e5bde1dd36e2a32f6c4b7dde20c9fac,,jcr,2005-02-13 02:40:13,2005-03-17T16:08:52+00:00,JCR-70
40214101f31960958bcab0065d1a208decaf3dfa,,jcr,2005-03-21 01:24:31,2005-03-20T14:05:48+00:00,JCR-3
968b5838ee9f650fcd1c420939c4ba9809a44012,,jcr,2004-11-03 04:06:44,2005-03-16T13:30:49+00:00,JCR-6
41f7bbcefb8e320dd24bb19a0ec65d891fee4101,,jcr,2004-09-26 10:13:43,2005-03-18T16:55:03+00:00,JCR-6
643276a150006731ee05d2b53049e7814fb84142,,jcr,2004-10-07 21:37:41,2004-11-17T10:00:58+00:00,JCR-18
6f2ef6f2c6fe7ea0cc05ad26427e37f28be2c7d9,,jcr,2005-03-11 02:36:44,2005-03-17T09:41:15+00:00,JCR-68
dcaaff96b5eb9953788ea1d0919c3adb652b1ff0,,jcr,2004-11-22 06:16:49,2005-02-22T14:00:36+00:00,JCR-47
0e67fc3c628492fe397f49b8594e6b8357ce734c,,jcr,2004-10-05 21:57:45,2005-01-03T15:01:28+00:00,JCR-36
643276a150006731ee05d2b53049e7814fb84142,,jcr,2004-10-07 21:37:41,2004-11-17T10:00:58+00:00,JCR-17
41f7bbcefb8e320dd24bb19a0ec65d891fee4101,,jcr,2005-02-05 03:08:02,2005-03-18T16:55:03+00:00,JCR-62
580b82b3a0a23a594d5be4eb7e93a2f8be81df92,,jcr,2004-10-20 04:16:07,2004-10-26T16:03:50+00:00,JCR-13
8037888407b5c57316a876a6daae53f93e95204a,,jcr,2005-02-10 03:46:04,2005-02-11T14:54:40+00:00,JCR-41
ec9a8334b6c30a114cc2af8b117aef0092ca5827,,jcr,2005-02-15 04:35:27,2005-03-18T10:21:34+00:00,JCR-63
2706c2e4d941ce8804f11a15036e1b94b9613b32,,jcr,2005-02-05 06:43:55,2005-03-29T14:22:33+00:00,JCR-86
4869724aa00d6f1b8199cc6dfcb8488104a9e0e5,,jcr,2005-02-05 06:43:55,2005-03-03T12:54:18+00:00,JCR-45
00ec73d793fea7af7d46b4280c3a3117114169fb,,jcr,2005-03-11 02:04:16,2005-03-29T09:34:12+00:00,JCR-8
e034de2f86ce8e44c3676aa3a7f76018f0361d70,,jcr,2004-10-02 02:08:24,2004-10-18T13:12:33+00:00,JCR-10
874ef60b8e5bde1dd36e2a32f6c4b7dde20c9fac,,jcr,2005-01-24 06:11:20,2005-03-17T16:08:52+00:00,JCR-70
10c2f354605ef7c4b12690f62222319ef41152ba,,jcr,2004-10-15 02:41:53,2004-12-10T16:10:53+00:00,JCR-20
7dc1d5c8f34f8e236515a53086599d9c5c4f97c4,,jcr,2004-09-17 22:43:48,2004-09-24T14:11:12+00:00,JCR-3
643276a150006731ee05d2b53049e7814fb84142,,jcr,2004-09-26 10:13:43,2004-11-17T10:00:58+00:00,JCR-17
4869724aa00d6f1b8199cc6dfcb8488104a9e0e5,,jcr,2004-12-14 00:58:24,2005-03-03T12:54:18+00:00,JCR-45
4869724aa00d6f1b8199cc6dfcb8488104a9e0e5,,jcr,2004-12-11 05:10:53,2005-03-03T12:54:18+00:00,JCR-45
3c9cfa739b628eb6a82c1b7e6fadc627638ef9b7,,jcr,2005-03-21 01:24:31,2005-03-21T10:27:41+00:00,JCR-3
10c2f354605ef7c4b12690f62222319ef41152ba,,jcr,2004-12-11 02:38:23,2004-12-10T16:10:53+00:00,JCR-22
10c2f354605ef7c4b12690f62222319ef41152ba,,jcr,2004-11-29 21:37:44,2004-12-10T16:10:53+00:00,JCR-22
874ef60b8e5bde1dd36e2a32f6c4b7dde20c9fac,,jcr,2005-03-04 01:54:18,2005-03-17T16:08:52+00:00,JCR-70
00ec73d793fea7af7d46b4280c3a3117114169fb,,jcr,2005-03-12 05:21:44,2005-03-29T09:34:12+00:00,JCR-8
527a0dbcffc79d22e9b4ac2a5c063674c0b04d9b,,jcr,2004-09-26 10:13:43,2004-10-20T16:36:28+00:00,JCR-11
643276a150006731ee05d2b53049e7814fb84142,,jcr,2004-10-27 04:44:46,2004-11-17T10:00:58+00:00,JCR-18
4869724aa00d6f1b8199cc6dfcb8488104a9e0e5,,jcr,2005-02-26 05:48:02,2005-03-03T12:54:18+00:00,JCR-45
067fe354663eb2979c94a5550522f3326abac45d,,jcr,2004-10-02 02:08:24,2004-12-20T12:05:19+00:00,JCR-34
f18c55c86005ca412ee051541f03dd903c199398,,jcr,2005-01-21 04:10:22,2005-02-10T18:08:27+00:00,JCR-42
0e67fc3c628492fe397f49b8594e6b8357ce734c,,jcr,2004-09-26 10:13:43,2005-01-03T15:01:28+00:00,JCR-3
03b38f475111ffbb797293575660634dee18bb68,,jcr,2004-12-03 06:05:34,2004-12-15T16:26:30+00:00,JCR-33
10c2f354605ef7c4b12690f62222319ef41152ba,,jcr,2004-11-03 10:34:17,2004-12-10T16:10:53+00:00,JCR-20
4869724aa00d6f1b8199cc6dfcb8488104a9e0e5,,jcr,2005-02-10 22:34:52,2005-03-03T12:54:18+00:00,JCR-45
71d082fe5b0b3c1303849fdf8cbc2843afd27486,,jcr,2004-12-23 07:15:05,2005-02-18T11:15:01+00:00,JCR-49
10c2f354605ef7c4b12690f62222319ef41152ba,,jcr,2004-10-27 04:44:46,2004-12-10T16:10:53+00:00,JCR-22
10c2f354605ef7c4b12690f62222319ef41152ba,,jcr,2004-11-29 21:37:44,2004-12-10T16:10:53+00:00,JCR-23
22dff4df0aed2c7ac289b08857b25ff6eafc5a65,,jcr,2005-02-27 09:51:46,2005-03-30T15:40:52+00:00,JCR-6
10c2f354605ef7c4b12690f62222319ef41152ba,,jcr,2004-09-26 10:13:43,2004-12-10T16:10:53+00:00,JCR-20
efe633ca5d47974d44069fed3c6dc30ceb583755,,jcr,2005-03-18 05:08:52,2005-03-18T13:52:31+00:00,JCR-72
3c9cfa739b628eb6a82c1b7e6fadc627638ef9b7,,jcr,2005-03-21 01:24:31,2005-03-21T10:27:41+00:00,JCR-31
10c2f354605ef7c4b12690f62222319ef41152ba,,jcr,2004-11-03 04:06:44,2004-12-10T16:10:53+00:00,JCR-22
22dff4df0aed2c7ac289b08857b25ff6eafc5a65,,jcr,2005-03-23 01:49:33,2005-03-30T15:40:52+00:00,JCR-69
9ec9d3d0548513ebb7f7108f7ec6d2851e3c6e5b,,jcr,2004-12-20 23:29:45,2005-03-16T21:39:22+00:00,JCR-40
8e3bf52bc35c37d42e841e44843a196391ff4943,,jcr,2004-10-02 02:08:24,2004-11-22T11:14:33+00:00,JCR-21
0250028b330ed682c3962aa71713c76f973e647e,,jcr,2005-02-13 02:40:13,2005-03-04T17:40:12+00:00,JCR-45
ffcd6cde30cc115094294b98181a6834153d759f,,jcr,2005-03-19 02:52:31,2005-03-18T14:00:26+00:00,JCR-72
0e67fc3c628492fe397f49b8594e6b8357ce734c,,jcr,2004-10-21 05:12:27,2005-01-03T15:01:28+00:00,JCR-3
968b5838ee9f650fcd1c420939c4ba9809a44012,,jcr,2004-11-17 07:14:39,2005-03-16T13:30:49+00:00,JCR-69
efe633ca5d47974d44069fed3c6dc30ceb583755,,jcr,2004-11-09 22:11:06,2005-03-18T13:52:31+00:00,JCR-72
00ec73d793fea7af7d46b4280c3a3117114169fb,,jcr,2004-10-25 04:36:56,2005-03-29T09:34:12+00:00,JCR-8
84345dbf2d3422b6cf33c4c0ae9ce97adad2e80a,,jcr,2004-09-26 10:13:43,2005-03-22T13:39:48+00:00,JCR-79
d832a455f245da818c591fb1e1b89a23693cfb48,,jcr,2005-02-15 06:15:51,2005-03-29T13:25:57+00:00,JCR-8
10c2f354605ef7c4b12690f62222319ef41152ba,,jcr,2004-11-07 01:40:33,2004-12-10T16:10:53+00:00,JCR-23
03b38f475111ffbb797293575660634dee18bb68,,jcr,2004-09-26 10:13:43,2004-12-15T16:26:30+00:00,JCR-33
643276a150006731ee05d2b53049e7814fb84142,,jcr,2004-10-27 04:44:46,2004-11-17T10:00:58+00:00,JCR-17
10c2f354605ef7c4b12690f62222319ef41152ba,,jcr,2004-10-15 02:41:53,2004-12-10T16:10:53+00:00,JCR-23
968b5838ee9f650fcd1c420939c4ba9809a44012,,jcr,2005-02-09 23:38:18,2005-03-16T13:30:49+00:00,JCR-69
968b5838ee9f650fcd1c420939c4ba9809a44012,,jcr,2004-09-29 02:39:20,2005-03-16T13:30:49+00:00,JCR-69
8037888407b5c57316a876a6daae53f93e95204a,,jcr,2005-02-10 22:34:52,2005-02-11T14:54:40+00:00,JCR-41
1e607d3c69997cc3942977a52b157fc6d5a5bbea,,jcr,2004-10-02 02:08:24,2004-10-18T17:14:38+00:00,JCR-8
3c9cfa739b628eb6a82c1b7e6fadc627638ef9b7,,jcr,2005-02-22 07:03:31,2005-03-21T10:27:41+00:00,JCR-31
874ef60b8e5bde1dd36e2a32f6c4b7dde20c9fac,,jcr,2004-12-11 05:10:53,2005-03-17T16:08:52+00:00,JCR-70
10c2f354605ef7c4b12690f62222319ef41152ba,,jcr,2004-10-05 21:57:45,2004-12-10T16:10:53+00:00,JCR-22
fe79d7a3f1ee69e3844cc15abc6845ae82dbe8e3,,jcr,2004-12-11 05:03:39,2005-01-14T09:20:13+00:00,JCR-38
874ef60b8e5bde1dd36e2a32f6c4b7dde20c9fac,,jcr,2005-01-22 00:55:02,2005-03-17T16:08:52+00:00,JCR-70
60c808a137efecaa997d7fdc3477f941aa5fb2e5,,jcr,2005-02-22 07:03:31,2005-03-20T13:24:31+00:00,JCR-3
0250028b330ed682c3962aa71713c76f973e647e,,jcr,2005-02-25 23:44:52,2005-03-04T17:40:12+00:00,JCR-45
0e67fc3c628492fe397f49b8594e6b8357ce734c,,jcr,2004-12-08 05:49:59,2005-01-03T15:01:28+00:00,JCR-36
10c2f354605ef7c4b12690f62222319ef41152ba,,jcr,2004-12-11 02:38:23,2004-12-10T16:10:53+00:00,JCR-20
cc14ab987cea8d4ad557b4084ab5ad5b28be918b,,jcr,2004-10-05 21:57:45,2004-11-02T21:34:17+00:00,JCR-15
71d082fe5b0b3c1303849fdf8cbc2843afd27486,,jcr,2004-09-29 03:18:04,2005-02-18T11:15:01+00:00,JCR-49
3ddc6cc1f21e2a216974ab819d432f89b458c221,,jcr,2005-02-15 06:15:51,2005-03-24T10:34:19+00:00,JCR-8
0cbf4a4003bdb145c4b39fc5bc337d7cd3451f2e,,jcr,2004-10-02 02:08:24,2005-03-09T12:54:50+00:00,JCR-57
527a0dbcffc79d22e9b4ac2a5c063674c0b04d9b,,jcr,2004-10-16 06:01:13,2004-10-20T16:36:28+00:00,JCR-11
9ec9d3d0548513ebb7f7108f7ec6d2851e3c6e5b,,jcr,2005-03-11 02:36:44,2005-03-16T21:39:22+00:00,JCR-40
0250028b330ed682c3962aa71713c76f973e647e,,jcr,2004-11-09 06:42:33,2005-03-04T17:40:12+00:00,JCR-45
f8c526f477b27519e47cc384c646c745792e1e41,,jcr,2004-12-03 06:05:34,2004-12-15T15:36:23+00:00,JCR-31
fe79d7a3f1ee69e3844cc15abc6845ae82dbe8e3,,jcr,2004-12-11 05:03:39,2005-01-14T09:20:13+00:00,JCR-3
fe79d7a3f1ee69e3844cc15abc6845ae82dbe8e3,,jcr,2004-10-05 21:57:45,2005-01-14T09:20:13+00:00,JCR-38
0e67fc3c628492fe397f49b8594e6b8357ce734c,,jcr,2004-11-17 23:00:58,2005-01-03T15:01:28+00:00,JCR-3
0e67fc3c628492fe397f49b8594e6b8357ce734c,,jcr,2005-01-04 03:11:33,2005-01-03T15:01:28+00:00,JCR-36
10c2f354605ef7c4b12690f62222319ef41152ba,,jcr,2004-11-03 10:34:17,2004-12-10T16:10:53+00:00,JCR-22
10c2f354605ef7c4b12690f62222319ef41152ba,,jcr,2004-11-03 04:06:44,2004-12-10T16:10:53+00:00,JCR-23
40214101f31960958bcab0065d1a208decaf3dfa,,jcr,2005-03-11 07:10:51,2005-03-20T14:05:48+00:00,JCR-3
4869724aa00d6f1b8199cc6dfcb8488104a9e0e5,,jcr,2005-01-21 05:24:14,2005-03-03T12:54:18+00:00,JCR-45
874ef60b8e5bde1dd36e2a32f6c4b7dde20c9fac,,jcr,2005-02-12 03:54:40,2005-03-17T16:08:52+00:00,JCR-70
968b5838ee9f650fcd1c420939c4ba9809a44012,,jcr,2004-10-02 02:08:24,2005-03-16T13:30:49+00:00,JCR-69
efe633ca5d47974d44069fed3c6dc30ceb583755,,jcr,2004-10-02 02:08:24,2005-03-18T13:52:31+00:00,JCR-72
d832a455f245da818c591fb1e1b89a23693cfb48,,jcr,2005-02-15 06:15:51,2005-03-29T13:25:57+00:00,JCR-83
3608830eceb7627507f400524fb3c0f66daab2cd,,jcr,2004-12-03 06:05:34,2004-12-15T15:48:11+00:00,JCR-32
f18c55c86005ca412ee051541f03dd903c199398,,jcr,2005-01-04 04:01:28,2005-02-10T18:08:27+00:00,JCR-42
968b5838ee9f650fcd1c420939c4ba9809a44012,,jcr,2005-02-27 09:51:46,2005-03-16T13:30:49+00:00,JCR-6
03b38f475111ffbb797293575660634dee18bb68,,jcr,2004-12-03 06:05:34,2004-12-15T16:26:30+00:00,JCR-3
6511bd32386f0393d43a377489e52773d6b33010,,jcr,2005-03-02 08:22:51,2005-04-01T09:34:07+00:00,JCR-9
643276a150006731ee05d2b53049e7814fb84142,,jcr,2004-09-26 10:13:43,2004-11-17T10:00:58+00:00,JCR-18
35be395ac924e23bdb0ffda5a60f4cb17ceb4284,,jcr,2005-03-17 02:36:05,2005-03-31T15:41:11+00:00,JCR-84
f18c55c86005ca412ee051541f03dd903c199398,,jcr,2004-10-22 06:17:01,2005-02-10T18:08:27+00:00,JCR-42
643276a150006731ee05d2b53049e7814fb84142,,jcr,2004-11-03 22:19:47,2004-11-17T10:00:58+00:00,JCR-17
0e67fc3c628492fe397f49b8594e6b8357ce734c,,jcr,2004-11-17 23:00:58,2005-01-03T15:01:28+00:00,JCR-36
10c2f354605ef7c4b12690f62222319ef41152ba,,jcr,2004-11-03 10:34:17,2004-12-10T16:10:53+00:00,JCR-23
874ef60b8e5bde1dd36e2a32f6c4b7dde20c9fac,,jcr,2005-03-05 01:42:38,2005-03-17T16:08:52+00:00,JCR-70
874ef60b8e5bde1dd36e2a32f6c4b7dde20c9fac,,jcr,2005-02-04 00:23:20,2005-03-17T16:08:52+00:00,JCR-70
0e67fc3c628492fe397f49b8594e6b8357ce734c,,jcr,2005-01-04 03:11:33,2005-01-03T15:01:28+00:00,JCR-3
643276a150006731ee05d2b53049e7814fb84142,,jcr,2004-10-02 02:08:24,2004-11-17T10:00:58+00:00,JCR-18
8455d1a44cd06a71faaaa36ba1bf2372d39a8131,,jcr,2004-11-10 03:03:35,2005-02-17T15:07:25+00:00,JCR-48
874ef60b8e5bde1dd36e2a32f6c4b7dde20c9fac,,jcr,2004-12-20 23:29:45,2005-03-17T16:08:52+00:00,JCR-70
00ec73d793fea7af7d46b4280c3a3117114169fb,,jcr,2005-03-24 00:27:15,2005-03-29T09:34:12+00:00,JCR-81
efe633ca5d47974d44069fed3c6dc30ceb583755,,jcr,2005-01-08 03:48:46,2005-03-18T13:52:31+00:00,JCR-72
1913470d3aa9a4ffd0d11173855f0e4c4909f885,,jcr,2004-09-26 10:13:43,2005-02-24T22:08:45+00:00,JCR-51
1913470d3aa9a4ffd0d11173855f0e4c4909f885,,jcr,2004-10-26 06:49:43,2005-02-24T22:08:45+00:00,JCR-51
0055bb5150a18c51665aee1c551c8ab9a8c4ada3,,jcr,2005-03-17 05:11:54,2005-03-29T10:11:15+00:00,JCR-8
8e30d8632e9e616f40998248ee6747b0b8cf894d,,jcr,2005-03-02 02:55:53,2005-04-01T09:23:37+00:00,JCR-9
1913470d3aa9a4ffd0d11173855f0e4c4909f885,,jcr,2005-02-04 00:23:20,2005-02-24T22:08:45+00:00,JCR-51
cc14ab987cea8d4ad557b4084ab5ad5b28be918b,,jcr,2004-11-03 04:06:44,2004-11-02T21:34:17+00:00,JCR-15
00ec73d793fea7af7d46b4280c3a3117114169fb,,jcr,2005-03-17 05:43:01,2005-03-29T09:34:12+00:00,JCR-81
10c2f354605ef7c4b12690f62222319ef41152ba,,jcr,2004-10-02 02:08:24,2004-12-10T16:10:53+00:00,JCR-20
10c2f354605ef7c4b12690f62222319ef41152ba,,jcr,2004-09-26 10:13:43,2004-12-10T16:10:53+00:00,JCR-23
8037888407b5c57316a876a6daae53f93e95204a,,jcr,2004-12-21 02:03:55,2005-02-11T14:54:40+00:00,JCR-41
968b5838ee9f650fcd1c420939c4ba9809a44012,,jcr,2005-02-05 04:07:43,2005-03-16T13:30:49+00:00,JCR-69
643276a150006731ee05d2b53049e7814fb84142,,jcr,2004-11-06 21:28:19,2004-11-17T10:00:58+00:00,JCR-18
1913470d3aa9a4ffd0d11173855f0e4c4909f885,,jcr,2004-10-02 02:08:24,2005-02-24T22:08:45+00:00,JCR-51
e65fa9b615e53e44c5eac038af19b4c2436ffd1c,,jcr,2004-10-05 21:57:45,2004-10-07T08:37:41+00:00,JCR-6
968b5838ee9f650fcd1c420939c4ba9809a44012,,jcr,2004-10-02 02:08:24,2005-03-16T13:30:49+00:00,JCR-6
f18c55c86005ca412ee051541f03dd903c199398,,jcr,2004-12-23 07:15:05,2005-02-10T18:08:27+00:00,JCR-42
4869724aa00d6f1b8199cc6dfcb8488104a9e0e5,,jcr,2004-10-27 04:44:46,2005-03-03T12:54:18+00:00,JCR-45
a17fa85a3f5468792ef17e69dec3b44909c2088e,,jcr,2004-12-02 06:35:36,2004-12-10T11:07:35+00:00,JCR-27
8037888407b5c57316a876a6daae53f93e95204a,,jcr,2005-01-26 05:34:30,2005-02-11T14:54:40+00:00,JCR-41
57fa9847d0344900499ff6172ec34b7b82ac4aa7,,jcr,2005-03-05 06:40:12,2005-03-13T18:09:04+00:00,JCR-45
49556b6b1859e505e193f3836e690534a64ced7c,,jcr,2005-02-19 02:31:24,2005-03-29T09:38:00+00:00,JCR-8
4869724aa00d6f1b8199cc6dfcb8488104a9e0e5,,jcr,2004-12-20 23:29:45,2005-03-03T12:54:18+00:00,JCR-45
0e67fc3c628492fe397f49b8594e6b8357ce734c,,jcr,2004-09-26 10:13:43,2005-01-03T15:01:28+00:00,JCR-36
9ec9d3d0548513ebb7f7108f7ec6d2851e3c6e5b,,jcr,2004-09-26 10:13:43,2005-03-16T21:39:22+00:00,JCR-40
00ec73d793fea7af7d46b4280c3a3117114169fb,,jcr,2005-02-26 05:48:02,2005-03-29T09:34:12+00:00,JCR-81
0e67fc3c628492fe397f49b8594e6b8357ce734c,,jcr,2004-12-11 05:10:53,2005-01-03T15:01:28+00:00,JCR-3
1e607d3c69997cc3942977a52b157fc6d5a5bbea,,jcr,2004-09-26 10:13:43,2004-10-18T17:14:38+00:00,JCR-8
00ec73d793fea7af7d46b4280c3a3117114169fb,,jcr,2004-11-26 05:17:37,2005-03-29T09:34:12+00:00,JCR-81
0cbf4a4003bdb145c4b39fc5bc337d7cd3451f2e,,jcr,2004-09-26 10:13:43,2005-03-09T12:54:50+00:00,JCR-57
f18c55c86005ca412ee051541f03dd903c199398,,jcr,2004-10-02 02:08:24,2005-02-10T18:08:27+00:00,JCR-42
0e67fc3c628492fe397f49b8594e6b8357ce734c,,jcr,2004-12-23 04:22:43,2005-01-03T15:01:28+00:00,JCR-3
0e67fc3c628492fe397f49b8594e6b8357ce734c,,jcr,2004-10-02 02:08:24,2005-01-03T15:01:28+00:00,JCR-3
efe633ca5d47974d44069fed3c6dc30ceb583755,,jcr,2005-03-12 03:44:00,2005-03-18T13:52:31+00:00,JCR-72
968b5838ee9f650fcd1c420939c4ba9809a44012,,jcr,2005-02-27 09:51:46,2005-03-16T13:30:49+00:00,JCR-69
ec9a8334b6c30a114cc2af8b117aef0092ca5827,,jcr,2005-02-15 04:35:27,2005-03-18T10:21:34+00:00,JCR-6
968b5838ee9f650fcd1c420939c4ba9809a44012,,jcr,2005-02-05 04:07:43,2005-03-16T13:30:49+00:00,JCR-6
874ef60b8e5bde1dd36e2a32f6c4b7dde20c9fac,,jcr,2005-02-10 03:46:04,2005-03-17T16:08:52+00:00,JCR-70
9ec9d3d0548513ebb7f7108f7ec6d2851e3c6e5b,,jcr,2005-02-25 11:08:45,2005-03-16T21:39:22+00:00,JCR-40
efe633ca5d47974d44069fed3c6dc30ceb583755,,jcr,2005-02-05 04:07:43,2005-03-18T13:52:31+00:00,JCR-72
9ec9d3d0548513ebb7f7108f7ec6d2851e3c6e5b,,jcr,2005-03-04 07:05:37,2005-03-16T21:39:22+00:00,JCR-40
3ddc6cc1f21e2a216974ab819d432f89b458c221,,jcr,2005-02-15 06:15:51,2005-03-24T10:34:19+00:00,JCR-80
4869724aa00d6f1b8199cc6dfcb8488104a9e0e5,,jcr,2005-02-11 03:02:46,2005-03-03T12:54:18+00:00,JCR-45
10c2f354605ef7c4b12690f62222319ef41152ba,,jcr,2004-11-17 23:00:58,2004-12-10T16:10:53+00:00,JCR-22
10c2f354605ef7c4b12690f62222319ef41152ba,,jcr,2004-11-11 04:38:38,2004-12-10T16:10:53+00:00,JCR-20
f18c55c86005ca412ee051541f03dd903c199398,,jcr,2004-11-06 05:47:43,2005-02-10T18:08:27+00:00,JCR-42
148dc1074b52b8dc57f3ba00312746ae43ceb134,,jcr,2004-09-26 10:13:43,2004-11-16T18:16:35+00:00,JCR-19
643276a150006731ee05d2b53049e7814fb84142,,jcr,2004-10-05 21:57:45,2004-11-17T10:00:58+00:00,JCR-17
874ef60b8e5bde1dd36e2a32f6c4b7dde20c9fac,,jcr,2005-03-05 06:40:12,2005-03-17T16:08:52+00:00,JCR-70
968b5838ee9f650fcd1c420939c4ba9809a44012,,jcr,2004-11-17 07:14:39,2005-03-16T13:30:49+00:00,JCR-6
10c2f354605ef7c4b12690f62222319ef41152ba,,jcr,2004-10-05 21:57:45,2004-12-10T16:10:53+00:00,JCR-20
3608830eceb7627507f400524fb3c0f66daab2cd,,jcr,2004-12-03 06:05:34,2004-12-15T15:48:11+00:00,JCR-3
968b5838ee9f650fcd1c420939c4ba9809a44012,,jcr,2004-09-26 10:13:43,2005-03-16T13:30:49+00:00,JCR-69
4869724aa00d6f1b8199cc6dfcb8488104a9e0e5,,jcr,2004-10-02 02:08:24,2005-03-03T12:54:18+00:00,JCR-45
8e30d8632e9e616f40998248ee6747b0b8cf894d,,jcr,2005-03-02 03:07:03,2005-04-01T09:23:37+00:00,JCR-9
71d082fe5b0b3c1303849fdf8cbc2843afd27486,,jcr,2005-01-21 04:10:22,2005-02-18T11:15:01+00:00,JCR-49
e822bbfe021fb4237b4655b9ab21e70621777f43,,jcr,2005-02-11 10:06:16,2005-02-11T12:55:53+00:00,JCR-44
0250028b330ed682c3962aa71713c76f973e647e,,jcr,2004-11-17 07:14:39,2005-03-04T17:40:12+00:00,JCR-45
0e67fc3c628492fe397f49b8594e6b8357ce734c,,jcr,2004-12-23 04:22:43,2005-01-03T15:01:28+00:00,JCR-36
ac17a7e8677a279dc0de3935452ad02b2baf99b4,,jcr,2004-12-08 05:49:59,2004-12-08T11:40:12+00:00,JCR-24
0e67fc3c628492fe397f49b8594e6b8357ce734c,,jcr,2004-12-11 05:10:53,2005-01-03T15:01:28+00:00,JCR-36
0250028b330ed682c3962aa71713c76f973e647e,,jcr,2005-01-24 06:11:20,2005-03-04T17:40:12+00:00,JCR-45
a17fa85a3f5468792ef17e69dec3b44909c2088e,,jcr,2004-10-02 02:08:24,2004-12-10T11:07:35+00:00,JCR-27
6f2ef6f2c6fe7ea0cc05ad26427e37f28be2c7d9,,jcr,2005-03-11 02:36:44,2005-03-17T09:41:15+00:00,JCR-6
9ec9d3d0548513ebb7f7108f7ec6d2851e3c6e5b,,jcr,2005-02-13 02:40:13,2005-03-16T21:39:22+00:00,JCR-40
0055bb5150a18c51665aee1c551c8ab9a8c4ada3,,jcr,2005-03-24 03:29:49,2005-03-29T10:11:15+00:00,JCR-8
49556b6b1859e505e193f3836e690534a64ced7c,,jcr,2005-02-19 02:31:24,2005-03-29T09:38:00+00:00,JCR-82
643276a150006731ee05d2b53049e7814fb84142,,jcr,2004-11-03 22:19:47,2004-11-17T10:00:58+00:00,JCR-18
dcaaff96b5eb9953788ea1d0919c3adb652b1ff0,,jcr,2005-02-22 07:03:31,2005-02-22T14:00:36+00:00,JCR-47
f18c55c86005ca412ee051541f03dd903c199398,,jcr,2005-02-05 06:43:55,2005-02-10T18:08:27+00:00,JCR-42
3c9cfa739b628eb6a82c1b7e6fadc627638ef9b7,,jcr,2005-03-21 02:05:48,2005-03-21T10:27:41+00:00,JCR-31
968b5838ee9f650fcd1c420939c4ba9809a44012,,jcr,2005-01-24 06:11:20,2005-03-16T13:30:49+00:00,JCR-69
f18c55c86005ca412ee051541f03dd903c199398,,jcr,2004-09-26 10:13:43,2005-02-10T18:08:27+00:00,JCR-42
41f7bbcefb8e320dd24bb19a0ec65d891fee4101,,jcr,2005-02-05 04:07:43,2005-03-18T16:55:03+00:00,JCR-62
643276a150006731ee05d2b53049e7814fb84142,,jcr,2004-11-07 01:40:33,2004-11-17T10:00:58+00:00,JCR-18
f18c55c86005ca412ee051541f03dd903c199398,,jcr,2005-01-24 06:11:20,2005-02-10T18:08:27+00:00,JCR-42
643276a150006731ee05d2b53049e7814fb84142,,jcr,2004-10-02 02:08:24,2004-11-17T10:00:58+00:00,JCR-17
1913470d3aa9a4ffd0d11173855f0e4c4909f885,,jcr,2005-02-22 07:03:31,2005-02-24T22:08:45+00:00,JCR-51
8e30d8632e9e616f40998248ee6747b0b8cf894d,,jcr,2005-03-02 08:22:51,2005-04-01T09:23:37+00:00,JCR-9
35be395ac924e23bdb0ffda5a60f4cb17ceb4284,,jcr,2005-03-17 02:36:05,2005-03-31T15:41:11+00:00,JCR-8
9ec9d3d0548513ebb7f7108f7ec6d2851e3c6e5b,,jcr,2005-02-26 05:48:02,2005-03-16T21:39:22+00:00,JCR-40
41f7bbcefb8e320dd24bb19a0ec65d891fee4101,,jcr,2005-02-05 04:07:43,2005-03-18T16:55:03+00:00,JCR-6
7e9c47f2f812a97ab72cc31407b4b7c17d6367a0,,jcr,2004-10-08 04:36:56,2004-10-26T15:44:08+00:00,JCR-13
10c2f354605ef7c4b12690f62222319ef41152ba,,jcr,2004-11-07 01:40:33,2004-12-10T16:10:53+00:00,JCR-22
3c9cfa739b628eb6a82c1b7e6fadc627638ef9b7,,jcr,2005-03-21 02:05:48,2005-03-21T10:27:41+00:00,JCR-3
10c2f354605ef7c4b12690f62222319ef41152ba,,jcr,2004-10-05 21:57:45,2004-12-10T16:10:53+00:00,JCR-23
41f7bbcefb8e320dd24bb19a0ec65d891fee4101,,jcr,2004-11-09 06:42:33,2005-03-18T16:55:03+00:00,JCR-6
4869724aa00d6f1b8199cc6dfcb8488104a9e0e5,,jcr,2004-11-03 04:06:44,2005-03-03T12:54:18+00:00,JCR-45
f18c55c86005ca412ee051541f03dd903c199398,,jcr,2005-01-24 23:20:40,2005-02-10T18:08:27+00:00,JCR-42
10c2f354605ef7c4b12690f62222319ef41152ba,,jcr,2004-11-29 21:37:44,2004-12-10T16:10:53+00:00,JCR-20
1913470d3aa9a4ffd0d11173855f0e4c4909f885,,jcr,2004-10-05 21:57:45,2005-02-24T22:08:45+00:00,JCR-51
00ec73d793fea7af7d46b4280c3a3117114169fb,,jcr,2004-10-25 04:36:56,2005-03-29T09:34:12+00:00,JCR-81
0250028b330ed682c3962aa71713c76f973e647e,,jcr,2005-03-04 01:54:18,2005-03-04T17:40:12+00:00,JCR-45
10c2f354605ef7c4b12690f62222319ef41152ba,,jcr,2004-12-11 02:38:23,2004-12-10T16:10:53+00:00,JCR-23
71d082fe5b0b3c1303849fdf8cbc2843afd27486,,jcr,2005-02-14 23:09:06,2005-02-18T11:15:01+00:00,JCR-49
10c2f354605ef7c4b12690f62222319ef41152ba,,jcr,2004-10-27 04:44:46,2004-12-10T16:10:53+00:00,JCR-23
9ec9d3d0548513ebb7f7108f7ec6d2851e3c6e5b,,jcr,2005-03-14 02:23:25,2005-03-16T21:39:22+00:00,JCR-40
8e3bf52bc35c37d42e841e44843a196391ff4943,,jcr,2004-10-12 23:41:42,2004-11-22T11:14:33+00:00,JCR-21
dcaaff96b5eb9953788ea1d0919c3adb652b1ff0,,jcr,2005-01-22 00:51:29,2005-02-22T14:00:36+00:00,JCR-47
35be395ac924e23bdb0ffda5a60f4cb17ceb4284,,jcr,2005-03-07 03:02:39,2005-03-31T15:41:11+00:00,JCR-8
8037888407b5c57316a876a6daae53f93e95204a,,jcr,2005-02-05 04:07:43,2005-02-11T14:54:40+00:00,JCR-41
60c808a137efecaa997d7fdc3477f941aa5fb2e5,,jcr,2005-02-22 07:03:31,2005-03-20T13:24:31+00:00,JCR-31
41f7bbcefb8e320dd24bb19a0ec65d891fee4101,,jcr,2004-11-09 06:42:33,2005-03-18T16:55:03+00:00,JCR-62
efe633ca5d47974d44069fed3c6dc30ceb583755,,jcr,2005-02-13 02:40:13,2005-03-18T13:52:31+00:00,JCR-72
41f7bbcefb8e320dd24bb19a0ec65d891fee4101,,jcr,2004-10-26 06:49:43,2005-03-18T16:55:03+00:00,JCR-6
9ec9d3d0548513ebb7f7108f7ec6d2851e3c6e5b,,jcr,2005-03-05 06:59:44,2005-03-16T21:39:22+00:00,JCR-40
968b5838ee9f650fcd1c420939c4ba9809a44012,,jcr,2004-11-03 04:06:44,2005-03-16T13:30:49+00:00,JCR-69
03b38f475111ffbb797293575660634dee18bb68,,jcr,2004-12-16 04:36:23,2004-12-15T16:26:30+00:00,JCR-3
10c2f354605ef7c4b12690f62222319ef41152ba,,jcr,2004-11-11 04:38:38,2004-12-10T16:10:53+00:00,JCR-22
9ec9d3d0548513ebb7f7108f7ec6d2851e3c6e5b,,jcr,2005-01-29 04:46:52,2005-03-16T21:39:22+00:00,JCR-40
f18c55c86005ca412ee051541f03dd903c199398,,jcr,2005-02-05 03:37:25,2005-02-10T18:08:27+00:00,JCR-42
4869724aa00d6f1b8199cc6dfcb8488104a9e0e5,,jcr,2004-11-03 10:34:17,2005-03-03T12:54:18+00:00,JCR-45
874ef60b8e5bde1dd36e2a32f6c4b7dde20c9fac,,jcr,2004-12-21 03:11:31,2005-03-17T16:08:52+00:00,JCR-70
874ef60b8e5bde1dd36e2a32f6c4b7dde20c9fac,,jcr,2005-03-10 07:36:14,2005-03-17T16:08:52+00:00,JCR-70
9ec9d3d0548513ebb7f7108f7ec6d2851e3c6e5b,,jcr,2004-10-05 21:57:45,2005-03-16T21:39:22+00:00,JCR-40
874ef60b8e5bde1dd36e2a32f6c4b7dde20c9fac,,jcr,2005-01-04 04:01:28,2005-03-17T16:08:52+00:00,JCR-70
4869724aa00d6f1b8199cc6dfcb8488104a9e0e5,,jcr,2005-02-25 23:44:52,2005-03-03T12:54:18+00:00,JCR-45
41f7bbcefb8e320dd24bb19a0ec65d891fee4101,,jcr,2005-02-05 03:08:02,2005-03-18T16:55:03+00:00,JCR-6
41f7bbcefb8e320dd24bb19a0ec65d891fee4101,,jcr,2004-09-26 10:13:43,2005-03-18T16:55:03+00:00,JCR-62
10c2f354605ef7c4b12690f62222319ef41152ba,,jcr,2004-11-03 04:06:44,2004-12-10T16:10:53+00:00,JCR-20
41f7bbcefb8e320dd24bb19a0ec65d891fee4101,,jcr,2004-10-02 02:08:24,2005-03-18T16:55:03+00:00,JCR-6
00ec73d793fea7af7d46b4280c3a3117114169fb,,jcr,2005-03-17 05:43:01,2005-03-29T09:34:12+00:00,JCR-8
527a0dbcffc79d22e9b4ac2a5c063674c0b04d9b,,jcr,2004-10-02 02:08:24,2004-10-20T16:36:28+00:00,JCR-11
0e67fc3c628492fe397f49b8594e6b8357ce734c,,jcr,2004-12-08 05:49:59,2005-01-03T15:01:28+00:00,JCR-3
9ec9d3d0548513ebb7f7108f7ec6d2851e3c6e5b,,jcr,2004-10-02 02:08:24,2005-03-16T21:39:22+00:00,JCR-40
4869724aa00d6f1b8199cc6dfcb8488104a9e0e5,,jcr,2005-02-13 02:40:13,2005-03-03T12:54:18+00:00,JCR-45
527a0dbcffc79d22e9b4ac2a5c063674c0b04d9b,,jcr,2004-09-29 03:18:04,2004-10-20T16:36:28+00:00,JCR-11
e822bbfe021fb4237b4655b9ab21e70621777f43,,jcr,2004-10-02 02:08:24,2005-02-11T12:55:53+00:00,JCR-44
4869724aa00d6f1b8199cc6dfcb8488104a9e0e5,,jcr,2004-11-09 00:27:28,2005-03-03T12:54:18+00:00,JCR-45
f18c55c86005ca412ee051541f03dd903c199398,,jcr,2005-02-11 03:31:22,2005-02-10T18:08:27+00:00,JCR-42
fe79d7a3f1ee69e3844cc15abc6845ae82dbe8e3,,jcr,2004-12-11 04:40:34,2005-01-14T09:20:13+00:00,JCR-38
00ec73d793fea7af7d46b4280c3a3117114169fb,,jcr,2005-03-12 05:21:44,2005-03-29T09:34:12+00:00,JCR-81
84345dbf2d3422b6cf33c4c0ae9ce97adad2e80a,,jcr,2005-02-27 09:51:46,2005-03-22T13:39:48+00:00,JCR-79
4869724aa00d6f1b8199cc6dfcb8488104a9e0e5,,jcr,2005-01-24 06:11:20,2005-03-03T12:54:18+00:00,JCR-45
e034de2f86ce8e44c3676aa3a7f76018f0361d70,,jcr,2004-09-26 10:13:43,2004-10-18T13:12:33+00:00,JCR-10
067fe354663eb2979c94a5550522f3326abac45d,,jcr,2004-10-02 02:08:24,2004-12-20T12:05:19+00:00,JCR-3
00ec73d793fea7af7d46b4280c3a3117114169fb,,jcr,2004-11-26 05:17:37,2005-03-29T09:34:12+00:00,JCR-8
10c2f354605ef7c4b12690f62222319ef41152ba,,jcr,2004-10-02 02:08:24,2004-12-10T16:10:53+00:00,JCR-23
874ef60b8e5bde1dd36e2a32f6c4b7dde20c9fac,,jcr,2004-12-21 02:03:55,2005-03-17T16:08:52+00:00,JCR-70
41f7bbcefb8e320dd24bb19a0ec65d891fee4101,,jcr,2004-10-16 05:57:12,2005-03-18T16:55:03+00:00,JCR-62
8e30d8632e9e616f40998248ee6747b0b8cf894d,,jcr,2005-03-02 05:58:09,2005-04-01T09:23:37+00:00,JCR-9
f18c55c86005ca412ee051541f03dd903c199398,,jcr,2005-01-29 04:46:52,2005-02-10T18:08:27+00:00,JCR-42
643276a150006731ee05d2b53049e7814fb84142,,jcr,2004-11-07 01:40:33,2004-11-17T10:00:58+00:00,JCR-17
3c9cfa739b628eb6a82c1b7e6fadc627638ef9b7,,jcr,2005-02-22 07:03:31,2005-03-21T10:27:41+00:00,JCR-3
10c2f354605ef7c4b12690f62222319ef41152ba,,jcr,2004-11-17 23:00:58,2004-12-10T16:10:53+00:00,JCR-23
643276a150006731ee05d2b53049e7814fb84142,,jcr,2004-10-19 02:12:33,2004-11-17T10:00:58+00:00,JCR-18
968b5838ee9f650fcd1c420939c4ba9809a44012,,jcr,2004-10-22 06:17:01,2005-03-16T13:30:49+00:00,JCR-69
dcaaff96b5eb9953788ea1d0919c3adb652b1ff0,,jcr,2004-09-26 10:13:43,2005-02-22T14:00:36+00:00,JCR-47
4fa540b55e3852f64742bbe59e13fae9e9362956,,jcr,2004-10-02 02:08:24,2004-11-05T09:15:59+00:00,JCR-16
968b5838ee9f650fcd1c420939c4ba9809a44012,,jcr,2004-09-29 02:39:20,2005-03-16T13:30:49+00:00,JCR-6
