fixrevision,buggy_revision,project,szz_date,fix_date,issuecode
02e0ae52a866216193e375fbd646ceb1fae62db3,,derby,2004-08-27 02:13:46,2005-03-08T21:22:59+00:00,DERBY-1
02e0ae52a866216193e375fbd646ceb1fae62db3,,derby,2004-09-25 05:33:20,2005-03-08T21:22:59+00:00,DERBY-1
1adb9d7f1ea271f18a90a16b0fb2c5ff7ceab6a1,,derby,2004-08-27 02:13:46,2006-01-23T17:34:23+00:00,DERBY-1
38fe427c4417f3a0b743732a21a0190c27e54cd6,,derby,2005-12-07 07:49:14,2005-12-22T19:11:44+00:00,DERBY-1
38fe427c4417f3a0b743732a21a0190c27e54cd6,,derby,2004-08-27 02:13:46,2005-12-22T19:11:44+00:00,DERBY-1
444aa520e4a3394ded454ccc4e24962c2248570b,,derby,2004-08-27 02:13:46,2005-08-11T01:12:31+00:00,DERBY-1
444aa520e4a3394ded454ccc4e24962c2248570b,,derby,2004-09-24 09:30:27,2005-08-11T01:12:31+00:00,DERBY-1
4551a6e80849b99c76356caa9965b3dbbd889910,,derby,2004-08-27 02:13:46,2005-11-11T04:22:43+00:00,DERBY-1
4551a6e80849b99c76356caa9965b3dbbd889910,,derby,2004-09-24 09:30:27,2005-11-11T04:22:43+00:00,DERBY-1
86be8370d910665395663fc73a44f7137c297eaf,,derby,2005-01-08 08:32:37,2005-04-12T19:36:03+00:00,DERBY-1
8d753275f38ce7e5d4d4854cf58e70980632d82f,,derby,2004-12-16 19:20:35,2005-01-24T19:33:53+00:00,DERBY-1
b1f84c19ae958159101804d25df6c65e505b983c,,derby,2004-10-27 07:21:04,2005-05-13T18:35:33+00:00,DERBY-1
b1f84c19ae958159101804d25df6c65e505b983c,,derby,2004-11-12 20:39:22,2005-05-13T18:35:33+00:00,DERBY-1
b1f84c19ae958159101804d25df6c65e505b983c,,derby,2005-01-12 08:53:57,2005-05-13T18:35:33+00:00,DERBY-1
b1f84c19ae958159101804d25df6c65e505b983c,,derby,2004-08-27 02:13:46,2005-05-13T18:35:33+00:00,DERBY-1
b1f84c19ae958159101804d25df6c65e505b983c,,derby,2004-09-24 09:30:27,2005-05-13T18:35:33+00:00,DERBY-1
b1f84c19ae958159101804d25df6c65e505b983c,,derby,2004-12-16 19:20:35,2005-05-13T18:35:33+00:00,DERBY-1
b223f72332ca030737b21c4be8f0f2b664ac5038,,derby,2004-11-13 08:38:07,2005-03-17T02:35:44+00:00,DERBY-1
b223f72332ca030737b21c4be8f0f2b664ac5038,,derby,2004-08-27 02:13:46,2005-03-17T02:35:44+00:00,DERBY-1
b223f72332ca030737b21c4be8f0f2b664ac5038,,derby,2004-09-24 09:30:27,2005-03-17T02:35:44+00:00,DERBY-1
bbc927cf0f76893a5c0e351bacd81e1847c8b1ac,,derby,2004-08-27 02:13:46,2005-04-15T14:27:56+00:00,DERBY-1
bbc927cf0f76893a5c0e351bacd81e1847c8b1ac,,derby,2004-09-24 09:30:27,2005-04-15T14:27:56+00:00,DERBY-1
c8208e1e52faab858e13c37daba529ed7e93a89d,,derby,2005-12-03 06:23:56,2005-12-07T18:30:54+00:00,DERBY-1
c8208e1e52faab858e13c37daba529ed7e93a89d,,derby,2005-04-08 07:04:20,2005-12-07T18:30:54+00:00,DERBY-1
cce01c8fd3b39d577f3b518beea7330c3337a4fe,,derby,2004-11-12 20:39:22,2005-06-03T19:12:14+00:00,DERBY-1
cce01c8fd3b39d577f3b518beea7330c3337a4fe,,derby,2004-12-16 19:20:35,2005-06-03T19:12:14+00:00,DERBY-1
cd24ce30405c42deef8707a14ab4aa609bd3bd94,,derby,2004-11-12 20:39:22,2005-09-26T19:39:26+00:00,DERBY-1
cd24ce30405c42deef8707a14ab4aa609bd3bd94,,derby,2005-02-02 10:28:19,2005-09-26T19:39:26+00:00,DERBY-1
cd24ce30405c42deef8707a14ab4aa609bd3bd94,,derby,2004-10-29 17:56:29,2005-09-26T19:39:26+00:00,DERBY-1
fc30c5f24ff3b5bf8c3dc54eba28dc5e0d44aadf,,derby,2004-08-27 02:13:46,2006-01-16T19:19:26+00:00,DERBY-1
fc30c5f24ff3b5bf8c3dc54eba28dc5e0d44aadf,,derby,2004-09-24 09:30:27,2006-01-16T19:19:26+00:00,DERBY-1
b223f72332ca030737b21c4be8f0f2b664ac5038,,derby,2004-11-13 08:38:07,2005-03-17T02:35:44+00:00,DERBY-106
b223f72332ca030737b21c4be8f0f2b664ac5038,,derby,2004-08-27 02:13:46,2005-03-17T02:35:44+00:00,DERBY-106
b223f72332ca030737b21c4be8f0f2b664ac5038,,derby,2004-09-24 09:30:27,2005-03-17T02:35:44+00:00,DERBY-106
1adb9d7f1ea271f18a90a16b0fb2c5ff7ceab6a1,,derby,2004-08-27 02:13:46,2006-01-23T17:34:23+00:00,DERBY-12
8d753275f38ce7e5d4d4854cf58e70980632d82f,,derby,2004-12-16 19:20:35,2005-01-24T19:33:53+00:00,DERBY-12
cce01c8fd3b39d577f3b518beea7330c3337a4fe,,derby,2004-11-12 20:39:22,2005-06-03T19:12:14+00:00,DERBY-12
cce01c8fd3b39d577f3b518beea7330c3337a4fe,,derby,2004-12-16 19:20:35,2005-06-03T19:12:14+00:00,DERBY-12
cce01c8fd3b39d577f3b518beea7330c3337a4fe,,derby,2004-11-12 20:39:22,2005-06-03T19:12:14+00:00,DERBY-121
cce01c8fd3b39d577f3b518beea7330c3337a4fe,,derby,2004-12-16 19:20:35,2005-06-03T19:12:14+00:00,DERBY-121
8d753275f38ce7e5d4d4854cf58e70980632d82f,,derby,2004-12-16 19:20:35,2005-01-24T19:33:53+00:00,DERBY-122
1adb9d7f1ea271f18a90a16b0fb2c5ff7ceab6a1,,derby,2004-08-27 02:13:46,2006-01-23T17:34:23+00:00,DERBY-125
bbc927cf0f76893a5c0e351bacd81e1847c8b1ac,,derby,2004-08-27 02:13:46,2005-04-15T14:27:56+00:00,DERBY-13
bbc927cf0f76893a5c0e351bacd81e1847c8b1ac,,derby,2004-09-24 09:30:27,2005-04-15T14:27:56+00:00,DERBY-13
cd24ce30405c42deef8707a14ab4aa609bd3bd94,,derby,2004-11-12 20:39:22,2005-09-26T19:39:26+00:00,DERBY-14
cd24ce30405c42deef8707a14ab4aa609bd3bd94,,derby,2005-02-02 10:28:19,2005-09-26T19:39:26+00:00,DERBY-14
cd24ce30405c42deef8707a14ab4aa609bd3bd94,,derby,2004-10-29 17:56:29,2005-09-26T19:39:26+00:00,DERBY-14
cd24ce30405c42deef8707a14ab4aa609bd3bd94,,derby,2004-11-12 20:39:22,2005-09-26T19:39:26+00:00,DERBY-149
cd24ce30405c42deef8707a14ab4aa609bd3bd94,,derby,2005-02-02 10:28:19,2005-09-26T19:39:26+00:00,DERBY-149
cd24ce30405c42deef8707a14ab4aa609bd3bd94,,derby,2004-10-29 17:56:29,2005-09-26T19:39:26+00:00,DERBY-149
86be8370d910665395663fc73a44f7137c297eaf,,derby,2005-01-08 08:32:37,2005-04-12T19:36:03+00:00,DERBY-153
02e0ae52a866216193e375fbd646ceb1fae62db3,,derby,2004-08-27 02:13:46,2005-03-08T21:22:59+00:00,DERBY-158
02e0ae52a866216193e375fbd646ceb1fae62db3,,derby,2004-09-25 05:33:20,2005-03-08T21:22:59+00:00,DERBY-158
fc30c5f24ff3b5bf8c3dc54eba28dc5e0d44aadf,,derby,2004-08-27 02:13:46,2006-01-16T19:19:26+00:00,DERBY-170
fc30c5f24ff3b5bf8c3dc54eba28dc5e0d44aadf,,derby,2004-09-24 09:30:27,2006-01-16T19:19:26+00:00,DERBY-170
38fe427c4417f3a0b743732a21a0190c27e54cd6,,derby,2005-12-07 07:49:14,2005-12-22T19:11:44+00:00,DERBY-176
38fe427c4417f3a0b743732a21a0190c27e54cd6,,derby,2004-08-27 02:13:46,2005-12-22T19:11:44+00:00,DERBY-176
c8208e1e52faab858e13c37daba529ed7e93a89d,,derby,2005-12-03 06:23:56,2005-12-07T18:30:54+00:00,DERBY-176
c8208e1e52faab858e13c37daba529ed7e93a89d,,derby,2005-04-08 07:04:20,2005-12-07T18:30:54+00:00,DERBY-176
1d2a5693d7e9012d2fbdece7ec6adbc71ace9c1f,,derby,2005-01-12 08:53:57,2005-06-09T04:52:00+00:00,DERBY-2
1d2a5693d7e9012d2fbdece7ec6adbc71ace9c1f,,derby,2004-08-27 02:13:46,2005-06-09T04:52:00+00:00,DERBY-2
24bbe7571266740be5e4cc0e769c4e0e4018fa48,,derby,2004-08-27 02:13:46,2005-12-17T01:52:03+00:00,DERBY-2
24bbe7571266740be5e4cc0e769c4e0e4018fa48,,derby,2005-11-18 11:59:38,2005-12-17T01:52:03+00:00,DERBY-2
25f99f59e6268a1db9af0469b2b1a675d656da5f,,derby,2005-06-05 06:00:33,2005-10-20T05:06:37+00:00,DERBY-2
25f99f59e6268a1db9af0469b2b1a675d656da5f,,derby,2005-08-09 09:36:48,2005-10-20T05:06:37+00:00,DERBY-2
25f99f59e6268a1db9af0469b2b1a675d656da5f,,derby,2004-08-27 02:13:46,2005-10-20T05:06:37+00:00,DERBY-2
25f99f59e6268a1db9af0469b2b1a675d656da5f,,derby,2004-09-24 09:30:27,2005-10-20T05:06:37+00:00,DERBY-2
27e2c4b96fbf83274179f04c70aad6f7a9d58916,,derby,2005-05-12 07:46:30,2005-06-02T12:26:18+00:00,DERBY-2
27e2c4b96fbf83274179f04c70aad6f7a9d58916,,derby,2004-08-27 02:13:46,2005-06-02T12:26:18+00:00,DERBY-2
2abb2b2c1552b896917eff542578b56742e0a561,,derby,2005-06-03 00:26:18,2005-06-05T16:14:33+00:00,DERBY-2
2abb2b2c1552b896917eff542578b56742e0a561,,derby,2005-06-04 15:13:35,2005-06-05T16:14:33+00:00,DERBY-2
2abb2b2c1552b896917eff542578b56742e0a561,,derby,2004-08-27 02:13:46,2005-06-05T16:14:33+00:00,DERBY-2
2abb2b2c1552b896917eff542578b56742e0a561,,derby,2004-09-24 09:30:27,2005-06-05T16:14:33+00:00,DERBY-2
2fb955653a2fea98300eaefd9e91947f117b6bbb,,derby,2004-08-27 02:13:46,2006-01-09T18:23:46+00:00,DERBY-2
3108420e7ff549aeb7a3d8a78e15957702ed2146,,derby,2004-08-27 02:13:46,2005-05-11T00:13:08+00:00,DERBY-2
3108420e7ff549aeb7a3d8a78e15957702ed2146,,derby,2004-09-24 09:30:27,2005-05-11T00:13:08+00:00,DERBY-2
3292941ad5495aacef002003311e558b97178b78,,derby,2004-11-12 20:39:22,2005-09-07T20:57:03+00:00,DERBY-2
3292941ad5495aacef002003311e558b97178b78,,derby,2005-08-30 00:35:43,2005-09-07T20:57:03+00:00,DERBY-2
402725c7d705543fe537babc1575d33a5667774b,,derby,2005-12-17 14:52:03,2006-01-19T16:32:08+00:00,DERBY-2
402725c7d705543fe537babc1575d33a5667774b,,derby,2005-10-20 18:06:37,2006-01-19T16:32:08+00:00,DERBY-2
402725c7d705543fe537babc1575d33a5667774b,,derby,2005-11-18 11:59:38,2006-01-19T16:32:08+00:00,DERBY-2
402725c7d705543fe537babc1575d33a5667774b,,derby,2006-01-07 15:04:57,2006-01-19T16:32:08+00:00,DERBY-2
402725c7d705543fe537babc1575d33a5667774b,,derby,2004-09-24 09:30:27,2006-01-19T16:32:08+00:00,DERBY-2
402725c7d705543fe537babc1575d33a5667774b,,derby,2005-12-08 12:22:01,2006-01-19T16:32:08+00:00,DERBY-2
43261ea43ecc03a1506b4c1ce9cca69aeafaf15a,,derby,2004-08-27 02:13:46,2005-05-10T17:38:06+00:00,DERBY-2
43592363c669b58b6c64d11df587cb100bb343cc,,derby,2005-01-12 08:53:57,2005-05-30T05:36:14+00:00,DERBY-2
43592363c669b58b6c64d11df587cb100bb343cc,,derby,2004-08-27 02:13:46,2005-05-30T05:36:14+00:00,DERBY-2
43592363c669b58b6c64d11df587cb100bb343cc,,derby,2005-05-28 06:00:37,2005-05-30T05:36:14+00:00,DERBY-2
43592363c669b58b6c64d11df587cb100bb343cc,,derby,2004-10-29 17:56:29,2005-05-30T05:36:14+00:00,DERBY-2
43592363c669b58b6c64d11df587cb100bb343cc,,derby,2004-09-24 09:30:27,2005-05-30T05:36:14+00:00,DERBY-2
47e6fb7f23ae68bdd7bc6c9b63540bf0ce8dc240,,derby,2004-09-24 09:30:27,2005-05-02T15:51:48+00:00,DERBY-2
4d80643f9fa023f88f5e638125106ba6d5b4def8,,derby,2004-08-27 02:13:46,2005-06-13T21:07:57+00:00,DERBY-2
4d80643f9fa023f88f5e638125106ba6d5b4def8,,derby,2004-09-24 09:30:27,2005-06-13T21:07:57+00:00,DERBY-2
4d80643f9fa023f88f5e638125106ba6d5b4def8,,derby,2005-01-11 07:51:10,2005-06-13T21:07:57+00:00,DERBY-2
5087be8daf12bae37969533dbe11d8564b541895,,derby,2005-07-01 05:37:35,2005-11-11T08:41:31+00:00,DERBY-2
5087be8daf12bae37969533dbe11d8564b541895,,derby,2004-08-27 02:13:46,2005-11-11T08:41:31+00:00,DERBY-2
5087be8daf12bae37969533dbe11d8564b541895,,derby,2005-05-13 03:53:20,2005-11-11T08:41:31+00:00,DERBY-2
5087be8daf12bae37969533dbe11d8564b541895,,derby,2005-04-13 05:45:15,2005-11-11T08:41:31+00:00,DERBY-2
5087be8daf12bae37969533dbe11d8564b541895,,derby,2004-09-24 09:30:27,2005-11-11T08:41:31+00:00,DERBY-2
5087be8daf12bae37969533dbe11d8564b541895,,derby,2005-05-24 07:33:33,2005-11-11T08:41:31+00:00,DERBY-2
54366745a580dc2e37716cef5464201945ded261,,derby,2005-01-18 11:23:26,2005-05-12T23:57:17+00:00,DERBY-2
54366745a580dc2e37716cef5464201945ded261,,derby,2004-08-27 02:13:46,2005-05-12T23:57:17+00:00,DERBY-2
54366745a580dc2e37716cef5464201945ded261,,derby,2004-09-24 09:30:27,2005-05-12T23:57:17+00:00,DERBY-2
64b55c2622cf2180864d3b4964b9250f9c407b6e,,derby,2006-01-17 13:10:58,2006-01-18T21:55:36+00:00,DERBY-2
64ec5e2d801bacc4c3909d86391c12fcf95c8123,,derby,2005-11-18 11:59:38,2005-12-06T19:47:31+00:00,DERBY-2
6558c147f177e23062ab341894499333c2c6aa1a,,derby,2005-01-26 23:27:56,2005-06-15T20:49:32+00:00,DERBY-2
6558c147f177e23062ab341894499333c2c6aa1a,,derby,2004-11-12 20:39:22,2005-06-15T20:49:32+00:00,DERBY-2
6558c147f177e23062ab341894499333c2c6aa1a,,derby,2005-04-26 07:29:37,2005-06-15T20:49:32+00:00,DERBY-2
7739ad68f511089a94b75545c01e1e9a1d1fc225,,derby,2005-10-20 18:06:37,2005-10-31T23:42:24+00:00,DERBY-2
88c25bba738b45794bb33fe43e46ad937b54cf4c,,derby,2005-06-04 07:35:33,2005-06-09T05:26:41+00:00,DERBY-2
896f5748e0a4b3c426a237bf63fcc1f634ac3ab5,,derby,2004-08-27 02:13:46,2005-09-21T07:24:21+00:00,DERBY-2
a9d1988aaa477fa93f8f861894d6d03a9888d27d,,derby,2005-02-02 10:28:19,2005-07-19T13:21:52+00:00,DERBY-2
b4b8d3b40927d9321a9cbc75d7e2a84e0d40f080,,derby,2005-10-20 18:06:37,2005-11-17T22:59:38+00:00,DERBY-2
b4b8d3b40927d9321a9cbc75d7e2a84e0d40f080,,derby,2004-09-24 09:30:27,2005-11-17T22:59:38+00:00,DERBY-2
cff2860a8202b734c1aa63ecc0f98cfcacb611ef,,derby,2005-04-29 07:05:42,2006-01-17T00:10:58+00:00,DERBY-2
cff2860a8202b734c1aa63ecc0f98cfcacb611ef,,derby,2005-05-02 18:25:59,2006-01-17T00:10:58+00:00,DERBY-2
e3acc4a021ccd91d873a1113ad988fb9e026acc0,,derby,2005-01-12 08:53:57,2005-08-29T12:35:43+00:00,DERBY-2
e3acc4a021ccd91d873a1113ad988fb9e026acc0,,derby,2005-05-02 18:25:59,2005-08-29T12:35:43+00:00,DERBY-2
ee2a8604ec688264529348558c0109707e41a084,,derby,2005-12-14 06:41:06,2006-01-12T10:09:50+00:00,DERBY-2
ee2a8604ec688264529348558c0109707e41a084,,derby,2005-10-20 10:47:26,2006-01-12T10:09:50+00:00,DERBY-2
ee2a8604ec688264529348558c0109707e41a084,,derby,2005-05-12 07:40:57,2006-01-12T10:09:50+00:00,DERBY-2
ee2a8604ec688264529348558c0109707e41a084,,derby,2004-08-27 02:13:46,2006-01-12T10:09:50+00:00,DERBY-2
ee2a8604ec688264529348558c0109707e41a084,,derby,2004-09-24 09:30:27,2006-01-12T10:09:50+00:00,DERBY-2
fb57a7b21ea904cc7cf6057f95a2e9d193f2493d,,derby,2004-08-27 02:13:46,2006-01-23T09:45:07+00:00,DERBY-2
fb57a7b21ea904cc7cf6057f95a2e9d193f2493d,,derby,2004-09-24 09:30:27,2006-01-23T09:45:07+00:00,DERBY-2
fbb886683cd1f71a77f26137b90bca3989275c78,,derby,2005-10-20 18:06:37,2005-12-07T23:22:01+00:00,DERBY-2
fbb886683cd1f71a77f26137b90bca3989275c78,,derby,2004-08-27 02:13:46,2005-12-07T23:22:01+00:00,DERBY-2
fbb886683cd1f71a77f26137b90bca3989275c78,,derby,2005-11-18 11:59:38,2005-12-07T23:22:01+00:00,DERBY-2
fbb886683cd1f71a77f26137b90bca3989275c78,,derby,2004-09-24 09:30:27,2005-12-07T23:22:01+00:00,DERBY-2
ff0fafb5f133508a108ea1a946548b5707af56c9,,derby,2005-01-12 08:53:57,2005-06-30T20:59:25+00:00,DERBY-2
ff0fafb5f133508a108ea1a946548b5707af56c9,,derby,2005-05-02 18:25:59,2005-06-30T20:59:25+00:00,DERBY-2
ff0fafb5f133508a108ea1a946548b5707af56c9,,derby,2004-08-27 02:13:46,2005-06-30T20:59:25+00:00,DERBY-2
ff0fafb5f133508a108ea1a946548b5707af56c9,,derby,2004-09-24 09:30:27,2005-06-30T20:59:25+00:00,DERBY-2
ff0fafb5f133508a108ea1a946548b5707af56c9,,derby,2004-09-25 05:33:20,2005-06-30T20:59:25+00:00,DERBY-2
3108420e7ff549aeb7a3d8a78e15957702ed2146,,derby,2004-08-27 02:13:46,2005-05-11T00:13:08+00:00,DERBY-21
3108420e7ff549aeb7a3d8a78e15957702ed2146,,derby,2004-09-24 09:30:27,2005-05-11T00:13:08+00:00,DERBY-21
3292941ad5495aacef002003311e558b97178b78,,derby,2004-11-12 20:39:22,2005-09-07T20:57:03+00:00,DERBY-21
3292941ad5495aacef002003311e558b97178b78,,derby,2005-08-30 00:35:43,2005-09-07T20:57:03+00:00,DERBY-21
64b55c2622cf2180864d3b4964b9250f9c407b6e,,derby,2006-01-17 13:10:58,2006-01-18T21:55:36+00:00,DERBY-21
a9d1988aaa477fa93f8f861894d6d03a9888d27d,,derby,2005-02-02 10:28:19,2005-07-19T13:21:52+00:00,DERBY-21
cff2860a8202b734c1aa63ecc0f98cfcacb611ef,,derby,2005-04-29 07:05:42,2006-01-17T00:10:58+00:00,DERBY-21
cff2860a8202b734c1aa63ecc0f98cfcacb611ef,,derby,2005-05-02 18:25:59,2006-01-17T00:10:58+00:00,DERBY-21
e3acc4a021ccd91d873a1113ad988fb9e026acc0,,derby,2005-01-12 08:53:57,2005-08-29T12:35:43+00:00,DERBY-21
e3acc4a021ccd91d873a1113ad988fb9e026acc0,,derby,2005-05-02 18:25:59,2005-08-29T12:35:43+00:00,DERBY-21
ee2a8604ec688264529348558c0109707e41a084,,derby,2005-12-14 06:41:06,2006-01-12T10:09:50+00:00,DERBY-21
ee2a8604ec688264529348558c0109707e41a084,,derby,2005-10-20 10:47:26,2006-01-12T10:09:50+00:00,DERBY-21
ee2a8604ec688264529348558c0109707e41a084,,derby,2005-05-12 07:40:57,2006-01-12T10:09:50+00:00,DERBY-21
ee2a8604ec688264529348558c0109707e41a084,,derby,2004-08-27 02:13:46,2006-01-12T10:09:50+00:00,DERBY-21
ee2a8604ec688264529348558c0109707e41a084,,derby,2004-09-24 09:30:27,2006-01-12T10:09:50+00:00,DERBY-21
3292941ad5495aacef002003311e558b97178b78,,derby,2004-11-12 20:39:22,2005-09-07T20:57:03+00:00,DERBY-213
3292941ad5495aacef002003311e558b97178b78,,derby,2005-08-30 00:35:43,2005-09-07T20:57:03+00:00,DERBY-213
e3acc4a021ccd91d873a1113ad988fb9e026acc0,,derby,2005-01-12 08:53:57,2005-08-29T12:35:43+00:00,DERBY-213
e3acc4a021ccd91d873a1113ad988fb9e026acc0,,derby,2005-05-02 18:25:59,2005-08-29T12:35:43+00:00,DERBY-213
a9d1988aaa477fa93f8f861894d6d03a9888d27d,,derby,2005-02-02 10:28:19,2005-07-19T13:21:52+00:00,DERBY-217
24bbe7571266740be5e4cc0e769c4e0e4018fa48,,derby,2004-08-27 02:13:46,2005-12-17T01:52:03+00:00,DERBY-23
24bbe7571266740be5e4cc0e769c4e0e4018fa48,,derby,2005-11-18 11:59:38,2005-12-17T01:52:03+00:00,DERBY-23
25f99f59e6268a1db9af0469b2b1a675d656da5f,,derby,2005-06-05 06:00:33,2005-10-20T05:06:37+00:00,DERBY-23
25f99f59e6268a1db9af0469b2b1a675d656da5f,,derby,2005-08-09 09:36:48,2005-10-20T05:06:37+00:00,DERBY-23
25f99f59e6268a1db9af0469b2b1a675d656da5f,,derby,2004-08-27 02:13:46,2005-10-20T05:06:37+00:00,DERBY-23
25f99f59e6268a1db9af0469b2b1a675d656da5f,,derby,2004-09-24 09:30:27,2005-10-20T05:06:37+00:00,DERBY-23
402725c7d705543fe537babc1575d33a5667774b,,derby,2005-12-17 14:52:03,2006-01-19T16:32:08+00:00,DERBY-23
402725c7d705543fe537babc1575d33a5667774b,,derby,2005-10-20 18:06:37,2006-01-19T16:32:08+00:00,DERBY-23
402725c7d705543fe537babc1575d33a5667774b,,derby,2005-11-18 11:59:38,2006-01-19T16:32:08+00:00,DERBY-23
402725c7d705543fe537babc1575d33a5667774b,,derby,2006-01-07 15:04:57,2006-01-19T16:32:08+00:00,DERBY-23
402725c7d705543fe537babc1575d33a5667774b,,derby,2004-09-24 09:30:27,2006-01-19T16:32:08+00:00,DERBY-23
402725c7d705543fe537babc1575d33a5667774b,,derby,2005-12-08 12:22:01,2006-01-19T16:32:08+00:00,DERBY-23
43261ea43ecc03a1506b4c1ce9cca69aeafaf15a,,derby,2004-08-27 02:13:46,2005-05-10T17:38:06+00:00,DERBY-23
47e6fb7f23ae68bdd7bc6c9b63540bf0ce8dc240,,derby,2004-09-24 09:30:27,2005-05-02T15:51:48+00:00,DERBY-23
5087be8daf12bae37969533dbe11d8564b541895,,derby,2005-07-01 05:37:35,2005-11-11T08:41:31+00:00,DERBY-23
5087be8daf12bae37969533dbe11d8564b541895,,derby,2004-08-27 02:13:46,2005-11-11T08:41:31+00:00,DERBY-23
5087be8daf12bae37969533dbe11d8564b541895,,derby,2005-05-13 03:53:20,2005-11-11T08:41:31+00:00,DERBY-23
5087be8daf12bae37969533dbe11d8564b541895,,derby,2005-04-13 05:45:15,2005-11-11T08:41:31+00:00,DERBY-23
5087be8daf12bae37969533dbe11d8564b541895,,derby,2004-09-24 09:30:27,2005-11-11T08:41:31+00:00,DERBY-23
5087be8daf12bae37969533dbe11d8564b541895,,derby,2005-05-24 07:33:33,2005-11-11T08:41:31+00:00,DERBY-23
54366745a580dc2e37716cef5464201945ded261,,derby,2005-01-18 11:23:26,2005-05-12T23:57:17+00:00,DERBY-23
54366745a580dc2e37716cef5464201945ded261,,derby,2004-08-27 02:13:46,2005-05-12T23:57:17+00:00,DERBY-23
54366745a580dc2e37716cef5464201945ded261,,derby,2004-09-24 09:30:27,2005-05-12T23:57:17+00:00,DERBY-23
64ec5e2d801bacc4c3909d86391c12fcf95c8123,,derby,2005-11-18 11:59:38,2005-12-06T19:47:31+00:00,DERBY-23
7739ad68f511089a94b75545c01e1e9a1d1fc225,,derby,2005-10-20 18:06:37,2005-10-31T23:42:24+00:00,DERBY-23
896f5748e0a4b3c426a237bf63fcc1f634ac3ab5,,derby,2004-08-27 02:13:46,2005-09-21T07:24:21+00:00,DERBY-23
b4b8d3b40927d9321a9cbc75d7e2a84e0d40f080,,derby,2005-10-20 18:06:37,2005-11-17T22:59:38+00:00,DERBY-23
b4b8d3b40927d9321a9cbc75d7e2a84e0d40f080,,derby,2004-09-24 09:30:27,2005-11-17T22:59:38+00:00,DERBY-23
fb57a7b21ea904cc7cf6057f95a2e9d193f2493d,,derby,2004-08-27 02:13:46,2006-01-23T09:45:07+00:00,DERBY-23
fb57a7b21ea904cc7cf6057f95a2e9d193f2493d,,derby,2004-09-24 09:30:27,2006-01-23T09:45:07+00:00,DERBY-23
fbb886683cd1f71a77f26137b90bca3989275c78,,derby,2005-10-20 18:06:37,2005-12-07T23:22:01+00:00,DERBY-23
fbb886683cd1f71a77f26137b90bca3989275c78,,derby,2004-08-27 02:13:46,2005-12-07T23:22:01+00:00,DERBY-23
fbb886683cd1f71a77f26137b90bca3989275c78,,derby,2005-11-18 11:59:38,2005-12-07T23:22:01+00:00,DERBY-23
fbb886683cd1f71a77f26137b90bca3989275c78,,derby,2004-09-24 09:30:27,2005-12-07T23:22:01+00:00,DERBY-23
47e6fb7f23ae68bdd7bc6c9b63540bf0ce8dc240,,derby,2004-09-24 09:30:27,2005-05-02T15:51:48+00:00,DERBY-235
54366745a580dc2e37716cef5464201945ded261,,derby,2005-01-18 11:23:26,2005-05-12T23:57:17+00:00,DERBY-236
54366745a580dc2e37716cef5464201945ded261,,derby,2004-08-27 02:13:46,2005-05-12T23:57:17+00:00,DERBY-236
54366745a580dc2e37716cef5464201945ded261,,derby,2004-09-24 09:30:27,2005-05-12T23:57:17+00:00,DERBY-236
43261ea43ecc03a1506b4c1ce9cca69aeafaf15a,,derby,2004-08-27 02:13:46,2005-05-10T17:38:06+00:00,DERBY-237
1d2a5693d7e9012d2fbdece7ec6adbc71ace9c1f,,derby,2005-01-12 08:53:57,2005-06-09T04:52:00+00:00,DERBY-24
1d2a5693d7e9012d2fbdece7ec6adbc71ace9c1f,,derby,2004-08-27 02:13:46,2005-06-09T04:52:00+00:00,DERBY-24
6558c147f177e23062ab341894499333c2c6aa1a,,derby,2005-01-26 23:27:56,2005-06-15T20:49:32+00:00,DERBY-24
6558c147f177e23062ab341894499333c2c6aa1a,,derby,2004-11-12 20:39:22,2005-06-15T20:49:32+00:00,DERBY-24
6558c147f177e23062ab341894499333c2c6aa1a,,derby,2005-04-26 07:29:37,2005-06-15T20:49:32+00:00,DERBY-24
88c25bba738b45794bb33fe43e46ad937b54cf4c,,derby,2005-06-04 07:35:33,2005-06-09T05:26:41+00:00,DERBY-24
88c25bba738b45794bb33fe43e46ad937b54cf4c,,derby,2005-06-04 07:35:33,2005-06-09T05:26:41+00:00,DERBY-246
43592363c669b58b6c64d11df587cb100bb343cc,,derby,2005-01-12 08:53:57,2005-05-30T05:36:14+00:00,DERBY-255
43592363c669b58b6c64d11df587cb100bb343cc,,derby,2004-08-27 02:13:46,2005-05-30T05:36:14+00:00,DERBY-255
43592363c669b58b6c64d11df587cb100bb343cc,,derby,2005-05-28 06:00:37,2005-05-30T05:36:14+00:00,DERBY-255
43592363c669b58b6c64d11df587cb100bb343cc,,derby,2004-10-29 17:56:29,2005-05-30T05:36:14+00:00,DERBY-255
43592363c669b58b6c64d11df587cb100bb343cc,,derby,2004-09-24 09:30:27,2005-05-30T05:36:14+00:00,DERBY-255
4d80643f9fa023f88f5e638125106ba6d5b4def8,,derby,2004-08-27 02:13:46,2005-06-13T21:07:57+00:00,DERBY-258
4d80643f9fa023f88f5e638125106ba6d5b4def8,,derby,2004-09-24 09:30:27,2005-06-13T21:07:57+00:00,DERBY-258
4d80643f9fa023f88f5e638125106ba6d5b4def8,,derby,2005-01-11 07:51:10,2005-06-13T21:07:57+00:00,DERBY-258
2fb955653a2fea98300eaefd9e91947f117b6bbb,,derby,2004-08-27 02:13:46,2006-01-09T18:23:46+00:00,DERBY-298
a4e8535184551ed79c73e601f89ef2deb81d1ddc,,derby,2004-08-27 02:13:46,2005-06-13T15:18:51+00:00,DERBY-30
a4e8535184551ed79c73e601f89ef2deb81d1ddc,,derby,2004-09-24 09:30:27,2005-06-13T15:18:51+00:00,DERBY-30
a4e8535184551ed79c73e601f89ef2deb81d1ddc,,derby,2004-08-27 02:13:46,2005-06-13T15:18:51+00:00,DERBY-302
a4e8535184551ed79c73e601f89ef2deb81d1ddc,,derby,2004-09-24 09:30:27,2005-06-13T15:18:51+00:00,DERBY-302
fd58c3c2b348e9b6c003bdc47ef4dd6a4574b68c,,derby,2004-08-27 02:13:46,2005-06-03T17:42:57+00:00,DERBY-319
1fa1fd041f06364b3941e4f19f936444e37d052f,,derby,2005-06-07 07:19:34,2005-06-08T22:00:43+00:00,DERBY-33
1fa1fd041f06364b3941e4f19f936444e37d052f,,derby,2004-08-27 02:13:46,2005-06-08T22:00:43+00:00,DERBY-33
75fb1cf8f8d937d8da37d840b3c565ced25b5058,,derby,2004-08-27 02:13:46,2005-08-08T21:36:48+00:00,DERBY-33
75fb1cf8f8d937d8da37d840b3c565ced25b5058,,derby,2004-09-24 09:30:27,2005-08-08T21:36:48+00:00,DERBY-33
88c25bba738b45794bb33fe43e46ad937b54cf4c,,derby,2005-06-04 07:35:33,2005-06-09T05:26:41+00:00,DERBY-33
aaea35714b16a9df552eb9d0d624d9404763f92e,,derby,2005-05-24 08:55:15,2005-10-28T11:51:50+00:00,DERBY-33
aaea35714b16a9df552eb9d0d624d9404763f92e,,derby,2005-01-26 10:57:01,2005-10-28T11:51:50+00:00,DERBY-33
aaea35714b16a9df552eb9d0d624d9404763f92e,,derby,2005-06-05 06:00:33,2005-10-28T11:51:50+00:00,DERBY-33
aaea35714b16a9df552eb9d0d624d9404763f92e,,derby,2005-06-16 05:11:01,2005-10-28T11:51:50+00:00,DERBY-33
aaea35714b16a9df552eb9d0d624d9404763f92e,,derby,2005-05-03 19:46:25,2005-10-28T11:51:50+00:00,DERBY-33
aaea35714b16a9df552eb9d0d624d9404763f92e,,derby,2005-09-10 07:50:58,2005-10-28T11:51:50+00:00,DERBY-33
aaea35714b16a9df552eb9d0d624d9404763f92e,,derby,2005-02-09 10:57:55,2005-10-28T11:51:50+00:00,DERBY-33
aaea35714b16a9df552eb9d0d624d9404763f92e,,derby,2005-01-08 08:32:37,2005-10-28T11:51:50+00:00,DERBY-33
aaea35714b16a9df552eb9d0d624d9404763f92e,,derby,2005-10-07 07:06:47,2005-10-28T11:51:50+00:00,DERBY-33
aaea35714b16a9df552eb9d0d624d9404763f92e,,derby,2005-02-13 11:51:10,2005-10-28T11:51:50+00:00,DERBY-33
aaea35714b16a9df552eb9d0d624d9404763f92e,,derby,2005-03-03 14:30:05,2005-10-28T11:51:50+00:00,DERBY-33
aaea35714b16a9df552eb9d0d624d9404763f92e,,derby,2005-05-11 12:13:08,2005-10-28T11:51:50+00:00,DERBY-33
aaea35714b16a9df552eb9d0d624d9404763f92e,,derby,2005-05-12 12:09:32,2005-10-28T11:51:50+00:00,DERBY-33
aaea35714b16a9df552eb9d0d624d9404763f92e,,derby,2005-07-30 12:07:57,2005-10-28T11:51:50+00:00,DERBY-33
aaea35714b16a9df552eb9d0d624d9404763f92e,,derby,2005-01-07 14:06:42,2005-10-28T11:51:50+00:00,DERBY-33
aaea35714b16a9df552eb9d0d624d9404763f92e,,derby,2004-11-12 09:18:12,2005-10-28T11:51:50+00:00,DERBY-33
aaea35714b16a9df552eb9d0d624d9404763f92e,,derby,2005-05-14 05:34:36,2005-10-28T11:51:50+00:00,DERBY-33
aaea35714b16a9df552eb9d0d624d9404763f92e,,derby,2005-04-21 12:25:03,2005-10-28T11:51:50+00:00,DERBY-33
aaea35714b16a9df552eb9d0d624d9404763f92e,,derby,2005-04-13 07:36:03,2005-10-28T11:51:50+00:00,DERBY-33
aaea35714b16a9df552eb9d0d624d9404763f92e,,derby,2005-05-18 10:48:08,2005-10-28T11:51:50+00:00,DERBY-33
aaea35714b16a9df552eb9d0d624d9404763f92e,,derby,2004-08-27 02:13:46,2005-10-28T11:51:50+00:00,DERBY-33
aaea35714b16a9df552eb9d0d624d9404763f92e,,derby,2005-05-11 04:30:08,2005-10-28T11:51:50+00:00,DERBY-33
aaea35714b16a9df552eb9d0d624d9404763f92e,,derby,2005-08-27 10:00:39,2005-10-28T11:51:50+00:00,DERBY-33
aaea35714b16a9df552eb9d0d624d9404763f92e,,derby,2005-02-04 07:45:10,2005-10-28T11:51:50+00:00,DERBY-33
aaea35714b16a9df552eb9d0d624d9404763f92e,,derby,2005-04-02 12:12:48,2005-10-28T11:51:50+00:00,DERBY-33
aaea35714b16a9df552eb9d0d624d9404763f92e,,derby,2005-02-19 13:50:43,2005-10-28T11:51:50+00:00,DERBY-33
aaea35714b16a9df552eb9d0d624d9404763f92e,,derby,2005-03-17 15:35:44,2005-10-28T11:51:50+00:00,DERBY-33
aaea35714b16a9df552eb9d0d624d9404763f92e,,derby,2005-04-16 02:27:56,2005-10-28T11:51:50+00:00,DERBY-33
aaea35714b16a9df552eb9d0d624d9404763f92e,,derby,2005-06-29 12:37:24,2005-10-28T11:51:50+00:00,DERBY-33
aaea35714b16a9df552eb9d0d624d9404763f92e,,derby,2005-06-04 07:12:14,2005-10-28T11:51:50+00:00,DERBY-33
aaea35714b16a9df552eb9d0d624d9404763f92e,,derby,2005-04-01 11:55:44,2005-10-28T11:51:50+00:00,DERBY-33
aaea35714b16a9df552eb9d0d624d9404763f92e,,derby,2005-06-10 09:58:36,2005-10-28T11:51:50+00:00,DERBY-33
aaea35714b16a9df552eb9d0d624d9404763f92e,,derby,2004-09-24 09:30:27,2005-10-28T11:51:50+00:00,DERBY-33
aaea35714b16a9df552eb9d0d624d9404763f92e,,derby,2005-05-14 10:51:08,2005-10-28T11:51:50+00:00,DERBY-33
aaea35714b16a9df552eb9d0d624d9404763f92e,,derby,2005-05-24 08:55:15,2005-10-28T11:51:50+00:00,DERBY-330
aaea35714b16a9df552eb9d0d624d9404763f92e,,derby,2005-01-26 10:57:01,2005-10-28T11:51:50+00:00,DERBY-330
aaea35714b16a9df552eb9d0d624d9404763f92e,,derby,2005-06-05 06:00:33,2005-10-28T11:51:50+00:00,DERBY-330
aaea35714b16a9df552eb9d0d624d9404763f92e,,derby,2005-06-16 05:11:01,2005-10-28T11:51:50+00:00,DERBY-330
aaea35714b16a9df552eb9d0d624d9404763f92e,,derby,2005-05-03 19:46:25,2005-10-28T11:51:50+00:00,DERBY-330
aaea35714b16a9df552eb9d0d624d9404763f92e,,derby,2005-09-10 07:50:58,2005-10-28T11:51:50+00:00,DERBY-330
aaea35714b16a9df552eb9d0d624d9404763f92e,,derby,2005-02-09 10:57:55,2005-10-28T11:51:50+00:00,DERBY-330
aaea35714b16a9df552eb9d0d624d9404763f92e,,derby,2005-01-08 08:32:37,2005-10-28T11:51:50+00:00,DERBY-330
aaea35714b16a9df552eb9d0d624d9404763f92e,,derby,2005-10-07 07:06:47,2005-10-28T11:51:50+00:00,DERBY-330
aaea35714b16a9df552eb9d0d624d9404763f92e,,derby,2005-02-13 11:51:10,2005-10-28T11:51:50+00:00,DERBY-330
aaea35714b16a9df552eb9d0d624d9404763f92e,,derby,2005-03-03 14:30:05,2005-10-28T11:51:50+00:00,DERBY-330
aaea35714b16a9df552eb9d0d624d9404763f92e,,derby,2005-05-11 12:13:08,2005-10-28T11:51:50+00:00,DERBY-330
aaea35714b16a9df552eb9d0d624d9404763f92e,,derby,2005-05-12 12:09:32,2005-10-28T11:51:50+00:00,DERBY-330
aaea35714b16a9df552eb9d0d624d9404763f92e,,derby,2005-07-30 12:07:57,2005-10-28T11:51:50+00:00,DERBY-330
aaea35714b16a9df552eb9d0d624d9404763f92e,,derby,2005-01-07 14:06:42,2005-10-28T11:51:50+00:00,DERBY-330
aaea35714b16a9df552eb9d0d624d9404763f92e,,derby,2004-11-12 09:18:12,2005-10-28T11:51:50+00:00,DERBY-330
aaea35714b16a9df552eb9d0d624d9404763f92e,,derby,2005-05-14 05:34:36,2005-10-28T11:51:50+00:00,DERBY-330
aaea35714b16a9df552eb9d0d624d9404763f92e,,derby,2005-04-21 12:25:03,2005-10-28T11:51:50+00:00,DERBY-330
aaea35714b16a9df552eb9d0d624d9404763f92e,,derby,2005-04-13 07:36:03,2005-10-28T11:51:50+00:00,DERBY-330
aaea35714b16a9df552eb9d0d624d9404763f92e,,derby,2005-05-18 10:48:08,2005-10-28T11:51:50+00:00,DERBY-330
aaea35714b16a9df552eb9d0d624d9404763f92e,,derby,2004-08-27 02:13:46,2005-10-28T11:51:50+00:00,DERBY-330
aaea35714b16a9df552eb9d0d624d9404763f92e,,derby,2005-05-11 04:30:08,2005-10-28T11:51:50+00:00,DERBY-330
aaea35714b16a9df552eb9d0d624d9404763f92e,,derby,2005-08-27 10:00:39,2005-10-28T11:51:50+00:00,DERBY-330
aaea35714b16a9df552eb9d0d624d9404763f92e,,derby,2005-02-04 07:45:10,2005-10-28T11:51:50+00:00,DERBY-330
aaea35714b16a9df552eb9d0d624d9404763f92e,,derby,2005-04-02 12:12:48,2005-10-28T11:51:50+00:00,DERBY-330
aaea35714b16a9df552eb9d0d624d9404763f92e,,derby,2005-02-19 13:50:43,2005-10-28T11:51:50+00:00,DERBY-330
aaea35714b16a9df552eb9d0d624d9404763f92e,,derby,2005-03-17 15:35:44,2005-10-28T11:51:50+00:00,DERBY-330
aaea35714b16a9df552eb9d0d624d9404763f92e,,derby,2005-04-16 02:27:56,2005-10-28T11:51:50+00:00,DERBY-330
aaea35714b16a9df552eb9d0d624d9404763f92e,,derby,2005-06-29 12:37:24,2005-10-28T11:51:50+00:00,DERBY-330
aaea35714b16a9df552eb9d0d624d9404763f92e,,derby,2005-06-04 07:12:14,2005-10-28T11:51:50+00:00,DERBY-330
aaea35714b16a9df552eb9d0d624d9404763f92e,,derby,2005-04-01 11:55:44,2005-10-28T11:51:50+00:00,DERBY-330
aaea35714b16a9df552eb9d0d624d9404763f92e,,derby,2005-06-10 09:58:36,2005-10-28T11:51:50+00:00,DERBY-330
aaea35714b16a9df552eb9d0d624d9404763f92e,,derby,2004-09-24 09:30:27,2005-10-28T11:51:50+00:00,DERBY-330
aaea35714b16a9df552eb9d0d624d9404763f92e,,derby,2005-05-14 10:51:08,2005-10-28T11:51:50+00:00,DERBY-330
75fb1cf8f8d937d8da37d840b3c565ced25b5058,,derby,2004-08-27 02:13:46,2005-08-08T21:36:48+00:00,DERBY-336
75fb1cf8f8d937d8da37d840b3c565ced25b5058,,derby,2004-09-24 09:30:27,2005-08-08T21:36:48+00:00,DERBY-336
1fa1fd041f06364b3941e4f19f936444e37d052f,,derby,2005-06-07 07:19:34,2005-06-08T22:00:43+00:00,DERBY-337
1fa1fd041f06364b3941e4f19f936444e37d052f,,derby,2004-08-27 02:13:46,2005-06-08T22:00:43+00:00,DERBY-337
88c25bba738b45794bb33fe43e46ad937b54cf4c,,derby,2005-06-04 07:35:33,2005-06-09T05:26:41+00:00,DERBY-339
9ce79e7d9a531bb85c3b5200f8c4b36c652adcfe,,derby,2004-08-27 02:13:46,2005-06-09T12:57:25+00:00,DERBY-34
9ce79e7d9a531bb85c3b5200f8c4b36c652adcfe,,derby,2004-09-24 09:30:27,2005-06-09T12:57:25+00:00,DERBY-34
55b25e3ef9ebcddb528716cd2083da05a2359d98,,derby,2004-08-27 02:13:46,2005-09-02T21:57:25+00:00,DERBY-35
55b25e3ef9ebcddb528716cd2083da05a2359d98,,derby,2004-09-24 09:30:27,2005-09-02T21:57:25+00:00,DERBY-35
55b25e3ef9ebcddb528716cd2083da05a2359d98,,derby,2004-08-27 02:13:46,2005-09-02T21:57:25+00:00,DERBY-353
55b25e3ef9ebcddb528716cd2083da05a2359d98,,derby,2004-09-24 09:30:27,2005-09-02T21:57:25+00:00,DERBY-353
bd5419873c4131c092c59b1c87d252082bea2a24,,derby,2005-06-05 06:00:33,2005-06-29T00:37:24+00:00,DERBY-361
bd5419873c4131c092c59b1c87d252082bea2a24,,derby,2004-08-27 02:13:46,2005-06-29T00:37:24+00:00,DERBY-361
bd5419873c4131c092c59b1c87d252082bea2a24,,derby,2005-04-16 02:27:56,2005-06-29T00:37:24+00:00,DERBY-361
f578f070790bf9cec5e2c603f056364d21f882a3,,derby,2005-03-17 10:15:46,2005-06-22T03:02:54+00:00,DERBY-366
f578f070790bf9cec5e2c603f056364d21f882a3,,derby,2004-11-12 20:39:22,2005-06-22T03:02:54+00:00,DERBY-366
f578f070790bf9cec5e2c603f056364d21f882a3,,derby,2005-01-12 08:53:57,2005-06-22T03:02:54+00:00,DERBY-366
f578f070790bf9cec5e2c603f056364d21f882a3,,derby,2004-08-27 02:13:46,2005-06-22T03:02:54+00:00,DERBY-366
f578f070790bf9cec5e2c603f056364d21f882a3,,derby,2004-09-24 09:30:27,2005-06-22T03:02:54+00:00,DERBY-366
a36fdb788ce7b9f2bec78784e44dc11150571af2,,derby,2005-05-02 18:25:59,2005-10-01T04:30:43+00:00,DERBY-374
a36fdb788ce7b9f2bec78784e44dc11150571af2,,derby,2005-09-16 00:49:14,2005-10-01T04:30:43+00:00,DERBY-374
a36fdb788ce7b9f2bec78784e44dc11150571af2,,derby,2005-05-12 07:40:57,2005-10-01T04:30:43+00:00,DERBY-374
a36fdb788ce7b9f2bec78784e44dc11150571af2,,derby,2004-08-27 02:13:46,2005-10-01T04:30:43+00:00,DERBY-374
a36fdb788ce7b9f2bec78784e44dc11150571af2,,derby,2004-10-29 17:56:29,2005-10-01T04:30:43+00:00,DERBY-374
a36fdb788ce7b9f2bec78784e44dc11150571af2,,derby,2004-09-24 09:30:27,2005-10-01T04:30:43+00:00,DERBY-374
09150393e2b9d87cb24d953a5d023cd9001fed71,,derby,2005-05-12 07:46:30,2005-10-15T01:22:15+00:00,DERBY-375
851bcbb284a7e294f35a2bd8ccdb553bc4677673,,derby,2004-08-27 02:13:46,2005-07-14T21:50:51+00:00,DERBY-38
c62aaa25f9812ddfc9ed9b64059dfbda43cc20d8,,derby,2004-08-27 02:13:46,2005-06-25T21:53:04+00:00,DERBY-38
df5e1dd06d7ea8f54bf4130fcfee38a8fd9e03cc,,derby,2005-10-18 11:41:03,2005-11-04T04:58:01+00:00,DERBY-38
fd79e0f03795049908c55969a2de0cbc230d3a25,,derby,2004-08-27 02:13:46,2005-09-28T17:46:37+00:00,DERBY-38
fd79e0f03795049908c55969a2de0cbc230d3a25,,derby,2004-08-27 02:13:46,2005-09-28T17:46:37+00:00,DERBY-385
851bcbb284a7e294f35a2bd8ccdb553bc4677673,,derby,2004-08-27 02:13:46,2005-07-14T21:50:51+00:00,DERBY-388
c62aaa25f9812ddfc9ed9b64059dfbda43cc20d8,,derby,2004-08-27 02:13:46,2005-06-25T21:53:04+00:00,DERBY-389
df5e1dd06d7ea8f54bf4130fcfee38a8fd9e03cc,,derby,2005-10-18 11:41:03,2005-11-04T04:58:01+00:00,DERBY-389
c47d471f98161725d59e8556a68f59018532c486,,derby,2004-08-27 02:13:46,2005-07-01T16:33:55+00:00,DERBY-390
c47d471f98161725d59e8556a68f59018532c486,,derby,2004-09-24 09:30:27,2005-07-01T16:33:55+00:00,DERBY-390
00d8393fed3b173a735b799a855a8eda7756ffa2,,derby,2004-08-27 02:13:46,2005-10-03T19:10:50+00:00,DERBY-40
00d8393fed3b173a735b799a855a8eda7756ffa2,,derby,2004-09-24 09:30:27,2005-10-03T19:10:50+00:00,DERBY-40
661256412c4b75391b6e451a45b02a54d276a4f6,,derby,2004-08-27 02:13:46,2006-01-25T15:25:08+00:00,DERBY-40
661256412c4b75391b6e451a45b02a54d276a4f6,,derby,2006-01-21 03:25:53,2006-01-25T15:25:08+00:00,DERBY-40
b1b91206e1416d892e4dd766adac8ed42f0abb1c,,derby,2005-05-06 05:00:08,2005-07-15T23:01:02+00:00,DERBY-40
b1b91206e1416d892e4dd766adac8ed42f0abb1c,,derby,2005-07-07 06:52:10,2005-07-15T23:01:02+00:00,DERBY-40
00d8393fed3b173a735b799a855a8eda7756ffa2,,derby,2004-08-27 02:13:46,2005-10-03T19:10:50+00:00,DERBY-404
00d8393fed3b173a735b799a855a8eda7756ffa2,,derby,2004-09-24 09:30:27,2005-10-03T19:10:50+00:00,DERBY-404
b1b91206e1416d892e4dd766adac8ed42f0abb1c,,derby,2005-05-06 05:00:08,2005-07-15T23:01:02+00:00,DERBY-406
b1b91206e1416d892e4dd766adac8ed42f0abb1c,,derby,2005-07-07 06:52:10,2005-07-15T23:01:02+00:00,DERBY-406
b1b91206e1416d892e4dd766adac8ed42f0abb1c,,derby,2005-05-06 05:00:08,2005-07-15T23:01:02+00:00,DERBY-409
b1b91206e1416d892e4dd766adac8ed42f0abb1c,,derby,2005-07-07 06:52:10,2005-07-15T23:01:02+00:00,DERBY-409
5ff5941cbf79e6ef59694368d66a60b4bb1aeef8,,derby,2005-01-18 11:23:26,2005-12-22T17:26:55+00:00,DERBY-41
5ff5941cbf79e6ef59694368d66a60b4bb1aeef8,,derby,2005-12-14 07:23:42,2005-12-22T17:26:55+00:00,DERBY-41
5ff5941cbf79e6ef59694368d66a60b4bb1aeef8,,derby,2005-12-18 18:15:39,2005-12-22T17:26:55+00:00,DERBY-41
5ff5941cbf79e6ef59694368d66a60b4bb1aeef8,,derby,2005-03-17 10:15:46,2005-12-22T17:26:55+00:00,DERBY-41
5ff5941cbf79e6ef59694368d66a60b4bb1aeef8,,derby,2005-01-01 10:49:50,2005-12-22T17:26:55+00:00,DERBY-41
5ff5941cbf79e6ef59694368d66a60b4bb1aeef8,,derby,2005-05-19 15:54:01,2005-12-22T17:26:55+00:00,DERBY-41
5ff5941cbf79e6ef59694368d66a60b4bb1aeef8,,derby,2005-05-25 07:37:28,2005-12-22T17:26:55+00:00,DERBY-41
5ff5941cbf79e6ef59694368d66a60b4bb1aeef8,,derby,2005-11-04 15:18:30,2005-12-22T17:26:55+00:00,DERBY-41
5ff5941cbf79e6ef59694368d66a60b4bb1aeef8,,derby,2005-07-07 06:52:10,2005-12-22T17:26:55+00:00,DERBY-41
5ff5941cbf79e6ef59694368d66a60b4bb1aeef8,,derby,2005-04-08 07:07:59,2005-12-22T17:26:55+00:00,DERBY-41
5ff5941cbf79e6ef59694368d66a60b4bb1aeef8,,derby,2004-11-12 20:39:22,2005-12-22T17:26:55+00:00,DERBY-41
5ff5941cbf79e6ef59694368d66a60b4bb1aeef8,,derby,2005-03-04 08:42:40,2005-12-22T17:26:55+00:00,DERBY-41
5ff5941cbf79e6ef59694368d66a60b4bb1aeef8,,derby,2005-01-12 08:53:57,2005-12-22T17:26:55+00:00,DERBY-41
5ff5941cbf79e6ef59694368d66a60b4bb1aeef8,,derby,2005-11-19 11:02:19,2005-12-22T17:26:55+00:00,DERBY-41
5ff5941cbf79e6ef59694368d66a60b4bb1aeef8,,derby,2005-10-08 14:31:35,2005-12-22T17:26:55+00:00,DERBY-41
5ff5941cbf79e6ef59694368d66a60b4bb1aeef8,,derby,2005-02-09 07:04:07,2005-12-22T17:26:55+00:00,DERBY-41
5ff5941cbf79e6ef59694368d66a60b4bb1aeef8,,derby,2004-08-27 02:13:46,2005-12-22T17:26:55+00:00,DERBY-41
5ff5941cbf79e6ef59694368d66a60b4bb1aeef8,,derby,2005-08-27 10:00:39,2005-12-22T17:26:55+00:00,DERBY-41
5ff5941cbf79e6ef59694368d66a60b4bb1aeef8,,derby,2005-10-01 16:30:43,2005-12-22T17:26:55+00:00,DERBY-41
5ff5941cbf79e6ef59694368d66a60b4bb1aeef8,,derby,2005-04-13 05:45:15,2005-12-22T17:26:55+00:00,DERBY-41
5ff5941cbf79e6ef59694368d66a60b4bb1aeef8,,derby,2005-10-18 11:41:03,2005-12-22T17:26:55+00:00,DERBY-41
5ff5941cbf79e6ef59694368d66a60b4bb1aeef8,,derby,2004-12-16 19:20:35,2005-12-22T17:26:55+00:00,DERBY-41
e214c072c3b33f7d3d39bfb7508d5468832c11e8,,derby,2005-06-09 16:52:00,2005-08-06T02:59:31+00:00,DERBY-41
5ff5941cbf79e6ef59694368d66a60b4bb1aeef8,,derby,2005-01-18 11:23:26,2005-12-22T17:26:55+00:00,DERBY-413
5ff5941cbf79e6ef59694368d66a60b4bb1aeef8,,derby,2005-12-14 07:23:42,2005-12-22T17:26:55+00:00,DERBY-413
5ff5941cbf79e6ef59694368d66a60b4bb1aeef8,,derby,2005-12-18 18:15:39,2005-12-22T17:26:55+00:00,DERBY-413
5ff5941cbf79e6ef59694368d66a60b4bb1aeef8,,derby,2005-03-17 10:15:46,2005-12-22T17:26:55+00:00,DERBY-413
5ff5941cbf79e6ef59694368d66a60b4bb1aeef8,,derby,2005-01-01 10:49:50,2005-12-22T17:26:55+00:00,DERBY-413
5ff5941cbf79e6ef59694368d66a60b4bb1aeef8,,derby,2005-05-19 15:54:01,2005-12-22T17:26:55+00:00,DERBY-413
5ff5941cbf79e6ef59694368d66a60b4bb1aeef8,,derby,2005-05-25 07:37:28,2005-12-22T17:26:55+00:00,DERBY-413
5ff5941cbf79e6ef59694368d66a60b4bb1aeef8,,derby,2005-11-04 15:18:30,2005-12-22T17:26:55+00:00,DERBY-413
5ff5941cbf79e6ef59694368d66a60b4bb1aeef8,,derby,2005-07-07 06:52:10,2005-12-22T17:26:55+00:00,DERBY-413
5ff5941cbf79e6ef59694368d66a60b4bb1aeef8,,derby,2005-04-08 07:07:59,2005-12-22T17:26:55+00:00,DERBY-413
5ff5941cbf79e6ef59694368d66a60b4bb1aeef8,,derby,2004-11-12 20:39:22,2005-12-22T17:26:55+00:00,DERBY-413
5ff5941cbf79e6ef59694368d66a60b4bb1aeef8,,derby,2005-03-04 08:42:40,2005-12-22T17:26:55+00:00,DERBY-413
5ff5941cbf79e6ef59694368d66a60b4bb1aeef8,,derby,2005-01-12 08:53:57,2005-12-22T17:26:55+00:00,DERBY-413
5ff5941cbf79e6ef59694368d66a60b4bb1aeef8,,derby,2005-11-19 11:02:19,2005-12-22T17:26:55+00:00,DERBY-413
5ff5941cbf79e6ef59694368d66a60b4bb1aeef8,,derby,2005-10-08 14:31:35,2005-12-22T17:26:55+00:00,DERBY-413
5ff5941cbf79e6ef59694368d66a60b4bb1aeef8,,derby,2005-02-09 07:04:07,2005-12-22T17:26:55+00:00,DERBY-413
5ff5941cbf79e6ef59694368d66a60b4bb1aeef8,,derby,2004-08-27 02:13:46,2005-12-22T17:26:55+00:00,DERBY-413
5ff5941cbf79e6ef59694368d66a60b4bb1aeef8,,derby,2005-08-27 10:00:39,2005-12-22T17:26:55+00:00,DERBY-413
5ff5941cbf79e6ef59694368d66a60b4bb1aeef8,,derby,2005-10-01 16:30:43,2005-12-22T17:26:55+00:00,DERBY-413
5ff5941cbf79e6ef59694368d66a60b4bb1aeef8,,derby,2005-04-13 05:45:15,2005-12-22T17:26:55+00:00,DERBY-413
5ff5941cbf79e6ef59694368d66a60b4bb1aeef8,,derby,2005-10-18 11:41:03,2005-12-22T17:26:55+00:00,DERBY-413
5ff5941cbf79e6ef59694368d66a60b4bb1aeef8,,derby,2004-12-16 19:20:35,2005-12-22T17:26:55+00:00,DERBY-413
6d9c32af90f2192c3a486758f482efea45eeaa52,,derby,2005-10-05 00:05:26,2005-10-20T17:52:35+00:00,DERBY-424
6d9c32af90f2192c3a486758f482efea45eeaa52,,derby,2004-08-27 02:13:46,2005-10-20T17:52:35+00:00,DERBY-424
6d9c32af90f2192c3a486758f482efea45eeaa52,,derby,2004-09-24 09:30:27,2005-10-20T17:52:35+00:00,DERBY-424
15d8bf21da899fb76908f1373761574ee1132053,,derby,2004-08-27 02:13:46,2005-08-19T21:22:19+00:00,DERBY-427
f7a03bed9a366604958b833f6474293da3942e85,,derby,2005-01-12 08:53:57,2005-07-15T15:25:33+00:00,DERBY-437
ab12b7e6d4d320734ab4abe407b7ff191f2c6a66,,derby,2004-08-27 02:13:46,2005-07-15T23:11:37+00:00,DERBY-452
ab12b7e6d4d320734ab4abe407b7ff191f2c6a66,,derby,2004-09-24 09:30:27,2005-07-15T23:11:37+00:00,DERBY-452
1da4958bc1076458fb002c7b0ea0791fae581398,,derby,2005-08-20 02:16:56,2005-08-22T08:42:33+00:00,DERBY-463
5c0964bc9dc71df6fae36f596092433dc358b974,,derby,2005-05-02 18:25:59,2005-11-04T02:18:30+00:00,DERBY-463
e48b5ae060fe3ecc02bcc1699b2d3325a229898e,,derby,2005-05-02 18:25:59,2005-08-19T14:16:56+00:00,DERBY-463
e1b8b606ffc11824a5259e8c10d1e49384c9777e,,derby,2004-08-27 02:13:46,2005-08-24T17:41:29+00:00,DERBY-470
8ff0b23f90aec0501d4b998a70ca8f784e9b8c84,,derby,2004-08-27 02:13:46,2005-11-23T00:57:15+00:00,DERBY-471
8ff0b23f90aec0501d4b998a70ca8f784e9b8c84,,derby,2004-09-24 09:30:27,2005-11-23T00:57:15+00:00,DERBY-471
c84cf384c9301d58d033e0f2536e9a3042b71237,,derby,2004-08-27 02:13:46,2005-11-22T23:29:01+00:00,DERBY-471
c84cf384c9301d58d033e0f2536e9a3042b71237,,derby,2004-09-24 09:30:27,2005-11-22T23:29:01+00:00,DERBY-471
2542f1dd830d2fe6a6532b09dab7c44acf16d825,,derby,2005-07-21 19:18:25,2005-08-05T00:30:40+00:00,DERBY-48
2542f1dd830d2fe6a6532b09dab7c44acf16d825,,derby,2004-08-27 02:13:46,2005-08-05T00:30:40+00:00,DERBY-48
2542f1dd830d2fe6a6532b09dab7c44acf16d825,,derby,2004-09-24 09:30:27,2005-08-05T00:30:40+00:00,DERBY-48
2542f1dd830d2fe6a6532b09dab7c44acf16d825,,derby,2005-07-21 19:18:25,2005-08-05T00:30:40+00:00,DERBY-485
2542f1dd830d2fe6a6532b09dab7c44acf16d825,,derby,2004-08-27 02:13:46,2005-08-05T00:30:40+00:00,DERBY-485
2542f1dd830d2fe6a6532b09dab7c44acf16d825,,derby,2004-09-24 09:30:27,2005-08-05T00:30:40+00:00,DERBY-485
4b9c0f513d805f85f5375702a9849acf26eb0d51,,derby,2004-08-27 02:13:46,2005-10-19T21:47:26+00:00,DERBY-498
4b9c0f513d805f85f5375702a9849acf26eb0d51,,derby,2004-09-24 09:30:27,2005-10-19T21:47:26+00:00,DERBY-498
07ab7d6815cbf5c2b056c4b03feefe298b71bf71,,derby,2005-01-12 08:53:57,2005-08-31T05:25:51+00:00,DERBY-5
09a7325f75a4f96a7735e46c9723930f88ea2613,,derby,2004-08-27 02:13:46,2005-09-09T19:50:58+00:00,DERBY-5
0e9ddda2061a3105ce6e30546625178f90bd78ff,,derby,2005-10-29 00:51:50,2005-11-18T22:59:53+00:00,DERBY-5
0e9ddda2061a3105ce6e30546625178f90bd78ff,,derby,2005-04-16 02:27:56,2005-11-18T22:59:53+00:00,DERBY-5
1022f8fcc006c2e377676044aa02d93dccc69e44,,derby,2005-05-02 18:25:59,2005-09-29T11:05:49+00:00,DERBY-5
1373f5a6f57abef4e9748674c3516872e5a8ef30,,derby,2005-07-01 05:37:35,2005-10-04T11:05:26+00:00,DERBY-5
1373f5a6f57abef4e9748674c3516872e5a8ef30,,derby,2005-03-16 10:54:36,2005-10-04T11:05:26+00:00,DERBY-5
1373f5a6f57abef4e9748674c3516872e5a8ef30,,derby,2004-08-27 02:13:46,2005-10-04T11:05:26+00:00,DERBY-5
1373f5a6f57abef4e9748674c3516872e5a8ef30,,derby,2004-10-06 11:21:33,2005-10-04T11:05:26+00:00,DERBY-5
1373f5a6f57abef4e9748674c3516872e5a8ef30,,derby,2004-09-24 09:30:27,2005-10-04T11:05:26+00:00,DERBY-5
1373f5a6f57abef4e9748674c3516872e5a8ef30,,derby,2004-09-25 05:33:20,2005-10-04T11:05:26+00:00,DERBY-5
2dc0b91711a0eb33ef4ad711eeda16d2b782efe4,,derby,2005-04-29 04:23:10,2005-12-13T18:23:42+00:00,DERBY-5
2dc0b91711a0eb33ef4ad711eeda16d2b782efe4,,derby,2005-11-11 21:41:31,2005-12-13T18:23:42+00:00,DERBY-5
2dc0b91711a0eb33ef4ad711eeda16d2b782efe4,,derby,2005-03-05 13:20:59,2005-12-13T18:23:42+00:00,DERBY-5
2dc0b91711a0eb33ef4ad711eeda16d2b782efe4,,derby,2005-04-23 07:08:35,2005-12-13T18:23:42+00:00,DERBY-5
2dc0b91711a0eb33ef4ad711eeda16d2b782efe4,,derby,2004-09-24 09:30:27,2005-12-13T18:23:42+00:00,DERBY-5
39aa8c4a89ef1974bfdfb744c415bf8fb15ec59e,,derby,2004-11-12 20:39:22,2005-11-23T23:42:53+00:00,DERBY-5
39aa8c4a89ef1974bfdfb744c415bf8fb15ec59e,,derby,2005-01-12 08:53:57,2005-11-23T23:42:53+00:00,DERBY-5
39aa8c4a89ef1974bfdfb744c415bf8fb15ec59e,,derby,2005-02-09 07:04:07,2005-11-23T23:42:53+00:00,DERBY-5
39aa8c4a89ef1974bfdfb744c415bf8fb15ec59e,,derby,2005-03-26 12:47:55,2005-11-23T23:42:53+00:00,DERBY-5
39aa8c4a89ef1974bfdfb744c415bf8fb15ec59e,,derby,2005-05-14 10:51:08,2005-11-23T23:42:53+00:00,DERBY-5
3a3105b7aecd7433250d5ea1ae78ae884598a948,,derby,2005-01-12 08:53:57,2005-11-22T16:31:22+00:00,DERBY-5
3a3105b7aecd7433250d5ea1ae78ae884598a948,,derby,2005-05-02 18:25:59,2005-11-22T16:31:22+00:00,DERBY-5
3a3105b7aecd7433250d5ea1ae78ae884598a948,,derby,2004-08-27 02:13:46,2005-11-22T16:31:22+00:00,DERBY-5
3a3105b7aecd7433250d5ea1ae78ae884598a948,,derby,2004-09-24 09:30:27,2005-11-22T16:31:22+00:00,DERBY-5
41f00629d0354d506d8f1d052364663087e34e13,,derby,2004-09-24 09:30:27,2005-11-10T04:42:01+00:00,DERBY-5
5a95e6baa245457cf2b2f3bbed0e6799a9825afc,,derby,2004-08-27 02:13:46,2005-11-18T21:24:53+00:00,DERBY-5
660d73805a226d8e511cacd286dd2552c32a4192,,derby,2005-01-22 07:14:39,2005-11-18T02:00:23+00:00,DERBY-5
660d73805a226d8e511cacd286dd2552c32a4192,,derby,2005-07-21 19:18:25,2005-11-18T02:00:23+00:00,DERBY-5
660d73805a226d8e511cacd286dd2552c32a4192,,derby,2004-09-24 09:30:27,2005-11-18T02:00:23+00:00,DERBY-5
790954648be819a9dc0daabc66c84efc04a95708,,derby,2004-11-12 20:39:22,2005-11-18T22:02:19+00:00,DERBY-5
790954648be819a9dc0daabc66c84efc04a95708,,derby,2005-01-12 08:53:57,2005-11-18T22:02:19+00:00,DERBY-5
790954648be819a9dc0daabc66c84efc04a95708,,derby,2005-03-23 08:27:51,2005-11-18T22:02:19+00:00,DERBY-5
82d721fd53e30dbb86d6d742c085030985091968,,derby,2005-05-02 18:25:59,2005-09-15T12:49:14+00:00,DERBY-5
82d721fd53e30dbb86d6d742c085030985091968,,derby,2005-08-27 10:00:39,2005-09-15T12:49:14+00:00,DERBY-5
8ecffddaa1c0e581670d21d898577304f78f6511,,derby,2005-09-29 23:05:49,2005-10-29T04:57:12+00:00,DERBY-5
8ecffddaa1c0e581670d21d898577304f78f6511,,derby,2005-05-02 18:25:59,2005-10-29T04:57:12+00:00,DERBY-5
90f16141b17352af5c934f3cf8bdbbb90c40624e,,derby,2005-04-29 07:05:42,2005-09-16T13:52:14+00:00,DERBY-5
90f16141b17352af5c934f3cf8bdbbb90c40624e,,derby,2005-05-02 18:25:59,2005-09-16T13:52:14+00:00,DERBY-5
9952cc5b5e969dee573b25d29affe74edddc3b13,,derby,2005-06-01 05:51:26,2005-10-25T03:26:28+00:00,DERBY-5
9952cc5b5e969dee573b25d29affe74edddc3b13,,derby,2005-05-21 01:50:32,2005-10-25T03:26:28+00:00,DERBY-5
9952cc5b5e969dee573b25d29affe74edddc3b13,,derby,2004-08-27 02:13:46,2005-10-25T03:26:28+00:00,DERBY-5
9a32c464ddf7075bfe142514556f2cb1d1d42804,,derby,2004-08-27 02:13:46,2005-08-26T22:00:39+00:00,DERBY-5
9a32c464ddf7075bfe142514556f2cb1d1d42804,,derby,2004-09-24 09:30:27,2005-08-26T22:00:39+00:00,DERBY-5
abbaf4e0026695f2ee1d8c288885758079c89933,,derby,2004-08-27 02:13:46,2005-09-02T18:07:39+00:00,DERBY-5
abbaf4e0026695f2ee1d8c288885758079c89933,,derby,2004-09-24 09:30:27,2005-09-02T18:07:39+00:00,DERBY-5
b647b38a26c74ce3a952feb6bf6b7e54876e8e90,,derby,2004-09-24 09:30:27,2005-10-17T14:09:51+00:00,DERBY-5
bb1be44c495731b3bce01a921108b40aa9882d1a,,derby,2005-10-07 07:06:47,2005-10-19T00:11:30+00:00,DERBY-5
bb1be44c495731b3bce01a921108b40aa9882d1a,,derby,2004-11-12 20:39:22,2005-10-19T00:11:30+00:00,DERBY-5
bb1be44c495731b3bce01a921108b40aa9882d1a,,derby,2004-08-27 02:13:46,2005-10-19T00:11:30+00:00,DERBY-5
bb1be44c495731b3bce01a921108b40aa9882d1a,,derby,2004-09-24 09:30:27,2005-10-19T00:11:30+00:00,DERBY-5
bb1be44c495731b3bce01a921108b40aa9882d1a,,derby,2004-12-16 19:20:35,2005-10-19T00:11:30+00:00,DERBY-5
bf4839e7e22ac05652d6703438fdbfff30f16e00,,derby,2004-08-27 02:13:46,2005-08-25T18:02:57+00:00,DERBY-5
bf4839e7e22ac05652d6703438fdbfff30f16e00,,derby,2004-09-24 09:30:27,2005-08-25T18:02:57+00:00,DERBY-5
c33cf30319194dc02a78ca84749f98551458e9e8,,derby,2004-08-27 02:13:46,2005-10-04T01:12:05+00:00,DERBY-5
c33cf30319194dc02a78ca84749f98551458e9e8,,derby,2004-09-24 09:30:27,2005-10-04T01:12:05+00:00,DERBY-5
c7248d5e43cbb1aac219b014e3381b5e553c63a2,,derby,2005-12-25 11:09:13,2006-01-17T01:10:52+00:00,DERBY-5
c7248d5e43cbb1aac219b014e3381b5e553c63a2,,derby,2004-08-27 02:13:46,2006-01-17T01:10:52+00:00,DERBY-5
c7248d5e43cbb1aac219b014e3381b5e553c63a2,,derby,2005-10-29 00:51:50,2006-01-17T01:10:52+00:00,DERBY-5
c7248d5e43cbb1aac219b014e3381b5e553c63a2,,derby,2004-09-24 09:30:27,2006-01-17T01:10:52+00:00,DERBY-5
c8ceb5f03910cd0c0b7518d73b45c1a12683d5c4,,derby,2005-05-02 18:25:59,2005-11-14T15:42:40+00:00,DERBY-5
c8ceb5f03910cd0c0b7518d73b45c1a12683d5c4,,derby,2004-08-27 02:13:46,2005-11-14T15:42:40+00:00,DERBY-5
cff2860a8202b734c1aa63ecc0f98cfcacb611ef,,derby,2005-04-29 07:05:42,2006-01-17T00:10:58+00:00,DERBY-5
cff2860a8202b734c1aa63ecc0f98cfcacb611ef,,derby,2005-05-02 18:25:59,2006-01-17T00:10:58+00:00,DERBY-5
d5bc20fdd2582857534fc70f7e5cc59c18db5186,,derby,2005-06-09 18:48:34,2005-10-28T20:57:08+00:00,DERBY-5
d5bc20fdd2582857534fc70f7e5cc59c18db5186,,derby,2005-07-31 02:34:47,2005-10-28T20:57:08+00:00,DERBY-5
d5bc20fdd2582857534fc70f7e5cc59c18db5186,,derby,2004-11-12 15:14:55,2005-10-28T20:57:08+00:00,DERBY-5
d5bc20fdd2582857534fc70f7e5cc59c18db5186,,derby,2004-08-27 02:13:46,2005-10-28T20:57:08+00:00,DERBY-5
d5bc20fdd2582857534fc70f7e5cc59c18db5186,,derby,2005-10-29 00:51:50,2005-10-28T20:57:08+00:00,DERBY-5
d5bc20fdd2582857534fc70f7e5cc59c18db5186,,derby,2005-05-24 14:33:37,2005-10-28T20:57:08+00:00,DERBY-5
d5bc20fdd2582857534fc70f7e5cc59c18db5186,,derby,2004-09-24 09:30:27,2005-10-28T20:57:08+00:00,DERBY-5
d5bc20fdd2582857534fc70f7e5cc59c18db5186,,derby,2004-09-25 05:33:20,2005-10-28T20:57:08+00:00,DERBY-5
ddc6f41fe2614bd1b6e6417ca3be1dbb3a96350e,,derby,2004-08-27 02:13:46,2005-09-30T23:38:14+00:00,DERBY-5
ddc6f41fe2614bd1b6e6417ca3be1dbb3a96350e,,derby,2004-09-24 09:30:27,2005-09-30T23:38:14+00:00,DERBY-5
f3c492faa9802b71ad271bd228dec6bde75803ad,,derby,2005-05-02 18:25:59,2005-10-17T22:41:03+00:00,DERBY-5
fd24a7590ff5426bac68303fbeca07dbc5067412,,derby,2005-09-16 00:49:14,2005-09-18T22:27:48+00:00,DERBY-5
ff049ad790fb78e55c5e755188125c1cccfd5c99,,derby,2005-01-12 08:53:57,2005-09-30T18:23:06+00:00,DERBY-5
ff049ad790fb78e55c5e755188125c1cccfd5c99,,derby,2004-08-27 02:13:46,2005-09-30T18:23:06+00:00,DERBY-5
abbaf4e0026695f2ee1d8c288885758079c89933,,derby,2004-08-27 02:13:46,2005-09-02T18:07:39+00:00,DERBY-50
abbaf4e0026695f2ee1d8c288885758079c89933,,derby,2004-09-24 09:30:27,2005-09-02T18:07:39+00:00,DERBY-50
bb1be44c495731b3bce01a921108b40aa9882d1a,,derby,2005-10-07 07:06:47,2005-10-19T00:11:30+00:00,DERBY-50
bb1be44c495731b3bce01a921108b40aa9882d1a,,derby,2004-11-12 20:39:22,2005-10-19T00:11:30+00:00,DERBY-50
bb1be44c495731b3bce01a921108b40aa9882d1a,,derby,2004-08-27 02:13:46,2005-10-19T00:11:30+00:00,DERBY-50
bb1be44c495731b3bce01a921108b40aa9882d1a,,derby,2004-09-24 09:30:27,2005-10-19T00:11:30+00:00,DERBY-50
bb1be44c495731b3bce01a921108b40aa9882d1a,,derby,2004-12-16 19:20:35,2005-10-19T00:11:30+00:00,DERBY-50
c8ceb5f03910cd0c0b7518d73b45c1a12683d5c4,,derby,2005-05-02 18:25:59,2005-11-14T15:42:40+00:00,DERBY-50
c8ceb5f03910cd0c0b7518d73b45c1a12683d5c4,,derby,2004-08-27 02:13:46,2005-11-14T15:42:40+00:00,DERBY-50
bb1be44c495731b3bce01a921108b40aa9882d1a,,derby,2005-10-07 07:06:47,2005-10-19T00:11:30+00:00,DERBY-500
bb1be44c495731b3bce01a921108b40aa9882d1a,,derby,2004-11-12 20:39:22,2005-10-19T00:11:30+00:00,DERBY-500
bb1be44c495731b3bce01a921108b40aa9882d1a,,derby,2004-08-27 02:13:46,2005-10-19T00:11:30+00:00,DERBY-500
bb1be44c495731b3bce01a921108b40aa9882d1a,,derby,2004-09-24 09:30:27,2005-10-19T00:11:30+00:00,DERBY-500
bb1be44c495731b3bce01a921108b40aa9882d1a,,derby,2004-12-16 19:20:35,2005-10-19T00:11:30+00:00,DERBY-500
abbaf4e0026695f2ee1d8c288885758079c89933,,derby,2004-08-27 02:13:46,2005-09-02T18:07:39+00:00,DERBY-504
abbaf4e0026695f2ee1d8c288885758079c89933,,derby,2004-09-24 09:30:27,2005-09-02T18:07:39+00:00,DERBY-504
3a3105b7aecd7433250d5ea1ae78ae884598a948,,derby,2005-01-12 08:53:57,2005-11-22T16:31:22+00:00,DERBY-517
3a3105b7aecd7433250d5ea1ae78ae884598a948,,derby,2005-05-02 18:25:59,2005-11-22T16:31:22+00:00,DERBY-517
3a3105b7aecd7433250d5ea1ae78ae884598a948,,derby,2004-08-27 02:13:46,2005-11-22T16:31:22+00:00,DERBY-517
3a3105b7aecd7433250d5ea1ae78ae884598a948,,derby,2004-09-24 09:30:27,2005-11-22T16:31:22+00:00,DERBY-517
07ab7d6815cbf5c2b056c4b03feefe298b71bf71,,derby,2005-01-12 08:53:57,2005-08-31T05:25:51+00:00,DERBY-518
1022f8fcc006c2e377676044aa02d93dccc69e44,,derby,2005-05-02 18:25:59,2005-09-29T11:05:49+00:00,DERBY-52
8ecffddaa1c0e581670d21d898577304f78f6511,,derby,2005-09-29 23:05:49,2005-10-29T04:57:12+00:00,DERBY-52
8ecffddaa1c0e581670d21d898577304f78f6511,,derby,2005-05-02 18:25:59,2005-10-29T04:57:12+00:00,DERBY-52
f3c492faa9802b71ad271bd228dec6bde75803ad,,derby,2005-05-02 18:25:59,2005-10-17T22:41:03+00:00,DERBY-52
f3c492faa9802b71ad271bd228dec6bde75803ad,,derby,2005-05-02 18:25:59,2005-10-17T22:41:03+00:00,DERBY-522
1022f8fcc006c2e377676044aa02d93dccc69e44,,derby,2005-05-02 18:25:59,2005-09-29T11:05:49+00:00,DERBY-525
8ecffddaa1c0e581670d21d898577304f78f6511,,derby,2005-09-29 23:05:49,2005-10-29T04:57:12+00:00,DERBY-525
8ecffddaa1c0e581670d21d898577304f78f6511,,derby,2005-05-02 18:25:59,2005-10-29T04:57:12+00:00,DERBY-525
09a7325f75a4f96a7735e46c9723930f88ea2613,,derby,2004-08-27 02:13:46,2005-09-09T19:50:58+00:00,DERBY-530
82d721fd53e30dbb86d6d742c085030985091968,,derby,2005-05-02 18:25:59,2005-09-15T12:49:14+00:00,DERBY-530
82d721fd53e30dbb86d6d742c085030985091968,,derby,2005-08-27 10:00:39,2005-09-15T12:49:14+00:00,DERBY-530
fd24a7590ff5426bac68303fbeca07dbc5067412,,derby,2005-09-16 00:49:14,2005-09-18T22:27:48+00:00,DERBY-530
9a32c464ddf7075bfe142514556f2cb1d1d42804,,derby,2004-08-27 02:13:46,2005-08-26T22:00:39+00:00,DERBY-535
9a32c464ddf7075bfe142514556f2cb1d1d42804,,derby,2004-09-24 09:30:27,2005-08-26T22:00:39+00:00,DERBY-535
bf4839e7e22ac05652d6703438fdbfff30f16e00,,derby,2004-08-27 02:13:46,2005-08-25T18:02:57+00:00,DERBY-54
bf4839e7e22ac05652d6703438fdbfff30f16e00,,derby,2004-09-24 09:30:27,2005-08-25T18:02:57+00:00,DERBY-54
bf4839e7e22ac05652d6703438fdbfff30f16e00,,derby,2004-08-27 02:13:46,2005-08-25T18:02:57+00:00,DERBY-540
bf4839e7e22ac05652d6703438fdbfff30f16e00,,derby,2004-09-24 09:30:27,2005-08-25T18:02:57+00:00,DERBY-540
90f16141b17352af5c934f3cf8bdbbb90c40624e,,derby,2005-04-29 07:05:42,2005-09-16T13:52:14+00:00,DERBY-55
90f16141b17352af5c934f3cf8bdbbb90c40624e,,derby,2005-05-02 18:25:59,2005-09-16T13:52:14+00:00,DERBY-55
b647b38a26c74ce3a952feb6bf6b7e54876e8e90,,derby,2004-09-24 09:30:27,2005-10-17T14:09:51+00:00,DERBY-55
c33cf30319194dc02a78ca84749f98551458e9e8,,derby,2004-08-27 02:13:46,2005-10-04T01:12:05+00:00,DERBY-55
c33cf30319194dc02a78ca84749f98551458e9e8,,derby,2004-09-24 09:30:27,2005-10-04T01:12:05+00:00,DERBY-55
cff2860a8202b734c1aa63ecc0f98cfcacb611ef,,derby,2005-04-29 07:05:42,2006-01-17T00:10:58+00:00,DERBY-55
cff2860a8202b734c1aa63ecc0f98cfcacb611ef,,derby,2005-05-02 18:25:59,2006-01-17T00:10:58+00:00,DERBY-55
b647b38a26c74ce3a952feb6bf6b7e54876e8e90,,derby,2004-09-24 09:30:27,2005-10-17T14:09:51+00:00,DERBY-555
90f16141b17352af5c934f3cf8bdbbb90c40624e,,derby,2005-04-29 07:05:42,2005-09-16T13:52:14+00:00,DERBY-557
90f16141b17352af5c934f3cf8bdbbb90c40624e,,derby,2005-05-02 18:25:59,2005-09-16T13:52:14+00:00,DERBY-557
cff2860a8202b734c1aa63ecc0f98cfcacb611ef,,derby,2005-04-29 07:05:42,2006-01-17T00:10:58+00:00,DERBY-557
cff2860a8202b734c1aa63ecc0f98cfcacb611ef,,derby,2005-05-02 18:25:59,2006-01-17T00:10:58+00:00,DERBY-557
c33cf30319194dc02a78ca84749f98551458e9e8,,derby,2004-08-27 02:13:46,2005-10-04T01:12:05+00:00,DERBY-558
c33cf30319194dc02a78ca84749f98551458e9e8,,derby,2004-09-24 09:30:27,2005-10-04T01:12:05+00:00,DERBY-558
09a7325f75a4f96a7735e46c9723930f88ea2613,,derby,2004-08-27 02:13:46,2005-09-09T19:50:58+00:00,DERBY-56
41f00629d0354d506d8f1d052364663087e34e13,,derby,2004-09-24 09:30:27,2005-11-10T04:42:01+00:00,DERBY-56
ff049ad790fb78e55c5e755188125c1cccfd5c99,,derby,2005-01-12 08:53:57,2005-09-30T18:23:06+00:00,DERBY-56
ff049ad790fb78e55c5e755188125c1cccfd5c99,,derby,2004-08-27 02:13:46,2005-09-30T18:23:06+00:00,DERBY-56
09a7325f75a4f96a7735e46c9723930f88ea2613,,derby,2004-08-27 02:13:46,2005-09-09T19:50:58+00:00,DERBY-561
ff049ad790fb78e55c5e755188125c1cccfd5c99,,derby,2005-01-12 08:53:57,2005-09-30T18:23:06+00:00,DERBY-562
ff049ad790fb78e55c5e755188125c1cccfd5c99,,derby,2004-08-27 02:13:46,2005-09-30T18:23:06+00:00,DERBY-562
41f00629d0354d506d8f1d052364663087e34e13,,derby,2004-09-24 09:30:27,2005-11-10T04:42:01+00:00,DERBY-569
0e9ddda2061a3105ce6e30546625178f90bd78ff,,derby,2005-10-29 00:51:50,2005-11-18T22:59:53+00:00,DERBY-57
0e9ddda2061a3105ce6e30546625178f90bd78ff,,derby,2005-04-16 02:27:56,2005-11-18T22:59:53+00:00,DERBY-57
1373f5a6f57abef4e9748674c3516872e5a8ef30,,derby,2005-07-01 05:37:35,2005-10-04T11:05:26+00:00,DERBY-57
1373f5a6f57abef4e9748674c3516872e5a8ef30,,derby,2005-03-16 10:54:36,2005-10-04T11:05:26+00:00,DERBY-57
1373f5a6f57abef4e9748674c3516872e5a8ef30,,derby,2004-08-27 02:13:46,2005-10-04T11:05:26+00:00,DERBY-57
1373f5a6f57abef4e9748674c3516872e5a8ef30,,derby,2004-10-06 11:21:33,2005-10-04T11:05:26+00:00,DERBY-57
1373f5a6f57abef4e9748674c3516872e5a8ef30,,derby,2004-09-24 09:30:27,2005-10-04T11:05:26+00:00,DERBY-57
1373f5a6f57abef4e9748674c3516872e5a8ef30,,derby,2004-09-25 05:33:20,2005-10-04T11:05:26+00:00,DERBY-57
2dc0b91711a0eb33ef4ad711eeda16d2b782efe4,,derby,2005-04-29 04:23:10,2005-12-13T18:23:42+00:00,DERBY-57
2dc0b91711a0eb33ef4ad711eeda16d2b782efe4,,derby,2005-11-11 21:41:31,2005-12-13T18:23:42+00:00,DERBY-57
2dc0b91711a0eb33ef4ad711eeda16d2b782efe4,,derby,2005-03-05 13:20:59,2005-12-13T18:23:42+00:00,DERBY-57
2dc0b91711a0eb33ef4ad711eeda16d2b782efe4,,derby,2005-04-23 07:08:35,2005-12-13T18:23:42+00:00,DERBY-57
2dc0b91711a0eb33ef4ad711eeda16d2b782efe4,,derby,2004-09-24 09:30:27,2005-12-13T18:23:42+00:00,DERBY-57
5a95e6baa245457cf2b2f3bbed0e6799a9825afc,,derby,2004-08-27 02:13:46,2005-11-18T21:24:53+00:00,DERBY-57
790954648be819a9dc0daabc66c84efc04a95708,,derby,2004-11-12 20:39:22,2005-11-18T22:02:19+00:00,DERBY-57
790954648be819a9dc0daabc66c84efc04a95708,,derby,2005-01-12 08:53:57,2005-11-18T22:02:19+00:00,DERBY-57
790954648be819a9dc0daabc66c84efc04a95708,,derby,2005-03-23 08:27:51,2005-11-18T22:02:19+00:00,DERBY-57
c7248d5e43cbb1aac219b014e3381b5e553c63a2,,derby,2005-12-25 11:09:13,2006-01-17T01:10:52+00:00,DERBY-57
c7248d5e43cbb1aac219b014e3381b5e553c63a2,,derby,2004-08-27 02:13:46,2006-01-17T01:10:52+00:00,DERBY-57
c7248d5e43cbb1aac219b014e3381b5e553c63a2,,derby,2005-10-29 00:51:50,2006-01-17T01:10:52+00:00,DERBY-57
c7248d5e43cbb1aac219b014e3381b5e553c63a2,,derby,2004-09-24 09:30:27,2006-01-17T01:10:52+00:00,DERBY-57
ddc6f41fe2614bd1b6e6417ca3be1dbb3a96350e,,derby,2004-08-27 02:13:46,2005-09-30T23:38:14+00:00,DERBY-57
ddc6f41fe2614bd1b6e6417ca3be1dbb3a96350e,,derby,2004-09-24 09:30:27,2005-09-30T23:38:14+00:00,DERBY-57
1373f5a6f57abef4e9748674c3516872e5a8ef30,,derby,2005-07-01 05:37:35,2005-10-04T11:05:26+00:00,DERBY-579
1373f5a6f57abef4e9748674c3516872e5a8ef30,,derby,2005-03-16 10:54:36,2005-10-04T11:05:26+00:00,DERBY-579
1373f5a6f57abef4e9748674c3516872e5a8ef30,,derby,2004-08-27 02:13:46,2005-10-04T11:05:26+00:00,DERBY-579
1373f5a6f57abef4e9748674c3516872e5a8ef30,,derby,2004-10-06 11:21:33,2005-10-04T11:05:26+00:00,DERBY-579
1373f5a6f57abef4e9748674c3516872e5a8ef30,,derby,2004-09-24 09:30:27,2005-10-04T11:05:26+00:00,DERBY-579
1373f5a6f57abef4e9748674c3516872e5a8ef30,,derby,2004-09-25 05:33:20,2005-10-04T11:05:26+00:00,DERBY-579
660d73805a226d8e511cacd286dd2552c32a4192,,derby,2005-01-22 07:14:39,2005-11-18T02:00:23+00:00,DERBY-58
660d73805a226d8e511cacd286dd2552c32a4192,,derby,2005-07-21 19:18:25,2005-11-18T02:00:23+00:00,DERBY-58
660d73805a226d8e511cacd286dd2552c32a4192,,derby,2004-09-24 09:30:27,2005-11-18T02:00:23+00:00,DERBY-58
d5bc20fdd2582857534fc70f7e5cc59c18db5186,,derby,2005-06-09 18:48:34,2005-10-28T20:57:08+00:00,DERBY-58
d5bc20fdd2582857534fc70f7e5cc59c18db5186,,derby,2005-07-31 02:34:47,2005-10-28T20:57:08+00:00,DERBY-58
d5bc20fdd2582857534fc70f7e5cc59c18db5186,,derby,2004-11-12 15:14:55,2005-10-28T20:57:08+00:00,DERBY-58
d5bc20fdd2582857534fc70f7e5cc59c18db5186,,derby,2004-08-27 02:13:46,2005-10-28T20:57:08+00:00,DERBY-58
d5bc20fdd2582857534fc70f7e5cc59c18db5186,,derby,2005-10-29 00:51:50,2005-10-28T20:57:08+00:00,DERBY-58
d5bc20fdd2582857534fc70f7e5cc59c18db5186,,derby,2005-05-24 14:33:37,2005-10-28T20:57:08+00:00,DERBY-58
d5bc20fdd2582857534fc70f7e5cc59c18db5186,,derby,2004-09-24 09:30:27,2005-10-28T20:57:08+00:00,DERBY-58
d5bc20fdd2582857534fc70f7e5cc59c18db5186,,derby,2004-09-25 05:33:20,2005-10-28T20:57:08+00:00,DERBY-58
d5bc20fdd2582857534fc70f7e5cc59c18db5186,,derby,2005-06-09 18:48:34,2005-10-28T20:57:08+00:00,DERBY-582
d5bc20fdd2582857534fc70f7e5cc59c18db5186,,derby,2005-07-31 02:34:47,2005-10-28T20:57:08+00:00,DERBY-582
d5bc20fdd2582857534fc70f7e5cc59c18db5186,,derby,2004-11-12 15:14:55,2005-10-28T20:57:08+00:00,DERBY-582
d5bc20fdd2582857534fc70f7e5cc59c18db5186,,derby,2004-08-27 02:13:46,2005-10-28T20:57:08+00:00,DERBY-582
d5bc20fdd2582857534fc70f7e5cc59c18db5186,,derby,2005-10-29 00:51:50,2005-10-28T20:57:08+00:00,DERBY-582
d5bc20fdd2582857534fc70f7e5cc59c18db5186,,derby,2005-05-24 14:33:37,2005-10-28T20:57:08+00:00,DERBY-582
d5bc20fdd2582857534fc70f7e5cc59c18db5186,,derby,2004-09-24 09:30:27,2005-10-28T20:57:08+00:00,DERBY-582
d5bc20fdd2582857534fc70f7e5cc59c18db5186,,derby,2004-09-25 05:33:20,2005-10-28T20:57:08+00:00,DERBY-582
1093b6d4ab9441495c5f319cbedfe616c8ca8c9d,,derby,2005-03-03 14:30:05,2005-10-28T21:40:43+00:00,DERBY-6
117d8b57c9860a1d112fecaa6d14a2b69fc4e8ea,,derby,2004-08-27 02:13:46,2005-10-14T13:59:46+00:00,DERBY-6
117d8b57c9860a1d112fecaa6d14a2b69fc4e8ea,,derby,2004-09-24 09:30:27,2005-10-14T13:59:46+00:00,DERBY-6
37f3f74ab027a53468f40ce11fb27f9fce316bb1,,derby,2005-05-02 18:25:59,2005-12-19T10:08:36+00:00,DERBY-6
381dfaf55d912bc28629a42101b59e094fb9387e,,derby,2005-03-17 15:35:44,2005-11-01T22:12:53+00:00,DERBY-6
38b2dd4ce962c0f9181081dc95354f3f5d064a47,,derby,2005-03-26 12:47:55,2005-11-23T19:51:19+00:00,DERBY-6
3d61c1cc4f70027765f9d0ea04460a9d3e9235cf,,derby,2004-10-29 02:56:42,2005-10-19T22:13:00+00:00,DERBY-6
3d61c1cc4f70027765f9d0ea04460a9d3e9235cf,,derby,2005-07-21 19:18:25,2005-10-19T22:13:00+00:00,DERBY-6
3d61c1cc4f70027765f9d0ea04460a9d3e9235cf,,derby,2004-08-27 02:13:46,2005-10-19T22:13:00+00:00,DERBY-6
3d61c1cc4f70027765f9d0ea04460a9d3e9235cf,,derby,2004-10-14 09:57:05,2005-10-19T22:13:00+00:00,DERBY-6
3d61c1cc4f70027765f9d0ea04460a9d3e9235cf,,derby,2004-09-24 09:30:27,2005-10-19T22:13:00+00:00,DERBY-6
40877146f71c4fc21cadf0bebce30c45c4d324ce,,derby,2004-11-12 20:39:22,2005-11-09T17:46:52+00:00,DERBY-6
413da9b56b3bab6037b544503fdd7c8525eb08e7,,derby,2005-01-12 08:53:57,2005-10-23T07:15:47+00:00,DERBY-6
41f1df99078e39e213c5d4c3af3200f8c45cc7bf,,derby,2004-08-27 02:13:46,2005-12-10T01:51:26+00:00,DERBY-6
41f1df99078e39e213c5d4c3af3200f8c45cc7bf,,derby,2004-10-29 17:56:29,2005-12-10T01:51:26+00:00,DERBY-6
41f1df99078e39e213c5d4c3af3200f8c45cc7bf,,derby,2004-09-24 09:30:27,2005-12-10T01:51:26+00:00,DERBY-6
4a8e892a90cd977d5af64cb43ac8330c445e12ea,,derby,2005-03-05 13:20:59,2005-11-04T00:39:09+00:00,DERBY-6
5922ff5dd47b336978697c67c95b64197bb5797a,,derby,2004-11-12 20:39:22,2005-10-19T22:28:59+00:00,DERBY-6
5ab147fcb7f299a8e3bfc99edcc8c199031fe154,,derby,2004-11-12 20:39:22,2006-01-24T04:15:44+00:00,DERBY-6
8629a0fb3925e729ab7054d76893e65f3cb1eaf5,,derby,2005-05-02 18:25:59,2005-10-19T11:36:14+00:00,DERBY-6
8fa60644780de8d9245c5e1dc077ec68047ce31a,,derby,2004-08-27 02:13:46,2005-10-30T00:02:02+00:00,DERBY-6
8fd20be8ce08e64a1b03925491f1472c9691e8f8,,derby,2005-01-12 08:53:57,2005-11-23T17:42:42+00:00,DERBY-6
9ce0e0f8172d2784148ffe6995a3f2d2cd946c20,,derby,2005-10-29 10:40:43,2006-01-23T20:55:15+00:00,DERBY-6
9ce0e0f8172d2784148ffe6995a3f2d2cd946c20,,derby,2005-03-03 14:30:05,2006-01-23T20:55:15+00:00,DERBY-6
c700973f7bc62bf0d3137ff3e78851e6d4939f6a,,derby,2004-08-27 02:13:46,2006-01-18T20:22:30+00:00,DERBY-6
c700973f7bc62bf0d3137ff3e78851e6d4939f6a,,derby,2004-09-24 09:30:27,2006-01-18T20:22:30+00:00,DERBY-6
cac35cabfd74481b0eef3f7af9694089631e5355,,derby,2004-11-12 20:39:22,2005-10-13T13:22:27+00:00,DERBY-6
cac35cabfd74481b0eef3f7af9694089631e5355,,derby,2004-12-16 19:20:35,2005-10-13T13:22:27+00:00,DERBY-6
f32e51e193c80b5968fca03977d7884403d7d450,,derby,2005-12-23 06:26:55,2006-01-03T23:59:10+00:00,DERBY-6
f32e51e193c80b5968fca03977d7884403d7d450,,derby,2004-11-12 20:39:22,2006-01-03T23:59:10+00:00,DERBY-6
f32e51e193c80b5968fca03977d7884403d7d450,,derby,2005-10-14 02:22:27,2006-01-03T23:59:10+00:00,DERBY-6
f32e51e193c80b5968fca03977d7884403d7d450,,derby,2004-12-16 19:20:35,2006-01-03T23:59:10+00:00,DERBY-6
f9f4d947ada9fcfdef9aea96044eb93592f228fc,,derby,2005-10-20 18:06:37,2005-11-03T17:16:22+00:00,DERBY-6
f9f4d947ada9fcfdef9aea96044eb93592f228fc,,derby,2005-08-09 09:36:48,2005-11-03T17:16:22+00:00,DERBY-6
f9f4d947ada9fcfdef9aea96044eb93592f228fc,,derby,2005-10-30 13:02:02,2005-11-03T17:16:22+00:00,DERBY-6
f9f4d947ada9fcfdef9aea96044eb93592f228fc,,derby,2004-08-27 02:13:46,2005-11-03T17:16:22+00:00,DERBY-6
f9f4d947ada9fcfdef9aea96044eb93592f228fc,,derby,2004-10-13 07:08:47,2005-11-03T17:16:22+00:00,DERBY-6
f9f4d947ada9fcfdef9aea96044eb93592f228fc,,derby,2004-09-24 09:30:27,2005-11-03T17:16:22+00:00,DERBY-6
ffd4e9bd1c3b9198ba3efcb14c1b79104c16db59,,derby,2005-10-20 18:06:37,2006-01-25T16:41:33+00:00,DERBY-6
ffd4e9bd1c3b9198ba3efcb14c1b79104c16db59,,derby,2004-08-27 02:13:46,2006-01-25T16:41:33+00:00,DERBY-6
ffd4e9bd1c3b9198ba3efcb14c1b79104c16db59,,derby,2004-09-24 09:30:27,2006-01-25T16:41:33+00:00,DERBY-6
8629a0fb3925e729ab7054d76893e65f3cb1eaf5,,derby,2005-05-02 18:25:59,2005-10-19T11:36:14+00:00,DERBY-609
37f3f74ab027a53468f40ce11fb27f9fce316bb1,,derby,2005-05-02 18:25:59,2005-12-19T10:08:36+00:00,DERBY-611
41f1df99078e39e213c5d4c3af3200f8c45cc7bf,,derby,2004-08-27 02:13:46,2005-12-10T01:51:26+00:00,DERBY-614
41f1df99078e39e213c5d4c3af3200f8c45cc7bf,,derby,2004-10-29 17:56:29,2005-12-10T01:51:26+00:00,DERBY-614
41f1df99078e39e213c5d4c3af3200f8c45cc7bf,,derby,2004-09-24 09:30:27,2005-12-10T01:51:26+00:00,DERBY-614
1093b6d4ab9441495c5f319cbedfe616c8ca8c9d,,derby,2005-03-03 14:30:05,2005-10-28T21:40:43+00:00,DERBY-616
117d8b57c9860a1d112fecaa6d14a2b69fc4e8ea,,derby,2004-08-27 02:13:46,2005-10-14T13:59:46+00:00,DERBY-62
117d8b57c9860a1d112fecaa6d14a2b69fc4e8ea,,derby,2004-09-24 09:30:27,2005-10-14T13:59:46+00:00,DERBY-62
3d61c1cc4f70027765f9d0ea04460a9d3e9235cf,,derby,2004-10-29 02:56:42,2005-10-19T22:13:00+00:00,DERBY-62
3d61c1cc4f70027765f9d0ea04460a9d3e9235cf,,derby,2005-07-21 19:18:25,2005-10-19T22:13:00+00:00,DERBY-62
3d61c1cc4f70027765f9d0ea04460a9d3e9235cf,,derby,2004-08-27 02:13:46,2005-10-19T22:13:00+00:00,DERBY-62
3d61c1cc4f70027765f9d0ea04460a9d3e9235cf,,derby,2004-10-14 09:57:05,2005-10-19T22:13:00+00:00,DERBY-62
3d61c1cc4f70027765f9d0ea04460a9d3e9235cf,,derby,2004-09-24 09:30:27,2005-10-19T22:13:00+00:00,DERBY-62
117d8b57c9860a1d112fecaa6d14a2b69fc4e8ea,,derby,2004-08-27 02:13:46,2005-10-14T13:59:46+00:00,DERBY-624
117d8b57c9860a1d112fecaa6d14a2b69fc4e8ea,,derby,2004-09-24 09:30:27,2005-10-14T13:59:46+00:00,DERBY-624
3d61c1cc4f70027765f9d0ea04460a9d3e9235cf,,derby,2004-10-29 02:56:42,2005-10-19T22:13:00+00:00,DERBY-626
3d61c1cc4f70027765f9d0ea04460a9d3e9235cf,,derby,2005-07-21 19:18:25,2005-10-19T22:13:00+00:00,DERBY-626
3d61c1cc4f70027765f9d0ea04460a9d3e9235cf,,derby,2004-08-27 02:13:46,2005-10-19T22:13:00+00:00,DERBY-626
3d61c1cc4f70027765f9d0ea04460a9d3e9235cf,,derby,2004-10-14 09:57:05,2005-10-19T22:13:00+00:00,DERBY-626
3d61c1cc4f70027765f9d0ea04460a9d3e9235cf,,derby,2004-09-24 09:30:27,2005-10-19T22:13:00+00:00,DERBY-626
413da9b56b3bab6037b544503fdd7c8525eb08e7,,derby,2005-01-12 08:53:57,2005-10-23T07:15:47+00:00,DERBY-640
c700973f7bc62bf0d3137ff3e78851e6d4939f6a,,derby,2004-08-27 02:13:46,2006-01-18T20:22:30+00:00,DERBY-649
c700973f7bc62bf0d3137ff3e78851e6d4939f6a,,derby,2004-09-24 09:30:27,2006-01-18T20:22:30+00:00,DERBY-649
381dfaf55d912bc28629a42101b59e094fb9387e,,derby,2005-03-17 15:35:44,2005-11-01T22:12:53+00:00,DERBY-656
8fa60644780de8d9245c5e1dc077ec68047ce31a,,derby,2004-08-27 02:13:46,2005-10-30T00:02:02+00:00,DERBY-66
f9f4d947ada9fcfdef9aea96044eb93592f228fc,,derby,2005-10-20 18:06:37,2005-11-03T17:16:22+00:00,DERBY-66
f9f4d947ada9fcfdef9aea96044eb93592f228fc,,derby,2005-08-09 09:36:48,2005-11-03T17:16:22+00:00,DERBY-66
f9f4d947ada9fcfdef9aea96044eb93592f228fc,,derby,2005-10-30 13:02:02,2005-11-03T17:16:22+00:00,DERBY-66
f9f4d947ada9fcfdef9aea96044eb93592f228fc,,derby,2004-08-27 02:13:46,2005-11-03T17:16:22+00:00,DERBY-66
f9f4d947ada9fcfdef9aea96044eb93592f228fc,,derby,2004-10-13 07:08:47,2005-11-03T17:16:22+00:00,DERBY-66
f9f4d947ada9fcfdef9aea96044eb93592f228fc,,derby,2004-09-24 09:30:27,2005-11-03T17:16:22+00:00,DERBY-66
ffd4e9bd1c3b9198ba3efcb14c1b79104c16db59,,derby,2005-10-20 18:06:37,2006-01-25T16:41:33+00:00,DERBY-66
ffd4e9bd1c3b9198ba3efcb14c1b79104c16db59,,derby,2004-08-27 02:13:46,2006-01-25T16:41:33+00:00,DERBY-66
ffd4e9bd1c3b9198ba3efcb14c1b79104c16db59,,derby,2004-09-24 09:30:27,2006-01-25T16:41:33+00:00,DERBY-66
8fa60644780de8d9245c5e1dc077ec68047ce31a,,derby,2004-08-27 02:13:46,2005-10-30T00:02:02+00:00,DERBY-662
f9f4d947ada9fcfdef9aea96044eb93592f228fc,,derby,2005-10-20 18:06:37,2005-11-03T17:16:22+00:00,DERBY-662
f9f4d947ada9fcfdef9aea96044eb93592f228fc,,derby,2005-08-09 09:36:48,2005-11-03T17:16:22+00:00,DERBY-662
f9f4d947ada9fcfdef9aea96044eb93592f228fc,,derby,2005-10-30 13:02:02,2005-11-03T17:16:22+00:00,DERBY-662
f9f4d947ada9fcfdef9aea96044eb93592f228fc,,derby,2004-08-27 02:13:46,2005-11-03T17:16:22+00:00,DERBY-662
f9f4d947ada9fcfdef9aea96044eb93592f228fc,,derby,2004-10-13 07:08:47,2005-11-03T17:16:22+00:00,DERBY-662
f9f4d947ada9fcfdef9aea96044eb93592f228fc,,derby,2004-09-24 09:30:27,2005-11-03T17:16:22+00:00,DERBY-662
4a8e892a90cd977d5af64cb43ac8330c445e12ea,,derby,2005-03-05 13:20:59,2005-11-04T00:39:09+00:00,DERBY-67
4a8e892a90cd977d5af64cb43ac8330c445e12ea,,derby,2005-03-05 13:20:59,2005-11-04T00:39:09+00:00,DERBY-675
08d6ce2322d4ded8cd00d5dbb7ba794f5d26db57,,derby,2004-08-27 02:13:46,2005-12-19T19:06:27+00:00,DERBY-7
08d6ce2322d4ded8cd00d5dbb7ba794f5d26db57,,derby,2004-09-24 09:30:27,2005-12-19T19:06:27+00:00,DERBY-7
08d6ce2322d4ded8cd00d5dbb7ba794f5d26db57,,derby,2004-09-25 05:33:20,2005-12-19T19:06:27+00:00,DERBY-7
14d31f942e8146fa512ceab2c0297b52e90c1723,,derby,2004-10-29 02:56:42,2006-01-05T17:38:00+00:00,DERBY-7
14d31f942e8146fa512ceab2c0297b52e90c1723,,derby,2004-10-14 09:57:05,2006-01-05T17:38:00+00:00,DERBY-7
18c4da72488f6655bc11839e7f5361cee79149f7,,derby,2004-08-27 02:13:46,2005-12-29T16:10:33+00:00,DERBY-7
18c4da72488f6655bc11839e7f5361cee79149f7,,derby,2004-09-24 09:30:27,2005-12-29T16:10:33+00:00,DERBY-7
209ff6104216ac54bb3162329f637973670f60fb,,derby,2005-04-08 07:04:20,2005-12-02T17:23:56+00:00,DERBY-7
23c70bdce3b1f7b115fd9bc95a3a35d0893c18e7,,derby,2004-08-27 02:13:46,2005-11-14T23:49:14+00:00,DERBY-7
23c70bdce3b1f7b115fd9bc95a3a35d0893c18e7,,derby,2004-09-24 09:30:27,2005-11-14T23:49:14+00:00,DERBY-7
2537b48cd0a68a3fee3314a1dc0ef6d3ead4e486,,derby,2004-11-12 20:39:22,2005-08-04T00:34:47+00:00,DERBY-7
2537b48cd0a68a3fee3314a1dc0ef6d3ead4e486,,derby,2005-01-12 08:53:57,2005-08-04T00:34:47+00:00,DERBY-7
2537b48cd0a68a3fee3314a1dc0ef6d3ead4e486,,derby,2004-09-24 09:30:27,2005-08-04T00:34:47+00:00,DERBY-7
2537b48cd0a68a3fee3314a1dc0ef6d3ead4e486,,derby,2004-12-16 19:20:35,2005-08-04T00:34:47+00:00,DERBY-7
2e4a44ee331251458ee6be6a67ec77275768b525,,derby,2005-01-01 10:49:50,2005-12-13T17:41:06+00:00,DERBY-7
2e4a44ee331251458ee6be6a67ec77275768b525,,derby,2004-11-12 20:39:22,2005-12-13T17:41:06+00:00,DERBY-7
2e4a44ee331251458ee6be6a67ec77275768b525,,derby,2005-11-24 10:52:19,2005-12-13T17:41:06+00:00,DERBY-7
2e4a44ee331251458ee6be6a67ec77275768b525,,derby,2005-05-12 07:40:57,2005-12-13T17:41:06+00:00,DERBY-7
2e4a44ee331251458ee6be6a67ec77275768b525,,derby,2004-08-27 02:13:46,2005-12-13T17:41:06+00:00,DERBY-7
2e4a44ee331251458ee6be6a67ec77275768b525,,derby,2004-10-29 17:56:29,2005-12-13T17:41:06+00:00,DERBY-7
2e4a44ee331251458ee6be6a67ec77275768b525,,derby,2004-09-24 09:30:27,2005-12-13T17:41:06+00:00,DERBY-7
31f29a4bb5e9e1901e11555251e1fa68f13a5c1e,,derby,2005-01-12 08:53:57,2005-12-18T05:15:39+00:00,DERBY-7
31f29a4bb5e9e1901e11555251e1fa68f13a5c1e,,derby,2005-05-02 18:25:59,2005-12-18T05:15:39+00:00,DERBY-7
31f29a4bb5e9e1901e11555251e1fa68f13a5c1e,,derby,2005-10-29 17:57:12,2005-12-18T05:15:39+00:00,DERBY-7
45075ccac34f2c5e5306299b2a3c6bb11ac10abd,,derby,2005-03-16 10:54:36,2005-12-28T17:35:31+00:00,DERBY-7
45075ccac34f2c5e5306299b2a3c6bb11ac10abd,,derby,2005-01-22 07:14:39,2005-12-28T17:35:31+00:00,DERBY-7
45075ccac34f2c5e5306299b2a3c6bb11ac10abd,,derby,2005-12-06 08:33:06,2005-12-28T17:35:31+00:00,DERBY-7
45075ccac34f2c5e5306299b2a3c6bb11ac10abd,,derby,2004-08-27 02:13:46,2005-12-28T17:35:31+00:00,DERBY-7
45075ccac34f2c5e5306299b2a3c6bb11ac10abd,,derby,2004-09-24 09:30:27,2005-12-28T17:35:31+00:00,DERBY-7
4549ad449ed51d86b1819a276a1ffd211e8d04a8,,derby,2005-04-08 06:50:39,2005-12-06T18:49:14+00:00,DERBY-7
4549ad449ed51d86b1819a276a1ffd211e8d04a8,,derby,2004-08-27 02:13:46,2005-12-06T18:49:14+00:00,DERBY-7
4549ad449ed51d86b1819a276a1ffd211e8d04a8,,derby,2005-10-29 00:51:50,2005-12-06T18:49:14+00:00,DERBY-7
4549ad449ed51d86b1819a276a1ffd211e8d04a8,,derby,2004-09-24 09:30:27,2005-12-06T18:49:14+00:00,DERBY-7
4aac5f7d6ed68f201999526e08a447c60b03433d,,derby,2005-06-09 18:48:34,2005-12-31T03:43:35+00:00,DERBY-7
4aac5f7d6ed68f201999526e08a447c60b03433d,,derby,2004-08-27 02:13:46,2005-12-31T03:43:35+00:00,DERBY-7
5a95e6baa245457cf2b2f3bbed0e6799a9825afc,,derby,2004-08-27 02:13:46,2005-11-18T21:24:53+00:00,DERBY-7
62721e65edb55accc10e1f13c44b8a23ed9ca580,,derby,2004-08-27 02:13:46,2006-01-21T02:43:36+00:00,DERBY-7
62721e65edb55accc10e1f13c44b8a23ed9ca580,,derby,2004-09-24 09:30:27,2006-01-21T02:43:36+00:00,DERBY-7
676d633b3f8def14a542b90c185cab590b6fe089,,derby,2005-10-20 18:06:37,2005-12-15T22:28:01+00:00,DERBY-7
676d633b3f8def14a542b90c185cab590b6fe089,,derby,2004-08-27 02:13:46,2005-12-15T22:28:01+00:00,DERBY-7
676d633b3f8def14a542b90c185cab590b6fe089,,derby,2005-10-29 00:51:50,2005-12-15T22:28:01+00:00,DERBY-7
676d633b3f8def14a542b90c185cab590b6fe089,,derby,2004-09-24 09:30:27,2005-12-15T22:28:01+00:00,DERBY-7
698e318fba44f050c4f5f89288688f8db119f5d2,,derby,2005-12-29 06:35:31,2005-12-28T20:37:15+00:00,DERBY-7
698e318fba44f050c4f5f89288688f8db119f5d2,,derby,2004-08-27 02:13:46,2005-12-28T20:37:15+00:00,DERBY-7
698e318fba44f050c4f5f89288688f8db119f5d2,,derby,2005-02-02 13:59:26,2005-12-28T20:37:15+00:00,DERBY-7
698e318fba44f050c4f5f89288688f8db119f5d2,,derby,2004-09-24 09:30:27,2005-12-28T20:37:15+00:00,DERBY-7
6a5edfc0a2993f24d26a051e8e2067c4f92dd45d,,derby,2004-08-27 02:13:46,2006-01-20T19:14:54+00:00,DERBY-7
6a5edfc0a2993f24d26a051e8e2067c4f92dd45d,,derby,2004-09-24 09:30:27,2006-01-20T19:14:54+00:00,DERBY-7
6b26ee1b6bf7bf06516634115b97a7b697c58d41,,derby,2005-01-07 14:06:42,2005-12-24T22:09:13+00:00,DERBY-7
6b26ee1b6bf7bf06516634115b97a7b697c58d41,,derby,2004-08-27 02:13:46,2005-12-24T22:09:13+00:00,DERBY-7
6b26ee1b6bf7bf06516634115b97a7b697c58d41,,derby,2005-10-29 00:51:50,2005-12-24T22:09:13+00:00,DERBY-7
6b26ee1b6bf7bf06516634115b97a7b697c58d41,,derby,2004-09-24 09:30:27,2005-12-24T22:09:13+00:00,DERBY-7
6fbf34b4bbd26f972a455ebb91a1ebbafc6002ab,,derby,2005-12-14 10:06:11,2005-12-15T19:03:30+00:00,DERBY-7
7736829deb42befd9e4d21445da1e43379582605,,derby,2004-08-27 02:13:46,2005-12-05T19:33:06+00:00,DERBY-7
7736829deb42befd9e4d21445da1e43379582605,,derby,2004-09-24 09:30:27,2005-12-05T19:33:06+00:00,DERBY-7
7ab414cf03348ca692eb98c98b13eb89d1bf40e6,,derby,2005-12-03 06:23:56,2005-12-13T21:06:11+00:00,DERBY-7
7ab414cf03348ca692eb98c98b13eb89d1bf40e6,,derby,2004-08-27 02:13:46,2005-12-13T21:06:11+00:00,DERBY-7
7ab414cf03348ca692eb98c98b13eb89d1bf40e6,,derby,2005-04-08 07:04:20,2005-12-13T21:06:11+00:00,DERBY-7
7ab414cf03348ca692eb98c98b13eb89d1bf40e6,,derby,2005-12-08 07:30:54,2005-12-13T21:06:11+00:00,DERBY-7
7ab414cf03348ca692eb98c98b13eb89d1bf40e6,,derby,2004-09-24 09:30:27,2005-12-13T21:06:11+00:00,DERBY-7
7e95befddf7ba6a7fc42d94309529a6a196cd471,,derby,2005-12-07 08:47:31,2005-12-17T02:11:28+00:00,DERBY-7
7e95befddf7ba6a7fc42d94309529a6a196cd471,,derby,2005-11-18 11:59:38,2005-12-17T02:11:28+00:00,DERBY-7
806114c49e29388fceca02df27d94d04b3be97ef,,derby,2005-08-05 11:44:02,2006-01-01T19:12:54+00:00,DERBY-7
806114c49e29388fceca02df27d94d04b3be97ef,,derby,2005-12-29 09:37:15,2006-01-01T19:12:54+00:00,DERBY-7
806114c49e29388fceca02df27d94d04b3be97ef,,derby,2005-06-01 06:28:57,2006-01-01T19:12:54+00:00,DERBY-7
806114c49e29388fceca02df27d94d04b3be97ef,,derby,2004-08-27 02:13:46,2006-01-01T19:12:54+00:00,DERBY-7
806114c49e29388fceca02df27d94d04b3be97ef,,derby,2005-10-29 00:51:50,2006-01-01T19:12:54+00:00,DERBY-7
806114c49e29388fceca02df27d94d04b3be97ef,,derby,2005-02-10 08:29:47,2006-01-01T19:12:54+00:00,DERBY-7
806114c49e29388fceca02df27d94d04b3be97ef,,derby,2005-02-02 13:59:26,2006-01-01T19:12:54+00:00,DERBY-7
806114c49e29388fceca02df27d94d04b3be97ef,,derby,2004-09-24 09:30:27,2006-01-01T19:12:54+00:00,DERBY-7
80916514065fe1ad55839dc6d5d3a154a1943e03,,derby,2006-01-19 09:22:30,2006-01-18T20:46:47+00:00,DERBY-7
82c7dde0566c7b457f3906cdc8bd5062ecdaa09d,,derby,2005-10-15 14:22:15,2005-11-23T21:52:19+00:00,DERBY-7
82c7dde0566c7b457f3906cdc8bd5062ecdaa09d,,derby,2005-05-12 07:46:30,2005-11-23T21:52:19+00:00,DERBY-7
82c7dde0566c7b457f3906cdc8bd5062ecdaa09d,,derby,2004-08-27 02:13:46,2005-11-23T21:52:19+00:00,DERBY-7
82c7dde0566c7b457f3906cdc8bd5062ecdaa09d,,derby,2004-09-24 09:30:27,2005-11-23T21:52:19+00:00,DERBY-7
a2f90d4f9a8699cd652ae7d0f141111df92bcef1,,derby,2004-08-27 02:13:46,2005-12-14T21:40:44+00:00,DERBY-7
a8f86a154bc40b532dc0240fa88d2553e8db3349,,derby,2004-09-24 09:30:27,2005-12-02T22:42:41+00:00,DERBY-7
ac64517b7882ccd06bbf72cc2a0659563535fa6b,,derby,2004-08-27 02:13:46,2005-12-02T00:46:56+00:00,DERBY-7
ac64517b7882ccd06bbf72cc2a0659563535fa6b,,derby,2004-09-24 09:30:27,2005-12-02T00:46:56+00:00,DERBY-7
b7cdec2dfed91195af60e1684a3a37ea73bf853d,,derby,2004-08-27 02:13:46,2005-11-17T12:44:16+00:00,DERBY-7
c7c8b2d614b6f1eecaee2a322a537880d4414c1b,,derby,2004-08-27 02:13:46,2005-12-02T14:40:59+00:00,DERBY-7
ce0c6c47103b809512e3b12b1386be00987f1e92,,derby,2005-11-26 18:14:15,2005-11-29T14:02:22+00:00,DERBY-7
ce0c6c47103b809512e3b12b1386be00987f1e92,,derby,2004-08-27 02:13:46,2005-11-29T14:02:22+00:00,DERBY-7
ce0c6c47103b809512e3b12b1386be00987f1e92,,derby,2004-09-24 09:30:27,2005-11-29T14:02:22+00:00,DERBY-7
da10c02add3120381dbea429bf434dc423742ac7,,derby,2005-11-26 18:14:15,2005-12-09T10:20:02+00:00,DERBY-7
da10c02add3120381dbea429bf434dc423742ac7,,derby,2005-11-30 03:02:22,2005-12-09T10:20:02+00:00,DERBY-7
daebcb950dd80bbe5ce3eeb86dd2c0c5759495b5,,derby,2004-09-24 09:30:27,2005-11-29T04:36:25+00:00,DERBY-7
dd5a87206656f0ce8e569bd8e1d4ec113f8ddb5c,,derby,2004-09-24 09:30:27,2005-12-22T12:29:35+00:00,DERBY-7
23c70bdce3b1f7b115fd9bc95a3a35d0893c18e7,,derby,2004-08-27 02:13:46,2005-11-14T23:49:14+00:00,DERBY-70
23c70bdce3b1f7b115fd9bc95a3a35d0893c18e7,,derby,2004-09-24 09:30:27,2005-11-14T23:49:14+00:00,DERBY-70
2e4a44ee331251458ee6be6a67ec77275768b525,,derby,2005-01-01 10:49:50,2005-12-13T17:41:06+00:00,DERBY-70
2e4a44ee331251458ee6be6a67ec77275768b525,,derby,2004-11-12 20:39:22,2005-12-13T17:41:06+00:00,DERBY-70
2e4a44ee331251458ee6be6a67ec77275768b525,,derby,2005-11-24 10:52:19,2005-12-13T17:41:06+00:00,DERBY-70
2e4a44ee331251458ee6be6a67ec77275768b525,,derby,2005-05-12 07:40:57,2005-12-13T17:41:06+00:00,DERBY-70
2e4a44ee331251458ee6be6a67ec77275768b525,,derby,2004-08-27 02:13:46,2005-12-13T17:41:06+00:00,DERBY-70
2e4a44ee331251458ee6be6a67ec77275768b525,,derby,2004-10-29 17:56:29,2005-12-13T17:41:06+00:00,DERBY-70
2e4a44ee331251458ee6be6a67ec77275768b525,,derby,2004-09-24 09:30:27,2005-12-13T17:41:06+00:00,DERBY-70
82c7dde0566c7b457f3906cdc8bd5062ecdaa09d,,derby,2005-10-15 14:22:15,2005-11-23T21:52:19+00:00,DERBY-70
82c7dde0566c7b457f3906cdc8bd5062ecdaa09d,,derby,2005-05-12 07:46:30,2005-11-23T21:52:19+00:00,DERBY-70
82c7dde0566c7b457f3906cdc8bd5062ecdaa09d,,derby,2004-08-27 02:13:46,2005-11-23T21:52:19+00:00,DERBY-70
82c7dde0566c7b457f3906cdc8bd5062ecdaa09d,,derby,2004-09-24 09:30:27,2005-11-23T21:52:19+00:00,DERBY-70
b7cdec2dfed91195af60e1684a3a37ea73bf853d,,derby,2004-08-27 02:13:46,2005-11-17T12:44:16+00:00,DERBY-70
23c70bdce3b1f7b115fd9bc95a3a35d0893c18e7,,derby,2004-08-27 02:13:46,2005-11-14T23:49:14+00:00,DERBY-704
23c70bdce3b1f7b115fd9bc95a3a35d0893c18e7,,derby,2004-09-24 09:30:27,2005-11-14T23:49:14+00:00,DERBY-704
b7cdec2dfed91195af60e1684a3a37ea73bf853d,,derby,2004-08-27 02:13:46,2005-11-17T12:44:16+00:00,DERBY-707
5a95e6baa245457cf2b2f3bbed0e6799a9825afc,,derby,2004-08-27 02:13:46,2005-11-18T21:24:53+00:00,DERBY-714
ac64517b7882ccd06bbf72cc2a0659563535fa6b,,derby,2004-08-27 02:13:46,2005-12-02T00:46:56+00:00,DERBY-715
ac64517b7882ccd06bbf72cc2a0659563535fa6b,,derby,2004-09-24 09:30:27,2005-12-02T00:46:56+00:00,DERBY-715
31f29a4bb5e9e1901e11555251e1fa68f13a5c1e,,derby,2005-01-12 08:53:57,2005-12-18T05:15:39+00:00,DERBY-72
31f29a4bb5e9e1901e11555251e1fa68f13a5c1e,,derby,2005-05-02 18:25:59,2005-12-18T05:15:39+00:00,DERBY-72
31f29a4bb5e9e1901e11555251e1fa68f13a5c1e,,derby,2005-10-29 17:57:12,2005-12-18T05:15:39+00:00,DERBY-72
ce0c6c47103b809512e3b12b1386be00987f1e92,,derby,2005-11-26 18:14:15,2005-11-29T14:02:22+00:00,DERBY-72
ce0c6c47103b809512e3b12b1386be00987f1e92,,derby,2004-08-27 02:13:46,2005-11-29T14:02:22+00:00,DERBY-72
ce0c6c47103b809512e3b12b1386be00987f1e92,,derby,2004-09-24 09:30:27,2005-11-29T14:02:22+00:00,DERBY-72
da10c02add3120381dbea429bf434dc423742ac7,,derby,2005-11-26 18:14:15,2005-12-09T10:20:02+00:00,DERBY-72
da10c02add3120381dbea429bf434dc423742ac7,,derby,2005-11-30 03:02:22,2005-12-09T10:20:02+00:00,DERBY-72
31f29a4bb5e9e1901e11555251e1fa68f13a5c1e,,derby,2005-01-12 08:53:57,2005-12-18T05:15:39+00:00,DERBY-721
31f29a4bb5e9e1901e11555251e1fa68f13a5c1e,,derby,2005-05-02 18:25:59,2005-12-18T05:15:39+00:00,DERBY-721
31f29a4bb5e9e1901e11555251e1fa68f13a5c1e,,derby,2005-10-29 17:57:12,2005-12-18T05:15:39+00:00,DERBY-721
ce0c6c47103b809512e3b12b1386be00987f1e92,,derby,2005-11-26 18:14:15,2005-11-29T14:02:22+00:00,DERBY-721
ce0c6c47103b809512e3b12b1386be00987f1e92,,derby,2004-08-27 02:13:46,2005-11-29T14:02:22+00:00,DERBY-721
ce0c6c47103b809512e3b12b1386be00987f1e92,,derby,2004-09-24 09:30:27,2005-11-29T14:02:22+00:00,DERBY-721
da10c02add3120381dbea429bf434dc423742ac7,,derby,2005-11-26 18:14:15,2005-12-09T10:20:02+00:00,DERBY-721
da10c02add3120381dbea429bf434dc423742ac7,,derby,2005-11-30 03:02:22,2005-12-09T10:20:02+00:00,DERBY-721
daebcb950dd80bbe5ce3eeb86dd2c0c5759495b5,,derby,2004-09-24 09:30:27,2005-11-29T04:36:25+00:00,DERBY-730
4549ad449ed51d86b1819a276a1ffd211e8d04a8,,derby,2005-04-08 06:50:39,2005-12-06T18:49:14+00:00,DERBY-74
4549ad449ed51d86b1819a276a1ffd211e8d04a8,,derby,2004-08-27 02:13:46,2005-12-06T18:49:14+00:00,DERBY-74
4549ad449ed51d86b1819a276a1ffd211e8d04a8,,derby,2005-10-29 00:51:50,2005-12-06T18:49:14+00:00,DERBY-74
4549ad449ed51d86b1819a276a1ffd211e8d04a8,,derby,2004-09-24 09:30:27,2005-12-06T18:49:14+00:00,DERBY-74
a8f86a154bc40b532dc0240fa88d2553e8db3349,,derby,2004-09-24 09:30:27,2005-12-02T22:42:41+00:00,DERBY-74
c7c8b2d614b6f1eecaee2a322a537880d4414c1b,,derby,2004-08-27 02:13:46,2005-12-02T14:40:59+00:00,DERBY-74
a8f86a154bc40b532dc0240fa88d2553e8db3349,,derby,2004-09-24 09:30:27,2005-12-02T22:42:41+00:00,DERBY-741
7e95befddf7ba6a7fc42d94309529a6a196cd471,,derby,2005-12-07 08:47:31,2005-12-17T02:11:28+00:00,DERBY-750
7e95befddf7ba6a7fc42d94309529a6a196cd471,,derby,2005-11-18 11:59:38,2005-12-17T02:11:28+00:00,DERBY-750
62721e65edb55accc10e1f13c44b8a23ed9ca580,,derby,2004-08-27 02:13:46,2006-01-21T02:43:36+00:00,DERBY-757
62721e65edb55accc10e1f13c44b8a23ed9ca580,,derby,2004-09-24 09:30:27,2006-01-21T02:43:36+00:00,DERBY-757
676d633b3f8def14a542b90c185cab590b6fe089,,derby,2005-10-20 18:06:37,2005-12-15T22:28:01+00:00,DERBY-758
676d633b3f8def14a542b90c185cab590b6fe089,,derby,2004-08-27 02:13:46,2005-12-15T22:28:01+00:00,DERBY-758
676d633b3f8def14a542b90c185cab590b6fe089,,derby,2005-10-29 00:51:50,2005-12-15T22:28:01+00:00,DERBY-758
676d633b3f8def14a542b90c185cab590b6fe089,,derby,2004-09-24 09:30:27,2005-12-15T22:28:01+00:00,DERBY-758
6b26ee1b6bf7bf06516634115b97a7b697c58d41,,derby,2005-01-07 14:06:42,2005-12-24T22:09:13+00:00,DERBY-76
6b26ee1b6bf7bf06516634115b97a7b697c58d41,,derby,2004-08-27 02:13:46,2005-12-24T22:09:13+00:00,DERBY-76
6b26ee1b6bf7bf06516634115b97a7b697c58d41,,derby,2005-10-29 00:51:50,2005-12-24T22:09:13+00:00,DERBY-76
6b26ee1b6bf7bf06516634115b97a7b697c58d41,,derby,2004-09-24 09:30:27,2005-12-24T22:09:13+00:00,DERBY-76
08d6ce2322d4ded8cd00d5dbb7ba794f5d26db57,,derby,2004-08-27 02:13:46,2005-12-19T19:06:27+00:00,DERBY-77
08d6ce2322d4ded8cd00d5dbb7ba794f5d26db57,,derby,2004-09-24 09:30:27,2005-12-19T19:06:27+00:00,DERBY-77
08d6ce2322d4ded8cd00d5dbb7ba794f5d26db57,,derby,2004-09-25 05:33:20,2005-12-19T19:06:27+00:00,DERBY-77
18c4da72488f6655bc11839e7f5361cee79149f7,,derby,2004-08-27 02:13:46,2005-12-29T16:10:33+00:00,DERBY-77
18c4da72488f6655bc11839e7f5361cee79149f7,,derby,2004-09-24 09:30:27,2005-12-29T16:10:33+00:00,DERBY-77
45075ccac34f2c5e5306299b2a3c6bb11ac10abd,,derby,2005-03-16 10:54:36,2005-12-28T17:35:31+00:00,DERBY-77
45075ccac34f2c5e5306299b2a3c6bb11ac10abd,,derby,2005-01-22 07:14:39,2005-12-28T17:35:31+00:00,DERBY-77
45075ccac34f2c5e5306299b2a3c6bb11ac10abd,,derby,2005-12-06 08:33:06,2005-12-28T17:35:31+00:00,DERBY-77
45075ccac34f2c5e5306299b2a3c6bb11ac10abd,,derby,2004-08-27 02:13:46,2005-12-28T17:35:31+00:00,DERBY-77
45075ccac34f2c5e5306299b2a3c6bb11ac10abd,,derby,2004-09-24 09:30:27,2005-12-28T17:35:31+00:00,DERBY-77
698e318fba44f050c4f5f89288688f8db119f5d2,,derby,2005-12-29 06:35:31,2005-12-28T20:37:15+00:00,DERBY-77
698e318fba44f050c4f5f89288688f8db119f5d2,,derby,2004-08-27 02:13:46,2005-12-28T20:37:15+00:00,DERBY-77
698e318fba44f050c4f5f89288688f8db119f5d2,,derby,2005-02-02 13:59:26,2005-12-28T20:37:15+00:00,DERBY-77
698e318fba44f050c4f5f89288688f8db119f5d2,,derby,2004-09-24 09:30:27,2005-12-28T20:37:15+00:00,DERBY-77
806114c49e29388fceca02df27d94d04b3be97ef,,derby,2005-08-05 11:44:02,2006-01-01T19:12:54+00:00,DERBY-77
806114c49e29388fceca02df27d94d04b3be97ef,,derby,2005-12-29 09:37:15,2006-01-01T19:12:54+00:00,DERBY-77
806114c49e29388fceca02df27d94d04b3be97ef,,derby,2005-06-01 06:28:57,2006-01-01T19:12:54+00:00,DERBY-77
806114c49e29388fceca02df27d94d04b3be97ef,,derby,2004-08-27 02:13:46,2006-01-01T19:12:54+00:00,DERBY-77
806114c49e29388fceca02df27d94d04b3be97ef,,derby,2005-10-29 00:51:50,2006-01-01T19:12:54+00:00,DERBY-77
806114c49e29388fceca02df27d94d04b3be97ef,,derby,2005-02-10 08:29:47,2006-01-01T19:12:54+00:00,DERBY-77
806114c49e29388fceca02df27d94d04b3be97ef,,derby,2005-02-02 13:59:26,2006-01-01T19:12:54+00:00,DERBY-77
806114c49e29388fceca02df27d94d04b3be97ef,,derby,2004-09-24 09:30:27,2006-01-01T19:12:54+00:00,DERBY-77
80916514065fe1ad55839dc6d5d3a154a1943e03,,derby,2006-01-19 09:22:30,2006-01-18T20:46:47+00:00,DERBY-77
dd5a87206656f0ce8e569bd8e1d4ec113f8ddb5c,,derby,2004-09-24 09:30:27,2005-12-22T12:29:35+00:00,DERBY-77
18c4da72488f6655bc11839e7f5361cee79149f7,,derby,2004-08-27 02:13:46,2005-12-29T16:10:33+00:00,DERBY-777
18c4da72488f6655bc11839e7f5361cee79149f7,,derby,2004-09-24 09:30:27,2005-12-29T16:10:33+00:00,DERBY-777
4aac5f7d6ed68f201999526e08a447c60b03433d,,derby,2005-06-09 18:48:34,2005-12-31T03:43:35+00:00,DERBY-786
4aac5f7d6ed68f201999526e08a447c60b03433d,,derby,2004-08-27 02:13:46,2005-12-31T03:43:35+00:00,DERBY-786
14d31f942e8146fa512ceab2c0297b52e90c1723,,derby,2004-10-29 02:56:42,2006-01-05T17:38:00+00:00,DERBY-798
14d31f942e8146fa512ceab2c0297b52e90c1723,,derby,2004-10-14 09:57:05,2006-01-05T17:38:00+00:00,DERBY-798
2a6e45926e202aeffafec858d16d2f7b71d0fbfd,,derby,2005-12-18 18:15:39,2006-01-19T18:56:25+00:00,DERBY-8
2a6e45926e202aeffafec858d16d2f7b71d0fbfd,,derby,2005-03-16 10:54:36,2006-01-19T18:56:25+00:00,DERBY-8
375d4a0157eea9aa1ffe1edbe8a4535839f38511,,derby,2005-01-01 10:49:50,2006-01-24T11:56:16+00:00,DERBY-8
375d4a0157eea9aa1ffe1edbe8a4535839f38511,,derby,2004-08-27 02:13:46,2006-01-24T11:56:16+00:00,DERBY-8
375d4a0157eea9aa1ffe1edbe8a4535839f38511,,derby,2004-09-24 09:30:27,2006-01-24T11:56:16+00:00,DERBY-8
59126251a70b2ccb7cd005d23431d42ae0c9e4d7,,derby,2004-08-27 02:13:46,2006-01-18T19:03:46+00:00,DERBY-8
59126251a70b2ccb7cd005d23431d42ae0c9e4d7,,derby,2004-09-24 09:30:27,2006-01-18T19:03:46+00:00,DERBY-8
7162519d2798c210b33f17fec960f79b6cb74fad,,derby,2005-06-06 04:14:33,2006-01-20T13:34:53+00:00,DERBY-8
7162519d2798c210b33f17fec960f79b6cb74fad,,derby,2004-08-27 02:13:46,2006-01-20T13:34:53+00:00,DERBY-8
7162519d2798c210b33f17fec960f79b6cb74fad,,derby,2005-12-23 01:29:35,2006-01-20T13:34:53+00:00,DERBY-8
7162519d2798c210b33f17fec960f79b6cb74fad,,derby,2004-09-24 09:30:27,2006-01-20T13:34:53+00:00,DERBY-8
9f5bc901b1e5f06637ebdffce8d9c6728455dc1e,,derby,2005-05-02 18:25:59,2006-01-18T19:56:27+00:00,DERBY-8
b9a2c3686423ebca13c579cfd98739bce4824a31,,derby,2006-01-10 07:23:46,2006-01-18T17:25:09+00:00,DERBY-8
d5061702c7644fa98090bdc4c4143298fef463df,,derby,2005-05-06 02:35:57,2006-01-23T15:58:34+00:00,DERBY-8
d5061702c7644fa98090bdc4c4143298fef463df,,derby,2005-12-18 18:15:39,2006-01-23T15:58:34+00:00,DERBY-8
d5061702c7644fa98090bdc4c4143298fef463df,,derby,2005-04-29 07:05:42,2006-01-23T15:58:34+00:00,DERBY-8
d5061702c7644fa98090bdc4c4143298fef463df,,derby,2005-12-19 23:08:36,2006-01-23T15:58:34+00:00,DERBY-8
d5061702c7644fa98090bdc4c4143298fef463df,,derby,2005-06-04 07:35:33,2006-01-23T15:58:34+00:00,DERBY-8
d5061702c7644fa98090bdc4c4143298fef463df,,derby,2005-11-23 05:31:22,2006-01-23T15:58:34+00:00,DERBY-8
d5061702c7644fa98090bdc4c4143298fef463df,,derby,2005-05-02 18:25:59,2006-01-23T15:58:34+00:00,DERBY-8
d5061702c7644fa98090bdc4c4143298fef463df,,derby,2005-09-16 00:49:14,2006-01-23T15:58:34+00:00,DERBY-8
d5061702c7644fa98090bdc4c4143298fef463df,,derby,2005-10-20 00:36:14,2006-01-23T15:58:34+00:00,DERBY-8
d5061702c7644fa98090bdc4c4143298fef463df,,derby,2005-10-29 17:57:12,2006-01-23T15:58:34+00:00,DERBY-8
d5061702c7644fa98090bdc4c4143298fef463df,,derby,2005-12-21 13:53:42,2006-01-23T15:58:34+00:00,DERBY-8
d5061702c7644fa98090bdc4c4143298fef463df,,derby,2005-07-07 04:21:43,2006-01-23T15:58:34+00:00,DERBY-8
d5061702c7644fa98090bdc4c4143298fef463df,,derby,2005-10-01 16:30:43,2006-01-23T15:58:34+00:00,DERBY-8
d5061702c7644fa98090bdc4c4143298fef463df,,derby,2005-11-15 04:42:40,2006-01-23T15:58:34+00:00,DERBY-8
d5061702c7644fa98090bdc4c4143298fef463df,,derby,2006-01-21 03:25:53,2006-01-23T15:58:34+00:00,DERBY-8
d5061702c7644fa98090bdc4c4143298fef463df,,derby,2005-05-24 07:33:33,2006-01-23T15:58:34+00:00,DERBY-8
daecc5dd255acce2a911c73ebea070753c5f90f4,,derby,2005-04-29 07:05:42,2006-01-20T14:25:53+00:00,DERBY-8
daecc5dd255acce2a911c73ebea070753c5f90f4,,derby,2005-05-02 18:25:59,2006-01-20T14:25:53+00:00,DERBY-8
daecc5dd255acce2a911c73ebea070753c5f90f4,,derby,2004-08-27 02:13:46,2006-01-20T14:25:53+00:00,DERBY-8
daecc5dd255acce2a911c73ebea070753c5f90f4,,derby,2004-09-24 09:30:27,2006-01-20T14:25:53+00:00,DERBY-8
f28de925cd711b13ffec16ce579464411c8818fe,,derby,2006-01-21 03:25:53,2006-01-20T19:03:14+00:00,DERBY-8
f578f070790bf9cec5e2c603f056364d21f882a3,,derby,2005-03-17 10:15:46,2005-06-22T03:02:54+00:00,DERBY-8
f578f070790bf9cec5e2c603f056364d21f882a3,,derby,2004-11-12 20:39:22,2005-06-22T03:02:54+00:00,DERBY-8
f578f070790bf9cec5e2c603f056364d21f882a3,,derby,2005-01-12 08:53:57,2005-06-22T03:02:54+00:00,DERBY-8
f578f070790bf9cec5e2c603f056364d21f882a3,,derby,2004-08-27 02:13:46,2005-06-22T03:02:54+00:00,DERBY-8
f578f070790bf9cec5e2c603f056364d21f882a3,,derby,2004-09-24 09:30:27,2005-06-22T03:02:54+00:00,DERBY-8
59126251a70b2ccb7cd005d23431d42ae0c9e4d7,,derby,2004-08-27 02:13:46,2006-01-18T19:03:46+00:00,DERBY-808
59126251a70b2ccb7cd005d23431d42ae0c9e4d7,,derby,2004-09-24 09:30:27,2006-01-18T19:03:46+00:00,DERBY-808
b9a2c3686423ebca13c579cfd98739bce4824a31,,derby,2006-01-10 07:23:46,2006-01-18T17:25:09+00:00,DERBY-810
7162519d2798c210b33f17fec960f79b6cb74fad,,derby,2005-06-06 04:14:33,2006-01-20T13:34:53+00:00,DERBY-82
7162519d2798c210b33f17fec960f79b6cb74fad,,derby,2004-08-27 02:13:46,2006-01-20T13:34:53+00:00,DERBY-82
7162519d2798c210b33f17fec960f79b6cb74fad,,derby,2005-12-23 01:29:35,2006-01-20T13:34:53+00:00,DERBY-82
7162519d2798c210b33f17fec960f79b6cb74fad,,derby,2004-09-24 09:30:27,2006-01-20T13:34:53+00:00,DERBY-82
9f5bc901b1e5f06637ebdffce8d9c6728455dc1e,,derby,2005-05-02 18:25:59,2006-01-18T19:56:27+00:00,DERBY-82
d5061702c7644fa98090bdc4c4143298fef463df,,derby,2005-05-06 02:35:57,2006-01-23T15:58:34+00:00,DERBY-85
d5061702c7644fa98090bdc4c4143298fef463df,,derby,2005-12-18 18:15:39,2006-01-23T15:58:34+00:00,DERBY-85
d5061702c7644fa98090bdc4c4143298fef463df,,derby,2005-04-29 07:05:42,2006-01-23T15:58:34+00:00,DERBY-85
d5061702c7644fa98090bdc4c4143298fef463df,,derby,2005-12-19 23:08:36,2006-01-23T15:58:34+00:00,DERBY-85
d5061702c7644fa98090bdc4c4143298fef463df,,derby,2005-06-04 07:35:33,2006-01-23T15:58:34+00:00,DERBY-85
d5061702c7644fa98090bdc4c4143298fef463df,,derby,2005-11-23 05:31:22,2006-01-23T15:58:34+00:00,DERBY-85
d5061702c7644fa98090bdc4c4143298fef463df,,derby,2005-05-02 18:25:59,2006-01-23T15:58:34+00:00,DERBY-85
d5061702c7644fa98090bdc4c4143298fef463df,,derby,2005-09-16 00:49:14,2006-01-23T15:58:34+00:00,DERBY-85
d5061702c7644fa98090bdc4c4143298fef463df,,derby,2005-10-20 00:36:14,2006-01-23T15:58:34+00:00,DERBY-85
d5061702c7644fa98090bdc4c4143298fef463df,,derby,2005-10-29 17:57:12,2006-01-23T15:58:34+00:00,DERBY-85
d5061702c7644fa98090bdc4c4143298fef463df,,derby,2005-12-21 13:53:42,2006-01-23T15:58:34+00:00,DERBY-85
d5061702c7644fa98090bdc4c4143298fef463df,,derby,2005-07-07 04:21:43,2006-01-23T15:58:34+00:00,DERBY-85
d5061702c7644fa98090bdc4c4143298fef463df,,derby,2005-10-01 16:30:43,2006-01-23T15:58:34+00:00,DERBY-85
d5061702c7644fa98090bdc4c4143298fef463df,,derby,2005-11-15 04:42:40,2006-01-23T15:58:34+00:00,DERBY-85
d5061702c7644fa98090bdc4c4143298fef463df,,derby,2006-01-21 03:25:53,2006-01-23T15:58:34+00:00,DERBY-85
d5061702c7644fa98090bdc4c4143298fef463df,,derby,2005-05-24 07:33:33,2006-01-23T15:58:34+00:00,DERBY-85
966d860030637c7a96953f4b152b0052119358a6,,derby,2004-09-24 09:30:27,2004-12-24T03:20:45+00:00,DERBY-9
c2afcc17cd2377c65deeebb7dfde3dbb76d47bcc,,derby,2005-04-01 11:55:44,2005-04-27T15:41:45+00:00,DERBY-9
966d860030637c7a96953f4b152b0052119358a6,,derby,2004-09-24 09:30:27,2004-12-24T03:20:45+00:00,DERBY-94
