Index,Version ID,Version Name,Date
1,12338369,0.1.0,2016-10-10T00:00
2,12338423,0.2.0,2017-02-18T00:00
3,12339649,0.3.0,2017-05-05T00:00
4,12340445,0.4.0,2017-05-22T00:00
5,12340613,0.4.1,2017-06-09T00:00
6,12340846,0.5.0,2017-07-23T00:00
7,12341088,0.6.0,2017-08-14T00:00
8,12341141,0.7.0,2017-09-17T00:00
9,12341666,0.7.1,2017-10-01T00:00
10,12341352,0.8.0,2017-12-18T00:00
11,12342291,JS-0.3.0,2018-02-21T00:00
12,12342821,JS-0.3.1,2018-03-16T00:00
13,12341707,0.9.0,2018-03-19T00:00
14,12342562,0.10.0,2018-08-06T00:00
15,12343066,0.11.0,2018-10-08T00:00
16,12344316,0.11.1,2018-10-23T00:00
17,12343858,0.12.0,2019-01-20T00:00
18,12342901,JS-0.4.0,2019-02-11T00:00
19,12344987,0.12.1,2019-02-25T00:00
20,12344961,JS-0.4.1,2019-03-24T00:00
21,12343937,0.13.0,2019-04-01T00:00
22,12344925,0.14.0,2019-07-04T00:00
23,12345727,0.14.1,2019-07-22T00:00
24,12345978,0.15.0,2019-10-05T00:00
