Bug ID,Bug Resolution Date by Jira,Classes Touched by Last Fix,Earliest AV,Version of Ticket Creation,Version of Fix,Ticket Creation Date,Fix Date (of most recent commit),Hash (of most recent commit),Git Directory
OOZIE-1387,2013-05-21 21:36:18 +0000,client/src/main/java/org/apache/oozie/cli/OozieCLI.java|core/src/test/java/org/apache/oozie/client/TestOozieCLI.java|release-log.txt|,5,6,6,2013-05-21 18:56:32 +0000,2013-05-21 21:35:43 +0000,465b7bdd3bb38f384ddfcad0f175ee2c7b8bc00a,oozie
OOZIE-1146,2013-04-24 19:53:33 +0000,core/src/main/java/org/apache/oozie/action/hadoop/HCatLauncherURIHandler.java|core/src/main/java/org/apache/oozie/action/hadoop/LauncherMapper.java|core/src/test/java/org/apache/oozie/action/hadoop/TestJavaActionExecutor.java|release-log.txt|sharelib/hive/src/main/java/org/apache/oozie/action/hadoop/HiveMain.java|,2,4,6,2012-12-26 06:47:22 +0000,2013-04-24 19:53:10 +0000,267e2210702691b6162789327fcb0f8fb0cf4182,oozie
OOZIE-1147,2012-12-27 00:31:29 +0000,core/src/main/java/org/apache/oozie/action/hadoop/HCatCredentialHelper.java|release-log.txt|,3,4,4,2012-12-26 20:00:44 +0000,2012-12-27 00:31:04 +0000,f82e82b6794476a4776dcc459a0c6ed492566363,oozie
OOZIE-1148,2013-01-02 20:01:51 +0000,core/src/main/java/org/apache/oozie/action/hadoop/JavaActionExecutor.java|core/src/main/java/org/apache/oozie/service/HadoopAccessorService.java|core/src/test/java/org/apache/oozie/service/TestHadoopAccessorService.java|release-log.txt|,3,4,5,2012-12-26 21:49:19 +0000,2013-01-02 19:51:46 +0000,c85aa15eac1caed043ec70e060be0dbdd3d87827,oozie
OOZIE-1149,2012-12-27 00:21:43 +0000,release-log.txt|,3,4,4,2012-12-27 00:04:19 +0000,2012-12-27 00:33:14 +0000,5fd2ccdb73a5c93e93d5ad35c6691e7662582614,oozie
OOZIE-2472,2016-03-04 01:49:19 +0000,core/src/main/java/org/apache/oozie/action/email/EmailActionExecutor.java|core/src/main/resources/oozie-default.xml|core/src/test/java/org/apache/oozie/action/email/TestEmailActionExecutor.java|docs/src/site/twiki/DG_EmailActionExtension.twiki|release-log.txt|,9,10,10,2016-03-01 08:17:50 +0000,2016-03-04 07:17:52 +0530,43e3f40b55e0e8fa27289efffcfd5a339fe7bb2a,oozie
OOZIE-3321,2018-08-08 09:19:06 +0000,examples/src/main/apps/pyspark/lib/pi.py|release-log.txt|sharelib/pom.xml|sharelib/spark/src/main/resources/pi.py|sharelib/spark/src/main/resources/py4j-0.9-src.zip|sharelib/spark/src/main/resources/pyspark.zip|sharelib/spark/src/test/java/org/apache/oozie/action/hadoop/TestPyspark.java|src/main/assemblies/examples.xml|,13,14,14,2018-08-06 14:56:42 +0000,2018-08-08 11:17:41 +0200,ae11fe7a9f07bed71faaec3a91232514c67f8b0f,oozie
OOZIE-1386,2013-05-22 18:46:28 +0000,client/src/main/java/org/apache/oozie/client/XOozieClient.java|core/src/test/java/org/apache/oozie/client/TestWorkflowXClient.java|release-log.txt|,5,6,6,2013-05-21 03:20:19 +0000,2013-05-22 18:46:00 +0000,0f24e67bf7733f9f4ad50312f0600aa0d23706dc,oozie
OOZIE-3313,2018-08-02 15:29:53 +0000,core/src/main/conf/action-conf/hive.xml|release-log.txt|,13,14,14,2018-08-02 11:56:03 +0000,2018-08-02 17:29:18 +0200,3dc9c7865db139f52f885e59b92b3998724c17a7,oozie
OOZIE-1377,2013-06-10 16:30:30 +0000,core/pom.xml|core/src/main/resources/META-INF/persistence.xml|pom.xml|release-log.txt|,5,6,6,2013-05-15 18:53:16 +0000,2013-06-10 16:30:09 +0000,dee88f62e8c5da7e2188aa8472c4872306887f2c,oozie
OOZIE-1130,2012-12-14 00:15:26 +0000,core/src/main/java/org/apache/oozie/workflow/lite/EndNodeDef.java|core/src/main/java/org/apache/oozie/workflow/lite/ForkNodeDef.java|core/src/main/java/org/apache/oozie/workflow/lite/JoinNodeDef.java|core/src/main/java/org/apache/oozie/workflow/lite/KillNodeDef.java|core/src/main/java/org/apache/oozie/workflow/lite/StartNodeDef.java|release-log.txt|,3,4,4,2012-12-12 21:30:59 +0000,2012-12-14 00:07:20 +0000,9f104c98d67d888b9564a1a1b4f8d6db42426771,oozie
OOZIE-1373,2013-05-29 17:14:53 +0000,docs/src/site/twiki/ENG_Building.twiki|pom.xml|release-log.txt|tools/src/test/java/org/apache/oozie/tools/FakeConnection.java|tools/src/test/java/org/apache/oozie/tools/FakeDriver.java|,5,6,6,2013-05-13 23:34:48 +0000,2013-05-29 17:14:16 +0000,72dfa8906ebab4dcec5bcd4600e5d9d486870968,oozie
OOZIE-1132,2013-03-20 17:36:25 +0000,docs/src/site/twiki/DG_QuickStart.twiki|docs/src/site/twiki/ENG_Building.twiki|release-log.txt|,3,4,5,2012-12-13 23:49:04 +0000,2013-03-20 17:35:20 +0000,d91e7529dff2e5ee09aa1e205b54cc356d920136,oozie
OOZIE-1133,2012-12-14 07:49:51 +0000,core/pom.xml|release-log.txt|,3,4,4,2012-12-14 00:20:25 +0000,2012-12-14 07:48:40 +0000,c5e6f8d16108b666a6cca1232f031f6147f67f94,oozie
OOZIE-3304,2018-08-09 10:07:20 +0000,core/src/main/java/org/apache/oozie/service/ShareLibService.java|core/src/test/java/org/apache/oozie/service/TestHAShareLibService.java|core/src/test/java/org/apache/oozie/service/TestShareLibService.java|release-log.txt|,11,14,14,2018-07-17 11:57:45 +0000,2018-08-09 13:05:54 +0300,6dedac6082c1cc3c4012a3c279632329a8b30482,oozie
OOZIE-1128,2012-12-11 18:38:44 +0000,core/src/main/java/org/apache/oozie/ErrorCode.java|core/src/main/java/org/apache/oozie/servlet/BaseJobServlet.java|core/src/main/java/org/apache/oozie/servlet/BaseJobsServlet.java|core/src/test/java/org/apache/oozie/servlet/TestJobsServlet.java|release-log.txt|,3,4,4,2012-12-10 23:37:07 +0000,2012-12-11 18:36:58 +0000,9e9928a43382b7132be680255934321f4964c03c,oozie
OOZIE-2218,2015-04-29 18:28:43 +0000,pom.xml|release-log.txt|,6,9,9,2015-04-28 19:16:19 +0000,2015-04-29 11:27:58 -0700,516919408e015dc98cd0449c833a19eb48aaebd7,oozie
OOZIE-3307,2018-09-26 10:26:36 +0000,core/src/test/java/org/apache/oozie/action/hadoop/LauncherMainTester.java|release-log.txt|,13,14,14,2018-07-19 13:26:53 +0000,2018-09-26 12:25:49 +0200,6ac2679e9f69e0d0619a6a179ed3849bb59d1b24,oozie
OOZIE-3529,2019-10-07 09:43:31 +0000,core/pom.xml|core/src/main/java/org/apache/oozie/service/HadoopAccessorService.java|core/src/main/resources/oozie-default.xml|core/src/test/java/org/apache/oozie/service/TestHadoopAccessorService.java|core/src/test/java/org/apache/oozie/test/XFsTestCase.java|docs/src/site/markdown/AG_HadoopConfiguration.md|release-log.txt|,12,15,15,2019-07-15 13:44:44 +0000,2019-10-07 11:40:11 +0200,21794c3fbd0db3d7c1c8836ace758176629e73eb,oozie
OOZIE-1598,2013-12-05 00:07:39 +0000,client/src/main/resources/email-action-0.2.xsd|core/src/main/java/org/apache/oozie/action/email/EmailActionExecutor.java|core/src/test/java/org/apache/oozie/action/email/TestEmailActionExecutor.java|docs/src/site/twiki/DG_EmailActionExtension.twiki|release-log.txt|,6,7,7,2013-10-24 16:13:48 +0000,2013-12-05 00:06:51 +0000,5f2b2ea167327a56c97642f4ec87eb50fac52f0f,oozie
OOZIE-1357,2013-06-13 23:17:08 +0000,client/src/main/java/org/apache/oozie/client/rest/JsonTags.java|client/src/main/java/org/apache/oozie/client/rest/RestConstants.java|core/src/main/java/org/apache/oozie/BaseEngine.java|core/src/main/java/org/apache/oozie/BundleEngine.java|core/src/main/java/org/apache/oozie/CoordinatorEngine.java|core/src/main/java/org/apache/oozie/DagEngine.java|core/src/main/java/org/apache/oozie/client/rest/JsonCoordinatorJob.java|core/src/main/java/org/apache/oozie/command/coord/CoordJobXCommand.java|core/src/main/java/org/apache/oozie/executor/jpa/CoordActionsCountForJobIdJPAExecutor.java|core/src/main/java/org/apache/oozie/executor/jpa/CoordJobGetActionsSubsetJPAExecutor.java|core/src/main/java/org/apache/oozie/servlet/BaseJobServlet.java|core/src/main/java/org/apache/oozie/servlet/V1JobServlet.java|core/src/test/java/org/apache/oozie/TestBundleEngineSimple.java|core/src/test/java/org/apache/oozie/TestCoordinatorEngine.java|core/src/test/java/org/apache/oozie/executor/jpa/TestCoordJobGetActionsSubsetJPAExecutor.java|core/src/test/java/org/apache/oozie/servlet/MockCoordinatorEngineService.java|release-log.txt|webapp/src/main/webapp/oozie-console.js|,5,6,6,2013-05-01 19:26:18 +0000,2013-06-05 17:26:19 +0000,133bcf7190eef0440f36e81ffec3cda683a99f22,oozie
OOZIE-1116,2012-12-07 06:45:47 +0000,core/pom.xml|hbaselibs/hbase-0.94/pom.xml|hbaselibs/pom.xml|pom.xml|release-log.txt|src/main/assemblies/hbaselib.xml|src/main/assemblies/hbaselibs.xml|,3,4,4,2012-12-05 19:55:01 +0000,2012-12-07 06:18:54 +0000,62292a3f72b7fbad7615482c8b1af02264b3611b,oozie
OOZIE-1110,2012-12-18 19:40:18 +0000,core/src/main/java/org/apache/oozie/command/XCommand.java|release-log.txt|,3,3,4,2012-11-30 22:31:11 +0000,2012-12-18 19:38:48 +0000,21fc4a1a1054148fddf0594f695a881e5ebd6427,oozie
OOZIE-1582,2013-10-18 18:07:11 +0000,distro/pom.xml|pom.xml|release-log.txt|,6,7,7,2013-10-17 17:23:35 +0000,2013-10-18 18:06:49 +0000,a64e7f5c3b168dd19d485d4f767bb3948a7920a8,oozie
OOZIE-1100,2012-12-03 18:33:14 +0000,core/pom.xml|core/src/main/java/org/apache/oozie/service/HadoopAccessorService.java|core/src/main/resources/oozie-default.xml|pom.xml|release-log.txt|webapp/pom.xml|,2,3,4,2012-11-28 22:36:50 +0000,2012-12-03 18:25:16 +0000,7138704bc9b669802ad0f44763fbaa66c37c10c4,oozie
OOZIE-2419,2016-01-19 19:11:47 +0000,core/src/main/java/org/apache/oozie/action/hadoop/HbaseCredentials.java|pom.xml|release-log.txt|,9,10,10,2015-12-11 18:30:31 +0000,2016-01-19 11:11:14 -0800,ad9d7bd381a473cba70cadcbf3b4d9b138896ea4,oozie
OOZIE-1332,2013-04-18 01:03:44 +0000,core/src/test/java/org/apache/oozie/command/wf/TestActionCheckXCommand.java|release-log.txt|,5,6,6,2013-04-17 23:21:56 +0000,2013-04-18 01:02:59 +0000,b4ac50e39e29d3cbdfd904c98bfb5f81fccaf6c2,oozie
OOZIE-2427,2018-04-23 08:43:22 +0000,release-log.txt|webapp/src/main/webapp/WEB-INF/web.xml|,9,10,14,2016-01-05 06:39:33 +0000,2018-04-23 10:41:57 +0200,35451d50529634c9ce8730abe782bd4cf182b9a1,oozie
OOZIE-3516,2019-06-21 08:23:53 +0000,core/src/main/java/org/apache/oozie/action/hadoop/HadoopTokenHelper.java|release-log.txt|,13,15,15,2019-06-17 15:09:17 +0000,2019-06-21 10:21:23 +0200,58950982b7d7e5df0ade809450b2b15fcddcbd21,oozie
OOZIE-2428,2016-01-13 23:27:48 +0000,core/src/test/java/org/apache/oozie/service/TestEventHandlerService.java|core/src/test/java/org/apache/oozie/sla/TestSLAService.java|release-log.txt|,9,10,10,2016-01-05 10:48:59 +0000,2016-01-13 15:24:21 -0800,b12a9f85e046bf29c061745502d79c25dd34421a,oozie
OOZIE-2654,2017-01-06 07:41:47 +0000,core/src/main/java/org/apache/oozie/service/ZKJobsConcurrencyService.java|core/src/main/java/org/apache/oozie/service/ZKLocksService.java|core/src/main/java/org/apache/oozie/util/ZKUtils.java|release-log.txt|,9,10,11,2016-08-24 01:56:49 +0000,2017-01-06 13:07:03 +0530,1431ca4eca747df44073bc076339e13185305f30,oozie
OOZIE-1565,2013-10-28 18:52:22 +0000,core/src/main/java/org/apache/oozie/servlet/V1JobServlet.java|core/src/main/java/org/apache/oozie/servlet/V2JobServlet.java|core/src/test/java/org/apache/oozie/servlet/TestV1JobServlet.java|core/src/test/java/org/apache/oozie/servlet/TestV2JobServlet.java|release-log.txt|,6,7,7,2013-10-08 02:05:22 +0000,2013-10-28 18:51:55 +0000,95c4736a2188fde92f370c5e91a128f6c3866db7,oozie
OOZIE-1323,2013-04-15 17:57:50 +0000,docs/src/site/twiki/AG_Install.twiki|release-log.txt|,5,6,6,2013-04-13 00:05:01 +0000,2013-04-15 17:57:20 +0000,a9cc0e4c4a7bea01196cfba64d90065f46d80744,oozie
OOZIE-897,2013-04-10 21:47:28 +0000,core/pom.xml|docs/src/site/twiki/ENG_Building.twiki|pom.xml|release-log.txt|,3,3,6,2012-06-29 22:54:57 +0000,2013-04-10 20:15:34 +0000,514ebca08b8005b1983ab6600c7641849271a117,oozie
OOZIE-2883,2018-05-24 07:58:19 +0000,core/src/main/java/org/apache/oozie/service/ProxyUserService.java|release-log.txt|,9,11,14,2017-05-08 09:13:34 +0000,2018-05-24 09:56:56 +0200,b4bbc46f884d3970c1448721ff539adfe308efb5,oozie
OOZIE-2884,2017-06-27 20:34:47 +0000,docs/src/site/twiki/DG_QuickStart.twiki|docs/src/site/twiki/ENG_Building.twiki|pom.xml|release-log.txt|,10,11,11,2017-05-09 19:17:43 +0000,2017-06-27 22:33:36 +0200,5778c6f5625747d92e25b2aff22bd20369c3d18b,oozie
OOZIE-2400,2016-02-19 01:18:11 +0000,client/src/main/java/org/apache/oozie/cli/OozieCLI.java|core/src/main/java/org/apache/oozie/util/XConfiguration.java|core/src/test/java/org/apache/oozie/util/TestXConfiguration.java|core/src/test/resources/test-oozie-with-prefix.xml|release-log.txt|sharelib/oozie/src/main/java/org/apache/oozie/action/hadoop/PrepareActionsDriver.java|,8,10,10,2015-11-12 09:41:21 +0000,2016-02-18 17:16:46 -0800,bda196b6089baaa764a0311b5f1fe6ee4621d462,oozie
OOZIE-1799,2014-04-24 17:16:29 +0000,examples/src/main/apps/hcatalog/README|examples/src/main/apps/hcatalog/job.properties|examples/src/main/apps/hcatalog/job.properties.security|examples/src/main/apps/hcatalog/workflow.xml|examples/src/main/apps/hcatalog/workflow.xml.security|,6,8,8,2014-04-17 04:06:32 +0000,2014-04-24 09:43:37 -0700,eed805ec3c704252472dd945fe02d067df42e1a3,oozie
OOZIE-1792,2014-04-15 17:51:42 +0000,core/src/main/java/org/apache/oozie/command/bundle/BundleKillXCommand.java|release-log.txt|,7,8,8,2014-04-10 22:39:45 +0000,2014-04-15 10:48:08 -0700,1e0ed571f72348fb47b96dd93f6f35c1a09dcb3f,oozie
OOZIE-2079,2015-01-06 19:17:19 +0000,core/src/main/java/org/apache/oozie/command/coord/CoordActionStartXCommand.java|,7,8,9,2014-11-28 18:20:37 +0000,2015-01-05 15:39:11 -0800,cc02d91d9e6db3b79f5dd2b92dd461f25662bdcc,oozie
OOZIE-3150,2018-03-26 15:56:22 +0000,NOTICE.txt|release-log.txt|,11,11,13,2017-12-29 21:49:40 +0000,2018-03-26 17:54:57 +0200,3fa86332022971785060b4775404bc38aff6eaf2,oozie
OOZIE-2063,2014-11-12 23:28:55 +0000,core/src/main/java/org/apache/oozie/command/coord/CoordMaterializeTransitionXCommand.java|core/src/test/java/org/apache/oozie/command/coord/TestCoordMaterializeTransitionXCommand.java|release-log.txt|,6,8,8,2014-11-12 02:30:44 +0000,2014-11-12 14:15:24 -0800,681c907ab090809aa1a70b9930cf0407fd14251d,oozie
OOZIE-3155,2018-08-31 09:54:01 +0000,release-log.txt|webapp/src/main/webapp/oozie-console.js|,11,11,14,2018-01-10 15:40:36 +0000,2018-08-31 11:52:58 +0200,9735dd38c4f4081e8869624848f8e1162ab7aa6e,oozie
OOZIE-3157,2018-01-26 15:54:02 +0000,core/src/main/resources/oozie-default.xml|docs/src/site/twiki/AG_Install.twiki|docs/src/site/twiki/DG_QuickStart.twiki|release-log.txt|server/src/main/java/org/apache/oozie/server/EmbeddedOozieServer.java|server/src/main/java/org/apache/oozie/server/SSLServerConnectorFactory.java|server/src/test/java/org/apache/oozie/server/TestEmbeddedOozieServer.java|server/src/test/java/org/apache/oozie/server/TestSSLServerConnectorFactory.java|,11,11,12,2018-01-11 17:26:26 +0000,2018-01-26 16:52:56 +0100,ef6d0af5edeb18fbc0259d1962ac70f8ad7c2a0c,oozie
OOZIE-2291,2015-07-27 20:49:13 +0000,examples/src/main/apps/hive2/workflow.xml.security|release-log.txt|,9,10,10,2015-07-01 21:24:55 +0000,2015-07-27 13:48:45 -0700,7af4a6decfcb9b74769630f509565ae2230639cd,oozie
OOZIE-2051,2015-04-13 21:12:03 +0000,core/src/main/java/org/apache/oozie/service/HadoopAccessorService.java|core/src/test/java/org/apache/oozie/service/TestHadoopAccessorService.java|core/src/test/resources/test-action-config-1.xml|core/src/test/resources/test-action-config-2.xml|core/src/test/resources/test-action-config-3.xml|core/src/test/resources/test-action-config.xml|core/src/test/resources/test-default-config-1.xml|core/src/test/resources/test-default-config.xml|docs/src/site/twiki/AG_ActionConfiguration.twiki|docs/src/site/twiki/index.twiki|release-log.txt|,8,8,9,2014-10-31 04:58:00 +0000,2015-04-13 14:10:38 -0700,a3606f2035b11d8e396fcde8b771b22cd4e6dd1a,oozie
OOZIE-3379,2018-12-06 11:52:20 +0000,client/src/main/java/org/apache/oozie/client/AuthOozieClient.java|core/src/main/java/org/apache/oozie/test/EmbeddedServletContainer.java|core/src/test/java/org/apache/oozie/servlet/TestAuthFilterAuthOozieClient.java|release-log.txt|,13,14,14,2018-11-05 12:03:50 +0000,2018-12-06 12:50:48 +0100,db15e6d30dea13d5c4f78c0bbba96205e16c5981,oozie
OOZIE-3139,2017-12-08 11:52:43 +0000,core/src/main/java/org/apache/oozie/workflow/lite/LiteWorkflowValidator.java|core/src/test/java/org/apache/oozie/workflow/lite/TestLiteWorkflowAppParser.java|core/src/test/resources/wf-kill-with-ok.xml|core/src/test/resources/wf-multiple-error-parent.xml|release-log.txt|,10,11,11,2017-12-05 15:03:57 +0000,2017-12-08 12:52:00 +0100,a7f7e083d029e71a5fe8a19a0bddf0ee8f7b85df,oozie
OOZIE-3370,2018-10-25 10:16:14 +0000,core/src/main/java/org/apache/oozie/action/hadoop/JavaActionExecutor.java|core/src/main/java/org/apache/oozie/util/ConfigUtils.java|release-log.txt|,13,14,14,2018-10-17 13:27:20 +0000,2018-10-25 12:11:03 +0200,fdcd8908b4b29ff5c09c5bcecb313aa44c998a22,oozie
OOZIE-3373,2018-11-05 08:57:44 +0000,core/src/main/java/org/apache/oozie/command/XCommand.java|release-log.txt|,10,14,14,2018-10-22 21:34:12 +0000,2018-11-05 09:56:49 +0100,38ab52f59039675927312a130d297d351454baac,oozie
OOZIE-2273,2016-09-20 22:17:03 +0000,core/src/test/java/org/apache/oozie/command/coord/TestCoordRerunXCommand.java|core/src/test/java/org/apache/oozie/service/TestHAPartitionDependencyManagerService.java|core/src/test/java/org/apache/oozie/test/XHCatTestCase.java|core/src/test/java/org/apache/oozie/test/XTestCase.java|examples/src/test/java/org/apache/oozie/example/TestLocalOozieExample.java|minitest/src/test/java/org/apache/oozie/test/WorkflowTest.java|release-log.txt|sharelib/pig/src/test/java/org/apache/oozie/action/hadoop/TestPigActionExecutor.java|sharelib/pig/src/test/java/org/apache/oozie/action/hadoop/TestPigMain.java|,9,10,10,2015-06-15 20:57:52 +0000,2016-09-20 15:16:29 -0700,00275b71a626a5035b9802309aadf7df378c5e59,oozie
OOZIE-2031,2014-10-27 00:53:00 +0000,docs/src/site/twiki/DG_ActionAuthentication.twiki|,7,8,8,2014-10-14 05:52:45 +0000,2014-10-27 06:21:10 +0530,e2fc8ea55fbe6e54b88ab211aa5af2f4e0f3d052,oozie
OOZIE-2032,2014-10-30 21:52:26 +0000,core/src/main/java/org/apache/oozie/util/ConfigUtils.java|core/src/test/java/org/apache/oozie/util/TestConfigUtils.java|release-log.txt|,7,8,8,2014-10-14 18:03:56 +0000,2014-10-30 14:51:51 -0700,ce3976e473ab258da3cd3b3828acc6403389390f,oozie
OOZIE-1186,2013-01-25 18:18:09 +0000,core/src/main/java/org/apache/oozie/util/GraphGenerator.java|core/src/test/java/org/apache/oozie/util/TestGraphGenerator.java|release-log.txt|,4,5,5,2013-01-23 04:39:36 +0000,2013-01-25 17:45:20 +0000,7beab122c3ea169f0b6d01685dac3190aed24903,oozie
OOZIE-2034,2014-11-11 23:35:26 +0000,distro/src/main/tomcat/ssl-server.xml|,7,8,8,2014-10-16 19:35:08 +0000,2014-11-11 15:34:13 -0800,e6eec244ed2676190e347bd4687f8712ad11ba90,oozie
OOZIE-1171,2013-01-16 17:12:52 +0000,core/src/main/java/org/apache/oozie/servlet/HostnameFilter.java|core/src/test/java/org/apache/oozie/servlet/TestHostnameFilter.java|release-log.txt|,3,5,5,2013-01-16 01:37:16 +0000,2013-01-16 17:12:23 +0000,ebd568058e2e9b4a42beb075971f1b7492e69055,oozie
OOZIE-3354,2018-09-28 13:36:13 +0000,core/src/main/java/org/apache/oozie/action/ssh/SshActionExecutor.java|release-log.txt|,13,14,14,2018-09-27 18:30:27 +0000,2018-09-28 15:34:42 +0200,4aa7bbde3570123833ab7ba2c51b7351647d1deb,oozie
OOZIE-2266,2015-06-23 00:24:37 +0000,core/src/main/java/org/apache/oozie/command/coord/CoordJobXCommand.java|core/src/main/java/org/apache/oozie/coord/CoordUtils.java|core/src/main/java/org/apache/oozie/executor/jpa/CoordActionsCountForJobIdJPAExecutor.java|core/src/main/java/org/apache/oozie/executor/jpa/CoordJobGetActionsSubsetJPAExecutor.java|core/src/test/java/org/apache/oozie/command/coord/TestCoordJobsXCommand.java|core/src/test/java/org/apache/oozie/coord/TestCoordUtils.java|core/src/test/java/org/apache/oozie/executor/jpa/TestCoordActionsCountForJobIdJPAExecutor.java|release-log.txt|,9,10,10,2015-06-11 01:14:36 +0000,2015-06-22 17:23:26 -0700,3a6fe570a2fb1c11fab3c961f25e56e0e91c83ff,oozie
OOZIE-3106,2017-11-20 11:00:59 +0000,bin/test-patch-20-tests|release-log.txt|,10,11,11,2017-10-31 16:26:21 +0000,2017-11-20 11:59:19 +0100,25a275c717c3db8616b971396cc6aac7bd8fdbba,oozie
OOZIE-2017,2014-10-08 20:25:49 +0000,release-log.txt|,6,8,8,2014-09-22 19:38:24 +0000,2014-10-09 15:40:51 -0700,58dadced8b3515d9a7fbadc751290373c69a22e0,oozie
OOZIE-3109,2018-07-02 08:53:38 +0000,core/src/main/java/org/apache/oozie/service/XLogStreamingService.java|core/src/main/java/org/apache/oozie/service/ZKXLogStreamingService.java|core/src/main/java/org/apache/oozie/util/TimestampedMessageParser.java|core/src/main/java/org/apache/oozie/util/XLogStreamer.java|core/src/test/java/org/apache/oozie/service/TestXLogStreamingService.java|release-log.txt|,10,11,14,2017-11-06 13:52:37 +0000,2018-07-02 10:51:31 +0200,f638381dacf5d0720f9f1f9786ea30d4493ada2a,oozie
OOZIE-2491,2016-09-19 17:14:12 +0000,core/src/main/java/org/apache/oozie/service/AuthorizationService.java|core/src/test/java/org/apache/oozie/service/TestAuthorizationService.java|release-log.txt|,8,10,10,2016-03-23 02:47:23 +0000,2016-09-19 10:13:25 -0700,3bd45e92475ef7b983176b1c52c1bceb20de6e49,oozie
OOZIE-2492,2016-03-30 00:25:02 +0000,release-log.txt|webapp/src/main/webapp/oozie-console.js|,8,10,10,2016-03-23 11:10:21 +0000,2016-03-29 17:24:27 -0700,ae2c3009a3a2ca1920b0896dfce71e15d24ea985,oozie
OOZIE-3100,2017-10-30 10:33:57 +0000,pom.xml|release-log.txt|sharelib/hive/pom.xml|sharelib/hive2/pom.xml|sharelib/pig/pom.xml|,10,11,11,2017-10-27 16:26:28 +0000,2017-10-30 11:30:55 +0100,25b13a35afb1a04df2c5bea71db7a6de2dc0c6b7,oozie
OOZIE-2494,2018-05-03 14:33:35 +0000,core/src/main/java/org/apache/oozie/command/coord/CoordMaterializeTransitionXCommand.java|core/src/test/java/org/apache/oozie/command/coord/TestCoordMaterializeTransitionXCommand.java|docs/src/site/twiki/CoordinatorFunctionalSpec.twiki|release-log.txt|,9,10,14,2016-03-30 07:22:46 +0000,2018-05-03 16:29:22 +0200,3c9b299a87cc500826707a752d4a830f198e1e2a,oozie
OOZIE-3102,2017-11-06 14:29:26 +0000,docs/src/site/twiki/index.twiki|release-log.txt|,1,11,11,2017-10-30 13:24:21 +0000,2017-11-06 15:28:33 +0100,6edcc291b1d13a2f950b8ae40669ccfe0cc94039,oozie
OOZIE-3343,2018-09-27 19:21:56 +0000,bin/test-patch-20-tests|release-log.txt|,13,14,14,2018-09-12 12:57:47 +0000,2018-09-27 21:20:52 +0200,33aec49da4548d65aea84a6c97ebb2a5a94f336f,oozie
OOZIE-3334,2018-08-31 09:47:53 +0000,core/src/main/java/org/apache/oozie/action/hadoop/HDFSCredentials.java|release-log.txt|,11,14,14,2018-08-30 13:54:57 +0000,2018-08-31 11:47:16 +0200,9d406cee71c7747a9a759a4ebf463d0a16821b1c,oozie
OOZIE-2489,2016-04-12 21:28:58 +0000,client/src/main/java/org/apache/oozie/cli/OozieCLI.java|client/src/main/java/org/apache/oozie/client/OozieClient.java|core/src/main/java/org/apache/oozie/util/GraphGenerator.java|core/src/main/java/org/apache/oozie/util/XConfiguration.java|core/src/main/java/org/apache/oozie/util/XmlUtils.java|release-log.txt|sharelib/oozie/src/main/java/org/apache/oozie/action/hadoop/PrepareActionsDriver.java|,8,10,10,2016-03-22 12:34:33 +0000,2016-04-12 14:26:22 -0700,50fef427dcc89758a3609c1a8c308b1534790ff6,oozie
OOZIE-2482,2016-05-26 23:51:00 +0000,core/src/main/java/org/apache/oozie/action/hadoop/SparkActionExecutor.java|docs/src/site/twiki/AG_Install.twiki|docs/src/site/twiki/DG_SparkActionExtension.twiki|pom.xml|release-log.txt|sharelib/spark/pom.xml|sharelib/spark/src/main/java/org/apache/oozie/action/hadoop/SparkMain.java|sharelib/spark/src/test/java/org/apache/oozie/action/hadoop/TestPyspark.java|sharelib/spark/src/test/java/org/apache/oozie/action/hadoop/TestSparkActionExecutor.java|sharelib/spark/src/test/resources/pi.py|sharelib/spark/src/test/resources/py4j-0.9-src.zip|sharelib/spark/src/test/resources/pyspark.zip|,9,10,10,2016-03-08 08:11:21 +0000,2016-05-26 16:54:06 -0700,b0ebf58e86f26f01571f558bf3b04d1788b8380f,oozie
OOZIE-3330,2018-08-22 15:53:26 +0000,release-log.txt|sharelib/spark/src/main/java/org/apache/oozie/action/hadoop/SparkOptionsSplitter.java|sharelib/spark/src/test/java/org/apache/oozie/action/hadoop/TestSparkArgsExtractor.java|sharelib/spark/src/test/java/org/apache/oozie/action/hadoop/TestSparkOptionsSplitter.java|,13,14,14,2018-08-17 12:23:38 +0000,2018-08-22 17:50:13 +0200,1c1225f8b36c578d91ad70a301babdd652f85058,oozie
OOZIE-2244,2016-08-03 10:08:07 +0000,release-log.txt|sharelib/oozie/src/main/java/org/apache/oozie/action/hadoop/JavaMain.java|sharelib/oozie/src/main/java/org/apache/oozie/action/hadoop/LauncherMapper.java|sharelib/sqoop/src/main/java/org/apache/oozie/action/hadoop/SqoopMain.java|,7,9,10,2015-05-21 19:00:20 +0000,2016-08-03 15:36:31 +0530,3276633f3002ad7e9096c4ee5b6c329f5a708248,oozie
OOZIE-916,2012-07-18 02:49:00 +0000,examples/src/main/apps/aggregator/coordinator.xml|release-log.txt|,1,3,3,2012-07-17 22:35:37 +0000,2012-07-18 02:45:46 +0000,ec3fd92f77838aaaababf9c6455b52616e713a8f,oozie
OOZIE-1920,2014-08-08 17:54:11 +0000,core/src/main/java/org/apache/oozie/WorkflowJobBean.java|core/src/main/java/org/apache/oozie/executor/jpa/WorkflowJobQueryExecutor.java|core/src/test/java/org/apache/oozie/executor/jpa/TestWorkflowJobQueryExecutor.java|release-log.txt|,6,8,8,2014-07-08 15:44:11 +0000,2014-08-08 10:52:34 -0700,fb6f4305fc133a3ba0b5614ea56263202d38693a,oozie
OOZIE-3085,2018-01-16 13:31:37 +0000,core/src/main/java/org/apache/oozie/action/control/ControlNodeActionExecutor.java|core/src/main/java/org/apache/oozie/action/decision/DecisionActionExecutor.java|core/src/main/java/org/apache/oozie/action/email/EmailActionExecutor.java|core/src/main/java/org/apache/oozie/action/hadoop/FsActionExecutor.java|core/src/main/java/org/apache/oozie/action/hadoop/JavaActionExecutor.java|core/src/main/java/org/apache/oozie/action/oozie/SubWorkflowActionExecutor.java|core/src/main/java/org/apache/oozie/action/ssh/SshActionExecutor.java|release-log.txt|,10,11,11,2017-10-16 10:01:39 +0000,2018-01-16 14:29:18 +0100,9491db0b82e5dc9ccdb172576f12f91f16893521,oozie
OOZIE-3061,2018-09-04 12:35:35 +0000,core/src/main/java/org/apache/oozie/action/hadoop/JavaActionExecutor.java|release-log.txt|sharelib/oozie/src/main/java/org/apache/oozie/action/hadoop/LauncherMain.java|sharelib/oozie/src/test/java/org/apache/oozie/action/hadoop/TestLauncherMain.java|,10,11,14,2017-09-18 22:03:24 +0000,2018-09-04 14:35:09 +0200,6323a8e43e4d70bcad69059a5e162f48cd0ed43c,oozie
OOZIE-3067,2019-01-04 10:42:20 +0000,core/src/main/java/org/apache/oozie/service/ZKJobsConcurrencyService.java|release-log.txt|,9,11,15,2017-09-22 13:48:18 +0000,2019-01-04 11:41:33 +0100,72ab9b346f1c183b18fd367d2ff18c5e5cc79bb8,oozie
OOZIE-3298,2018-09-11 14:21:54 +0000,core/src/main/java/org/apache/oozie/action/hadoop/JavaActionExecutor.java|core/src/main/java/org/apache/oozie/action/hadoop/MapReduceActionExecutor.java|core/src/test/java/org/apache/oozie/action/hadoop/ActionExecutorTestCase.java|core/src/test/java/org/apache/oozie/action/hadoop/TestJavaActionExecutor.java|core/src/test/java/org/apache/oozie/action/hadoop/TestYarnApplicationIdComparator.java|core/src/test/java/org/apache/oozie/action/hadoop/TestYarnApplicationIdFinder.java|core/src/test/java/org/apache/oozie/action/oozie/TestSubWorkflowActionExecutor.java|release-log.txt|sharelib/oozie/src/main/java/org/apache/oozie/action/hadoop/LauncherMain.java|sharelib/streaming/src/test/java/org/apache/oozie/action/hadoop/TestMapReduceActionExecutor.java|,13,14,14,2018-06-26 14:45:21 +0000,2018-09-11 16:19:13 +0200,d5c4f3b7bf3dd83b986a375016e7805a3c079086,oozie
OOZIE-3297,2018-07-03 08:02:40 +0000,core/src/main/java/org/apache/oozie/executor/jpa/BulkJPAExecutor.java|release-log.txt|,13,14,14,2018-06-25 14:26:50 +0000,2018-07-03 10:01:48 +0200,a299d4a6d435a2c92cd1d0ffce7f35a2ef8d639b,oozie
OOZIE-764,2012-06-13 18:48:12 +0000,release-log.txt|,2,2,3,2012-03-14 21:09:19 +0000,2012-06-13 18:47:50 +0000,3fc9ea2af3c26aa25deec9049c3e94afa5adfc61,oozie
OOZIE-2628,2016-08-11 03:43:04 +0000,docs/src/site/twiki/WorkflowFunctionalSpec.twiki|release-log.txt|,9,10,10,2016-08-08 11:52:39 +0000,2016-08-11 09:11:30 +0530,843ecda3a94adb5d9e9e20347099780bb128513b,oozie
OOZIE-1542,2013-10-29 17:20:24 +0000,release-log.txt|webapp/src/main/webapp/oozie-console.js|,6,7,7,2013-09-17 18:38:21 +0000,2013-10-29 16:45:02 +0000,97744d70ba8cf539dee5a1fee82b315425e2737c,oozie
OOZIE-1300,2013-04-04 18:53:31 +0000,docs/src/site/twiki/DG_EmailActionExtension.twiki|release-log.txt|,3,6,6,2013-04-01 16:28:49 +0000,2013-04-04 18:53:13 +0000,2cb227f8d60f7f559bdfbca03662934b266db519,oozie
OOZIE-1543,2014-03-13 21:07:08 +0000,docs/src/site/twiki/DG_HiveActionExtension.twiki|release-log.txt|,6,7,7,2013-09-17 21:59:40 +0000,2014-03-13 14:06:24 -0700,3fd77d2ca145aff3d828bc8befbbaddde98ae19f,oozie
OOZIE-1546,2013-09-23 18:25:24 +0000,core/src/test/java/org/apache/oozie/action/hadoop/MapperReducerUberJarForTest.java|release-log.txt|sharelib/streaming/src/test/java/org/apache/oozie/action/hadoop/TestMapReduceActionExecutor.java|,6,7,7,2013-09-18 21:26:46 +0000,2013-09-23 18:24:23 +0000,783d56e523ee98eb5ca52550b877b790b9cae9ee,oozie
OOZIE-1789,2014-10-30 10:55:52 +0000,core/src/main/java/org/apache/oozie/service/ShareLibService.java|core/src/test/java/org/apache/oozie/service/TestShareLibService.java|release-log.txt|,1,8,8,2014-04-10 09:34:10 +0000,2014-10-30 16:23:32 +0530,fc2ecf4745e87a0761d2585be1cb56ac96991449,oozie
OOZIE-2870,2017-05-03 16:25:34 +0000,docs/src/site/twiki/CoordinatorFunctionalSpec.twiki|release-log.txt|,10,11,11,2017-04-26 10:52:07 +0000,2017-05-03 18:24:42 +0200,87ed1b37949fe1e7e8306da8287b53cb2025cf23,oozie
OOZIE-994,2012-09-28 23:06:11 +0000,core/src/test/java/org/apache/oozie/command/wf/TestActionCheckXCommand.java|release-log.txt|,2,3,3,2012-09-12 17:36:37 +0000,2012-10-26 23:29:01 +0000,0c98347cf53590015ca8720475caffe24b5489f8,oozie
OOZIE-2619,2017-01-25 06:49:06 +0000,core/src/main/conf/action-conf/hive.xml|core/src/main/java/org/apache/oozie/action/hadoop/JavaActionExecutor.java|release-log.txt|,3,10,11,2016-07-26 05:40:29 +0000,2017-01-25 12:15:12 +0530,b4c75a3c64db7c1d84dbc3485e0e73817b70a29f,oozie
OOZIE-2864,2017-04-13 11:34:18 +0000,core/pom.xml|pom.xml|release-log.txt|,10,11,11,2017-04-11 10:37:35 +0000,2017-04-13 13:33:00 +0200,0e1a0004445c37849570f14a20a1e7f55a3a3860,oozie
OOZIE-2622,2016-09-30 18:58:58 +0000,docs/src/site/twiki/DG_QuickStart.twiki|release-log.txt|,9,10,10,2016-07-26 09:35:30 +0000,2016-09-30 11:46:15 -0700,9fc2e68d768a69a8ae9aad5e52578e1e9d47b061,oozie
OOZIE-2847,2018-02-06 12:33:21 +0000,release-log.txt|sharelib/oozie/src/main/java/org/apache/oozie/action/hadoop/LauncherAM.java|sharelib/oozie/src/test/java/org/apache/oozie/action/hadoop/TestLauncherAM.java|,10,11,12,2017-03-28 13:17:09 +0000,2018-02-06 13:19:46 +0100,5f6b9159dda6a1045bcbe7c88d17c6e6af46bc51,oozie
OOZIE-2606,2016-09-30 17:38:52 +0000,pom.xml|release-log.txt|sharelib/spark/pom.xml|sharelib/spark/src/main/java/org/apache/oozie/action/hadoop/SparkMain.java|sharelib/spark/src/test/java/org/apache/oozie/action/hadoop/TestSparkMain.java|,9,10,10,2016-07-06 19:59:08 +0000,2016-09-30 10:37:35 -0700,a4dbeda9550e4bec5ef5adf0f86f4ea7be6cd155,oozie
OOZIE-2608,2017-08-10 10:19:32 +0000,core/src/main/java/org/apache/oozie/service/JPAService.java|release-log.txt|,9,10,11,2016-07-15 12:20:01 +0000,2017-08-10 12:10:30 +0200,5b3766809a48700d6044f3e28706e5da77ae30c1,oozie
OOZIE-1765,2014-03-31 19:51:44 +0000,core/src/main/java/org/apache/oozie/service/JMSTopicService.java|core/src/test/java/org/apache/oozie/service/TestJMSTopicService.java|docs/src/site/twiki/AG_Install.twiki|docs/src/site/twiki/DG_JMSNotifications.twiki|release-log.txt|,6,7,8,2014-03-28 21:03:09 +0000,2014-03-31 12:49:28 -0700,0b4d3521a92ca8f7d4f7e6f91e6470d2a09118bc,oozie
OOZIE-1768,2014-04-23 22:12:19 +0000,client/src/main/java/org/apache/oozie/cli/OozieCLI.java|client/src/main/resources/oozie-workflow-0.4.5.xsd|core/src/main/java/org/apache/oozie/service/SchemaService.java|docs/src/site/twiki/WorkflowFunctionalSpec.twiki|release-log.txt|,6,8,8,2014-04-01 18:56:10 +0000,2014-04-23 15:01:14 -0700,6e9486bf63aca631e7ae9b0295585c6f3f65df0a,oozie
OOZIE-1526,2013-10-03 16:37:25 +0000,core/src/main/java/org/apache/oozie/service/HadoopAccessorService.java|core/src/test/java/org/apache/oozie/service/TestHadoopAccessorService.java|release-log.txt|,4,7,7,2013-09-12 20:37:35 +0000,2013-10-03 16:36:23 +0000,4fcdc8f6a6254b1950cdad59b3345cf237d3c829,oozie
OOZIE-1993,2015-05-20 06:33:09 +0000,core/src/main/java/org/apache/oozie/WorkflowActionBean.java|core/src/main/java/org/apache/oozie/command/wf/ReRunXCommand.java|core/src/main/java/org/apache/oozie/command/wf/SignalXCommand.java|core/src/main/java/org/apache/oozie/executor/jpa/WorkflowActionQueryExecutor.java|core/src/main/java/org/apache/oozie/service/LiteWorkflowStoreService.java|core/src/main/java/org/apache/oozie/workflow/WorkflowLib.java|core/src/main/java/org/apache/oozie/workflow/lite/LiteWorkflowInstance.java|core/src/main/java/org/apache/oozie/workflow/lite/LiteWorkflowLib.java|core/src/main/resources/oozie-log4j.properties|core/src/test/java/org/apache/oozie/command/wf/TestReRunXCommand.java|core/src/test/resources/rerun-wf-fork.xml|release-log.txt|,8,8,9,2014-09-05 20:44:48 +0000,2015-05-20 11:58:42 +0530,350ce480edc2fb8abd6c55acd29f01fc05c89675,oozie
OOZIE-1751,2014-03-24 19:04:33 +0000,client/src/main/java/org/apache/oozie/cli/OozieCLI.java|docs/src/site/twiki/DG_CommandLineTool.twiki|release-log.txt|,6,7,7,2014-03-19 17:11:14 +0000,2014-03-24 12:04:12 -0700,b94bcf4d1efc13edb0be0ffd8697b9cf28266253,oozie
OOZIE-1753,2014-03-21 21:14:14 +0000,bin/create-release-artifact|release-log.txt|,6,7,7,2014-03-21 19:50:05 +0000,2014-03-21 14:13:11 -0700,50fd33c5f5cad0768de0fb4d484afeacc0e4b24d,oozie
OOZIE-1756,2014-03-25 01:44:49 +0000,hadooplibs/hadoop-0.23/pom.xml|hadooplibs/hadoop-2/pom.xml|hadooplibs/hadoop-3/pom.xml|release-log.txt|,6,7,7,2014-03-24 20:58:16 +0000,2014-03-24 18:43:17 -0700,359d08d227a82f33d94b3f07d8fa690c1047c450,oozie
OOZIE-968,2012-08-27 06:02:21 +0000,release-log.txt|tools/src/main/bin/ooziedb.sh|,2,3,3,2012-08-24 20:19:33 +0000,2012-08-27 05:59:19 +0000,8dad27fb93bdc029f1e097a2aedc9939167fabe9,oozie
OOZIE-1978,2016-09-22 00:46:16 +0000,core/src/main/java/org/apache/oozie/ErrorCode.java|core/src/main/java/org/apache/oozie/service/ActionService.java|core/src/main/java/org/apache/oozie/workflow/lite/LiteWorkflowAppParser.java|core/src/main/java/org/apache/oozie/workflow/lite/LiteWorkflowValidator.java|core/src/test/java/org/apache/oozie/command/wf/TestSubmitXCommand.java|core/src/test/java/org/apache/oozie/workflow/lite/TestLiteWorkflowAppParser.java|core/src/test/resources/wf-long.xml|release-log.txt|,7,8,10,2014-08-22 19:16:18 +0000,2016-09-21 17:44:21 -0700,8e9b9042b3270dc5ff975c44a5c977fcc41250e4,oozie
OOZIE-2826,2018-05-22 08:52:12 +0000,pom.xml|release-log.txt|,10,11,14,2017-03-16 16:54:45 +0000,2018-05-22 10:50:51 +0200,c2f48f5d83b00b1c3e075830251b281cd9bb3180,oozie
OOZIE-2816,2017-03-21 16:40:13 +0000,core/src/main/java/org/apache/oozie/action/hadoop/SqoopActionExecutor.java|release-log.txt|sharelib/sqoop/src/test/java/org/apache/oozie/action/hadoop/TestSqoopActionExecutor.java|,10,11,11,2017-03-09 09:28:54 +0000,2017-03-21 22:08:38 +0530,2453e6c7fade5396ec22945c8325e11a660936c4,oozie
OOZIE-1734,2014-03-28 22:33:57 +0000,core/src/main/java/org/apache/oozie/ErrorCode.java|core/src/main/java/org/apache/oozie/servlet/JsonRestServlet.java|core/src/test/java/org/apache/oozie/servlet/MyJsonRestServlet.java|core/src/test/java/org/apache/oozie/servlet/TestJsonRestServlet.java|release-log.txt|,5,7,7,2014-03-07 19:04:10 +0000,2014-03-28 15:26:29 -0700,48c5e3884bdd33b88ec93786f37c10a22858e5f0,oozie
OOZIE-1718,2014-03-20 23:35:50 +0000,core/src/main/java/org/apache/oozie/CoordinatorJobBean.java|core/src/main/java/org/apache/oozie/command/coord/CoordKillXCommand.java|core/src/main/java/org/apache/oozie/executor/jpa/CoordJobQueryExecutor.java|core/src/main/java/org/apache/oozie/service/PauseTransitService.java|core/src/test/java/org/apache/oozie/command/bundle/TestBundleChangeXCommand.java|core/src/test/java/org/apache/oozie/command/coord/TestCoordKillXCommand.java|core/src/test/java/org/apache/oozie/executor/jpa/TestCoordJobQueryExecutor.java|release-log.txt|,6,7,7,2014-02-28 00:56:32 +0000,2014-03-20 16:33:28 -0700,cb9cbe8b2a3a5acccc9deaa0ef5826a671d9e5a2,oozie
OOZIE-1720,2014-03-17 19:58:47 +0000,release-log.txt|sharelib/hive/src/main/java/org/apache/oozie/action/hadoop/HiveMain.java|,6,7,7,2014-02-28 06:44:35 +0000,2014-03-17 12:57:35 -0700,4b130213bac3a6368bb5b0e71f9ddbc74bc4cc33,oozie
OOZIE-923,2012-08-18 06:55:23 +0000,core/src/main/java/org/apache/oozie/servlet/V1JobServlet.java|core/src/test/java/org/apache/oozie/servlet/TestV1JobServlet.java|release-log.txt|,2,3,3,2012-07-24 22:59:16 +0000,2012-08-18 06:52:04 +0000,7f1e478269108ef88055912055021b0d38f8af0b,oozie
OOZIE-2355,2015-09-04 22:04:59 +0000,examples/src/main/apps/hive2/script.q|release-log.txt|sharelib/hive2/src/main/java/org/apache/oozie/action/hadoop/Hive2Main.java|,8,10,10,2015-09-03 23:28:13 +0000,2015-09-04 15:03:41 -0700,396fcc6c453b28ad09a5940a390ca1a88b33cbfa,oozie
OOZIE-3207,2019-03-08 15:49:08 +0000,pom.xml|release-log.txt|,13,13,15,2018-03-29 21:12:27 +0000,2019-03-08 16:48:18 +0100,b3c2d13e3af7b428671de6cca5ad0d48a84db311,oozie
OOZIE-3208,2018-07-10 12:49:45 +0000,core/src/main/java/org/apache/oozie/DagELFunctions.java|core/src/main/java/org/apache/oozie/ErrorCode.java|core/src/main/java/org/apache/oozie/action/hadoop/JavaActionExecutor.java|core/src/main/java/org/apache/oozie/command/coord/CoordActionReadyXCommand.java|core/src/main/java/org/apache/oozie/command/wf/ActionXCommand.java|core/src/main/java/org/apache/oozie/service/CallableQueueService.java|core/src/main/java/org/apache/oozie/service/ConfigurationService.java|core/src/main/java/org/apache/oozie/util/ELConstantsFunctions.java|core/src/main/java/org/apache/oozie/util/XConfiguration.java|core/src/main/java/org/apache/oozie/util/XmlUtils.java|release-log.txt|,13,13,14,2018-03-29 21:48:52 +0000,2018-07-10 14:48:34 +0200,03b1a9f1e8d9443b337770bb3ecf7b43aeec49e8,oozie
OOZIE-2350,2015-09-03 05:17:00 +0000,pom.xml|release-log.txt|sharelib/spark/src/main/java/org/apache/oozie/action/hadoop/SparkMain.java|,9,10,10,2015-09-01 07:10:44 +0000,2015-09-03 10:37:57 +0530,ea434d2f812b6b9a1aed4537691953728bba13a2,oozie
OOZIE-3441,2019-02-28 09:52:51 +0000,pom.xml|release-log.txt|,14,15,15,2019-02-22 11:21:40 +0000,2019-02-28 10:51:17 +0100,f9053c8b4a8af7f5be364b53c0756deb308a8277,oozie
OOZIE-3440,2019-02-28 13:12:43 +0000,release-log.txt|sharelib/spark/src/main/java/org/apache/oozie/action/hadoop/SparkArgsExtractor.java|sharelib/spark/src/test/java/org/apache/oozie/action/hadoop/TestSparkArgsExtractor.java|,12,15,15,2019-02-22 08:01:46 +0000,2019-02-28 14:08:30 +0100,095e1f68f72693101d27e9b69f5adb3d5d0aab37,oozie
OOZIE-2352,2018-05-25 12:04:37 +0000,bin/create-release-artifact|bin/mkdistro.sh|bin/test-patch|bin/test-patch-00-clean|bin/test-patch-05-patch-raw-analysis|bin/test-patch-08-rat|bin/test-patch-09-javadoc|bin/test-patch-10-compile|bin/test-patch-11-findbugs-diff|bin/test-patch-15-backwards-compatibility|bin/test-patch-20-tests|bin/test-patch-30-distro|bin/test-patch-XX-template|bin/test-patch-find-new-patch-available-jiras|client/src/main/bin/oozie|core/src/main/conf/oozie-env.sh|core/src/main/resources/ssh-wrapper.sh|distro/src/main/bin/addtowar.sh|distro/src/main/bin/oozie-jetty-server.sh|distro/src/main/bin/oozie-run.sh|distro/src/main/bin/oozie-setup.sh|distro/src/main/bin/oozie-start.sh|distro/src/main/bin/oozie-stop.sh|distro/src/main/bin/oozie-sys.sh|distro/src/main/bin/oozied.sh|release-log.txt|source-headers.txt|tools/src/main/bin/oozie-diag-bundle-collector.sh|tools/src/main/bin/ooziedb.sh|,9,10,14,2015-09-01 14:28:13 +0000,2018-05-25 14:03:33 +0200,eba35f0108fa762559a2ffd229f76a6258a09b2b,oozie
OOZIE-2344,2015-09-03 23:24:48 +0000,core/src/main/java/org/apache/oozie/action/hadoop/JavaActionExecutor.java|release-log.txt|,8,10,10,2015-08-27 08:12:56 +0000,2015-09-03 16:24:12 -0700,8b5eedb5b6564f19e8125e5028d7ce37badeaa1d,oozie
OOZIE-2109,2015-02-05 01:06:55 +0000,core/src/main/java/org/apache/oozie/action/hadoop/JavaActionExecutor.java|core/src/main/java/org/apache/oozie/action/hadoop/MapReduceActionExecutor.java|,6,9,9,2015-01-10 20:10:02 +0000,2015-02-05 06:36:31 +0530,c48c1a643eab036b2a8ecf7fe6ff4f90e5c22478,oozie
OOZIE-2100,2015-01-05 22:00:35 +0000,release-log.txt|webapp/pom.xml|,8,9,9,2014-12-20 18:45:18 +0000,2015-01-05 13:57:30 -0800,04dae7c6c94891aa6aff6516ea5a3aa0b38127b3,oozie
OOZIE-1012,2012-10-12 00:57:30 +0000,core/src/main/java/org/apache/oozie/action/hadoop/SqoopActionExecutor.java|core/src/test/java/org/apache/oozie/action/hadoop/TestSqoopActionExecutor.java|docs/src/site/twiki/DG_SqoopActionExtension.twiki|docs/src/site/twiki/WorkflowFunctionalSpec.twiki|release-log.txt|,1,3,3,2012-10-04 16:35:09 +0000,2012-10-12 00:55:53 +0000,dc56aaeed6a56dff58e7ff1328ab36da8cae427a,oozie
OOZIE-1006,2012-10-03 02:00:21 +0000,distro/src/main/bin/addtowar.sh|distro/src/main/bin/oozie-setup.sh|release-log.txt|,2,3,3,2012-10-01 22:51:35 +0000,2012-10-03 01:54:58 +0000,f6d2e38daa0dc6f8b1be190737d601cd5dcbc42f,oozie
OOZIE-1243,2014-05-07 15:56:31 +0000,release-log.txt|src/main/assemblies/tools.xml|tools/pom.xml|,4,5,8,2013-03-01 19:01:13 +0000,2014-05-07 08:54:50 -0700,3e73f4e9aff0c3964067930355f7601c3c45cd89,oozie
OOZIE-3409,2019-02-28 10:29:44 +0000,core/pom.xml|core/src/main/java/org/apache/oozie/command/coord/CoordSubmitXCommand.java|core/src/main/java/org/apache/oozie/util/ELEvaluationException.java|core/src/main/java/org/apache/oozie/util/ELEvaluator.java|core/src/main/java/org/apache/oozie/util/StringUtils.java|core/src/test/java/org/apache/oozie/command/wf/TestActionErrors.java|core/src/test/java/org/apache/oozie/util/TestELEvaluator.java|core/src/test/java/org/apache/oozie/util/TestStringUtils.java|examples/pom.xml|pom.xml|release-log.txt|src/main/assemblies/distro.xml|,14,15,15,2018-12-19 19:47:44 +0000,2019-02-28 11:28:54 +0100,fe45dc17efebb74eb80e817d3123332434097d48,oozie
OOZIE-2322,2015-08-28 20:32:26 +0000,core/src/main/resources/oozie-default.xml|core/src/test/java/org/apache/oozie/service/TestConfigurationService.java|release-log.txt|,9,10,10,2015-07-30 20:23:24 +0000,2015-08-28 13:30:47 -0700,6b61d878e24653dbce2064a44e03072e8fe1e9f5,oozie
OOZIE-3414,2019-01-18 07:52:29 +0000,pom.xml|release-log.txt|tools/pom.xml|,14,15,15,2019-01-07 11:43:11 +0000,2019-01-18 08:51:38 +0100,2fbad90dac735b84be3d6d51fa0fd58e0fd89171,oozie
OOZIE-3415,2019-01-10 16:01:59 +0000,core/src/main/java/org/apache/oozie/servlet/BaseJobsServlet.java|core/src/main/java/org/apache/oozie/servlet/V1JobsServlet.java|core/src/test/java/org/apache/oozie/servlet/TestV1JobsServlet.java|release-log.txt|,14,15,15,2019-01-08 08:56:26 +0000,2019-01-10 17:01:08 +0100,8e8ebbbc7f12c144a3f26a838474d1ce3b801b1b,oozie
OOZIE-2796,2017-06-20 10:08:53 +0000,core/src/main/java/org/apache/oozie/WorkflowJobBean.java|core/src/main/java/org/apache/oozie/action/hadoop/FsActionExecutor.java|core/src/main/java/org/apache/oozie/action/hadoop/JavaActionExecutor.java|core/src/main/java/org/apache/oozie/command/wf/ActionKillXCommand.java|core/src/main/java/org/apache/oozie/command/wf/WfEndXCommand.java|core/src/main/java/org/apache/oozie/command/wf/WorkflowXCommand.java|core/src/main/java/org/apache/oozie/executor/jpa/WorkflowJobQueryExecutor.java|core/src/test/java/org/apache/oozie/executor/jpa/TestWorkflowJobQueryExecutor.java|release-log.txt|,10,11,11,2017-02-10 18:14:18 +0000,2017-06-20 12:08:32 +0200,8bb40f3fa88c1d17984108a8ec0ff56fd24800f6,oozie
OOZIE-1467,2013-07-25 16:18:53 +0000,core/src/main/java/org/apache/oozie/command/coord/CoordSubmitXCommand.java|core/src/main/java/org/apache/oozie/service/JPAService.java|core/src/main/java/org/apache/oozie/service/StatusTransitService.java|core/src/test/java/org/apache/oozie/command/bundle/TestBundleStartXCommand.java|core/src/test/java/org/apache/oozie/command/coord/TestCoordKillXCommand.java|release-log.txt|,3,6,6,2013-07-24 20:27:10 +0000,2013-07-25 16:18:27 +0000,5f88f216189c69d3208f504a763493bf77c5ce9a,oozie
OOZIE-1227,2013-02-15 07:05:10 +0000,core/src/main/java/org/apache/oozie/service/HadoopAccessorService.java|core/src/test/java/org/apache/oozie/service/TestHadoopAccessorService.java|release-log.txt|,3,5,5,2013-02-15 05:03:22 +0000,2013-02-15 07:04:27 +0000,ff950fbe426e8582ef0cc4fac64bcf398609ad52,oozie
OOZIE-1208,2013-03-18 18:06:03 +0000,release-log.txt|,4,5,5,2013-02-04 23:16:37 +0000,2013-03-18 18:05:37 +0000,7c5d74a185401f4d22f03377ce4fc2237e87e836,oozie
OOZIE-1211,2013-02-11 23:14:27 +0000,core/src/main/java/org/apache/oozie/command/coord/CoordSubmitXCommand.java|core/src/test/java/org/apache/oozie/command/coord/TestCoordSubmitXCommand.java|release-log.txt|,4,5,5,2013-02-07 01:06:46 +0000,2013-02-11 23:10:20 +0000,829dbf69d3d69dc79d6f2380cbd0970034bd0ce5,oozie
OOZIE-1451,2013-07-12 20:42:25 +0000,core/src/main/java/org/apache/oozie/command/coord/CoordActionInputCheckXCommand.java|release-log.txt|,5,6,6,2013-07-12 17:55:55 +0000,2013-07-12 20:41:08 +0000,d2a4ccc6211d2459eca04e391460e7b02c050cc8,oozie
OOZIE-1443,2013-08-08 20:46:12 +0000,core/src/main/java/org/apache/oozie/ErrorCode.java|core/src/main/java/org/apache/oozie/workflow/lite/LiteWorkflowAppParser.java|core/src/test/java/org/apache/oozie/workflow/lite/TestLiteWorkflowAppParser.java|release-log.txt|,5,6,6,2013-07-03 14:54:32 +0000,2013-08-08 20:45:56 +0000,842436e86e25bbd3d8613e1d6e4de5bb40e32d4f,oozie
OOZIE-1686,2014-06-09 08:34:35 +0000,docs/src/site/twiki/DG_CommandLineTool.twiki|release-log.txt|,6,7,8,2014-02-05 00:13:27 +0000,2014-06-09 01:30:04 -0700,052187f7946918ef861391d40188af6c8af6f7a7,oozie
OOZIE-1444,2013-07-03 16:10:48 +0000,release-log.txt|webapp/src/main/webapp/oozie-console.js|,5,6,6,2013-07-03 16:01:15 +0000,2013-07-03 16:09:20 +0000,cc5a6d93af3e64b35ea4c8ca8bef39976fb5e7e5,oozie
OOZIE-1687,2014-02-06 19:23:19 +0000,core/src/main/java/org/apache/oozie/CoordinatorJobBean.java|core/src/main/java/org/apache/oozie/command/bundle/BundleKillXCommand.java|core/src/main/java/org/apache/oozie/command/bundle/BundleStatusUpdateXCommand.java|core/src/test/java/org/apache/oozie/command/bundle/TestBundleKillXCommand.java|release-log.txt|,6,7,7,2014-02-05 00:27:51 +0000,2014-02-06 11:22:45 -0800,b6d7942cdaa56fa57c8ba70d7388ae8716f7355a,oozie
OOZIE-1447,2013-07-10 23:37:32 +0000,core/src/main/java/org/apache/oozie/action/hadoop/SqoopActionExecutor.java|release-log.txt|sharelib/sqoop/src/test/java/org/apache/oozie/action/hadoop/TestSqoopActionExecutor.java|,5,6,6,2013-07-10 20:22:50 +0000,2013-07-10 23:37:01 +0000,a98c7f89a4515c4c86c291929b735f582a9a7a23,oozie
OOZIE-1675,2014-02-01 09:21:15 +0000,core/src/main/java/org/apache/oozie/action/hadoop/JavaActionExecutor.java|core/src/test/java/org/apache/oozie/action/hadoop/TestJavaActionExecutor.java|release-log.txt|,6,7,7,2014-01-22 06:30:41 +0000,2014-02-01 01:10:51 -0800,ab67228ce31afac65f668579507f6e1c17a8301e,oozie
OOZIE-1671,2014-02-21 23:15:08 +0000,core/src/main/java/org/apache/oozie/CoordinatorEngine.java|core/src/test/java/org/apache/oozie/TestCoordinatorEngineStreamLog.java|release-log.txt|webapp/src/main/webapp/oozie-console.js|,6,7,7,2014-01-16 22:17:47 +0000,2014-02-21 10:20:30 -0800,fca69e95571173d93a98d1b910ad2f808fb111a3,oozie
OOZIE-1091,2012-12-11 04:22:14 +0000,docs/src/site/twiki/WorkflowFunctionalSpec.twiki|release-log.txt|,3,3,4,2012-11-27 21:46:32 +0000,2012-12-11 04:19:11 +0000,1864e7e4ad8c9cda9b8ff819eefb4c0a3abd6fdb,oozie
OOZIE-1093,2012-12-04 03:43:46 +0000,core/src/main/java/org/apache/oozie/action/hadoop/FsActionExecutor.java|release-log.txt|,3,3,4,2012-11-27 22:31:38 +0000,2012-12-04 03:40:26 +0000,e937241d9dc3dfbd717ed67c5c84157d6950891e,oozie
OOZIE-1094,2012-12-04 03:44:15 +0000,core/src/main/java/org/apache/oozie/action/hadoop/JavaActionExecutor.java|core/src/test/java/org/apache/oozie/action/hadoop/TestJavaActionExecutor.java|release-log.txt|,3,3,4,2012-11-27 22:38:43 +0000,2012-12-04 03:31:45 +0000,f3cdfef32d461f051f517ec444319509d4eab405,oozie
OOZIE-3278,2018-06-14 10:37:59 +0000,docs/src/site/twiki/DG_QuickStart.twiki|docs/src/site/twiki/ENG_Building.twiki|examples/pom.xml|release-log.txt|sharelib/pig/pom.xml|webapp/pom.xml|,13,14,14,2018-06-08 09:31:09 +0000,2018-06-14 12:36:55 +0200,09e053264b78787aa79ff0fc81da5f8d4fa09124,oozie
OOZIE-3036,2017-08-15 09:46:29 +0000,release-log.txt|sharelib/spark/src/main/java/org/apache/oozie/action/hadoop/SparkArgsExtractor.java|sharelib/spark/src/test/java/org/apache/oozie/action/hadoop/TestSparkArgsExtractor.java|,10,11,11,2017-08-14 15:11:00 +0000,2017-08-15 11:46:14 +0200,04a6d0541e83ab457db7c79e86986bb69a8eb432,oozie
OOZIE-1099,2012-12-03 22:34:52 +0000,core/src/main/java/org/apache/oozie/action/hadoop/PigMain.java|release-log.txt|,2,3,4,2012-11-28 19:58:20 +0000,2012-12-03 19:23:48 +0000,350a91585224cb3758c698f96c16a6ff200d26c3,oozie
OOZIE-3035,2017-08-31 13:30:45 +0000,core/src/main/java/org/apache/oozie/action/hadoop/JavaActionExecutor.java|core/src/main/java/org/apache/oozie/service/HadoopAccessorService.java|core/src/test/java/org/apache/oozie/action/hadoop/TestJavaActionExecutor.java|release-log.txt|,10,11,11,2017-08-14 14:23:26 +0000,2017-08-31 15:29:58 +0200,12ea195dd935d64c9a9dbe447acd0a76abef3c8e,oozie
OOZIE-3026,2017-08-31 13:22:17 +0000,core/src/main/conf/oozie-log4j.properties|core/src/main/resources/META-INF/persistence.xml|minitest/src/test/resources/oozie-log4j.properties|pom.xml|release-log.txt|,10,11,11,2017-08-03 17:45:28 +0000,2017-08-31 15:20:55 +0200,df0e3c24ccda30dce9fc745c6b479d8e4436c0b8,oozie
OOZIE-3028,2017-08-11 03:37:46 +0000,pom.xml|release-log.txt|sharelib/pig/pom.xml|,10,11,11,2017-08-08 11:37:10 +0000,2017-08-10 20:35:13 -0700,630171297cc75b56aafef27efdf2b9b746d86e33,oozie
OOZIE-3260,2018-06-12 12:39:17 +0000,core/src/main/java/org/apache/oozie/sla/SLACalcStatus.java|core/src/main/java/org/apache/oozie/sla/SLACalculatorMemory.java|core/src/main/java/org/apache/oozie/sla/service/SLAService.java|core/src/main/resources/oozie-default.xml|core/src/test/java/org/apache/oozie/sla/TestSLACalcStatus.java|core/src/test/java/org/apache/oozie/sla/TestSLACalculatorMemory.java|docs/src/site/twiki/DG_SLAMonitoring.twiki|release-log.txt|,13,14,14,2018-05-25 19:02:10 +0000,2018-06-12 14:37:14 +0200,87b3d0fff47de3e25251a0b667050a8ffc36f615,oozie
OOZIE-3021,2017-08-02 10:03:26 +0000,core/src/main/java/org/apache/oozie/service/EventHandlerService.java|release-log.txt|,10,11,11,2017-07-31 16:17:15 +0000,2017-08-02 12:32:43 +0200,311fda18183091138ce3c4ce9fbf878d478a3861,oozie
OOZIE-1084,2012-12-12 01:36:17 +0000,core/src/main/java/org/apache/oozie/service/CallbackService.java|core/src/test/java/org/apache/oozie/action/hadoop/TestHadoopELFunctions.java|release-log.txt|,2,3,4,2012-11-21 14:16:48 +0000,2012-12-12 01:35:17 +0000,43e6600094b05561086b2332dc783b6c7ec61c70,oozie
OOZIE-3024,2019-07-18 06:23:19 +0000,core/src/main/java/org/apache/oozie/action/email/EmailActionExecutor.java|core/src/test/java/org/apache/oozie/action/email/TestEmailActionExecutor.java|release-log.txt|,9,11,15,2017-08-03 11:09:05 +0000,2019-07-18 08:22:10 +0200,da012e37dba16e1b01d3300e55e3f5789ec3f3f9,oozie
OOZIE-2169,2015-03-18 06:38:22 +0000,docs/src/site/twiki/WorkflowFunctionalSpec.twiki|release-log.txt|,8,9,9,2015-03-11 23:41:36 +0000,2015-03-17 23:37:36 -0700,086945b0b3378d8400c6f856a6ab43bf33e194c0,oozie
OOZIE-3018,2017-07-31 12:35:40 +0000,core/src/main/java/org/apache/oozie/service/SchemaCheckerService.java|release-log.txt|,10,11,11,2017-07-31 09:23:12 +0000,2017-07-31 14:30:27 +0200,14e3b035aacf3b0d3d66763b250abf273fcb36b7,oozie
OOZIE-1071,2013-02-26 00:14:14 +0000,core/src/main/java/org/apache/oozie/coord/CoordELFunctions.java|core/src/main/resources/oozie-default.xml|core/src/test/java/org/apache/oozie/command/coord/TestCoordActionInputCheckXCommand.java|release-log.txt|,2,3,4,2012-11-16 04:01:23 +0000,2012-12-10 18:26:52 +0000,493cdb88913d056edcc902ab30070477f1d299bc,oozie
OOZIE-1072,2012-11-16 22:59:00 +0000,release-log.txt|,2,3,3,2012-11-16 18:49:06 +0000,2012-11-19 22:01:53 +0000,ee10ad12938cfe71ad3b8a9a3d795600d0cb0ad1,oozie
OOZIE-2165,2016-01-25 20:03:35 +0000,core/src/main/java/org/apache/oozie/service/ZKXLogStreamingService.java|release-log.txt|,8,9,10,2015-03-09 17:08:49 +0000,2016-01-25 11:53:02 -0800,fd3ae27da26cc410f02f1b3c580a6de98bf68e2f,oozie
OOZIE-2397,2015-11-25 19:44:13 +0000,core/src/main/java/org/apache/oozie/CoordinatorActionBean.java|core/src/main/java/org/apache/oozie/CoordinatorJobBean.java|core/src/main/java/org/apache/oozie/command/coord/CoordActionInputCheckXCommand.java|core/src/main/java/org/apache/oozie/command/coord/CoordActionReadyXCommand.java|core/src/main/java/org/apache/oozie/command/coord/CoordCommandUtils.java|core/src/main/java/org/apache/oozie/executor/jpa/CoordActionGetForInputCheckJPAExecutor.java|core/src/main/java/org/apache/oozie/executor/jpa/CoordJobGetReadyActionsJPAExecutor.java|core/src/main/java/org/apache/oozie/executor/jpa/CoordJobQueryExecutor.java|core/src/test/java/org/apache/oozie/command/coord/TestCoordActionInputCheckXCommand.java|core/src/test/java/org/apache/oozie/command/coord/TestCoordActionReadyXCommand.java|core/src/test/java/org/apache/oozie/command/coord/TestCoordCommandUtils.java|core/src/test/java/org/apache/oozie/command/coord/TestCoordMaterializeTransitionXCommand.java|core/src/test/java/org/apache/oozie/executor/jpa/TestCoordActionGetForInputCheckJPAExecutor.java|core/src/test/java/org/apache/oozie/executor/jpa/TestCoordJobGetReadyActionsJPAExecutor.java|core/src/test/java/org/apache/oozie/executor/jpa/TestCoordJobQueryExecutor.java|core/src/test/java/org/apache/oozie/test/XDataTestCase.java|docs/src/site/twiki/CoordinatorFunctionalSpec.twiki|release-log.txt|,9,10,10,2015-11-09 21:34:29 +0000,2015-11-25 11:22:03 -0800,08fa157df4eac151be32d9aa5cec5cd4c88fe574,oozie
OOZIE-2155,2015-03-06 22:47:27 +0000,docs/src/site/twiki/AG_Install.twiki|release-log.txt|,8,9,9,2015-02-26 00:46:10 +0000,2015-03-06 14:46:38 -0800,781716e8d72e95a961abcbaca4b2a84e423e936b,oozie
OOZIE-3478,2019-05-07 07:42:48 +0000,core/src/main/java/org/apache/oozie/action/hadoop/JavaActionExecutor.java|release-log.txt|,14,15,15,2019-04-25 08:59:00 +0000,2019-05-07 09:41:55 +0200,aa219119439a808491bcc649f83ee7376d543641,oozie
OOZIE-2380,2015-12-22 19:26:09 +0000,release-log.txt|sharelib/hive/src/main/java/org/apache/oozie/action/hadoop/HiveMain.java|,9,10,10,2015-10-01 08:34:15 +0000,2015-12-22 11:25:08 -0800,c2fe52b8327d6c0c2fcc2d1b74169efe21b90950,oozie
OOZIE-1291,2013-03-29 17:30:23 +0000,core/src/test/java/org/apache/oozie/service/TestHadoopAccessorService.java|release-log.txt|,5,6,6,2013-03-28 17:12:04 +0000,2013-03-29 17:30:05 +0000,cb2bc4f55b39a6c5de2d177bb04b52eef98fe153,oozie
OOZIE-1051,2013-01-15 22:17:31 +0000,core/src/main/java/org/apache/oozie/command/XCommand.java|core/src/test/java/org/apache/oozie/command/TestXCommand.java|release-log.txt|,2,3,5,2012-11-06 11:31:34 +0000,2013-01-15 22:17:14 +0000,8cd0c2b3da39490615f2a1451b34624288f96f5d,oozie
OOZIE-3233,2018-06-07 09:04:38 +0000,core/src/main/java/org/apache/oozie/command/coord/CoordMaterializeTransitionXCommand.java|core/src/test/java/org/apache/oozie/command/coord/TestCoordMaterializeTransitionXCommand.java|release-log.txt|,13,14,14,2018-05-04 13:20:33 +0000,2018-06-07 10:58:52 +0200,550850da7d3cb4ac2e50a90cbdada42d8203f360,oozie
OOZIE-2387,2017-05-30 15:06:34 +0000,core/src/main/java/org/apache/oozie/action/hadoop/JavaActionExecutor.java|core/src/test/java/org/apache/oozie/action/hadoop/TestJavaActionExecutor.java|release-log.txt|,8,10,11,2015-10-15 11:00:39 +0000,2017-05-30 17:06:00 +0200,83d4ddf45aa16649bd9fae367fa915379d5781cd,oozie
OOZIE-3225,2018-05-03 15:46:02 +0000,release-log.txt|server/src/main/java/org/apache/oozie/server/FilterMapper.java|,13,14,14,2018-04-20 08:17:28 +0000,2018-05-03 17:44:21 +0200,3269decd20a487224598e3859017e83d164e2b37,oozie
OOZIE-1048,2012-11-05 21:45:51 +0000,distro/src/main/bin/oozied.sh|release-log.txt|,2,3,3,2012-11-01 21:06:26 +0000,2012-11-05 21:48:18 +0000,23eb2dde935afb1089174388368cba65c4ba9edb,oozie
OOZIE-3228,2018-05-28 11:39:07 +0000,release-log.txt|sharelib/spark/src/test/java/org/apache/oozie/action/hadoop/TestSparkArgsExtractor.java|,12,14,14,2018-04-24 01:40:49 +0000,2018-05-28 13:38:13 +0200,bf5bd91b76a4d0f61fa995c5b6cb062856bd3478,oozie
OOZIE-1281,2013-04-16 23:06:26 +0000,core/src/main/java/org/apache/oozie/action/hadoop/HiveActionExecutor.java|release-log.txt|sharelib/hive/src/main/java/org/apache/oozie/action/hadoop/HiveMain.java|sharelib/hive/src/test/java/org/apache/oozie/action/hadoop/TestHiveActionExecutor.java|webapp/src/main/webapp/oozie-console.js|,4,5,6,2013-03-22 14:55:57 +0000,2013-04-16 23:04:00 +0000,746f6ec18b4c051b9c2b344cde1c31a5b3c9eb29,oozie
OOZIE-3221,2018-05-21 18:37:16 +0000,core/src/main/java/org/apache/oozie/action/hadoop/JavaActionExecutor.java|release-log.txt|,13,14,14,2018-04-13 20:00:15 +0000,2018-04-20 11:24:22 +0200,19f87e24fd5ed953cff82ef96fb63ef739fa4f4f,oozie
OOZIE-3219,2018-05-15 09:59:32 +0000,core/src/main/java/org/apache/oozie/util/db/FailingConnectionWrapper.java|examples/pom.xml|release-log.txt|sharelib/pig/pom.xml|sharelib/spark/src/main/java/org/apache/oozie/action/hadoop/SparkArgsExtractor.java|tools/src/main/java/org/apache/oozie/tools/OozieDBImportCLI.java|webapp/pom.xml|,13,14,14,2018-04-13 15:59:27 +0000,2018-05-15 11:58:26 +0200,648009e35ef2c0dceab725c76c933009a1e0f964,oozie
OOZIE-1270,2013-03-18 18:00:00 +0000,release-log.txt|webapp/src/main/webapp/oozie-console.js|,4,5,5,2013-03-15 17:27:19 +0000,2013-03-18 17:54:54 +0000,632ee8b7655c93e725c602192c08623a5f73cb92,oozie
OOZIE-3210,2018-08-29 14:34:04 +0000,bin/create-release-artifact|release-log.txt|,13,13,14,2018-04-03 20:08:40 +0000,2018-08-29 16:33:07 +0200,1f103db6c5caa2cf8034e4138439344bf0d8d2e1,oozie
OOZIE-2362,2016-06-17 21:53:59 +0000,core/src/main/java/org/apache/oozie/executor/jpa/BulkJPAExecutor.java|release-log.txt|,9,10,10,2015-09-15 09:05:38 +0000,2016-06-17 14:53:24 -0700,80d84f1098d1d8fb9b9e8234ebafe17e4e6c1987,oozie
OOZIE-2121,2015-01-27 20:13:13 +0000,docs/src/site/twiki/CoordinatorFunctionalSpec.twiki|release-log.txt|,6,9,9,2015-01-23 00:45:54 +0000,2015-01-27 12:11:06 -0800,488855a0f07dffe7b05bb75380845a04d8e73a06,oozie
OOZIE-1821,2014-07-03 21:07:44 +0000,core/src/main/java/org/apache/oozie/action/hadoop/LauncherMapperHelper.java|core/src/main/java/org/apache/oozie/util/IOUtils.java|release-log.txt|,5,8,8,2014-05-05 10:32:54 +0000,2014-07-03 14:06:44 -0700,7c4c8ecfddc7d5bb160075468eee06a66e52a97c,oozie
OOZIE-1823,2014-05-06 17:05:32 +0000,release-log.txt|tools/src/main/java/org/apache/oozie/tools/OozieSharelibCLI.java|,7,8,8,2014-05-05 21:18:54 +0000,2014-05-06 10:04:53 -0700,9c91c814c2929d7d18880800a18b87f6d2e5a683,oozie
OOZIE-1812,2014-06-01 03:01:30 +0000,core/src/main/java/org/apache/oozie/executor/jpa/BulkJPAExecutor.java|core/src/main/java/org/apache/oozie/service/UUIDService.java|core/src/main/java/org/apache/oozie/service/ZKUUIDService.java|core/src/main/resources/oozie-default.xml|core/src/test/java/org/apache/oozie/service/TestZKUUIDService.java|core/src/test/java/org/apache/oozie/test/XDataTestCase.java|release-log.txt|,7,8,8,2014-04-25 23:09:24 +0000,2014-07-23 23:18:54 -0700,5be0a8705103e5bbabb84e72007643976fa3e9c7,oozie
OOZIE-3193,2018-08-01 21:10:41 +0000,core/src/main/java/org/apache/oozie/action/ActionExecutor.java|core/src/main/java/org/apache/oozie/action/hadoop/JavaActionExecutor.java|core/src/test/java/org/apache/oozie/action/hadoop/LauncherMainTester.java|core/src/test/java/org/apache/oozie/action/hadoop/SleepMapperReducerForTest.java|core/src/test/java/org/apache/oozie/action/oozie/TestSubWorkflowActionExecutor.java|release-log.txt|,13,13,14,2018-03-07 15:31:00 +0000,2018-08-01 23:09:52 +0200,05636799ea12c348474205fb7379d70ab5ef9395,oozie
OOZIE-3192,2018-04-09 09:10:57 +0000,release-log.txt|tools/src/main/java/org/apache/oozie/tools/OozieDBCLI.java|tools/src/test/java/org/apache/oozie/tools/TestOozieDBCLI.java|,9,13,14,2018-03-07 09:27:43 +0000,2018-04-09 11:09:09 +0200,d55245667b259d858d4dded849ded001896ba2af,oozie
OOZIE-3194,2019-01-03 20:23:42 +0000,release-log.txt|tools/src/main/java/org/apache/oozie/tools/OozieSharelibCLI.java|tools/src/test/java/org/apache/oozie/tools/IntegrationTestOozieSharelibCLI.java|,10,13,15,2018-03-08 10:00:15 +0000,2019-01-03 21:22:57 +0100,7e329cb11782634c1bd6f8ec32a21f4746af3bd3,oozie
OOZIE-2090,2015-02-10 18:33:35 +0000,core/src/main/java/org/apache/oozie/command/wf/ActionEndXCommand.java|core/src/test/java/org/apache/oozie/TestDagELFunctions.java|release-log.txt|,8,9,9,2014-12-09 01:32:30 +0000,2015-02-10 10:33:07 -0800,993a8e542300317dba7bd1e61f5a74165c80152d,oozie
OOZIE-3182,2018-03-02 06:21:31 +0000,client/src/main/resources/oozie-buildinfo.properties|examples/src/test/resources/localoozieexample-end.properties|examples/src/test/resources/localoozieexample-kill.properties|release-log.txt|sharelib/src/main/resources/sharelib.properties|,11,13,13,2018-02-13 09:21:40 +0000,2018-03-01 22:20:30 -0800,9e662c7350d64ddfa41e62882ce3328216f29dff,oozie
OOZIE-3186,2019-01-04 10:33:01 +0000,core/src/main/java/org/apache/oozie/service/ConfigurationService.java|core/src/test/java/org/apache/oozie/service/TestConfigurationService.java|core/src/test/resources/oozie-site-with-jceks-filesomething.xml|core/src/test/resources/oozie-site-with-jceks-nonfile.xml|core/src/test/resources/oozie-site-with-jceks.xml|core/src/test/resources/oozie-site-with-localjceks.xml|release-log.txt|,11,13,15,2018-02-28 09:10:54 +0000,2019-01-04 11:29:26 +0100,32a0baf8add69e7a87e3963e6eace00e7e3fafe1,oozie
OOZIE-2098,2014-12-22 21:20:51 +0000,pom.xml|release-log.txt|,8,9,9,2014-12-19 19:17:19 +0000,2014-12-22 13:14:29 -0800,05027479a7ec0324e21b12e8ccdb471808d2ac9d,oozie
OOZIE-3173,2018-02-09 17:03:56 +0000,core/src/main/java/org/apache/oozie/command/coord/CoordMaterializeTransitionXCommand.java|core/src/test/java/org/apache/oozie/command/coord/TestCoordMaterializeTransitionXCommand.java|release-log.txt|,11,12,12,2018-02-05 20:36:51 +0000,2018-02-09 14:01:53 -0300,cb52b495f87b599e49eb10a542defea4ddb3173f,oozie
OOZIE-3176,2018-03-27 10:26:18 +0000,core/src/main/java/org/apache/oozie/BundleActionBean.java|core/src/main/java/org/apache/oozie/BundleJobBean.java|core/src/main/java/org/apache/oozie/CoordinatorActionBean.java|core/src/main/java/org/apache/oozie/CoordinatorJobBean.java|core/src/main/java/org/apache/oozie/CoordinatorJobInfo.java|core/src/main/java/org/apache/oozie/DagELFunctions.java|core/src/main/java/org/apache/oozie/SLAEventBean.java|core/src/main/java/org/apache/oozie/WorkflowActionBean.java|core/src/main/java/org/apache/oozie/WorkflowJobBean.java|core/src/main/java/org/apache/oozie/action/hadoop/JavaActionExecutor.java|core/src/main/java/org/apache/oozie/client/rest/JsonBean.java|core/src/main/java/org/apache/oozie/command/bundle/BundleJobSuspendXCommand.java|core/src/main/java/org/apache/oozie/command/coord/CoordActionInputCheckXCommand.java|core/src/main/java/org/apache/oozie/command/coord/CoordActionStartXCommand.java|core/src/main/java/org/apache/oozie/command/coord/CoordChangeXCommand.java|core/src/main/java/org/apache/oozie/command/coord/CoordCommandUtils.java|core/src/main/java/org/apache/oozie/command/coord/CoordMaterializeTransitionXCommand.java|core/src/main/java/org/apache/oozie/command/coord/CoordPushDependencyCheckXCommand.java|core/src/main/java/org/apache/oozie/command/coord/CoordResumeXCommand.java|core/src/main/java/org/apache/oozie/command/coord/CoordSubmitXCommand.java|core/src/main/java/org/apache/oozie/command/coord/CoordSuspendXCommand.java|core/src/main/java/org/apache/oozie/command/wf/ActionEndXCommand.java|core/src/main/java/org/apache/oozie/command/wf/ActionKillXCommand.java|core/src/main/java/org/apache/oozie/command/wf/ActionStartXCommand.java|core/src/main/java/org/apache/oozie/command/wf/ActionXCommand.java|core/src/main/java/org/apache/oozie/coord/CoordUtils.java|core/src/main/java/org/apache/oozie/coord/HCatELFunctions.java|core/src/main/java/org/apache/oozie/executor/jpa/BundleJobsGetRunningOrPendingJPAExecutor.java|core/src/main/java/org/apache/oozie/executor/jpa/CoordActionRemoveJPAExecutor.java|core/src/main/java/org/apache/oozie/executor/jpa/CoordJobGetRunningActionsCountJPAExecutor.java|core/src/main/java/org/apache/oozie/executor/jpa/WorkflowActionRetryManualGetJPAExecutor.java|core/src/main/java/org/apache/oozie/executor/jpa/WorkflowInfoWithActionsSubsetGetJPAExecutor.java|core/src/main/java/org/apache/oozie/executor/jpa/WorkflowJobsBasicInfoFromParentId.java|core/src/main/java/org/apache/oozie/service/AuthorizationService.java|core/src/main/java/org/apache/oozie/service/PurgeService.java|core/src/main/java/org/apache/oozie/servlet/JsonRestServlet.java|core/src/main/java/org/apache/oozie/servlet/ServletUtilities.java|core/src/main/java/org/apache/oozie/servlet/V0AdminServlet.java|core/src/main/java/org/apache/oozie/servlet/V0JobsServlet.java|core/src/main/java/org/apache/oozie/servlet/V1JobServlet.java|core/src/main/java/org/apache/oozie/sla/SLARegistrationBean.java|core/src/main/java/org/apache/oozie/sla/SLASummaryBean.java|core/src/main/java/org/apache/oozie/sla/listener/SLAEmailEventListener.java|core/src/main/java/org/apache/oozie/store/WorkflowStore.java|core/src/main/java/org/apache/oozie/util/OozieRollingPolicy.java|core/src/main/java/org/apache/oozie/util/ParameterVerifier.java|core/src/main/java/org/apache/oozie/util/ParameterVerifierException.java|core/src/main/java/org/apache/oozie/util/PollablePriorityDelayQueue.java|core/src/main/java/org/apache/oozie/util/db/Schema.java|core/src/main/java/org/apache/oozie/workflow/lite/ActionNodeDef.java|core/src/main/java/org/apache/oozie/workflow/lite/DBLiteWorkflowLib.java|core/src/main/java/org/apache/oozie/workflow/lite/LiteWorkflowAppParser.java|core/src/main/resources/localoozie-log4j.properties|core/src/test/java/org/apache/hadoop/examples/SleepJob.java|core/src/test/java/org/apache/oozie/TestCoordinatorEngine.java|core/src/test/java/org/apache/oozie/TestLocalOozieClientCoord.java|core/src/test/java/org/apache/oozie/action/hadoop/InsertTestToken.java|core/src/test/java/org/apache/oozie/action/hadoop/TestHadoopELFunctions.java|core/src/test/java/org/apache/oozie/action/hadoop/TestJavaActionExecutor.java|core/src/test/java/org/apache/oozie/action/hadoop/TestShellActionExecutor.java|core/src/test/java/org/apache/oozie/command/bundle/TestBundleJobXCommand.java|core/src/test/java/org/apache/oozie/command/bundle/TestBundlePauseUnpauseXCommand.java|core/src/test/java/org/apache/oozie/command/bundle/TestBundleRerunXCommand.java|core/src/test/java/org/apache/oozie/command/bundle/TestBundleSubmitXCommand.java|core/src/test/java/org/apache/oozie/command/coord/CoordXTestCase.java|core/src/test/java/org/apache/oozie/command/coord/TestCoordActionInputCheckXCommand.java|core/src/test/java/org/apache/oozie/command/coord/TestCoordActionStartXCommand.java|core/src/test/java/org/apache/oozie/command/coord/TestCoordChangeXCommand.java|core/src/test/java/org/apache/oozie/command/coord/TestCoordKillXCommand.java|core/src/test/java/org/apache/oozie/command/coord/TestCoordRerunXCommand.java|core/src/test/java/org/apache/oozie/command/coord/TestCoordSubmitXCommand.java|core/src/test/java/org/apache/oozie/command/coord/TestCoordUpdateXCommand.java|core/src/test/java/org/apache/oozie/command/coord/TestFutureActionsTimeOut.java|core/src/test/java/org/apache/oozie/command/coord/TestPastActionsTimeOut.java|core/src/test/java/org/apache/oozie/command/wf/TestActionCheckXCommand.java|core/src/test/java/org/apache/oozie/command/wf/TestActionErrors.java|core/src/test/java/org/apache/oozie/command/wf/TestActionStartXCommand.java|core/src/test/java/org/apache/oozie/command/wf/TestReRunXCommand.java|core/src/test/java/org/apache/oozie/coord/TestCoordELEvaluator.java|core/src/test/java/org/apache/oozie/executor/jpa/TestCoordActionGetForCheckJPAExecutor.java|core/src/test/java/org/apache/oozie/executor/jpa/TestCoordActionGetForExternalIdJPAExecutor.java|core/src/test/java/org/apache/oozie/executor/jpa/TestCoordActionsPendingFalseStatusCountGetJPAExecutor.java|core/src/test/java/org/apache/oozie/executor/jpa/TestCoordJobGetActionForNominalTimeJPAExecutor.java|core/src/test/java/org/apache/oozie/executor/jpa/TestCoordJobGetActionsJPAExecutor.java|core/src/test/java/org/apache/oozie/executor/jpa/TestCoordJobGetActionsSubsetJPAExecutor.java|core/src/test/java/org/apache/oozie/executor/jpa/TestWorkflowIdGetForExternalIdJPAExecutor.java|core/src/test/java/org/apache/oozie/executor/jpa/TestWorkflowJobsGetForPurgeJPAExecutor.java|core/src/test/java/org/apache/oozie/jms/TestJMSSLAEventListener.java|core/src/test/java/org/apache/oozie/service/TestAuthorizationService.java|core/src/test/java/org/apache/oozie/service/TestCallableQueueService.java|core/src/test/java/org/apache/oozie/service/TestCoordMaterializeTriggerService.java|core/src/test/java/org/apache/oozie/service/TestEventHandlerService.java|core/src/test/java/org/apache/oozie/service/TestLiteWorkflowStoreService.java|core/src/test/java/org/apache/oozie/service/TestRecoveryService.java|core/src/test/java/org/apache/oozie/service/TestSparkConfigurationService.java|core/src/test/java/org/apache/oozie/service/TestStatusTransitService.java|core/src/test/java/org/apache/oozie/servlet/TestV1AdminServlet.java|core/src/test/java/org/apache/oozie/servlet/TestV2SLAServlet.java|core/src/test/java/org/apache/oozie/test/MiniOozieTestCase.java|core/src/test/java/org/apache/oozie/test/XDataTestCase.java|core/src/test/java/org/apache/oozie/test/XFsTestCase.java|core/src/test/java/org/apache/oozie/util/TestCoordActionsInDateRange.java|core/src/test/java/org/apache/oozie/util/TestLogStreamer.java|core/src/test/java/org/apache/oozie/util/TestOozieRollingPolicy.java|core/src/test/java/org/apache/oozie/util/TestParameterVerifier.java|core/src/test/java/org/apache/oozie/util/TestXLogFilter.java|core/src/test/java/org/apache/oozie/util/db/TestSqlStatement.java|core/src/test/java/org/apache/oozie/workflow/lite/TestLiteWorkflowApp.java|core/src/test/java/org/apache/oozie/workflow/lite/TestLiteWorkflowAppParser.java|core/src/test/resources/test-custom-log4j.properties|core/src/test/resources/test-oozie-log4j.properties|release-log.txt|src/main/resources/checkstyle-header.txt|src/main/resources/checkstyle.xml|,11,12,13,2018-02-07 09:44:21 +0000,2018-03-27 12:20:38 +0200,4f40493474ce60002e6bf2bcc1e67ac6701c6dd3,oozie
OOZIE-2748,2017-01-06 18:46:54 +0000,core/src/main/java/org/apache/oozie/action/hadoop/JavaActionExecutor.java|core/src/main/resources/oozie-default.xml|core/src/test/java/org/apache/oozie/action/hadoop/TestJavaActionExecutor.java|release-log.txt|sharelib/oozie/src/main/java/org/apache/oozie/action/hadoop/LauncherMapper.java|sharelib/oozie/src/test/java/org/apache/oozie/action/hadoop/TestLauncherMapper.java|,9,10,11,2016-11-30 10:31:08 +0000,2017-05-15 12:50:28 +0200,e0b7cde711b1b9e1a03660ec635041eeb9755049,oozie
OOZIE-2511,2016-04-21 23:03:47 +0000,core/src/main/java/org/apache/oozie/action/oozie/SubWorkflowActionExecutor.java|core/src/test/java/org/apache/oozie/action/oozie/TestSubWorkflowActionExecutor.java|release-log.txt|,8,10,10,2016-04-19 11:06:11 +0000,2016-04-21 16:03:38 -0700,78c8699693408dcbcf6892ecbb3ee1037908d943,oozie
OOZIE-2997,2017-11-11 21:02:38 +0000,client/src/main/java/org/apache/oozie/cli/CLIParser.java|client/src/main/java/org/apache/oozie/client/AuthOozieClient.java|client/src/main/java/org/apache/oozie/client/BundleJob.java|client/src/main/java/org/apache/oozie/client/WorkflowAction.java|client/src/main/java/org/apache/oozie/client/WorkflowJob.java|client/src/main/java/org/apache/oozie/client/rest/JsonUtils.java|release-log.txt|,10,11,11,2017-07-18 20:58:37 +0000,2017-11-11 22:01:47 +0100,f9be9f0c1a4b0ae44c3d89e64593a4d60e57a903,oozie
OOZIE-2999,2017-08-09 08:59:52 +0000,release-log.txt|sharelib/streaming/src/test/java/org/apache/oozie/action/hadoop/BlockingMapper.java|,10,11,11,2017-07-19 12:42:46 +0000,2017-08-09 10:59:26 +0200,ebf38e8fda10d1b580f66169da7e770dc93b7075,oozie
OOZIE-879,2012-06-20 20:57:35 +0000,release-log.txt|sharelib/streaming/pom.xml|,2,3,3,2012-06-20 19:59:50 +0000,2012-06-20 20:57:22 +0000,1d1068835153cbe6a841d56a2d8032cfc9fb5506,oozie
OOZIE-871,2012-06-13 23:36:49 +0000,core/src/main/java/org/apache/oozie/service/WorkflowAppService.java|core/src/test/java/org/apache/oozie/service/TestLiteWorkflowAppService.java|release-log.txt|,2,3,3,2012-06-13 21:25:57 +0000,2012-06-13 23:36:33 +0000,6555bd40a00e5ee24fb70a1d934ab7680f9949d2,oozie
OOZIE-2739,2017-03-24 12:59:29 +0000,core/src/main/resources/oozie-default.xml|core/src/test/java/org/apache/oozie/action/hadoop/TestShellActionExecutor.java|release-log.txt|,10,10,11,2016-11-16 12:32:13 +0000,2017-03-24 18:03:47 +0530,1392eeaf8397a6c6814607cf61cb962403df1447,oozie
OOZIE-2740,2016-12-01 17:05:32 +0000,client/src/main/java/org/apache/oozie/cli/OozieCLI.java|release-log.txt|,8,10,10,2016-11-16 23:35:34 +0000,2016-12-01 09:03:31 -0800,ab6ae75e316be2d7eb658f929cf557520984573d,oozie
OOZIE-1651,2014-01-02 21:25:46 +0000,release-log.txt|,5,7,7,2013-12-20 21:44:45 +0000,2014-02-13 10:34:44 -0800,0880334a226553fd2d4c7b8bbc8ac64fef9ca734,oozie
OOZIE-2984,2017-07-28 11:34:52 +0000,docs/src/site/twiki/DG_SparkActionExtension.twiki|release-log.txt|sharelib/spark/src/main/java/org/apache/oozie/action/hadoop/SparkOptionsSplitter.java|sharelib/spark/src/test/java/org/apache/oozie/action/hadoop/TestSparkArgsExtractor.java|sharelib/spark/src/test/java/org/apache/oozie/action/hadoop/TestSparkOptionsSplitter.java|,10,11,11,2017-07-11 05:58:00 +0000,2017-07-28 13:33:40 +0200,1ae68908b26e7a36089c47ca64c3c683dc2f6099,oozie
OOZIE-1655,2014-01-02 18:10:31 +0000,core/src/main/java/org/apache/oozie/service/JPAService.java|core/src/main/resources/oozie-default.xml|release-log.txt|,5,7,7,2013-12-23 23:12:30 +0000,2014-01-02 10:06:34 -0800,57d1762e124e16bba572e444146df892be3d3add,oozie
OOZIE-1650,2014-03-12 20:29:34 +0000,docs/src/site/twiki/AG_HadoopConfiguration.twiki|release-log.txt|,5,7,7,2013-12-20 01:19:02 +0000,2014-03-12 13:27:48 -0700,a389c54e413d7a343caf8b6ff5c71ee686338dff,oozie
OOZIE-865,2012-07-14 00:31:44 +0000,core/src/main/java/org/apache/oozie/ErrorCode.java|core/src/main/java/org/apache/oozie/workflow/lite/LiteWorkflowAppParser.java|core/src/test/java/org/apache/oozie/workflow/lite/TestLiteWorkflowAppParser.java|release-log.txt|,2,3,3,2012-06-11 04:13:06 +0000,2012-07-14 00:31:27 +0000,60279bfdeeaf40caac4850a58228cdef0cee3e0c,oozie
OOZIE-2728,2017-01-06 19:29:40 +0000,core/src/main/java/org/apache/oozie/ErrorCode.java|release-log.txt|,9,10,11,2016-11-08 12:43:29 +0000,2017-01-06 11:02:15 -0800,11d588b7e4f0eec344de9afce0f7fdd90040199c,oozie
OOZIE-1883,2014-08-01 20:54:32 +0000,distro/src/main/tomcat/ssl-web.xml|release-log.txt|webapp/src/main/webapp/WEB-INF/web.xml|,5,8,8,2014-06-17 17:37:45 +0000,2014-08-01 13:43:44 -0700,dd6289802ab8f5f8b3ee871f3a79d60c315145f6,oozie
OOZIE-1886,2014-07-07 22:00:20 +0000,core/src/main/java/org/apache/oozie/util/PriorityDelayQueue.java|release-log.txt|,7,8,8,2014-06-18 11:12:20 +0000,2014-07-07 14:59:34 -0700,0439fbb057d1ecd32a5cea250481c63a6cfc3a96,oozie
OOZIE-1887,2017-03-10 20:24:53 +0000,release-log.txt|utils/dbutils/updatescripts/dbscripts-2.2.5.sql|utils/dbutils/updatescripts/dbscripts-3.0.0.sql|utils/dbutils/updatescripts/dbscripts-3.0.1.sql|utils/dbutils/updatescripts/dbscripts-3.1.0.sql|utils/dbutils/updatescripts/readme.txt|utils/dbutils/updatescripts/updatescripts-2.x-to-3.0.0.sql|utils/dbutils/updatescripts/updatescripts-2.x-to-3.0.1.sql|utils/dbutils/updatescripts/updatescripts-3.0.0-to-3.0.1.sql|utils/dbutils/updatescripts/updatescripts-3.x-to-3.1.0.sql|utils/dbutils/updatescripts/upgradescript-2.x-to-3.0.0.sql|,6,8,11,2014-06-18 22:32:12 +0000,2017-03-10 12:24:30 -0800,abb2e186ec0f2f200a0d64ef5174caf023b17424,oozie
OOZIE-1645,2014-01-27 21:26:10 +0000,release-log.txt|tools/src/main/java/org/apache/oozie/tools/OozieDBCLI.java|,6,7,7,2013-12-17 18:49:18 +0000,2014-01-27 13:24:59 -0800,c873b8e63c33d6304e9151b537b8cffa904e2766,oozie
OOZIE-1403,2013-08-07 21:58:53 +0000,core/src/main/java/org/apache/oozie/workflow/lite/LiteWorkflowAppParser.java|core/src/test/java/org/apache/oozie/workflow/lite/TestLiteWorkflowAppParser.java|release-log.txt|,5,6,6,2013-06-06 21:35:12 +0000,2013-08-07 21:58:21 +0000,6ba119cd5d0a36faf94387e2d7636d992fa9a621,oozie
OOZIE-1632,2014-01-08 22:27:26 +0000,core/src/main/java/org/apache/oozie/CoordinatorJobBean.java|core/src/main/java/org/apache/oozie/command/coord/CoordChangeXCommand.java|core/src/main/java/org/apache/oozie/executor/jpa/CoordActionQueryExecutor.java|core/src/main/java/org/apache/oozie/executor/jpa/CoordActionsGetByLastModifiedTimeJPAExecutor.java|core/src/main/java/org/apache/oozie/executor/jpa/CoordJobQueryExecutor.java|core/src/main/java/org/apache/oozie/service/StatusTransitService.java|core/src/test/java/org/apache/oozie/command/coord/TestCoordChangeXCommand.java|core/src/test/java/org/apache/oozie/executor/jpa/TestCoordActionGetByLastModifiedTimeJPAExecutor.java|core/src/test/java/org/apache/oozie/executor/jpa/TestCoordJobQueryExecutor.java|release-log.txt|,6,7,7,2013-12-04 00:51:51 +0000,2013-12-30 16:34:11 -0800,6c69089fde5aeaffc090b0d42ff5345a1d568651,oozie
OOZIE-2724,2016-11-15 09:55:48 +0000,core/src/main/java/org/apache/oozie/coord/CoordELFunctions.java|core/src/test/java/org/apache/oozie/coord/TestCoordELFunctions.java|release-log.txt|,9,10,10,2016-11-04 21:34:55 +0000,2016-11-15 15:19:06 +0530,7cebc2604d6813fd1e2929a1b8334a8ba8df4cf8,oozie
OOZIE-2949,2019-02-01 07:45:59 +0000,core/src/main/java/org/apache/oozie/ErrorCode.java|core/src/main/java/org/apache/oozie/action/hadoop/ShellSplitter.java|core/src/main/java/org/apache/oozie/action/hadoop/ShellSplitterException.java|core/src/main/java/org/apache/oozie/action/hadoop/SqoopActionExecutor.java|core/src/main/resources/oozie-default.xml|core/src/test/java/org/apache/oozie/action/hadoop/TestShellSplitter.java|docs/src/site/markdown/DG_SqoopActionExtension.md|release-log.txt|sharelib/sqoop/src/test/java/org/apache/oozie/action/hadoop/TestSqoopActionExecutor.java|,10,11,15,2017-06-16 07:17:56 +0000,2019-02-01 08:44:28 +0100,1a1a97acbab14161880c32651705e8aebe9ec8d0,oozie
OOZIE-2940,2017-08-15 09:59:52 +0000,core/src/main/java/org/apache/oozie/WorkflowActionBean.java|release-log.txt|,10,11,11,2017-06-12 21:49:32 +0000,2017-08-15 11:58:30 +0200,800ea758ea821ab16e16d94178dadd3fb71b6b53,oozie
OOZIE-1610,2014-01-03 20:52:48 +0000,core/src/test/java/org/apache/oozie/event/TestEventGeneration.java|release-log.txt|,6,7,7,2013-11-13 17:32:07 +0000,2014-01-03 12:52:15 -0800,244fe4295aadaf71a8d899901d4f8132fe049d50,oozie
OOZIE-1835,2014-05-16 17:36:34 +0000,core/src/main/java/org/apache/oozie/sla/listener/SLAEmailEventListener.java|core/src/test/java/org/apache/oozie/sla/TestSLAEmailEventListener.java|release-log.txt|,6,8,8,2014-05-12 23:24:33 +0000,2014-05-16 10:35:48 -0700,91df71edca0d7590da7dafc30936a397d2e1463d,oozie
OOZIE-1838,2014-05-27 22:19:24 +0000,core/src/main/java/org/apache/oozie/service/JPAService.java|core/src/main/java/org/apache/oozie/util/db/InstrumentedBasicDataSource.java|core/src/main/resources/META-INF/persistence.xml|release-log.txt|,6,8,8,2014-05-13 21:01:21 +0000,2014-05-27 14:06:19 -0700,2a85bfe253e8f289051797eddf4b52de0b9e475a,oozie
OOZIE-2928,2017-06-16 10:22:13 +0000,core/src/main/java/org/apache/oozie/test/EmbeddedServletContainer.java|core/src/test/java/org/apache/oozie/test/TestEmbeddedServletContainer.java|release-log.txt|,10,11,11,2017-06-07 08:20:03 +0000,2017-06-16 12:20:50 +0200,787f1fef77581419592a89ae71d9ae0ffe9fea33,oozie
OOZIE-2929,2017-10-30 09:48:15 +0000,release-log.txt|,10,11,11,2017-06-07 13:40:33 +0000,2017-10-30 10:46:50 +0100,1a84afef75e783a32acb478882ce88306e32127f,oozie
OOZIE-2930,2017-06-08 13:34:31 +0000,pom.xml|release-log.txt|,10,11,11,2017-06-07 19:49:49 +0000,2017-06-08 15:34:16 +0200,e019f74b862d148fa911c53cf75dc9c5fe7cf385,oozie
OOZIE-2917,2017-05-29 11:27:09 +0000,core/pom.xml|release-log.txt|,10,11,11,2017-05-20 03:12:37 +0000,2017-05-29 13:20:03 +0200,6121dc0cd19c3f7d2f4412922cffd1ff47e6f756,oozie
OOZIE-1828,2014-06-01 06:16:01 +0000,core/src/main/java/org/apache/oozie/command/wf/ActionXCommand.java|core/src/main/java/org/apache/oozie/command/wf/SignalXCommand.java|core/src/main/java/org/apache/oozie/command/wf/WorkflowXCommand.java|release-log.txt|,6,8,8,2014-05-08 19:18:01 +0000,2014-05-31 23:02:50 -0700,b6769f4ddac8f983c1695f565ec320437a79ebd2,oozie
OOZIE-1834,2014-05-27 22:19:33 +0000,core/src/main/java/org/apache/oozie/util/db/SLADbOperations.java|core/src/main/java/org/apache/oozie/util/db/SLADbXOperations.java|core/src/test/java/org/apache/oozie/util/db/TestSLADbOperations.java|core/src/test/java/org/apache/oozie/util/db/TestSLADbXOperations.java|release-log.txt|,6,8,8,2014-05-12 23:08:47 +0000,2014-05-27 15:15:39 -0700,373a52ff28a2b41aed9a8950f24f974523fc19e9,oozie
