Bug ID,Bug Resolution Date by Jira,Classes Touched by Last Fix,Earliest AV,Version of Ticket Creation,Version of Fix,Ticket Creation Date,Fix Date (of most recent commit),Hash (of most recent commit),Git Directory
AMQCPP-18,2006-12-01 02:24:22 +0000,activemq-cpp/src/main/activemq/connector/stomp/StompCommandReader.cpp|activemq-cpp/src/main/activemq/connector/stomp/StompCommandReader.h|activemq-cpp/src/main/activemq/io/BufferedInputStream.cpp|,1,3,3,2006-12-01 02:04:14 +0000,2006-12-01 02:07:27 +0000,5374f4b26aec44c13be09e980a287e270f49d94d,activemq-cpp
AMQCPP-20,2006-12-01 16:11:33 +0000,activemq-cpp/src/main/activemq/connector/stomp/StompConnector.cpp|activemq-cpp/src/main/activemq/connector/stomp/StompConnector.h|activemq-cpp/src/main/activemq/transport/IOTransport.cpp|,1,3,3,2006-12-01 15:33:24 +0000,2006-12-01 16:10:59 +0000,0ce0b53b45fc615cff49e3880ff4acc44f302975,activemq-cpp
AMQCPP-14,2006-12-06 14:52:22 +0000,activemq-cpp/src/test-integration/integration/expiration/ExpirationTest.cpp|,1,2,3,2006-11-26 13:13:41 +0000,2006-12-06 14:50:16 +0000,056bb89f75efdda43c87dddf09c45709345143a6,activemq-cpp
AMQCPP-23,2006-12-12 14:09:09 +0000,activemq-cpp/src/main/activemq/connector/stomp/commands/StompMessage.h|,1,3,3,2006-12-08 21:32:17 +0000,2006-12-10 18:27:48 +0000,1edf0a767038b9fc5d0148b932e67971d9db9832,activemq-cpp
AMQCPP-60,2007-02-15 00:07:27 +0000,activemq-cpp/src/main/activemq/connector/stomp/commands/AbstractCommand.h|activemq-cpp/src/main/activemq/connector/stomp/commands/ConnectCommand.h|activemq-cpp/src/main/activemq/connector/stomp/commands/ConnectedCommand.h|activemq-cpp/src/test/activemq/connector/stomp/commands/AbortCommandTest.h|activemq-cpp/src/test/activemq/connector/stomp/commands/AckCommandTest.h|activemq-cpp/src/test/activemq/connector/stomp/commands/BeginCommandTest.h|activemq-cpp/src/test/activemq/connector/stomp/commands/BytesMessageCommandTest.h|activemq-cpp/src/test/activemq/connector/stomp/commands/CommitCommandTest.h|activemq-cpp/src/test/activemq/connector/stomp/commands/ConnectCommandTest.h|activemq-cpp/src/test/activemq/connector/stomp/commands/ConnectedCommandTest.h|activemq-cpp/src/test/activemq/connector/stomp/commands/DisconnectCommandTest.h|activemq-cpp/src/test/activemq/connector/stomp/commands/ErrorCommandTest.h|activemq-cpp/src/test/activemq/connector/stomp/commands/MessageCommandTest.h|activemq-cpp/src/test/activemq/connector/stomp/commands/ReceiptCommandTest.h|activemq-cpp/src/test/activemq/connector/stomp/commands/SubscribeCommandTest.h|activemq-cpp/src/test/activemq/connector/stomp/commands/TextMessageCommandTest.h|activemq-cpp/src/test/activemq/connector/stomp/commands/UnsubscribeCommandTest.h|,3,3,4,2007-01-29 10:17:39 +0000,2007-02-01 00:51:21 +0000,ad513b963fe8f213cb628b7f16babbf81c6ab9ef,activemq-cpp
AMQCPP-62,2007-03-11 00:43:30 +0000,activemq-cpp/src/main/activemq/connector/stomp/StompConnector.cpp|,1,3,4,2007-01-30 12:12:21 +0000,2007-03-11 00:42:58 +0000,39e9af62ebb0f7ab38169feb5d422d735cdf9b59,activemq-cpp
AMQCPP-96,2007-04-06 14:21:06 +0000,activemq-cpp/src/main/activemq/connector/stomp/commands/CommandConstants.cpp|activemq-cpp/src/main/activemq/connector/stomp/commands/CommandConstants.h|,3,4,4,2007-04-05 19:13:26 +0000,2007-04-06 14:24:40 +0000,d61b417c109c1d11ac7c958b2079017bf77d8d6b,activemq-cpp
AMQCPP-98,2007-04-12 12:58:15 +0000,activemq-cpp/src/main/activemq/connector/stomp/commands/BytesMessageCommand.h|activemq-cpp/src/main/activemq/connector/stomp/commands/MessageCommand.h|activemq-cpp/src/main/activemq/connector/stomp/commands/StompMessage.h|activemq-cpp/src/main/activemq/connector/stomp/commands/TextMessageCommand.h|,3,4,4,2007-04-11 23:03:55 +0000,2007-04-12 12:34:20 +0000,0b75dd1a5444ff9b3da1f0c8bd2bb9ee58084385,activemq-cpp
AMQCPP-105,2007-04-22 16:13:34 +0000,activemq-cpp/src/main/activemq/connector/openwire/commands/ActiveMQMessageBase.h|,4,5,5,2007-04-22 15:55:46 +0000,2007-04-22 16:12:54 +0000,ec315ee1f12cfc886d21f98a6cec0770e01d47eb,activemq-cpp
AMQCPP-107,2007-04-23 16:46:21 +0000,activemq-cpp/src/main/activemq/network/ServerSocket.cpp|,4,5,5,2007-04-23 13:46:51 +0000,2007-04-23 16:45:33 +0000,7c2090401e294ca55c0ea418c24c41cef09b63cd,activemq-cpp
AMQCPP-109,2007-04-28 18:47:08 +0000,activemq-cpp/src/main/cms/ObjectMessage.h|,4,5,5,2007-04-24 13:40:30 +0000,2007-04-28 18:46:44 +0000,364e97e6c477b6dabfbfd804dd327ce0eddf29fc,activemq-cpp
AMQCPP-112,2007-04-29 19:37:36 +0000,activemq-cpp/src/main/activemq/connector/openwire/commands/ActiveMQDestination.cpp|,4,5,5,2007-04-27 14:40:47 +0000,2007-04-29 19:23:40 +0000,5af5a335860e54cb4ff4ea4b6e279427b5207766,activemq-cpp
AMQCPP-104,2007-05-25 15:40:48 +0000,activemq-cpp/src/main/activemq/transport/filters/ResponseCorrelator.cpp|,4,5,5,2007-04-22 15:25:49 +0000,2007-05-03 22:54:59 +0000,a3f802093d93caa238d0c9be979801395a40e5c9,activemq-cpp
AMQCPP-126,2007-06-17 20:03:48 +0000,src/main/activemq/connector/BaseConnectorResource.cpp|src/main/activemq/connector/openwire/OpenWireConnector.cpp|,5,6,6,2007-06-12 14:11:21 +0000,2007-06-17 19:58:33 +0000,eb774c881bfadf9eb51fde8ec306ac23f1934589,activemq-cpp
AMQCPP-141,2007-08-28 19:51:25 +0000,src/main/activemq/connector/openwire/commands/ActiveMQTextMessage.cpp|,6,7,7,2007-08-22 14:22:19 +0000,2007-08-28 19:50:54 +0000,1856808d8c50594fb910bc1b9122dadb456b5de1,activemq-cpp
AMQCPP-137,2007-08-28 19:58:24 +0000,src/main/activemq/transport/filters/ResponseCorrelator.cpp|,5,6,7,2007-07-20 03:28:55 +0000,2007-08-28 19:58:04 +0000,5a2b690b7ef1f3b756c7656edd2d77ced6f49c37,activemq-cpp
AMQCPP-145,2007-10-13 13:20:43 +0000,src/main/activemq/connector/Connector.h|src/main/activemq/connector/openwire/OpenWireConnector.cpp|src/main/activemq/connector/openwire/OpenWireConnector.h|src/main/activemq/connector/stomp/StompConnector.cpp|src/main/activemq/connector/stomp/StompConnector.h|src/main/activemq/core/ActiveMQTransaction.cpp|,4,7,7,2007-10-13 00:26:02 +0000,2007-10-13 13:18:09 +0000,04e7479cba73ae811ef3bf3ed4ba932fb384e101,activemq-cpp
AMQCPP-142,2007-10-17 17:49:09 +0000,src/main/activemq/connector/openwire/commands/srcmakefile.mk|src/main/activemq/connector/openwire/marshal/v1/MarshallerFactory.cpp|src/main/activemq/connector/openwire/marshal/v1/MarshallerFactory.h|src/main/activemq/connector/openwire/marshal/v2/srcmakefile.mk|src/main/java/org/apache/activemq/openwire/tool/AmqCppClassesGenerator.java|src/main/java/org/apache/activemq/openwire/tool/AmqCppGeneratorTask.java|src/main/java/org/apache/activemq/openwire/tool/AmqCppMakefileGenerator.java|src/main/java/org/apache/activemq/openwire/tool/AmqCppMarshallingHeadersGenerator.java|src/main/java/org/apache/activemq/openwire/tool/AmqCppTestMarshallingHeadersGenerator.java|src/test/Makefile.am|src/test/activemq/connector/openwire/marshal/v1/ActiveMQBytesMessageMarshallerTest.cpp|src/test/activemq/connector/openwire/marshal/v1/ActiveMQBytesMessageMarshallerTest.h|src/test/activemq/connector/openwire/marshal/v1/ActiveMQMapMessageMarshallerTest.cpp|src/test/activemq/connector/openwire/marshal/v1/ActiveMQMapMessageMarshallerTest.h|src/test/activemq/connector/openwire/marshal/v1/ActiveMQMessageMarshallerTest.cpp|src/test/activemq/connector/openwire/marshal/v1/ActiveMQMessageMarshallerTest.h|src/test/activemq/connector/openwire/marshal/v1/ActiveMQObjectMessageMarshallerTest.cpp|src/test/activemq/connector/openwire/marshal/v1/ActiveMQObjectMessageMarshallerTest.h|src/test/activemq/connector/openwire/marshal/v1/ActiveMQQueueMarshallerTest.cpp|src/test/activemq/connector/openwire/marshal/v1/ActiveMQQueueMarshallerTest.h|src/test/activemq/connector/openwire/marshal/v1/ActiveMQStreamMessageMarshallerTest.cpp|src/test/activemq/connector/openwire/marshal/v1/ActiveMQStreamMessageMarshallerTest.h|src/test/activemq/connector/openwire/marshal/v1/ActiveMQTempQueueMarshallerTest.cpp|src/test/activemq/connector/openwire/marshal/v1/ActiveMQTempQueueMarshallerTest.h|src/test/activemq/connector/openwire/marshal/v1/ActiveMQTempTopicMarshallerTest.cpp|src/test/activemq/connector/openwire/marshal/v1/ActiveMQTempTopicMarshallerTest.h|src/test/activemq/connector/openwire/marshal/v1/ActiveMQTextMessageMarshallerTest.cpp|src/test/activemq/connector/openwire/marshal/v1/ActiveMQTextMessageMarshallerTest.h|src/test/activemq/connector/openwire/marshal/v1/ActiveMQTopicMarshallerTest.cpp|src/test/activemq/connector/openwire/marshal/v1/ActiveMQTopicMarshallerTest.h|src/test/activemq/connector/openwire/marshal/v1/BrokerIdMarshallerTest.cpp|src/test/activemq/connector/openwire/marshal/v1/BrokerIdMarshallerTest.h|src/test/activemq/connector/openwire/marshal/v1/BrokerInfoMarshallerTest.cpp|src/test/activemq/connector/openwire/marshal/v1/BrokerInfoMarshallerTest.h|src/test/activemq/connector/openwire/marshal/v1/ConnectionControlMarshallerTest.cpp|src/test/activemq/connector/openwire/marshal/v1/ConnectionControlMarshallerTest.h|src/test/activemq/connector/openwire/marshal/v1/ConnectionErrorMarshallerTest.cpp|src/test/activemq/connector/openwire/marshal/v1/ConnectionErrorMarshallerTest.h|src/test/activemq/connector/openwire/marshal/v1/ConnectionIdMarshallerTest.cpp|src/test/activemq/connector/openwire/marshal/v1/ConnectionIdMarshallerTest.h|src/test/activemq/connector/openwire/marshal/v1/ConnectionInfoMarshallerTest.cpp|src/test/activemq/connector/openwire/marshal/v1/ConnectionInfoMarshallerTest.h|src/test/activemq/connector/openwire/marshal/v1/ConsumerControlMarshallerTest.cpp|src/test/activemq/connector/openwire/marshal/v1/ConsumerControlMarshallerTest.h|src/test/activemq/connector/openwire/marshal/v1/ConsumerIdMarshallerTest.cpp|src/test/activemq/connector/openwire/marshal/v1/ConsumerIdMarshallerTest.h|src/test/activemq/connector/openwire/marshal/v1/ConsumerInfoMarshallerTest.cpp|src/test/activemq/connector/openwire/marshal/v1/ConsumerInfoMarshallerTest.h|src/test/activemq/connector/openwire/marshal/v1/ControlCommandMarshallerTest.cpp|src/test/activemq/connector/openwire/marshal/v1/ControlCommandMarshallerTest.h|src/test/activemq/connector/openwire/marshal/v1/DataArrayResponseMarshallerTest.cpp|src/test/activemq/connector/openwire/marshal/v1/DataArrayResponseMarshallerTest.h|src/test/activemq/connector/openwire/marshal/v1/DataResponseMarshallerTest.cpp|src/test/activemq/connector/openwire/marshal/v1/DataResponseMarshallerTest.h|src/test/activemq/connector/openwire/marshal/v1/DestinationInfoMarshallerTest.cpp|src/test/activemq/connector/openwire/marshal/v1/DestinationInfoMarshallerTest.h|src/test/activemq/connector/openwire/marshal/v1/DiscoveryEventMarshallerTest.cpp|src/test/activemq/connector/openwire/marshal/v1/DiscoveryEventMarshallerTest.h|src/test/activemq/connector/openwire/marshal/v1/ExceptionResponseMarshallerTest.cpp|src/test/activemq/connector/openwire/marshal/v1/ExceptionResponseMarshallerTest.h|src/test/activemq/connector/openwire/marshal/v1/FlushCommandMarshallerTest.cpp|src/test/activemq/connector/openwire/marshal/v1/FlushCommandMarshallerTest.h|src/test/activemq/connector/openwire/marshal/v1/IntegerResponseMarshallerTest.cpp|src/test/activemq/connector/openwire/marshal/v1/IntegerResponseMarshallerTest.h|src/test/activemq/connector/openwire/marshal/v1/JournalQueueAckMarshallerTest.cpp|src/test/activemq/connector/openwire/marshal/v1/JournalQueueAckMarshallerTest.h|src/test/activemq/connector/openwire/marshal/v1/JournalTopicAckMarshallerTest.cpp|src/test/activemq/connector/openwire/marshal/v1/JournalTopicAckMarshallerTest.h|src/test/activemq/connector/openwire/marshal/v1/JournalTraceMarshallerTest.cpp|src/test/activemq/connector/openwire/marshal/v1/JournalTraceMarshallerTest.h|src/test/activemq/connector/openwire/marshal/v1/JournalTransactionMarshallerTest.cpp|src/test/activemq/connector/openwire/marshal/v1/JournalTransactionMarshallerTest.h|src/test/activemq/connector/openwire/marshal/v1/KeepAliveInfoMarshallerTest.cpp|src/test/activemq/connector/openwire/marshal/v1/KeepAliveInfoMarshallerTest.h|src/test/activemq/connector/openwire/marshal/v1/LastPartialCommandMarshallerTest.cpp|src/test/activemq/connector/openwire/marshal/v1/LastPartialCommandMarshallerTest.h|src/test/activemq/connector/openwire/marshal/v1/LocalTransactionIdMarshallerTest.cpp|src/test/activemq/connector/openwire/marshal/v1/LocalTransactionIdMarshallerTest.h|src/test/activemq/connector/openwire/marshal/v1/MessageAckMarshallerTest.cpp|src/test/activemq/connector/openwire/marshal/v1/MessageAckMarshallerTest.h|src/test/activemq/connector/openwire/marshal/v1/MessageDispatchMarshallerTest.cpp|src/test/activemq/connector/openwire/marshal/v1/MessageDispatchMarshallerTest.h|src/test/activemq/connector/openwire/marshal/v1/MessageDispatchNotificationMarshallerTest.cpp|src/test/activemq/connector/openwire/marshal/v1/MessageDispatchNotificationMarshallerTest.h|src/test/activemq/connector/openwire/marshal/v1/MessageIdMarshallerTest.cpp|src/test/activemq/connector/openwire/marshal/v1/MessageIdMarshallerTest.h|src/test/activemq/connector/openwire/marshal/v1/MessagePullMarshallerTest.cpp|src/test/activemq/connector/openwire/marshal/v1/MessagePullMarshallerTest.h|src/test/activemq/connector/openwire/marshal/v1/NetworkBridgeFilterMarshallerTest.cpp|src/test/activemq/connector/openwire/marshal/v1/NetworkBridgeFilterMarshallerTest.h|src/test/activemq/connector/openwire/marshal/v1/PartialCommandMarshallerTest.cpp|src/test/activemq/connector/openwire/marshal/v1/PartialCommandMarshallerTest.h|src/test/activemq/connector/openwire/marshal/v1/ProducerIdMarshallerTest.cpp|src/test/activemq/connector/openwire/marshal/v1/ProducerIdMarshallerTest.h|src/test/activemq/connector/openwire/marshal/v1/ProducerInfoMarshallerTest.cpp|src/test/activemq/connector/openwire/marshal/v1/ProducerInfoMarshallerTest.h|src/test/activemq/connector/openwire/marshal/v1/RemoveInfoMarshallerTest.cpp|src/test/activemq/connector/openwire/marshal/v1/RemoveInfoMarshallerTest.h|src/test/activemq/connector/openwire/marshal/v1/RemoveSubscriptionInfoMarshallerTest.cpp|src/test/activemq/connector/openwire/marshal/v1/RemoveSubscriptionInfoMarshallerTest.h|src/test/activemq/connector/openwire/marshal/v1/ReplayCommandMarshallerTest.cpp|src/test/activemq/connector/openwire/marshal/v1/ReplayCommandMarshallerTest.h|src/test/activemq/connector/openwire/marshal/v1/ResponseMarshallerTest.cpp|src/test/activemq/connector/openwire/marshal/v1/ResponseMarshallerTest.h|src/test/activemq/connector/openwire/marshal/v1/SessionIdMarshallerTest.cpp|src/test/activemq/connector/openwire/marshal/v1/SessionIdMarshallerTest.h|src/test/activemq/connector/openwire/marshal/v1/SessionInfoMarshallerTest.cpp|src/test/activemq/connector/openwire/marshal/v1/SessionInfoMarshallerTest.h|src/test/activemq/connector/openwire/marshal/v1/ShutdownInfoMarshallerTest.cpp|src/test/activemq/connector/openwire/marshal/v1/ShutdownInfoMarshallerTest.h|src/test/activemq/connector/openwire/marshal/v1/SubscriptionInfoMarshallerTest.cpp|src/test/activemq/connector/openwire/marshal/v1/SubscriptionInfoMarshallerTest.h|src/test/activemq/connector/openwire/marshal/v1/TransactionInfoMarshallerTest.cpp|src/test/activemq/connector/openwire/marshal/v1/TransactionInfoMarshallerTest.h|src/test/activemq/connector/openwire/marshal/v1/WireFormatInfoMarshallerTest.cpp|src/test/activemq/connector/openwire/marshal/v1/WireFormatInfoMarshallerTest.h|src/test/activemq/connector/openwire/marshal/v1/XATransactionIdMarshallerTest.cpp|src/test/activemq/connector/openwire/marshal/v1/XATransactionIdMarshallerTest.h|src/test/activemq/connector/openwire/marshal/v1/srcmakefile.mk|src/test/activemq/connector/openwire/marshal/v2/ActiveMQBytesMessageMarshallerTest.cpp|src/test/activemq/connector/openwire/marshal/v2/ActiveMQBytesMessageMarshallerTest.h|src/test/activemq/connector/openwire/marshal/v2/ActiveMQMapMessageMarshallerTest.cpp|src/test/activemq/connector/openwire/marshal/v2/ActiveMQMapMessageMarshallerTest.h|src/test/activemq/connector/openwire/marshal/v2/ActiveMQMessageMarshallerTest.cpp|src/test/activemq/connector/openwire/marshal/v2/ActiveMQMessageMarshallerTest.h|src/test/activemq/connector/openwire/marshal/v2/ActiveMQObjectMessageMarshallerTest.cpp|src/test/activemq/connector/openwire/marshal/v2/ActiveMQObjectMessageMarshallerTest.h|src/test/activemq/connector/openwire/marshal/v2/ActiveMQQueueMarshallerTest.cpp|src/test/activemq/connector/openwire/marshal/v2/ActiveMQQueueMarshallerTest.h|src/test/activemq/connector/openwire/marshal/v2/ActiveMQStreamMessageMarshallerTest.cpp|src/test/activemq/connector/openwire/marshal/v2/ActiveMQStreamMessageMarshallerTest.h|src/test/activemq/connector/openwire/marshal/v2/ActiveMQTempQueueMarshallerTest.cpp|src/test/activemq/connector/openwire/marshal/v2/ActiveMQTempQueueMarshallerTest.h|src/test/activemq/connector/openwire/marshal/v2/ActiveMQTempTopicMarshallerTest.cpp|src/test/activemq/connector/openwire/marshal/v2/ActiveMQTempTopicMarshallerTest.h|src/test/activemq/connector/openwire/marshal/v2/ActiveMQTextMessageMarshallerTest.cpp|src/test/activemq/connector/openwire/marshal/v2/ActiveMQTextMessageMarshallerTest.h|src/test/activemq/connector/openwire/marshal/v2/ActiveMQTopicMarshallerTest.cpp|src/test/activemq/connector/openwire/marshal/v2/ActiveMQTopicMarshallerTest.h|src/test/activemq/connector/openwire/marshal/v2/BrokerInfoMarshallerTest.cpp|src/test/activemq/connector/openwire/marshal/v2/BrokerInfoMarshallerTest.h|src/test/activemq/connector/openwire/marshal/v2/ConnectionControlMarshallerTest.cpp|src/test/activemq/connector/openwire/marshal/v2/ConnectionControlMarshallerTest.h|src/test/activemq/connector/openwire/marshal/v2/ConnectionErrorMarshallerTest.cpp|src/test/activemq/connector/openwire/marshal/v2/ConnectionErrorMarshallerTest.h|src/test/activemq/connector/openwire/marshal/v2/ConnectionIdMarshallerTest.cpp|src/test/activemq/connector/openwire/marshal/v2/ConnectionIdMarshallerTest.h|src/test/activemq/connector/openwire/marshal/v2/ConnectionInfoMarshallerTest.cpp|src/test/activemq/connector/openwire/marshal/v2/ConnectionInfoMarshallerTest.h|src/test/activemq/connector/openwire/marshal/v2/ConsumerControlMarshallerTest.cpp|src/test/activemq/connector/openwire/marshal/v2/ConsumerControlMarshallerTest.h|src/test/activemq/connector/openwire/marshal/v2/ConsumerIdMarshallerTest.cpp|src/test/activemq/connector/openwire/marshal/v2/ConsumerIdMarshallerTest.h|src/test/activemq/connector/openwire/marshal/v2/ConsumerInfoMarshallerTest.cpp|src/test/activemq/connector/openwire/marshal/v2/ConsumerInfoMarshallerTest.h|src/test/activemq/connector/openwire/marshal/v2/ControlCommandMarshallerTest.cpp|src/test/activemq/connector/openwire/marshal/v2/ControlCommandMarshallerTest.h|src/test/activemq/connector/openwire/marshal/v2/DataArrayResponseMarshallerTest.cpp|src/test/activemq/connector/openwire/marshal/v2/DataArrayResponseMarshallerTest.h|src/test/activemq/connector/openwire/marshal/v2/DataResponseMarshallerTest.cpp|src/test/activemq/connector/openwire/marshal/v2/DataResponseMarshallerTest.h|src/test/activemq/connector/openwire/marshal/v2/DestinationInfoMarshallerTest.cpp|src/test/activemq/connector/openwire/marshal/v2/DestinationInfoMarshallerTest.h|src/test/activemq/connector/openwire/marshal/v2/DiscoveryEventMarshallerTest.cpp|src/test/activemq/connector/openwire/marshal/v2/DiscoveryEventMarshallerTest.h|src/test/activemq/connector/openwire/marshal/v2/ExceptionResponseMarshallerTest.cpp|src/test/activemq/connector/openwire/marshal/v2/ExceptionResponseMarshallerTest.h|src/test/activemq/connector/openwire/marshal/v2/FlushCommandMarshallerTest.cpp|src/test/activemq/connector/openwire/marshal/v2/FlushCommandMarshallerTest.h|src/test/activemq/connector/openwire/marshal/v2/IntegerResponseMarshallerTest.cpp|src/test/activemq/connector/openwire/marshal/v2/IntegerResponseMarshallerTest.h|src/test/activemq/connector/openwire/marshal/v2/JournalQueueAckMarshallerTest.cpp|src/test/activemq/connector/openwire/marshal/v2/JournalQueueAckMarshallerTest.h|src/test/activemq/connector/openwire/marshal/v2/JournalTopicAckMarshallerTest.cpp|src/test/activemq/connector/openwire/marshal/v2/JournalTopicAckMarshallerTest.h|src/test/activemq/connector/openwire/marshal/v2/JournalTraceMarshallerTest.cpp|src/test/activemq/connector/openwire/marshal/v2/JournalTraceMarshallerTest.h|src/test/activemq/connector/openwire/marshal/v2/JournalTransactionMarshallerTest.cpp|src/test/activemq/connector/openwire/marshal/v2/JournalTransactionMarshallerTest.h|src/test/activemq/connector/openwire/marshal/v2/KeepAliveInfoMarshallerTest.cpp|src/test/activemq/connector/openwire/marshal/v2/KeepAliveInfoMarshallerTest.h|src/test/activemq/connector/openwire/marshal/v2/LastPartialCommandMarshallerTest.cpp|src/test/activemq/connector/openwire/marshal/v2/LastPartialCommandMarshallerTest.h|src/test/activemq/connector/openwire/marshal/v2/LocalTransactionIdMarshallerTest.cpp|src/test/activemq/connector/openwire/marshal/v2/LocalTransactionIdMarshallerTest.h|src/test/activemq/connector/openwire/marshal/v2/MessageAckMarshallerTest.cpp|src/test/activemq/connector/openwire/marshal/v2/MessageAckMarshallerTest.h|src/test/activemq/connector/openwire/marshal/v2/MessageDispatchMarshallerTest.cpp|src/test/activemq/connector/openwire/marshal/v2/MessageDispatchMarshallerTest.h|src/test/activemq/connector/openwire/marshal/v2/MessageDispatchNotificationMarshallerTest.cpp|src/test/activemq/connector/openwire/marshal/v2/MessageDispatchNotificationMarshallerTest.h|src/test/activemq/connector/openwire/marshal/v2/MessageIdMarshallerTest.cpp|src/test/activemq/connector/openwire/marshal/v2/MessageIdMarshallerTest.h|src/test/activemq/connector/openwire/marshal/v2/MessagePullMarshallerTest.cpp|src/test/activemq/connector/openwire/marshal/v2/MessagePullMarshallerTest.h|src/test/activemq/connector/openwire/marshal/v2/NetworkBridgeFilterMarshallerTest.cpp|src/test/activemq/connector/openwire/marshal/v2/NetworkBridgeFilterMarshallerTest.h|src/test/activemq/connector/openwire/marshal/v2/PartialCommandMarshallerTest.cpp|src/test/activemq/connector/openwire/marshal/v2/PartialCommandMarshallerTest.h|src/test/activemq/connector/openwire/marshal/v2/ProducerIdMarshallerTest.cpp|src/test/activemq/connector/openwire/marshal/v2/ProducerIdMarshallerTest.h|src/test/activemq/connector/openwire/marshal/v2/ProducerInfoMarshallerTest.cpp|src/test/activemq/connector/openwire/marshal/v2/ProducerInfoMarshallerTest.h|src/test/activemq/connector/openwire/marshal/v2/RemoveInfoMarshallerTest.cpp|src/test/activemq/connector/openwire/marshal/v2/RemoveInfoMarshallerTest.h|src/test/activemq/connector/openwire/marshal/v2/RemoveSubscriptionInfoMarshallerTest.cpp|src/test/activemq/connector/openwire/marshal/v2/RemoveSubscriptionInfoMarshallerTest.h|src/test/activemq/connector/openwire/marshal/v2/ReplayCommandMarshallerTest.cpp|src/test/activemq/connector/openwire/marshal/v2/ReplayCommandMarshallerTest.h|src/test/activemq/connector/openwire/marshal/v2/ResponseMarshallerTest.cpp|src/test/activemq/connector/openwire/marshal/v2/ResponseMarshallerTest.h|src/test/activemq/connector/openwire/marshal/v2/SessionIdMarshallerTest.cpp|src/test/activemq/connector/openwire/marshal/v2/SessionIdMarshallerTest.h|src/test/activemq/connector/openwire/marshal/v2/SessionInfoMarshallerTest.cpp|src/test/activemq/connector/openwire/marshal/v2/SessionInfoMarshallerTest.h|src/test/activemq/connector/openwire/marshal/v2/ShutdownInfoMarshallerTest.cpp|src/test/activemq/connector/openwire/marshal/v2/ShutdownInfoMarshallerTest.h|src/test/activemq/connector/openwire/marshal/v2/SubscriptionInfoMarshallerTest.cpp|src/test/activemq/connector/openwire/marshal/v2/SubscriptionInfoMarshallerTest.h|src/test/activemq/connector/openwire/marshal/v2/TransactionInfoMarshallerTest.cpp|src/test/activemq/connector/openwire/marshal/v2/TransactionInfoMarshallerTest.h|src/test/activemq/connector/openwire/marshal/v2/WireFormatInfoMarshallerTest.cpp|src/test/activemq/connector/openwire/marshal/v2/WireFormatInfoMarshallerTest.h|src/test/activemq/connector/openwire/marshal/v2/XATransactionIdMarshallerTest.cpp|src/test/activemq/connector/openwire/marshal/v2/XATransactionIdMarshallerTest.h|src/test/activemq/connector/openwire/marshal/v2/srcmakefile.mk|,6,7,7,2007-09-06 09:12:13 +0000,2007-10-23 18:21:35 +0000,1394d143eb6a7ea5378a0133e9bf2e3e7cdac317,activemq-cpp
AMQCPP-149,2007-10-24 18:46:39 +0000,src/main/activemq/connector/openwire/marshal/PrimitiveMapMarshaller.cpp|,4,7,7,2007-10-19 12:39:34 +0000,2007-10-24 18:45:38 +0000,0331d518abc3309c5c132b5816c3f13fec416e77,activemq-cpp
AMQCPP-150,2007-10-27 14:11:02 +0000,src/main/activemq/connector/openwire/marshal/BaseDataStreamMarshaller.cpp|,6,7,8,2007-10-25 12:00:49 +0000,2007-10-27 14:09:34 +0000,8fd25166414fbac2be77647ff77edba919fce009,activemq-cpp
AMQCPP-136,2007-11-05 19:36:56 +0000,configure.ac|m4/decaf_tools.m4|m4/find_decaf.m4|src/test/Makefile.am|,4,6,8,2007-07-16 15:12:13 +0000,2007-11-05 19:28:11 +0000,39b368a7583d88f22a492074dbae90840e0397bc,activemq-cpp
AMQCPP-161,2008-02-03 18:35:43 +0000,src/main/activemq/core/ActiveMQConsumer.cpp|src/test-integration/integration/connector/openwire/OpenwireSimpleTest.cpp|src/test-integration/integration/connector/openwire/OpenwireSimpleTest.h|,2,9,9,2008-01-28 16:32:55 +0000,2008-02-03 18:25:17 +0000,87dc96a0b8290dbbce779e4b4f76bcf3c2c8d6f9,activemq-cpp
AMQCPP-166,2008-02-11 14:30:34 +0000,src/main/activemq/connector/openwire/commands/ActiveMQMapMessage.h|,8,9,9,2008-02-06 13:32:56 +0000,2008-02-11 14:28:09 +0000,03e8a810650c9824a04b8b1473ae1d6cb8c5b5ca,activemq-cpp
AMQCPP-170,2008-02-26 00:36:57 +0000,src/main/activemq/connector/openwire/OpenWireConnector.cpp|,2,9,9,2008-02-25 22:41:48 +0000,2008-02-26 00:36:21 +0000,156953e2a97fcb3acc4fa4d38e3e5f7c2789db5a,activemq-cpp
AMQCPP-174,2008-05-19 15:15:10 +0000,src/main/activemq/core/ActiveMQSessionExecutor.h|,8,9,9,2008-04-15 01:38:03 +0000,2008-05-19 15:04:32 +0000,87825f7b273cbf980cd4813c7d1f1623dab6d8c3,activemq-cpp
AMQCPP-163,2008-05-20 22:55:36 +0000,src/main/activemq/connector/openwire/commands/RemoveSubscriptionInfo.h|,2,9,9,2008-02-02 23:03:53 +0000,2008-05-20 19:51:41 +0000,7c4b5c238c7b51d57eb2a678bc7252a5fdddf5f4,activemq-cpp
AMQCPP-158,2008-12-31 20:52:56 +0000,configure.ac|,2,9,9,2007-12-14 19:40:22 +0000,2008-06-04 23:15:30 +0000,b65b1e8da83e82de4a03b3b62d4ae05cd64aaec6,activemq-cpp
AMQCPP-185,2008-06-29 23:00:41 +0000,src/main/Makefile.am|,9,10,10,2008-06-29 22:58:54 +0000,2008-06-29 22:59:40 +0000,0adbc34f83c2cc22f1ab3ad2e4e469dea0fafe99,activemq-cpp
AMQCPP-188,2008-07-25 14:24:59 +0000,src/main/activemq/core/ActiveMQConsumer.cpp|,9,10,10,2008-07-10 06:31:58 +0000,2008-07-10 15:03:16 +0000,89d45aa9f20f14caee96b159561083a9edb3f092,activemq-cpp
AMQCPP-194,2008-08-19 11:02:53 +0000,src/main/activemq/connector/openwire/OpenWireConnector.cpp|,9,10,10,2008-08-19 11:01:32 +0000,2008-08-19 11:02:10 +0000,133b09934cf775ac162737b857832adab99d110d,activemq-cpp
AMQCPP-191,2008-08-20 18:22:05 +0000,m4/ac_doxygen.m4|,9,10,10,2008-08-15 03:02:16 +0000,2008-08-20 18:20:41 +0000,83f52d71243cfa213ee82cacd1aa276f1179aa2f,activemq-cpp
AMQCPP-190,2008-08-23 14:42:38 +0000,src/examples/producers/SimpleProducer.cpp|src/main/activemq/connector/openwire/utils/OpenwireStringSupport.cpp|,8,10,10,2008-07-30 22:38:04 +0000,2008-08-23 14:40:42 +0000,168837356bc08050177834f18c2af8351f26066f,activemq-cpp
AMQCPP-195,2008-08-24 19:58:16 +0000,src/main/activemq/connector/Connector.h|src/main/activemq/connector/openwire/OpenWireConnector.cpp|src/main/activemq/connector/openwire/OpenWireConnector.h|src/main/activemq/connector/stomp/StompConnector.cpp|src/main/activemq/connector/stomp/StompConnector.h|src/main/activemq/core/ActiveMQConsumer.cpp|src/main/activemq/core/ActiveMQConsumer.h|src/main/activemq/core/ActiveMQSession.cpp|src/main/activemq/core/ActiveMQSession.h|src/main/activemq/core/ActiveMQTransaction.cpp|src/main/activemq/core/ActiveMQTransaction.h|,9,10,10,2008-08-22 15:26:54 +0000,2008-08-24 19:56:42 +0000,6ccba2203e9548a76d7affa33417d9f3910cace3,activemq-cpp
AMQCPP-165,2008-08-31 23:58:26 +0000,RELEASE_NOTES.txt|,7,9,10,2008-02-04 07:37:35 +0000,2008-09-01 00:02:26 +0000,8a8a71bbff5314efade4ca3251283e6215c91379,activemq-cpp
AMQCPP-197,2008-09-15 12:06:56 +0000,src/main/Makefile.am|,9,11,11,2008-09-15 08:38:55 +0000,2008-09-15 12:06:04 +0000,973983ed24780792ec4ae5fb7c03e98826f9c130,activemq-cpp
AMQCPP-200,2008-11-12 15:45:14 +0000,src/main/activemq/connector/openwire/OpenWireFormatNegotiator.cpp|src/main/activemq/transport/IOTransport.h|src/main/activemq/transport/MockTransport.h|src/main/activemq/transport/Transport.h|src/main/activemq/transport/TransportFilter.h|src/test/activemq/transport/IOTransportTest.cpp|src/test/activemq/transport/IOTransportTest.h|src/test/activemq/transport/filters/ResponseCorrelatorTest.cpp|src/test/activemq/transport/filters/ResponseCorrelatorTest.h|,10,11,11,2008-10-05 10:24:18 +0000,2008-11-10 01:09:40 +0000,f55a7b45a0c8d300e473cf9ddad797259c516b69,activemq-cpp
AMQCPP-205,2009-05-05 19:32:44 +0000,src/main/decaf/util/concurrent/TimeUnit.cpp|,10,11,11,2008-11-12 15:42:50 +0000,2008-11-13 00:57:00 +0000,4926dd5f8508631a6b49131f3c554b6de736f312,activemq-cpp
AMQCPP-199,2008-11-18 14:26:28 +0000,src/main/decaf/internal/AprPool.cpp|,10,11,11,2008-10-05 08:49:16 +0000,2008-11-13 19:15:19 +0000,e36de41b33b10652d44e98299dd459d486374645,activemq-cpp
AMQCPP-213,2008-12-10 22:38:11 +0000,vs2005-build/vs2005-activemq-integration-tests.vcproj|vs2005-build/vs2005-activemq-unittests.vcproj|vs2005-build/vs2005-activemq.vcproj|,11,12,12,2008-12-09 23:16:27 +0000,2008-12-10 22:36:15 +0000,fcb29f6f1ae28a8b0113ce62cdc76a6ecaec66f3,activemq-cpp
AMQCPP-219,2009-01-23 14:50:16 +0000,src/main/decaf/net/SocketInputStream.cpp|src/main/decaf/net/TcpSocket.cpp|,11,13,13,2009-01-23 12:03:36 +0000,2009-01-23 14:48:12 +0000,a7bb43f0f8bd37f704643185f86d00bbcbf5d2fb,activemq-cpp
AMQCPP-220,2009-01-30 22:02:39 +0000,src/main/decaf/util/concurrent/Mutex.cpp|,12,13,13,2009-01-28 04:27:03 +0000,2009-01-30 21:59:20 +0000,f3dd74d55a254b76ddaeddaed26ba2c23659922a,activemq-cpp
AMQCPP-218,2009-02-05 15:26:04 +0000,src/main/cms/CMSException.h|src/main/decaf/lang/Throwable.h|src/test/activemq/exceptions/ActiveMQExceptionTest.cpp|src/test/testRegistry.cpp|,10,12,13,2008-12-30 06:36:17 +0000,2009-02-05 15:25:37 +0000,48e5886fbab2387c1b94b4d8153d526240926965,activemq-cpp
AMQCPP-223,2009-02-24 00:04:28 +0000,activemq-cpp-openwire-generator/src/main/java/org/apache/activemq/openwire/tool/AmqCppClassesGenerator.java|src/main/activemq/commands/ActiveMQBytesMessage.cpp|src/main/activemq/commands/ActiveMQBytesMessage.h|src/main/activemq/commands/ActiveMQMapMessage.cpp|src/main/activemq/commands/ActiveMQMessageTemplate.h|src/main/activemq/commands/ActiveMQTempDestination.cpp|src/main/activemq/commands/ActiveMQTextMessage.cpp|src/main/activemq/commands/Message.cpp|src/main/activemq/core/ActiveMQAckHandler.h|src/main/activemq/core/ActiveMQConnection.cpp|src/test/testRegistry.cpp|,13,14,14,2009-02-21 23:46:13 +0000,2009-02-23 16:06:11 +0000,efd4bd4585872d71901fa86cdab8db049603aaa2,activemq-cpp
AMQCPP-224,2009-02-27 19:59:51 +0000,m4/apr_tools.m4|,11,14,14,2009-02-27 14:42:38 +0000,2009-02-27 19:58:34 +0000,def1c2aa325c89f9800a9aca4e22ae0aedd10b75,activemq-cpp
AMQCPP-227,2009-03-03 23:27:43 +0000,src/main/decaf/internal/AprPool.h|src/main/decaf/util/AbstractCollection.h|src/main/decaf/util/concurrent/Mutex.h|,13,14,14,2009-03-03 18:46:14 +0000,2009-03-03 20:51:37 +0000,806d2c2286a4c20a50f5e3902eaeab36aef875b0,activemq-cpp
AMQCPP-225,2009-03-09 13:51:10 +0000,configure.ac|,12,14,14,2009-02-27 17:11:10 +0000,2009-03-09 13:50:30 +0000,fcdeffb90dc2d8c3fed359b9c631e5188cad327d,activemq-cpp
AMQCPP-232,2009-04-04 14:49:42 +0000,activemq-cpp/src/test/activemq/wireformat/openwire/utils/OpenwireStringSupportTest.cpp|activemq-cpp/src/test/activemq/wireformat/openwire/utils/OpenwireStringSupportTest.h|,14,15,15,2009-03-26 15:26:54 +0000,2009-04-04 00:31:22 +0000,c572c89383a6a777b21e3bd748eb863082a565ef,activemq-cpp
AMQCPP-209,2009-04-20 17:30:23 +0000,activemq-cpp/src/main/Makefile.am|activemq-cpp/src/main/activemq/core/ActiveMQConnection.cpp|activemq-cpp/src/main/activemq/core/ActiveMQConnection.h|activemq-cpp/src/main/activemq/core/ActiveMQConnectionSupport.h|activemq-cpp/src/main/activemq/core/ActiveMQConsumer.cpp|activemq-cpp/src/main/activemq/core/ActiveMQConsumer.h|activemq-cpp/src/main/activemq/core/ActiveMQSession.cpp|activemq-cpp/src/main/activemq/core/ActiveMQSession.h|activemq-cpp/src/main/activemq/core/ActiveMQSessionExecutor.cpp|activemq-cpp/src/main/activemq/core/ActiveMQSessionExecutor.h|activemq-cpp/src/main/activemq/core/ActiveMQTransactionContext.cpp|activemq-cpp/src/main/activemq/core/Dispatcher.h|activemq-cpp/src/main/activemq/core/MessageDispatchChannel.cpp|activemq-cpp/src/main/activemq/core/MessageDispatchChannel.h|activemq-cpp/src/test/Makefile.am|activemq-cpp/src/test/activemq/core/ActiveMQConnectionTest.cpp|activemq-cpp/src/test/activemq/core/ActiveMQConnectionTest.h|activemq-cpp/src/test/activemq/core/ActiveMQSessionTest.cpp|activemq-cpp/src/test/activemq/core/ActiveMQSessionTest.h|activemq-cpp/src/test/activemq/core/MessageDispatchChannelTest.cpp|activemq-cpp/src/test/activemq/core/MessageDispatchChannelTest.h|activemq-cpp/src/test/testRegistry.cpp|,9,12,15,2008-11-26 14:29:42 +0000,2009-04-07 23:59:07 +0000,36bc61470a532231ffb30baf6d4d35964eace67a,activemq-cpp
AMQCPP-234,2009-04-08 14:37:13 +0000,activemq-cpp/src/main/decaf/internal/net/URIHelper.h|activemq-cpp/src/main/decaf/internal/net/URIType.h|,14,15,15,2009-04-08 14:12:59 +0000,2009-04-08 14:14:05 +0000,8c0b05fb869d8af734912e88c1eb899009f615fc,activemq-cpp
AMQCPP-236,2009-04-14 20:07:30 +0000,activemq-cpp/src/main/activemq/commands/WireFormatInfo.cpp|activemq-cpp/src/main/activemq/commands/WireFormatInfo.h|activemq-cpp/src/main/activemq/wireformat/openwire/OpenWireFormat.cpp|activemq-cpp/src/main/activemq/wireformat/openwire/OpenWireFormat.h|activemq-cpp/src/main/activemq/wireformat/openwire/OpenWireFormatFactory.cpp|,14,15,15,2009-04-10 02:14:55 +0000,2009-04-14 20:07:05 +0000,1b6be1d130ac63d79543fd09fa5f7506ebafbfb5,activemq-cpp
AMQCPP-210,2009-04-27 14:52:05 +0000,activemq-cpp/src/main/decaf/lang/System.cpp|,11,12,15,2008-12-03 11:31:44 +0000,2009-04-27 14:49:37 +0000,fc5093c033844e90325261b8354408fadd6e8a1f,activemq-cpp
AMQCPP-249,2009-06-17 22:14:52 +0000,activemq-cpp/src/main/activemq/core/ActiveMQSession.cpp|,16,17,17,2009-06-17 09:10:58 +0000,2009-06-17 12:26:17 +0000,21c78b53d8e8a3aec68d7ab63c3515038de0bba9,activemq-cpp
AMQCPP-248,2009-06-17 14:54:09 +0000,activemq-cpp/src/main/activemq/transport/failover/FailoverTransport.cpp|activemq-cpp/src/main/decaf/net/TcpSocket.cpp|,16,17,17,2009-06-16 18:39:28 +0000,2009-06-17 14:53:19 +0000,a4481529a75ed424585c7c317502879f898c461f,activemq-cpp
AMQCPP-252,2009-06-25 14:24:51 +0000,activemq-cpp/src/test/activemq/core/ActiveMQConnectionFactoryTest.cpp|activemq-cpp/src/test/activemq/core/ActiveMQConnectionFactoryTest.h|,15,17,17,2009-06-25 13:24:25 +0000,2009-06-25 14:24:19 +0000,66afffad075cc34509352c70d41c5f6a81359aa6,activemq-cpp
AMQCPP-256,2009-07-23 14:29:18 +0000,activemq-cpp/src/main/activemq/core/ActiveMQConnectionSupport.h|activemq-cpp/src/main/activemq/core/ActiveMQTransactionContext.cpp|activemq-cpp/src/main/activemq/core/ActiveMQTransactionContext.h|,16,18,18,2009-07-21 16:56:53 +0000,2009-07-23 14:27:12 +0000,a9a08e2ec376916ff8492aef0964e9f3ba124298,activemq-cpp
AMQCPP-257,2009-08-03 13:55:35 +0000,activemq-cpp/src/main/activemq/core/ActiveMQConsumer.cpp|activemq-cpp/src/main/activemq/core/ActiveMQProducer.cpp|activemq-cpp/src/main/activemq/core/ActiveMQSession.cpp|,17,18,18,2009-07-28 17:26:02 +0000,2009-08-03 13:54:34 +0000,8d55c253ccff1b5d708c64b6297583405d71009f,activemq-cpp
AMQCPP-263,2009-09-29 13:23:52 +0000,activemq-cpp/src/main/cms/DeliveryMode.h|,15,18,18,2009-09-29 03:26:17 +0000,2009-09-29 13:21:27 +0000,c45e98c61a09316476da3ed8c88668dfb94a9eb4,activemq-cpp
AMQCPP-266,2009-11-13 14:14:07 +0000,activemq-cpp/vs2005-build/vs2005-activemq-integration-tests.vcproj|activemq-cpp/vs2005-build/vs2005-activemq.vcproj|,17,18,18,2009-11-12 16:34:37 +0000,2009-11-13 14:12:59 +0000,59da8287858e2e49ee00966e9092d052dbd94734,activemq-cpp
AMQCPP-268,2009-11-17 20:26:21 +0000,activemq-cpp/src/test-benchmarks/Makefile.am|activemq-cpp/src/test-benchmarks/decaf/io/ByteArrayOutputStreamBenchmark.cpp|activemq-cpp/src/test-benchmarks/decaf/io/ByteArrayOutputStreamBenchmark.h|activemq-cpp/src/test-benchmarks/testRegistry.cpp|,17,18,18,2009-11-17 19:38:35 +0000,2009-11-17 20:24:32 +0000,d33f47bda620937c8a8f1f5aa0f8ace7da9bdf7f,activemq-cpp
AMQCPP-267,2009-11-17 21:14:05 +0000,activemq-cpp/src/main/activemq/transport/correlator/ResponseCorrelator.cpp|,17,18,18,2009-11-17 15:37:14 +0000,2009-11-17 21:13:38 +0000,dba9b7fb2d39f47a729af371678392b1aae0ca7c,activemq-cpp
AMQCPP-272,2009-12-15 21:01:00 +0000,activemq-cpp/src/main/activemq/commands/ActiveMQBytesMessage.cpp|activemq-cpp/src/main/activemq/commands/ActiveMQBytesMessage.h|activemq-cpp/src/main/activemq/commands/ActiveMQTextMessage.cpp|activemq-cpp/src/main/decaf/lang/Thread.cpp|activemq-cpp/vs2005-build/vs2005-activemq.vcproj|,17,18,18,2009-12-15 19:29:13 +0000,2009-12-15 20:19:33 +0000,16715298ee45f015efcc287a0db5c4abcedcfd8b,activemq-cpp
AMQCPP-275,2010-01-08 13:59:18 +0000,activemq-cpp/src/main/decaf/lang/Thread.h|,18,19,19,2010-01-08 13:56:32 +0000,2010-01-08 13:57:02 +0000,ecaf9b0414cbcde3dcf301ef117dfb832eb2b0c8,activemq-cpp
AMQCPP-280,2010-01-22 19:33:59 +0000,activemq-cpp/src/main/decaf/lang/Thread.cpp|,18,19,19,2010-01-22 16:41:49 +0000,2010-01-22 19:17:11 +0000,a18eba91b634c0eed927b89d3ac726c9ff31a662,activemq-cpp
AMQCPP-281,2010-01-22 21:06:16 +0000,activemq-cpp/src/main/decaf/lang/Pointer.h|activemq-cpp/src/test/decaf/lang/PointerTest.cpp|,18,19,19,2010-01-22 20:22:08 +0000,2010-01-22 20:29:37 +0000,a703e290aee8c7f61f32f3e48038f3aa004fa8ec,activemq-cpp
AMQCPP-285,2010-02-09 15:48:23 +0000,activemq-cpp/src/main/decaf/internal/net/URIHelper.cpp|activemq-cpp/src/test/decaf/internal/net/URIHelperTest.cpp|activemq-cpp/src/test/decaf/internal/net/URIHelperTest.h|,18,19,19,2010-02-09 01:52:28 +0000,2010-02-09 15:45:55 +0000,87e1bc3d1e1d946e52e8b15b00bcce989306cbd0,activemq-cpp
AMQCPP-288,2010-02-24 13:46:23 +0000,activemq-cpp/src/main/activemq/cmsutil/ResourceLifecycleManager.cpp|activemq-cpp/src/main/activemq/cmsutil/ResourceLifecycleManager.h|,17,19,19,2010-02-24 08:25:55 +0000,2010-02-24 13:45:33 +0000,c1290d58bc6ab667fdb82415981c6c90cd875459,activemq-cpp
AMQCPP-290,2010-03-04 20:17:47 +0000,activemq-cpp/src/main/activemq/core/ActiveMQConnectionSupport.cpp|,18,19,19,2010-03-01 22:18:44 +0000,2010-03-04 20:11:50 +0000,6a8b7555899ea6fd098a05c459f5dded00faf686,activemq-cpp
AMQCPP-273,2010-03-08 13:55:43 +0000,activemq-cpp/src/examples/advisories/AdvisoryProducerMain.cpp|,18,19,19,2009-12-22 13:25:53 +0000,2010-03-08 13:52:40 +0000,588793f65e5f0474741e9e6cf348d6654b0928ba,activemq-cpp
AMQCPP-291,2010-03-10 16:31:23 +0000,activemq-cpp/src/main/activemq/wireformat/openwire/utils/OpenwireStringSupport.cpp|,17,19,19,2010-03-10 09:52:02 +0000,2010-03-10 16:28:00 +0000,48c1bbfd344739dacf5833df25cb12a177335299,activemq-cpp
AMQCPP-292,2010-03-22 15:35:20 +0000,activemq-cpp/src/main/activemq/state/ConnectionState.h|,19,20,20,2010-03-22 14:11:38 +0000,2010-03-22 15:24:16 +0000,7aa3cfdbb7775199578b80f27b6cff63367f5703,activemq-cpp
AMQCPP-277,2010-05-11 18:55:17 +0000,activemq-cpp/src/main/decaf/lang/Thread.cpp|,18,19,21,2010-01-12 05:22:27 +0000,2010-05-04 20:47:55 +0000,e937918aa24af81d7d4469674d6fc632c395f955,activemq-cpp
AMQCPP-296,2010-06-21 12:55:58 +0000,activemq-cpp/assembly/source.xml|,22,23,23,2010-06-21 07:59:34 +0000,2010-06-21 12:51:39 +0000,00ba8154b6eee164218ca29a9607d46e63d48422,activemq-cpp
AMQCPP-295,2010-06-21 13:39:20 +0000,activemq-cpp/src/main/decaf/util/concurrent/locks/ReentrantLock.cpp|,22,22,23,2010-06-10 09:27:05 +0000,2010-06-21 13:37:15 +0000,ceb0236c1e8169290c809b214c45379fa3359e57,activemq-cpp
AMQCPP-301,2010-06-30 14:16:11 +0000,activemq-cpp/src/main/activemq/wireformat/openwire/marshal/PrimitiveTypesMarshaller.cpp|activemq-cpp/src/test/activemq/commands/ActiveMQMapMessageTest.cpp|,22,23,23,2010-06-30 13:21:27 +0000,2010-06-30 13:27:13 +0000,028aefe57841ef6d146d6ea2ce18131415cee325,activemq-cpp
AMQCPP-302,2010-07-16 11:06:09 +0000,activemq-cpp/src/test-integration/activemq/test/MessageCompressionTest.cpp|,23,24,24,2010-07-16 11:04:10 +0000,2010-07-16 11:04:02 +0000,895ed54ab4cabdd2f4e1a3db4f28e2e1b19a2e8e,activemq-cpp
AMQCPP-303,2010-07-16 19:21:39 +0000,activemq-cpp/src/main/decaf/net/InetAddress.cpp|activemq-cpp/src/main/decaf/net/InetAddress.h|,23,24,24,2010-07-16 15:05:20 +0000,2010-07-16 15:39:56 +0000,9aca0ab1d628a25bfaed29e7d87a839ac595ff52,activemq-cpp
AMQCPP-304,2010-07-16 20:59:02 +0000,activemq-cpp/src/main/activemq/commands/ActiveMQDestination.cpp|,23,24,24,2010-07-16 19:00:04 +0000,2010-07-16 20:45:19 +0000,a701e9de8a14b68eb8e3842f8c319190ca3568a5,activemq-cpp
AMQCPP-312,2010-08-18 14:05:01 +0000,activemq-cpp/src/main/activemq/wireformat/openwire/marshal/PrimitiveTypesMarshaller.cpp|,24,25,25,2010-08-18 11:07:08 +0000,2010-08-18 13:57:02 +0000,5d988be4810a85f15b3159f26e06ce9e5e36a1fc,activemq-cpp
AMQCPP-314,2010-09-02 19:52:09 +0000,activemq-cpp/src/test/activemq/util/IdGeneratorTest.cpp|,24,25,25,2010-08-19 22:47:26 +0000,2010-09-01 15:39:29 +0000,5f6e945d33d7d776944b9781a88028b30b587d9b,activemq-cpp
AMQCPP-315,2010-09-02 19:51:43 +0000,activemq-cpp/src/main/activemq/library/ActiveMQCPP.cpp|,24,25,25,2010-08-27 21:17:37 +0000,2010-09-08 18:50:03 +0000,31a60e564303ab5e9e587a589b23083991d3db91,activemq-cpp
AMQCPP-317,2010-09-14 15:32:36 +0000,activemq-cpp/src/main/activemq/wireformat/stomp/StompHelper.cpp|,24,26,26,2010-09-13 23:48:30 +0000,2010-09-14 15:27:02 +0000,ac696b5324b1b42f533b1b0ee224ad2ac206fc2d,activemq-cpp
AMQCPP-323,2010-10-21 15:59:38 +0000,activemq-cpp/src/main/activemq/core/ActiveMQConnection.cpp|,22,26,26,2010-10-21 15:21:57 +0000,2010-10-21 15:55:29 +0000,bf09c385eb846670067e03b1858d10fe575dddbc,activemq-cpp
AMQCPP-316,2010-10-22 15:27:04 +0000,activemq-cpp/src/main/activemq/core/ActiveMQConnection.cpp|activemq-cpp/src/main/activemq/core/ActiveMQConnection.h|,22,26,26,2010-09-13 16:02:52 +0000,2010-10-22 15:24:40 +0000,6e8ac7fff7d9a6785b402985af5d9d4fa28272d1,activemq-cpp
AMQCPP-331,2010-11-19 21:21:58 +0000,activemq-cpp/src/main/activemq/transport/tcp/TcpTransportFactory.cpp|,25,26,26,2010-11-19 21:08:26 +0000,2010-11-19 21:17:04 +0000,e99ac1bad5daf8e93ae029afa5d419430627556b,activemq-cpp
AMQCPP-335,2010-11-24 15:17:15 +0000,activemq-cpp/src/main/activemq/core/ActiveMQConsumer.cpp|,25,26,26,2010-11-24 11:08:03 +0000,2010-11-24 15:15:38 +0000,8ea0f6e0510226c80463cc29a3e1f96f3732be56,activemq-cpp
AMQCPP-330,2010-12-05 17:10:10 +0000,activemq-cpp/src/test-integration/activemq/test/SimpleTest.cpp|activemq-cpp/src/test-integration/activemq/test/SimpleTest.h|activemq-cpp/src/test-integration/activemq/test/openwire/OpenwireSimpleTest.h|,25,26,26,2010-11-19 20:57:12 +0000,2010-12-05 17:09:31 +0000,70a338c38cf8b6dea6da939ce077b50518330960,activemq-cpp
AMQCPP-345,2011-01-19 21:13:50 +0000,activemq-cpp/src/main/activemq/wireformat/stomp/StompWireFormat.cpp|activemq-cpp/src/main/activemq/wireformat/stomp/StompWireFormat.h|,26,27,27,2011-01-19 21:11:29 +0000,2011-01-19 21:13:25 +0000,dd98e7a7131df3efbe7f26da4313dd96a6f701b5,activemq-cpp
AMQCPP-346,2011-01-24 15:41:05 +0000,activemq-cpp/src/main/activemq/wireformat/openwire/marshal/BaseDataStreamMarshaller.cpp|,21,27,27,2011-01-21 11:00:06 +0000,2011-01-24 15:40:52 +0000,486a72c5f666da08e796bc8ed2058cb3c461a933,activemq-cpp
AMQCPP-294,2011-01-31 14:02:42 +0000,activemq-cpp/src/main/decaf/lang/Thread.cpp|,20,22,27,2010-06-08 23:47:06 +0000,2011-01-28 22:00:41 +0000,50d119a34de89d7ee86b0f6af50f4ca3e1b0ec4c,activemq-cpp
AMQCPP-298,2011-01-31 14:00:48 +0000,activemq-cpp/src/main/decaf/lang/Thread.cpp|,22,23,27,2010-06-28 14:18:40 +0000,2011-01-28 22:00:41 +0000,50d119a34de89d7ee86b0f6af50f4ca3e1b0ec4c,activemq-cpp
AMQCPP-347,2011-02-01 22:12:03 +0000,activemq-cpp/src/main/decaf/internal/net/ssl/openssl/OpenSSLSocket.cpp|,26,27,27,2011-01-21 23:11:09 +0000,2011-02-01 22:08:23 +0000,d588b427e66faad23f353fa96cabf5f8a61e206d,activemq-cpp
AMQCPP-350,2011-02-10 21:17:16 +0000,activemq-cpp/src/examples/producers/SimpleProducer.cpp|activemq-cpp/src/main/activemq/core/ActiveMQConnectionFactory.cpp|activemq-cpp/src/main/activemq/transport/failover/FailoverTransportFactory.cpp|activemq-cpp/src/test/activemq/util/URISupportTest.cpp|,26,27,27,2011-02-10 21:02:18 +0000,2011-02-10 21:06:04 +0000,8f2a95529db1cc7f496d815ddc45fb3b8e5ad491,activemq-cpp
AMQCPP-351,2011-02-16 14:02:20 +0000,activemq-cpp/src/main/activemq/transport/failover/FailoverTransportListener.cpp|,26,27,27,2011-02-16 02:59:47 +0000,2011-02-16 14:00:40 +0000,ab872322546ba103537c4f09b5c1d3a96222cc91,activemq-cpp
AMQCPP-352,2011-02-28 14:18:04 +0000,activemq-cpp/src/main/activemq/util/URISupport.cpp|activemq-cpp/src/test/activemq/util/URISupportTest.cpp|,16,27,27,2011-02-27 18:30:25 +0000,2011-02-28 14:12:25 +0000,429d7b9d81d2b3b0219154a2dbdb1e859f81cccf,activemq-cpp
AMQCPP-353,2011-03-02 14:23:55 +0000,activemq-cpp/src/main/activemq/wireformat/openwire/marshal/BaseDataStreamMarshaller.cpp|,26,27,27,2011-03-01 21:57:00 +0000,2011-03-02 14:17:33 +0000,8c65540e75f82bc985539468592092184762b723,activemq-cpp
AMQCPP-355,2011-03-17 14:21:58 +0000,activemq-cpp/src/main/activemq/core/ActiveMQConnection.cpp|activemq-cpp/src/main/activemq/core/ActiveMQConnection.h|activemq-cpp/src/main/activemq/core/ActiveMQConsumer.cpp|activemq-cpp/src/main/activemq/core/ActiveMQSession.cpp|activemq-cpp/src/main/activemq/core/ActiveMQSession.h|,26,28,28,2011-03-04 22:05:22 +0000,2011-03-17 14:20:45 +0000,90b6e883dbface0b0f558f98c2e3eeb113e9b78f,activemq-cpp
AMQCPP-358,2011-03-30 19:27:00 +0000,activemq-cpp/src/main/activemq/transport/failover/FailoverTransport.cpp|activemq-cpp/src/main/activemq/transport/failover/FailoverTransport.h|activemq-cpp/src/main/activemq/transport/failover/FailoverTransportListener.cpp|,27,28,28,2011-03-29 23:02:17 +0000,2011-03-30 19:24:22 +0000,88fbda96ac36bd6b3c8dc5d3e951ae41716d36d4,activemq-cpp
AMQCPP-359,2011-03-31 17:56:29 +0000,activemq-cpp/src/main/activemq/commands/ActiveMQBytesMessage.cpp|activemq-cpp/src/test/activemq/commands/ActiveMQBytesMessageTest.cpp|,27,28,28,2011-03-31 15:34:47 +0000,2011-03-31 15:46:53 +0000,ccaf1de1db6f42595eb0a5065581227df4f52f4f,activemq-cpp
AMQCPP-363,2011-04-20 23:48:11 +0000,activemq-cpp/src/main/activemq/state/ConnectionState.h|activemq-cpp/src/main/activemq/state/ConnectionStateTracker.cpp|activemq-cpp/src/main/activemq/transport/tcp/TcpTransportFactory.cpp|activemq-cpp/src/main/activemq/wireformat/openwire/OpenWireFormatFactory.cpp|,28,29,29,2011-04-20 17:17:02 +0000,2011-04-20 23:42:03 +0000,527c3dcb84c09ffedad568f050b57e93a534664d,activemq-cpp
AMQCPP-366,2011-04-23 15:48:46 +0000,activemq-cpp/src/main/activemq/core/ActiveMQConnectionFactory.cpp|,27,29,29,2011-04-22 21:59:52 +0000,2011-04-23 15:48:02 +0000,0509cc9c11f4c45931cdbe71626051b1531a052d,activemq-cpp
AMQCPP-369,2011-05-02 14:53:27 +0000,activemq-cpp/src/main/decaf/util/logging/Handler.cpp|activemq-cpp/src/main/decaf/util/logging/Handler.h|,27,30,30,2011-05-02 14:51:52 +0000,2011-05-02 14:52:30 +0000,f0f0d647e098b8321d5b15b051b9c3f0410d483c,activemq-cpp
AMQCPP-370,2011-05-04 18:01:41 +0000,activemq-cpp/activemq-cpp.pc.in|,27,30,30,2011-05-02 17:22:35 +0000,2011-05-04 18:01:17 +0000,50f0f53934798a9acd390f9bd98e55c185905472,activemq-cpp
AMQCPP-371,2011-05-06 21:49:55 +0000,activemq-cpp/src/main/activemq/commands/ActiveMQBytesMessage.cpp|,16,30,30,2011-05-05 03:34:45 +0000,2011-05-06 21:49:48 +0000,fba1ddfdc063c033408eadcea08edaaca97f0712,activemq-cpp
AMQCPP-374,2011-06-04 15:51:12 +0000,activemq-cpp/src/main/activemq/wireformat/openwire/marshal/BaseDataStreamMarshaller.cpp|,29,30,30,2011-06-04 15:26:48 +0000,2011-06-04 15:51:07 +0000,f4c4f271d812fbae523fcab8f7da96949fb05ae3,activemq-cpp
AMQCPP-382,2011-11-09 21:17:31 +0000,activemq-cpp/src/main/activemq/core/ActiveMQConsumer.cpp|activemq-cpp/src/test-integration/activemq/test/openwire/OpenwireSimpleTest.cpp|activemq-cpp/src/test-integration/activemq/test/openwire/OpenwireSimpleTest.h|,29,30,30,2011-10-28 19:09:02 +0000,2011-11-09 21:00:05 +0000,4e9ec07f305cedbd627003e3f22fe58b3a43c65b,activemq-cpp
AMQCPP-384,2011-11-09 22:00:13 +0000,activemq-cpp/src/main/activemq/state/ConnectionStateTracker.cpp|activemq-cpp/src/main/activemq/state/ConnectionStateTracker.h|,29,30,30,2011-11-09 14:58:16 +0000,2011-11-09 21:59:51 +0000,ed2a51f860a25d9974b4d0ac696717a6a8d1a179,activemq-cpp
AMQCPP-385,2011-12-12 20:27:50 +0000,activemq-cpp/src/main/activemq/commands/ActiveMQBytesMessage.cpp|activemq-cpp/src/main/activemq/commands/ActiveMQMapMessage.cpp|activemq-cpp/src/main/activemq/commands/ActiveMQStreamMessage.cpp|activemq-cpp/src/main/activemq/commands/ActiveMQTextMessage.cpp|activemq-cpp/src/main/activemq/transport/correlator/ResponseCorrelator.cpp|activemq-cpp/src/main/activemq/wireformat/openwire/OpenWireFormat.cpp|activemq-cpp/src/main/activemq/wireformat/openwire/marshal/PrimitiveTypesMarshaller.cpp|activemq-cpp/src/main/decaf/util/concurrent/atomic/AtomicRefCounter.h|,29,30,30,2011-11-27 11:44:35 +0000,2011-12-12 20:22:17 +0000,9e41b9deb85fccd4149b7b1bff2b359037793a05,activemq-cpp
AMQCPP-389,2012-02-25 20:00:35 +0000,activemq-cpp/src/main/decaf/util/AbstractQueue.h|,30,31,31,2012-02-19 19:48:35 +0000,2012-02-25 19:59:58 +0000,b2e49c3596e11bcfea803300ae38c9c9a3dd5bfe,activemq-cpp
AMQCPP-391,2012-03-30 14:45:42 +0000,activemq-cpp/src/main/activemq/transport/failover/FailoverTransport.cpp|,30,31,31,2012-03-30 14:44:35 +0000,2012-03-30 14:44:57 +0000,4c83d02be5b297343ae229d6796ba23af5ad607c,activemq-cpp
AMQCPP-392,2012-04-06 20:43:23 +0000,activemq-cpp/src/main/decaf/util/PriorityQueue.cpp|activemq-cpp/src/main/decaf/util/PriorityQueue.h|,30,31,31,2012-04-06 20:42:06 +0000,2012-04-06 20:42:51 +0000,faadcc1a54cc28c59db8a4856d3aeafe9be1af28,activemq-cpp
AMQCPP-375,2012-04-13 22:03:08 +0000,activemq-cpp/src/main/decaf/lang/Integer.cpp|activemq-cpp/src/main/decaf/lang/Long.cpp|,28,30,31,2011-06-06 13:55:56 +0000,2012-04-13 22:02:37 +0000,6556f8c5a309622720e2b4d9bdff58d294d17ad1,activemq-cpp
AMQCPP-387,2012-04-14 19:50:13 +0000,activemq-cpp/src/main/activemq/core/ActiveMQConnectionFactory.cpp|activemq-cpp/src/test/activemq/core/ActiveMQConnectionFactoryTest.cpp|activemq-cpp/src/test/activemq/core/ActiveMQConnectionFactoryTest.h|,30,31,31,2012-02-09 17:20:52 +0000,2012-04-14 19:49:39 +0000,84f41b23bb78f45b45674e751fb31d98ae3e3b26,activemq-cpp
AMQCPP-393,2012-04-17 15:10:54 +0000,activemq-cpp/src/main/activemq/core/kernels/ActiveMQConsumerKernel.cpp|,29,31,31,2012-04-10 09:27:32 +0000,2012-04-17 15:10:06 +0000,d9993e216e57ed0f8c7c2cc9a18faded9ff194f0,activemq-cpp
AMQCPP-376,2012-04-18 21:14:53 +0000,activemq-cpp/src/main/activemq/transport/failover/CloseTransportsTask.cpp|activemq-cpp/src/main/activemq/transport/failover/CloseTransportsTask.h|,29,30,31,2011-07-04 12:18:32 +0000,2012-04-18 21:07:34 +0000,7c981fa809a3aaefa8bebf2935da3fb2ae9ad92f,activemq-cpp
AMQCPP-402,2012-05-24 14:54:57 +0000,activemq-cpp/src/main/activemq/state/CommandVisitor.h|activemq-cpp/src/main/activemq/state/CommandVisitorAdapter.h|activemq-cpp/src/main/activemq/state/ConnectionState.cpp|activemq-cpp/src/main/activemq/state/ConnectionState.h|activemq-cpp/src/main/activemq/state/ConnectionStateTracker.cpp|activemq-cpp/src/main/activemq/state/ConnectionStateTracker.h|activemq-cpp/src/main/activemq/state/ConsumerState.cpp|activemq-cpp/src/main/activemq/state/ConsumerState.h|activemq-cpp/src/main/activemq/state/ProducerState.cpp|activemq-cpp/src/main/activemq/state/ProducerState.h|activemq-cpp/src/main/activemq/state/SessionState.cpp|activemq-cpp/src/main/activemq/state/SessionState.h|activemq-cpp/src/main/activemq/state/Tracked.cpp|activemq-cpp/src/main/activemq/state/Tracked.h|activemq-cpp/src/main/activemq/state/TransactionState.cpp|activemq-cpp/src/main/activemq/state/TransactionState.h|,31,32,32,2012-05-16 15:03:58 +0000,2012-05-16 16:02:06 +0000,ea524afcad39ec933f866287b6ab52f1678c27ae,activemq-cpp
AMQCPP-406,2012-05-24 15:04:28 +0000,activemq-cpp/src/main/activemq/transport/tcp/TcpTransport.cpp|,31,32,32,2012-05-24 14:57:01 +0000,2012-05-24 15:03:46 +0000,2ff87100e75123a412a0a17921c489b889608111,activemq-cpp
AMQCPP-403,2012-05-16 23:29:15 +0000,activemq-cpp/src/main/activemq/state/SessionState.cpp|,31,32,32,2012-05-16 23:27:10 +0000,2012-05-24 22:46:03 +0000,3ce911d41f22580b750465f202e338ac4994e399,activemq-cpp
AMQCPP-410,2012-06-08 20:38:52 +0000,activemq-cpp/src/main/activemq/core/kernels/ActiveMQConsumerKernel.cpp|activemq-cpp/src/test-integration/activemq/test/openwire/OpenwireSimpleTest.cpp|activemq-cpp/src/test-integration/activemq/test/openwire/OpenwireSimpleTest.h|,30,32,32,2012-06-08 17:38:19 +0000,2012-06-08 20:19:10 +0000,0f92c036a65e724a15fb0dbe54262cbf1b6710c2,activemq-cpp
AMQCPP-404,2012-06-20 15:44:57 +0000,activemq-cpp/vs2008-build/activemq-cpp-example.vcproj|activemq-cpp/vs2008-build/activemq-cpp-integration-tests.vcproj|activemq-cpp/vs2008-build/activemq-cpp-producer.vcproj|activemq-cpp/vs2008-build/activemq-cpp-unittests.vcproj|activemq-cpp/vs2008-build/activemq-cpp.vcproj|,31,32,33,2012-05-18 15:16:13 +0000,2012-06-20 15:43:49 +0000,082c4baec83add4b8a01b3b7eb9a775029061e07,activemq-cpp
AMQCPP-418,2012-08-06 22:34:57 +0000,activemq-cpp/src/test/decaf/lang/ArrayPointerTest.cpp|activemq-cpp/src/test/decaf/lang/PointerTest.cpp|,33,34,34,2012-08-06 18:04:52 +0000,2012-08-06 22:34:09 +0000,384ffda3f4aba3d7c0150f4fb2374ce81e877f3f,activemq-cpp
AMQCPP-416,2012-08-06 22:51:12 +0000,activemq-cpp/m4/find_cppunit.m4|,33,34,34,2012-08-06 17:47:23 +0000,2012-08-06 22:50:07 +0000,5d5b4a0c24a438efc1f8fb40678e35bc9c857ce8,activemq-cpp
AMQCPP-417,2012-08-09 14:50:58 +0000,activemq-cpp/src/main/decaf/lang/System.cpp|,33,34,34,2012-08-06 17:53:50 +0000,2012-08-09 14:49:38 +0000,82203c03207bd3baab8b2d831128fc352b9d8741,activemq-cpp
AMQCPP-420,2012-08-13 21:02:38 +0000,activemq-cpp/src/main/activemq/transport/tcp/SslTransportFactory.cpp|,31,34,34,2012-08-13 18:50:54 +0000,2012-08-13 21:01:19 +0000,6505096fac55548f3e6b6ce9d69683edefc4ed85,activemq-cpp
AMQCPP-424,2012-08-30 15:38:55 +0000,activemq-cpp/src/main/activemq/commands/ActiveMQBlobMessage.h|activemq-cpp/src/main/activemq/commands/ActiveMQBytesMessage.h|activemq-cpp/src/main/activemq/commands/ActiveMQMapMessage.h|activemq-cpp/src/main/activemq/commands/ActiveMQMessage.h|activemq-cpp/src/main/activemq/commands/ActiveMQObjectMessage.h|activemq-cpp/src/main/activemq/commands/ActiveMQStreamMessage.h|activemq-cpp/src/main/activemq/commands/ActiveMQTextMessage.h|,32,34,34,2012-08-30 12:41:23 +0000,2012-08-30 15:23:08 +0000,a267a939d596876ff6a4b2dd26a3ae64d302f371,activemq-cpp
AMQCPP-426,2012-09-17 06:15:41 +0000,activemq-cpp/src/main/activemq/core/ActiveMQConnection.cpp|,32,34,34,2012-09-17 05:30:01 +0000,2012-09-17 06:13:57 +0000,f4e2c112c1c82825efc57b6d36acfad8eb24a362,activemq-cpp
AMQCPP-429,2012-10-02 22:57:33 +0000,activemq-cpp/src/main/activemq/transport/correlator/ResponseCorrelator.cpp|,33,34,34,2012-10-02 20:01:36 +0000,2012-10-02 22:56:54 +0000,a96e566362f412af45002af327cf2ca008bb2b41,activemq-cpp
AMQCPP-431,2012-10-04 14:49:53 +0000,activemq-cpp/src/main/activemq/wireformat/openwire/OpenWireFormat.cpp|,33,34,34,2012-10-04 14:25:26 +0000,2012-10-04 14:30:24 +0000,799fbc9eb90cb6ab22cd7951bc4555c35d00322e,activemq-cpp
AMQCPP-433,2012-10-05 13:03:09 +0000,activemq-cpp/src/main/activemq/wireformat/stomp/StompHelper.cpp|,29,34,34,2012-10-04 23:43:56 +0000,2012-10-05 13:00:09 +0000,6a8f4a711a73a510c29ff9e6467e17a985ce3408,activemq-cpp
AMQCPP-437,2012-10-26 19:30:36 +0000,activemq-cpp/src/main/activemq/core/ActiveMQSessionExecutor.cpp|,32,35,35,2012-10-25 15:19:37 +0000,2012-10-26 19:25:13 +0000,87665d81fd83eee0a303db1f433336bb78bad67f,activemq-cpp
AMQCPP-443,2012-11-26 20:10:42 +0000,activemq-cpp/configure.ac|,34,35,35,2012-11-26 19:53:31 +0000,2012-11-26 20:10:17 +0000,bb63d6c9fdd99c94cda0bc04dded56f36a494126,activemq-cpp
AMQCPP-405,2012-12-04 20:47:33 +0000,activemq-cpp/src/main/decaf/util/concurrent/ThreadPoolExecutor.cpp|,30,32,35,2012-05-23 22:01:19 +0000,2012-11-29 16:05:26 +0000,f14ea7a7ca59abf8dc457b233d75815d8d1977fa,activemq-cpp
AMQCPP-422,2013-01-15 21:26:21 +0000,activemq-cpp/src/main/activemq/transport/TransportFilter.cpp|activemq-cpp/src/main/activemq/transport/inactivity/InactivityMonitor.cpp|activemq-cpp/src/main/activemq/transport/tcp/TcpTransport.cpp|,29,34,36,2012-08-13 19:26:02 +0000,2013-01-15 21:18:52 +0000,d59f529e7c698ad781522e93d37caf4a61cfbbf2,activemq-cpp
AMQCPP-449,2013-01-22 14:52:50 +0000,activemq-cpp/src/main/decaf/internal/util/concurrent/Threading.cpp|,35,36,36,2013-01-16 14:41:05 +0000,2013-01-18 19:24:32 +0000,c8cf623ccacd02674fe500274de070d77e8da3d1,activemq-cpp
AMQCPP-450,2013-01-31 00:44:09 +0000,activemq-cpp/src/main/decaf/internal/util/concurrent/Threading.cpp|,35,36,36,2013-01-31 00:15:24 +0000,2013-01-31 00:41:21 +0000,b34aaabceae3949877c897698a79152132d565fb,activemq-cpp
AMQCPP-454,2013-02-14 18:23:47 +0000,activemq-cpp/src/main/activemq/transport/inactivity/InactivityMonitor.cpp|,35,36,36,2013-02-05 23:00:00 +0000,2013-02-06 00:07:59 +0000,74a74fef6dec4aff41f4c8750f0bf3fd4bccfc30,activemq-cpp
AMQCPP-455,2013-02-08 17:30:53 +0000,activemq-cpp/src/main/activemq/core/ActiveMQConnectionFactory.cpp|,35,36,36,2013-02-06 19:13:12 +0000,2013-02-08 17:28:00 +0000,51d55cc41c3494c8df07817bb0d9c5316676b245,activemq-cpp
AMQCPP-461,2013-02-11 20:43:25 +0000,activemq-cpp/src/main/decaf/internal/util/concurrent/Threading.cpp|activemq-cpp/src/test/decaf/lang/ThreadTest.cpp|activemq-cpp/src/test/decaf/lang/ThreadTest.h|,35,36,36,2013-02-11 20:42:17 +0000,2013-02-11 20:42:57 +0000,fc3ae2f4ed85498cbb05f02530866eebedde5e5a,activemq-cpp
AMQCPP-459,2013-02-19 21:47:18 +0000,activemq-cpp/src/main/activemq/transport/IOTransport.cpp|activemq-cpp/src/main/activemq/transport/IOTransport.h|,35,36,36,2013-02-08 19:01:14 +0000,2013-02-15 18:46:22 +0000,02bec8ad1310ce903072e672c05a1b4744d15a8d,activemq-cpp
AMQCPP-470,2013-03-22 19:48:33 +0000,activemq-cpp/src/main/activemq/state/ConnectionStateTracker.cpp|activemq-cpp/src/main/activemq/state/ConnectionStateTracker.h|activemq-cpp/src/main/activemq/transport/failover/FailoverTransport.cpp|activemq-cpp/src/main/activemq/transport/failover/FailoverTransport.h|activemq-cpp/src/main/activemq/transport/failover/FailoverTransportFactory.cpp|activemq-cpp/src/main/decaf/util/LRUCache.h|activemq-cpp/src/main/decaf/util/LinkedHashMap.h|activemq-cpp/src/test/activemq/state/ConnectionStateTrackerTest.cpp|activemq-cpp/src/test/activemq/state/ConnectionStateTrackerTest.h|,36,37,37,2013-03-22 19:46:48 +0000,2013-03-22 19:48:18 +0000,329a47fe82d501c58284e880c83a946778245c25,activemq-cpp
AMQCPP-475,2013-04-08 15:33:57 +0000,activemq-cpp/src/main/decaf/internal/util/concurrent/unix/Atomics.cpp|,36,37,37,2013-04-08 07:20:35 +0000,2013-04-08 15:33:10 +0000,50b4558e583473a4bee47f5e9266e1a1e30de3eb,activemq-cpp
AMQCPP-476,2013-05-01 22:21:48 +0000,activemq-cpp/src/main/activemq/wireformat/stomp/StompFrame.cpp|activemq-cpp/src/test-integration/Makefile.am|activemq-cpp/src/test-integration/TestRegistry.cpp|activemq-cpp/src/test-integration/activemq/test/BulkMessageTest.cpp|activemq-cpp/src/test-integration/activemq/test/BulkMessageTest.h|activemq-cpp/src/test-integration/activemq/test/stomp/StompBulkMessageTest.cpp|activemq-cpp/src/test-integration/activemq/test/stomp/StompBulkMessageTest.h|activemq-cpp/src/test-integration/activemq/util/CMSProvider.cpp|activemq-cpp/src/test-integration/activemq/util/CMSProvider.h|,36,37,37,2013-04-09 10:32:29 +0000,2013-05-01 22:20:27 +0000,1253fc10ad8aaeb6dd18218017bb3561feb5c052,activemq-cpp
AMQCPP-482,2013-05-10 16:59:37 +0000,activemq-cpp/src/main/activemq/commands/ActiveMQMessageTemplate.h|activemq-cpp/src/main/activemq/core/kernels/ActiveMQSessionKernel.cpp|activemq-cpp/src/test-integration/activemq/test/SimpleTest.cpp|activemq-cpp/src/test-integration/activemq/test/openwire/OpenwireSimpleTest.cpp|activemq-cpp/src/test-integration/activemq/test/openwire/OpenwireSimpleTest.h|,36,37,37,2013-05-09 16:03:20 +0000,2013-05-10 16:59:06 +0000,bc67adf0ef4443fee00f23d7c48b78d070e85360,activemq-cpp
AMQCPP-485,2013-05-28 15:22:52 +0000,activemq-cpp/src/main/decaf/internal/util/HexStringParser.cpp|,37,38,38,2013-05-28 15:22:14 +0000,2013-05-28 15:22:38 +0000,bec673d755a37800a68a80cc2b8dfac12e3f3f96,activemq-cpp
AMQCPP-484,2013-05-28 22:14:38 +0000,activemq-cpp/src/main/activemq/core/ActiveMQConnectionFactory.cpp|,37,38,38,2013-05-23 17:19:12 +0000,2013-05-28 22:06:54 +0000,595592f536583b777cc32e3efd9363b588c25d66,activemq-cpp
AMQCPP-487,2013-06-10 22:32:21 +0000,activemq-cpp/src/main/activemq/threads/CompositeTaskRunner.cpp|,36,38,38,2013-06-10 18:48:19 +0000,2013-06-10 20:52:19 +0000,593458cd665e535361378fd62b717d7027ce0c38,activemq-cpp
AMQCPP-488,2013-06-10 20:55:43 +0000,activemq-cpp/src/main/activemq/core/ActiveMQConnection.cpp|activemq-cpp/src/test/activemq/core/ActiveMQConnectionTest.cpp|activemq-cpp/src/test/activemq/core/ActiveMQConnectionTest.h|,37,38,38,2013-06-10 20:54:15 +0000,2013-06-10 20:55:13 +0000,78db07682f0fc1f191c0f0cf3b243639721e48df,activemq-cpp
AMQCPP-489,2013-06-11 15:22:30 +0000,activemq-cpp/src/examples/stress-test/TestSenderAndReceiver.cpp|activemq-cpp/src/main/activemq/util/PrimitiveValueConverter.cpp|activemq-cpp/src/main/activemq/util/PrimitiveValueConverter.h|activemq-cpp/src/main/decaf/internal/util/concurrent/Threading.cpp|,37,38,38,2013-06-11 05:47:53 +0000,2013-06-11 15:04:04 +0000,3f54fb4261879cbf043ae9164b461b0d462baf3a,activemq-cpp
AMQCPP-490,2013-06-13 17:29:35 +0000,activemq-cpp/src/test/activemq/core/ActiveMQConnectionTest.cpp|activemq-cpp/src/test/activemq/core/ActiveMQConnectionTest.h|,35,38,38,2013-06-13 02:53:48 +0000,2013-06-13 17:27:30 +0000,1bf3fb5c27d8e3e9e91354db4a7659c19a02c200,activemq-cpp
AMQCPP-491,2013-06-13 18:51:05 +0000,activemq-cpp/src/main/activemq/transport/failover/FailoverTransport.cpp|,37,38,38,2013-06-13 18:11:15 +0000,2013-06-13 18:47:49 +0000,4ab21d06cf4a79f11578b1651b062fc49e544627,activemq-cpp
AMQCPP-497,2013-07-01 17:01:11 +0000,activemq-cpp/src/main/decaf/util/UUID.cpp|,37,38,38,2013-06-28 21:20:14 +0000,2013-07-01 16:58:40 +0000,b2ef48c6b027b09b670a24f508ccc3449d13e849,activemq-cpp
AMQCPP-498,2013-07-01 18:06:33 +0000,activemq-cpp/src/main/decaf/internal/util/concurrent/unix/PlatformThread.cpp|,35,38,38,2013-06-28 23:26:25 +0000,2013-07-01 18:04:25 +0000,f5b1dedab2c29bd05ebc4da06db0fb3fa1083599,activemq-cpp
AMQCPP-494,2013-07-02 00:38:29 +0000,activemq-cpp/src/main/activemq/core/kernels/ActiveMQConsumerKernel.cpp|activemq-cpp/src/main/activemq/core/kernels/ActiveMQSessionKernel.h|activemq-cpp/src/test/activemq/core/ActiveMQSessionTest.cpp|activemq-cpp/src/test/activemq/core/ActiveMQSessionTest.h|,37,38,38,2013-06-19 14:02:21 +0000,2013-07-02 00:25:26 +0000,8b3266ba56f2a45ad2da9b3ab3bef1745021616f,activemq-cpp
AMQCPP-474,2013-04-08 15:27:51 +0000,activemq-cpp/src/main/activemq/core/ActiveMQConnection.cpp|,36,37,38,2013-04-05 08:30:26 +0000,2013-07-02 21:44:33 +0000,e99554ffcde2f7638b241680ca620685c59142d9,activemq-cpp
AMQCPP-506,2013-08-13 21:43:11 +0000,activemq-cpp/src/main/decaf/util/concurrent/locks/ReentrantReadWriteLock.cpp|,38,39,39,2013-08-09 19:46:08 +0000,2013-08-13 21:41:07 +0000,8bc19c32982fbee66aa84921223d37ba660e1844,activemq-cpp
AMQCPP-513,2013-09-20 21:53:00 +0000,activemq-cpp/src/main/activemq/core/ActiveMQConnection.cpp|activemq-cpp/src/main/activemq/core/AdvisoryConsumer.cpp|activemq-cpp/src/test-integration/activemq/test/openwire/OpenwireAdvisorysTest.cpp|activemq-cpp/src/test-integration/activemq/test/openwire/OpenwireAdvisorysTest.h|,37,41,41,2013-09-20 16:12:02 +0000,2013-09-20 17:52:10 -0400,021798b68a3154effc45a877de84966fd5750774,activemq-cpp
AMQCPP-510,2013-09-20 14:24:36 +0000,activemq-cpp/src/main/activemq/core/ConnectionAudit.cpp|activemq-cpp/src/test/activemq/core/ConnectionAuditTest.cpp|,37,40,41,2013-09-10 14:59:49 +0000,2013-10-01 17:46:35 -0400,c4c4602b407991b64dec9ebd49410406435b9a3d,activemq-cpp
AMQCPP-514,2013-10-03 15:16:12 +0000,activemq-cpp/src/main/activemq/commands/ActiveMQBytesMessage.cpp|,40,41,41,2013-10-02 22:08:39 +0000,2013-10-03 11:15:33 -0400,06a7435dffe1ca74b0fcc60fb596817526170cff,activemq-cpp
AMQCPP-515,2013-10-07 13:58:36 +0000,activemq-cpp/src/main/activemq/wireformat/stomp/StompFrame.cpp|,39,41,41,2013-10-07 09:30:32 +0000,2013-10-07 09:54:12 -0400,efd6e7b933b077f5c535c9bfe45eee1c7c6e32cf,activemq-cpp
AMQCPP-516,2013-10-09 16:34:13 +0000,activemq-cpp/src/main/activemq/transport/failover/FailoverTransport.cpp|,40,41,41,2013-10-09 16:31:55 +0000,2013-10-09 12:32:13 -0400,60b7330094114cb4271b53ca21676d88cdf15546,activemq-cpp
AMQCPP-518,2013-10-09 22:06:14 +0000,activemq-cpp/src/main/activemq/core/ActiveMQConnection.cpp|activemq-cpp/src/main/activemq/core/kernels/ActiveMQSessionKernel.cpp|activemq-cpp/src/main/activemq/core/kernels/ActiveMQSessionKernel.h|activemq-cpp/src/main/activemq/state/ConnectionStateTracker.cpp|,39,41,41,2013-10-09 21:58:29 +0000,2013-10-09 18:05:07 -0400,e78c283367af2498b5607d65f3f1d6e446aade50,activemq-cpp
AMQCPP-520,2013-10-22 16:32:11 +0000,activemq-cpp/src/main/activemq/transport/failover/FailoverTransport.cpp|,36,41,41,2013-10-15 08:24:18 +0000,2013-10-22 12:27:23 -0400,c5a9f4521693281878864e919d42a239c5961293,activemq-cpp
AMQCPP-505,2013-08-07 19:35:52 +0000,activemq-cpp/src/main/decaf/internal/net/ssl/openssl/OpenSSLSocket.cpp|,37,39,41,2013-08-07 16:10:11 +0000,2013-11-08 17:27:35 -0500,12bb514c6c3d6a37db71c4cbc90170c6f98d8270,activemq-cpp
AMQCPP-525,2013-11-24 15:19:56 +0000,activemq-cpp/src/main/activemq/library/ActiveMQCPP.cpp|,40,41,41,2013-11-23 23:31:49 +0000,2013-11-24 10:16:02 -0500,0ccee98438e5b551279a53a5ed57777cae7a0c10,activemq-cpp
AMQCPP-527,2013-12-11 19:26:18 +0000,activemq-cpp/src/main/decaf/util/concurrent/ConcurrentStlMap.h|,40,42,42,2013-12-11 18:42:57 +0000,2013-12-11 14:25:15 -0500,6a4d00aa68d374bed3dd16fb68cbef60fe90dd16,activemq-cpp
AMQCPP-529,2014-01-02 21:09:59 +0000,activemq-cpp/src/main/decaf/internal/util/concurrent/Threading.cpp|activemq-cpp/src/main/decaf/internal/util/concurrent/unix/PlatformDefs.h|activemq-cpp/src/main/decaf/internal/util/concurrent/unix/PlatformThread.cpp|activemq-cpp/src/main/decaf/internal/util/concurrent/windows/PlatformDefs.h|activemq-cpp/src/main/decaf/internal/util/concurrent/windows/PlatformThread.cpp|activemq-cpp/src/test/testRegistry.cpp|,40,42,42,2014-01-01 14:50:22 +0000,2014-01-02 16:05:54 -0500,15cb77921c31c1475bb57b489af9638026ab0210,activemq-cpp
AMQCPP-530,2014-01-16 19:42:32 +0000,activemq-cpp/src/main/decaf/internal/net/ssl/openssl/OpenSSLSocket.cpp|,41,42,42,2014-01-16 18:06:16 +0000,2014-01-16 14:39:35 -0500,854482bf3c930e0bbc9d35bbee72d4598639f8d1,activemq-cpp
AMQCPP-533,2014-02-19 19:24:04 +0000,activemq-cpp/src/main/activemq/wireformat/stomp/StompWireFormat.cpp|,40,42,42,2014-02-19 15:53:39 +0000,2014-02-19 14:21:50 -0500,b29a30634236e808a43d22d2cd16057e183238ab,activemq-cpp
AMQCPP-538,2014-04-16 10:19:11 +0000,activemq-cpp/src/main/activemq/transport/failover/FailoverTransport.cpp|,41,42,42,2014-04-16 05:39:02 +0000,2014-04-16 06:17:39 -0400,5e8efc44208dd1896797a3fc96b8523a83cfe03a,activemq-cpp
AMQCPP-546,2014-07-08 21:03:00 +0000,activemq-cpp/src/main/activemq/core/ConnectionAudit.cpp|,41,42,42,2014-07-08 20:54:02 +0000,2014-07-08 17:02:24 -0400,74ef17b0ed25fe04d23e2346bee156fd1e840012,activemq-cpp
AMQCPP-549,2014-08-14 16:54:33 +0000,activemq-cpp/src/main/activemq/core/kernels/ActiveMQConsumerKernel.cpp|,40,43,43,2014-08-14 16:47:08 +0000,2014-08-14 12:53:50 -0400,6b9bd99a1042d03690422d18d8bb94d1a2d3ed18,activemq-cpp
AMQCPP-550,2014-08-20 20:31:05 +0000,activemq-cpp/src/main/decaf/net/InetAddress.cpp|,42,43,43,2014-08-20 18:39:42 +0000,2014-08-20 16:16:14 -0400,a965f2b838a458a1e69fd80fac58bc14571af018,activemq-cpp
AMQCPP-551,2014-08-21 17:32:24 +0000,activemq-cpp/src/main/activemq/wireformat/openwire/marshal/PrimitiveTypesMarshaller.cpp|activemq-cpp/src/test-integration/activemq/test/MapMessageTest.cpp|activemq-cpp/src/test-integration/activemq/test/MapMessageTest.h|activemq-cpp/src/test-integration/activemq/test/openwire/OpenwireMapMessageTest.h|,42,43,43,2014-08-21 10:49:49 +0000,2014-08-21 12:56:36 -0400,35c570ba75afa94fa5d3f9ad9068636766d361a9,activemq-cpp
AMQCPP-556,2014-12-01 20:27:50 +0000,activemq-cpp/src/main/activemq/core/ActiveMQSessionExecutor.cpp|activemq-cpp/src/main/activemq/core/kernels/ActiveMQSessionKernel.cpp|,42,43,43,2014-12-01 06:09:01 +0000,2014-12-01 14:35:32 -0500,660d080cddb02950d013f83f15c9940b4e93831d,activemq-cpp
AMQCPP-558,2015-01-09 14:41:30 +0000,activemq-cpp/src/main/activemq/core/kernels/ActiveMQConsumerKernel.cpp|,42,43,43,2015-01-09 14:38:21 +0000,2015-01-09 09:39:29 -0500,22c35e7178f6fa6a2152de27b12d18430ea33f51,activemq-cpp
AMQCPP-534,2015-02-13 16:14:00 +0000,activemq-cpp/src/main/activemq/core/ActiveMQConnection.cpp|,41,42,43,2014-02-20 01:31:54 +0000,2015-02-13 11:01:32 -0500,dfaa7a7c80360aec95a16300e4243b4fbe50b7d3,activemq-cpp
AMQCPP-566,2015-03-04 20:17:24 +0000,activemq-cpp/src/main/decaf/internal/security/unix/SecureRandomImpl.cpp|,39,44,44,2015-03-04 20:02:48 +0000,2015-03-04 15:03:08 -0500,f07d2bb0fd6424f6a833807ca9b40c2b0901665c,activemq-cpp
AMQCPP-553,2015-07-14 22:37:18 +0000,activemq-cpp/src/main/activemq/core/ActiveMQConnection.cpp|activemq-cpp/src/main/activemq/core/ActiveMQConnection.h|activemq-cpp/src/main/activemq/core/ConnectionAudit.cpp|activemq-cpp/src/main/activemq/core/kernels/ActiveMQSessionKernel.cpp|,42,43,44,2014-10-09 17:48:02 +0000,2015-07-14 18:23:34 -0400,8b607b49bf4ceeff981e70b05955f34040e6a99d,activemq-cpp
AMQCPP-568,2015-07-15 17:50:32 +0000,activemq-cpp/src/main/activemq/transport/failover/CloseTransportsTask.cpp|activemq-cpp/src/main/activemq/transport/failover/FailoverTransport.cpp|,43,44,44,2015-03-18 10:09:20 +0000,2015-07-15 13:25:23 -0400,d73ae266b0d98328d8f65a4b844f0f5f0d64d19d,activemq-cpp
AMQCPP-569,2015-07-15 17:50:19 +0000,activemq-cpp/src/main/activemq/transport/failover/CloseTransportsTask.cpp|activemq-cpp/src/main/activemq/transport/failover/FailoverTransport.cpp|,43,44,44,2015-03-19 19:01:34 +0000,2015-07-15 13:25:23 -0400,d73ae266b0d98328d8f65a4b844f0f5f0d64d19d,activemq-cpp
AMQCPP-554,2015-07-16 16:18:44 +0000,activemq-cpp/src/main/activemq/core/kernels/ActiveMQConsumerKernel.cpp|activemq-cpp/src/test-integration/activemq/test/openwire/OpenwireIndividualAckTest.cpp|activemq-cpp/src/test-integration/activemq/test/openwire/OpenwireIndividualAckTest.h|,42,43,44,2014-10-13 15:17:13 +0000,2015-07-16 12:08:57 -0400,219b85f7ce793b839d8413d8c730c549a908bba7,activemq-cpp
AMQCPP-578,2015-07-17 18:49:21 +0000,activemq-cpp/src/main/activemq/core/kernels/ActiveMQConsumerKernel.cpp|,39,44,44,2015-07-17 18:22:49 +0000,2015-07-17 14:48:20 -0400,9ea1110e72062c2c78c5560984cb3c0cff08d3f4,activemq-cpp
AMQCPP-579,2015-07-28 18:10:09 +0000,activemq-cpp/src/test-integration/activemq/test/MessagePriorityTest.cpp|,39,44,44,2015-07-28 18:05:16 +0000,2015-07-28 16:46:55 -0400,e04676c18653101d63cd93012f2e5c0f0110d044,activemq-cpp
AMQCPP-552,2015-07-28 21:16:49 +0000,activemq-cpp/src/main/activemq/core/kernels/ActiveMQConsumerKernel.cpp|activemq-cpp/src/main/activemq/core/kernels/ActiveMQSessionKernel.cpp|,39,43,44,2014-08-22 20:10:21 +0000,2015-07-28 16:52:36 -0400,b7e418ebeaadc0a4f7b2a8c52146feaf79c0df4b,activemq-cpp
AMQCPP-577,2015-07-29 16:37:12 +0000,activemq-cpp/src/main/activemq/core/kernels/ActiveMQConsumerKernel.cpp|,39,44,44,2015-07-17 14:41:33 +0000,2015-07-29 12:26:07 -0400,0c97711073ea607960d67e04e14caf6fda7c6c2d,activemq-cpp
AMQCPP-532,2015-07-29 21:52:34 +0000,activemq-cpp/src/main/activemq/core/ActiveMQQueueBrowser.cpp|activemq-cpp/src/main/activemq/core/ActiveMQQueueBrowser.h|activemq-cpp/src/test-integration/activemq/test/openwire/OpenwireQueueBrowserTest.h|,41,42,44,2014-01-27 14:54:20 +0000,2015-07-29 17:51:09 -0400,d96e76169265269ad2a52041ec5c1a41549d3299,activemq-cpp
AMQCPP-582,2015-08-03 18:54:49 +0000,activemq-cpp/src/main/activemq/core/PrefetchPolicy.cpp|activemq-cpp/src/main/activemq/core/PrefetchPolicy.h|activemq-cpp/src/main/activemq/core/kernels/ActiveMQConsumerKernel.cpp|activemq-cpp/src/test-integration/activemq/test/openwire/OpenwireSimpleTest.cpp|activemq-cpp/src/test-integration/activemq/test/openwire/OpenwireSimpleTest.h|,39,44,44,2015-08-03 17:55:15 +0000,2015-08-03 14:53:19 -0400,3e09e6663b4d1f59cb53e57c295fb2d797632913,activemq-cpp
AMQCPP-585,2015-09-23 20:01:42 +0000,activemq-cpp/src/main/decaf/util/Date.cpp|activemq-cpp/src/main/decaf/util/Date.h|activemq-cpp/src/test/decaf/util/DateTest.cpp|,44,45,45,2015-09-10 06:18:20 +0000,2015-09-23 16:00:11 -0400,6ddd619bae81215822c7aec3b2469ed6ec894473,activemq-cpp
AMQCPP-587,2015-11-23 17:18:02 +0000,activemq-cpp/src/main/activemq/core/ActiveMQTransactionContext.cpp|,44,45,45,2015-11-20 14:00:04 +0000,2015-11-23 12:15:55 -0500,b61e95c47970f9ab946928674d9da35752f29413,activemq-cpp
AMQCPP-589,2015-11-30 19:14:57 +0000,activemq-cpp/src/main/activemq/core/kernels/ActiveMQConsumerKernel.cpp|activemq-cpp/src/test-integration/Makefile.am|activemq-cpp/src/test-integration/TestRegistry.cpp|activemq-cpp/src/test-integration/activemq/test/openwire/OpenWireMessageListenerRedeliveryTest.cpp|activemq-cpp/src/test-integration/activemq/test/openwire/OpenWireMessageListenerRedeliveryTest.h|,44,45,45,2015-11-30 19:05:06 +0000,2015-11-30 14:07:39 -0500,ce523a140112d4d654e8ae660893e09bf9ffd7c3,activemq-cpp
AMQCPP-591,2015-12-21 23:54:44 +0000,activemq-cpp/src/main/activemq/wireformat/stomp/StompHelper.cpp|activemq-cpp/src/test-integration/Makefile.am|activemq-cpp/src/test-integration/TestRegistry.cpp|activemq-cpp/src/test-integration/activemq/test/AdvisoryTest.cpp|activemq-cpp/src/test-integration/activemq/test/AdvisoryTest.h|activemq-cpp/src/test-integration/activemq/test/openwire/OpenwireAdvisoryTest.cpp|activemq-cpp/src/test-integration/activemq/test/openwire/OpenwireAdvisoryTest.h|activemq-cpp/src/test-integration/activemq/test/openwire/OpenwireAsyncSenderTest.h|activemq-cpp/src/test-integration/activemq/test/stomp/StompAdvisoryTest.cpp|activemq-cpp/src/test-integration/activemq/test/stomp/StompAdvisoryTest.h|,45,46,46,2015-12-21 23:22:15 +0000,2015-12-21 18:23:26 -0500,c1c1aecc61f1adfdd8bb52ec06a4bb8fce7fa105,activemq-cpp
AMQCPP-595,2016-03-17 15:30:03 +0000,activemq-cpp/src/main/activemq/core/kernels/ActiveMQSessionKernel.cpp|,46,47,47,2016-03-17 14:41:30 +0000,2016-03-17 11:24:11 -0400,6870af49a91a5ec069c30f3a7b5d92d6ea4f735c,activemq-cpp
AMQCPP-594,2016-03-17 15:54:28 +0000,activemq-cpp/configure.ac|,44,46,47,2016-01-11 09:07:19 +0000,2016-03-17 11:53:40 -0400,2fd3b53728e8b9498fafa19e48128be553e3f3b9,activemq-cpp
AMQCPP-596,2016-04-06 16:22:56 +0000,activemq-cpp/src/main/decaf/internal/security/provider/crypto/MD4MessageDigestSpi.cpp|activemq-cpp/src/main/decaf/internal/security/provider/crypto/MD5MessageDigestSpi.cpp|activemq-cpp/src/main/decaf/internal/security/provider/crypto/SHA1MessageDigestSpi.cpp|,44,48,48,2016-04-06 15:01:31 +0000,2016-04-06 12:16:40 -0400,2774f6a14f29fd882d82c838f76652f9afe61f3e,activemq-cpp
AMQCPP-601,2017-02-14 22:23:41 +0000,activemq-cpp/src/main/activemq/transport/failover/BackupTransportPool.cpp|activemq-cpp/src/main/activemq/transport/failover/FailoverTransport.cpp|activemq-cpp/src/main/activemq/transport/failover/URIPool.cpp|activemq-cpp/src/test/activemq/mock/MockBrokerService.cpp|activemq-cpp/src/test/activemq/mock/MockBrokerService.h|activemq-cpp/src/test/activemq/transport/failover/FailoverTransportTest.cpp|activemq-cpp/src/test/activemq/transport/failover/FailoverTransportTest.h|activemq-cpp/src/test/testRegistry.cpp|,37,48,48,2016-07-28 22:38:00 +0000,2017-02-14 17:06:47 -0500,4d010e12f05fc6283ed9c5558543973b2ba7b0e7,activemq-cpp
AMQCPP-622,2018-01-22 22:05:20 +0000,activemq-cpp/src/main/decaf/internal/net/ssl/openssl/OpenSSLSocket.cpp|,48,49,49,2017-12-19 09:02:32 +0000,2018-01-22 17:03:35 -0500,46db7293dc0dbebc7efdb39a20c1ea26da48bc53,activemq-cpp
AMQCPP-623,2018-01-22 22:05:09 +0000,activemq-cpp/src/main/decaf/internal/net/ssl/openssl/OpenSSLSocket.cpp|,48,49,49,2018-01-22 22:01:26 +0000,2018-01-22 17:03:35 -0500,46db7293dc0dbebc7efdb39a20c1ea26da48bc53,activemq-cpp
