Bug ID,Bug Resolution Date by Jira,Classes Touched by Last Fix,Earliest AV,Version of Ticket Creation,Version of Fix,Ticket Creation Date,Fix Date (of most recent commit),Hash (of most recent commit),Git Directory
PHOENIX-892,2014-03-26 15:23:54 +0000,phoenix-core/src/it/java/org/apache/phoenix/end2end/BaseTenantSpecificViewIndexIT.java|phoenix-core/src/it/java/org/apache/phoenix/end2end/TenantSpecificTablesDMLIT.java|phoenix-core/src/it/java/org/apache/phoenix/end2end/TenantSpecificViewIndexIT.java|phoenix-core/src/main/java/org/apache/phoenix/query/ConnectionQueryServicesImpl.java|,1,2,2,2014-03-25 18:58:47 +0000,2014-03-26 08:20:21 -0700,9c9bf3caf3ef0f09fa36f9bb66f4eaa65d252c25,phoenix
PHOENIX-891,2014-03-26 15:24:34 +0000,phoenix-core/src/it/java/org/apache/phoenix/end2end/RowValueConstructorIT.java|phoenix-core/src/it/java/org/apache/phoenix/end2end/TenantSpecificTablesDMLIT.java|phoenix-core/src/it/java/org/apache/phoenix/end2end/TenantSpecificViewIndexIT.java|phoenix-core/src/main/java/org/apache/phoenix/compile/ProjectionCompiler.java|,1,2,2,2014-03-25 00:22:20 +0000,2014-03-26 08:20:39 -0700,c356da2d06f7a627b644ea90fa13370ddde9f84d,phoenix
PHOENIX-905,2014-05-02 05:21:02 +0000,phoenix-core/src/test/java/org/apache/phoenix/schema/ValueBitSetTest.java|,1,2,2,2014-03-31 23:41:19 +0000,2014-04-01 14:45:09 -0400,27c2067f792d29a97df3719429879eda0fb66302,phoenix
PHOENIX-920,2014-04-11 23:18:13 +0000,bin/psql.py|bin/sqlline.py|,1,2,2,2014-04-08 23:28:15 +0000,2014-04-11 16:20:03 -0700,d6a096f07458abd51a5772a1d9c3cd180d2011b0,phoenix
PHOENIX-909,2014-04-15 00:43:26 +0000,phoenix-core/src/main/java/org/apache/phoenix/coprocessor/MetaDataRegionObserver.java|phoenix-core/src/main/java/org/apache/phoenix/coprocessor/SequenceRegionObserver.java|phoenix-core/src/main/java/org/apache/phoenix/execute/BasicQueryPlan.java|phoenix-core/src/main/java/org/apache/phoenix/query/QueryServicesOptions.java|,1,2,2,2014-04-02 00:37:31 +0000,2014-04-14 14:02:06 -0700,8788db25a2476a6e6a6b4f05b16955049ee3ce28,phoenix
PHOENIX-911,2014-04-22 22:49:23 +0000,phoenix-core/src/it/java/org/apache/phoenix/end2end/CreateTableIT.java|phoenix-core/src/main/java/org/apache/phoenix/schema/MetaDataClient.java|,1,2,2,2014-04-03 01:19:05 +0000,2014-04-22 15:45:28 -0700,0c18e459e411044de6e5fb59b8f3a6cce173b751,phoenix
PHOENIX-915,2014-04-22 23:02:46 +0000,phoenix-core/src/it/java/org/apache/phoenix/end2end/RoundFloorCeilFunctionsEnd2EndIT.java|phoenix-core/src/main/java/org/apache/phoenix/expression/function/RoundDecimalExpression.java|,1,2,2,2014-04-07 18:10:19 +0000,2014-04-22 16:01:12 -0700,db481c552b5ddb5fe7f350a6375461934367434f,phoenix
PHOENIX-951,2014-05-02 03:53:55 +0000,phoenix-core/src/it/java/org/apache/phoenix/end2end/HashJoinIT.java|phoenix-core/src/main/java/org/apache/phoenix/compile/JoinCompiler.java|phoenix-core/src/main/java/org/apache/phoenix/compile/QueryCompiler.java|phoenix-core/src/main/java/org/apache/phoenix/coprocessor/HashJoinRegionScanner.java|phoenix-core/src/main/java/org/apache/phoenix/execute/HashJoinPlan.java|phoenix-core/src/main/java/org/apache/phoenix/execute/ScanPlan.java|phoenix-core/src/main/java/org/apache/phoenix/join/HashJoinInfo.java|,1,2,2,2014-04-24 04:56:23 +0000,2014-04-28 11:53:40 -0400,2c97b7b6483973d13860980be854fb9ad0cf774f,phoenix
PHOENIX-63,2014-04-30 05:24:16 +0000,phoenix-core/src/it/java/org/apache/phoenix/end2end/index/MutableIndexIT.java|phoenix-core/src/main/java/org/apache/phoenix/index/IndexMaintainer.java|,1,1,2,2014-02-20 11:57:57 +0000,2014-04-29 15:57:07 -0700,27a6db9ae49df5ca14e2b9cb07ddf6bb608db976,phoenix
PHOENIX-956,2014-06-11 21:41:41 +0000,phoenix-core/src/main/java/org/apache/phoenix/jdbc/PhoenixConnection.java|phoenix-core/src/test/java/org/apache/phoenix/jdbc/PhoenixDriverTest.java|,1,2,2,2014-04-29 17:27:47 +0000,2014-05-01 20:46:35 -0700,e7cd8b960b221e68bf7afe01c954928dc51ac973,phoenix
PHOENIX-966,2014-05-14 09:04:20 +0000,phoenix-core/src/it/java/org/apache/phoenix/end2end/ContextClassloaderIT.java|phoenix-core/src/main/java/org/apache/phoenix/jdbc/PhoenixStatement.java|phoenix-core/src/main/java/org/apache/phoenix/job/JobManager.java|phoenix-core/src/main/java/org/apache/phoenix/query/ConfigurationFactory.java|phoenix-core/src/main/java/org/apache/phoenix/query/ConnectionQueryServicesImpl.java|phoenix-core/src/main/java/org/apache/phoenix/util/PhoenixContextExecutor.java|phoenix-core/src/test/java/org/apache/phoenix/util/PhoenixContextExecutorTest.java|,1,2,2,2014-05-02 20:24:35 +0000,2014-05-14 08:25:33 +0200,f50ba17af36cd0ee76b1ec331c8fe0f109596df5,phoenix
PHOENIX-986,2014-05-19 07:24:20 +0000,phoenix-core/src/it/java/org/apache/phoenix/end2end/CSVCommonsLoaderIT.java|phoenix-core/src/main/java/org/apache/phoenix/util/CSVCommonsLoader.java|,1,2,2,2014-05-17 20:54:48 +0000,2014-05-19 09:15:43 +0200,cd75ada38f9016427bd3d44f5afda1283bca981a,phoenix
PHOENIX-979,2014-05-22 08:15:08 +0000,phoenix-core/src/it/java/org/apache/phoenix/end2end/DeleteIT.java|phoenix-core/src/main/java/org/apache/phoenix/compile/DeleteCompiler.java|,1,2,2,2014-05-13 18:26:03 +0000,2014-05-22 07:05:03 +0200,4954c7371cf88dc19d314bb81b178100fae315f8,phoenix
PHOENIX-992,2014-05-22 21:50:22 +0000,phoenix-core/src/it/java/org/apache/phoenix/end2end/BaseTenantSpecificViewIndexIT.java|phoenix-core/src/it/java/org/apache/phoenix/end2end/TenantSpecificViewIndexIT.java|phoenix-core/src/main/java/org/apache/phoenix/query/StatsManagerImpl.java|,1,2,2,2014-05-21 01:28:33 +0000,2014-05-22 14:53:10 -0700,dff13fe6c16da9e6f70421b292bf64a0422b4ebf,phoenix
PHOENIX-1037,2014-06-12 19:37:26 +0000,phoenix-core/src/main/java/org/apache/phoenix/schema/PDataType.java|phoenix-core/src/test/java/org/apache/phoenix/schema/PDataTypeTest.java|,1,2,2,2014-06-09 18:02:07 +0000,2014-06-12 21:11:21 +0200,58b2a79e5c803a1c9777f4a0c33bc70a1b605f81,phoenix
PHOENIX-990,2014-06-26 18:07:53 +0000,phoenix-core/src/main/java/org/apache/phoenix/iterate/MappedByteBufferSortedQueue.java|,1,2,2,2014-05-19 19:07:34 +0000,2014-06-20 09:46:50 -0700,67c452e150d2a0844e13c4c3c6c5d9cd3f281ed7,phoenix
PHOENIX-1080,2014-07-10 16:43:21 +0000,phoenix-core/src/it/java/org/apache/phoenix/end2end/ConvertTimezoneFunctionIT.java|phoenix-core/src/it/java/org/apache/phoenix/end2end/PhoenixEncodeDecodeIT.java|phoenix-core/src/main/java/org/apache/phoenix/util/PhoenixRuntime.java|phoenix-core/src/test/java/org/apache/phoenix/util/PhoenixRuntimeTest.java|,1,2,2,2014-07-10 01:20:26 +0000,2014-07-10 22:04:37 +0530,97423a2b925864e5c5ad05a15a9342a75b60840b,phoenix
PHOENIX-1077,2014-07-24 22:25:57 +0000,phoenix-core/src/it/java/org/apache/phoenix/end2end/RowValueConstructorIT.java|phoenix-core/src/main/java/org/apache/phoenix/schema/SaltingUtil.java|phoenix-core/src/main/java/org/apache/phoenix/schema/ValueSchema.java|,1,2,2,2014-07-09 18:45:55 +0000,2014-07-11 22:44:00 -0700,7b313526018646ec10c0d7f714869a9c69d34f8f,phoenix
PHOENIX-1096,2014-07-18 18:01:09 +0000,phoenix-core/src/it/java/org/apache/phoenix/end2end/UpsertSelectIT.java|phoenix-core/src/main/java/org/apache/phoenix/compile/SequenceManager.java|,1,2,2,2014-07-17 00:12:16 +0000,2014-07-18 11:00:50 -0700,492e86afc838a0d172b35e41a319c2934ac1e952,phoenix
PHOENIX-1100,2014-07-20 01:26:46 +0000,phoenix-core/src/main/java/org/apache/phoenix/compile/UpsertCompiler.java|,1,2,2,2014-07-19 02:26:49 +0000,2014-07-19 18:27:48 -0700,7e811f4b158c3ef21b1fa620edc8ad36e63a1873,phoenix
PHOENIX-1102,2014-07-22 17:22:56 +0000,phoenix-core/src/it/java/org/apache/phoenix/end2end/ColumnProjectionOptimizationIT.java|phoenix-core/src/main/java/org/apache/phoenix/filter/MultiCFCQKeyValueComparisonFilter.java|phoenix-core/src/main/java/org/apache/phoenix/filter/MultiCQKeyValueComparisonFilter.java|phoenix-core/src/main/java/org/apache/phoenix/filter/MultiKeyValueComparisonFilter.java|phoenix-core/src/test/java/org/apache/phoenix/query/BaseTest.java|,1,2,2,2014-07-19 14:36:08 +0000,2014-07-22 22:48:50 +0530,545abe5357a6e1a5d61d9d5516dca463893b6f6b,phoenix
PHOENIX-938,2014-07-23 18:15:12 +0000,phoenix-core/src/it/java/org/apache/phoenix/end2end/index/IndexHandlerIT.java|phoenix-core/src/main/java/org/apache/hadoop/hbase/ipc/PhoenixIndexRpcScheduler.java|phoenix-core/src/main/java/org/apache/phoenix/hbase/index/IndexQosCompat.java|phoenix-core/src/main/java/org/apache/phoenix/hbase/index/IndexQosRpcControllerFactory.java|phoenix-core/src/main/java/org/apache/phoenix/hbase/index/builder/BaseIndexBuilder.java|phoenix-core/src/main/java/org/apache/phoenix/hbase/index/builder/IndexBuildManager.java|phoenix-core/src/main/java/org/apache/phoenix/hbase/index/builder/IndexBuilder.java|phoenix-core/src/main/java/org/apache/phoenix/hbase/index/ipc/PhoenixIndexRpcSchedulerFactory.java|phoenix-core/src/main/java/org/apache/phoenix/hbase/index/table/CoprocessorHTableFactory.java|phoenix-core/src/main/java/org/apache/phoenix/util/IndexUtil.java|phoenix-core/src/test/java/org/apache/hadoop/hbase/ipc/PhoenixIndexRpcSchedulerTest.java|phoenix-core/src/test/java/org/apache/hadoop/hbase/regionserver/PhoenixIndexRpcSchedulerFactoryTest.java|pom.xml|,1,2,2,2014-04-16 17:11:02 +0000,2014-07-23 11:10:52 -0700,1954c717a12561bdc2184ba23c53afae3f900084,phoenix
PHOENIX-1083,2014-07-24 08:58:09 +0000,phoenix-core/src/it/java/org/apache/phoenix/end2end/InListIT.java|phoenix-core/src/it/java/org/apache/phoenix/end2end/QueryMoreIT.java|phoenix-core/src/it/java/org/apache/phoenix/end2end/SkipRangeParallelIteratorRegionSplitterIT.java|phoenix-core/src/it/java/org/apache/phoenix/end2end/index/IndexHandlerIT.java|phoenix-core/src/main/java/org/apache/hadoop/hbase/ipc/PhoenixIndexRpcScheduler.java|phoenix-core/src/main/java/org/apache/phoenix/compile/ScanRanges.java|phoenix-core/src/main/java/org/apache/phoenix/compile/WhereOptimizer.java|phoenix-core/src/main/java/org/apache/phoenix/filter/SkipScanFilter.java|phoenix-core/src/main/java/org/apache/phoenix/index/PhoenixIndexBuilder.java|phoenix-core/src/main/java/org/apache/phoenix/query/KeyRange.java|phoenix-core/src/main/java/org/apache/phoenix/util/IndexUtil.java|phoenix-core/src/main/java/org/apache/phoenix/util/ScanUtil.java|phoenix-core/src/test/java/org/apache/hadoop/hbase/regionserver/PhoenixIndexRpcSchedulerFactoryTest.java|phoenix-core/src/test/java/org/apache/phoenix/compile/ScanRangesTest.java|phoenix-core/src/test/java/org/apache/phoenix/compile/WhereOptimizerTest.java|phoenix-core/src/test/java/org/apache/phoenix/util/ScanUtilTest.java|,1,2,2,2014-07-12 01:00:38 +0000,2014-07-24 01:58:42 -0700,17397dcb85b0ae8dc0562c9b6ce4ed2a7b4f2eeb,phoenix
PHOENIX-1109,2014-08-09 01:19:55 +0000,phoenix-core/src/it/java/org/apache/phoenix/end2end/ExecuteStatementsIT.java|phoenix-core/src/test/java/org/apache/phoenix/jdbc/PhoenixTestDriver.java|,1,2,2,2014-07-24 17:37:42 +0000,2014-07-24 15:07:53 -0700,7a16517b4ef5769d0a4506a789db7d859ce44d45,phoenix
PHOENIX-1111,2014-07-25 20:28:23 +0000,phoenix-core/src/test/java/org/apache/phoenix/compile/WhereOptimizerTest.java|,1,2,2,2014-07-25 19:42:50 +0000,2014-07-25 13:23:15 -0700,14aa52c95ae92814680c94de697c2ecca339d442,phoenix
PHOENIX-1147,2014-08-09 00:24:28 +0000,phoenix-core/src/it/java/org/apache/phoenix/end2end/index/MutableIndexFailureIT.java|phoenix-core/src/main/java/org/apache/phoenix/coprocessor/MetaDataEndpointImpl.java|phoenix-core/src/main/java/org/apache/phoenix/coprocessor/MetaDataRegionObserver.java|phoenix-core/src/main/java/org/apache/phoenix/execute/MutationState.java|phoenix-core/src/main/java/org/apache/phoenix/index/PhoenixIndexFailurePolicy.java|phoenix-core/src/main/java/org/apache/phoenix/schema/MetaDataClient.java|phoenix-core/src/main/java/org/apache/phoenix/schema/PTableImpl.java|phoenix-core/src/main/java/org/apache/phoenix/schema/TableRef.java|,1,2,2,2014-08-05 21:54:59 +0000,2014-08-07 21:38:41 -0700,e0a47a1e225af06401530b8775bfed8dce1e5815,phoenix
PHOENIX-965,2014-08-14 18:27:04 +0000,phoenix-core/src/it/java/org/apache/phoenix/end2end/QueryIT.java|phoenix-core/src/main/java/org/apache/phoenix/expression/aggregator/ServerAggregators.java|,1,2,2,2014-05-02 11:34:26 +0000,2014-08-14 11:29:24 -0700,ca39e2d1b1c314b9b5758054cea84f201cc499b5,phoenix
PHOENIX-1171,2014-08-15 03:37:18 +0000,phoenix-core/src/it/java/org/apache/phoenix/end2end/ViewIT.java|phoenix-core/src/it/java/org/apache/phoenix/end2end/index/IndexMetadataIT.java|phoenix-core/src/main/java/org/apache/phoenix/coprocessor/MetaDataEndpointImpl.java|phoenix-core/src/main/java/org/apache/phoenix/util/MetaDataUtil.java|phoenix-core/src/test/java/org/apache/phoenix/compile/ViewCompilerTest.java|,1,2,2,2014-08-14 19:00:15 +0000,2014-08-14 20:38:52 -0700,c85d4c6ad145babcd5eca2fde1dc632071105b77,phoenix
PHOENIX-1173,2014-10-21 20:22:50 +0000,phoenix-core/src/main/java/org/apache/phoenix/coprocessor/MetaDataEndpointImpl.java|phoenix-core/src/main/java/org/apache/phoenix/coprocessor/MetaDataRegionObserver.java|,1,2,2,2014-08-15 07:39:12 +0000,2014-08-15 16:05:55 -0700,ebb6a7adb9134eb2413950796bd5f4e80a250e7d,phoenix
PHOENIX-1183,2014-08-25 19:29:47 +0000,dev/make_rc.sh|,1,2,3,2014-08-19 21:50:11 +0000,2014-08-25 11:55:59 -0700,0e42f3a1fd08013b4fe4d26409a16113e8624bf0,phoenix
PHOENIX-1208,2014-08-29 05:50:33 +0000,phoenix-core/src/main/java/org/apache/phoenix/coprocessor/MetaDataEndpointImpl.java|phoenix-core/src/main/java/org/apache/phoenix/coprocessor/SuffixFilter.java|,2,3,3,2014-08-25 21:35:34 +0000,2014-08-28 22:31:06 -0700,867af78dda90910f07dee0ac9c95cd4a7f50a749,phoenix
PHOENIX-1098,2014-09-04 07:19:39 +0000,phoenix-core/src/it/java/org/apache/phoenix/end2end/TenantSpecificTablesDDLIT.java|phoenix-core/src/it/java/org/apache/phoenix/end2end/ViewIT.java|phoenix-core/src/main/antlr3/PhoenixSQL.g|phoenix-core/src/main/java/org/apache/phoenix/coprocessor/MetaDataEndpointImpl.java|phoenix-core/src/main/java/org/apache/phoenix/coprocessor/generated/MetaDataProtos.java|phoenix-core/src/main/java/org/apache/phoenix/jdbc/PhoenixStatement.java|phoenix-core/src/main/java/org/apache/phoenix/parse/DropTableStatement.java|phoenix-core/src/main/java/org/apache/phoenix/parse/ParseNodeFactory.java|phoenix-core/src/main/java/org/apache/phoenix/query/ConnectionQueryServices.java|phoenix-core/src/main/java/org/apache/phoenix/query/ConnectionQueryServicesImpl.java|phoenix-core/src/main/java/org/apache/phoenix/query/ConnectionlessQueryServicesImpl.java|phoenix-core/src/main/java/org/apache/phoenix/query/DelegateConnectionQueryServices.java|phoenix-core/src/main/java/org/apache/phoenix/schema/MetaDataClient.java|phoenix-protocol/src/main/MetaDataService.proto|,2,2,3,2014-07-17 23:26:13 +0000,2014-09-04 00:15:13 -0700,ec3be54ef84b0d50004dbe6e0f150a26be66f14b,phoenix
PHOENIX-1139,2014-09-03 04:55:54 +0000,phoenix-core/src/main/java/org/apache/phoenix/schema/MetaDataClient.java|,2,2,3,2014-07-31 21:20:21 +0000,2014-09-04 01:49:28 +0530,3abb90bb0fa0721a333f919f4d0c734cf51028fc,phoenix
PHOENIX-1234,2014-09-04 16:46:18 +0000,phoenix-core/src/main/java/org/apache/phoenix/util/QueryUtil.java|phoenix-core/src/test/java/org/apache/phoenix/query/BaseTest.java|phoenix-core/src/test/java/org/apache/phoenix/util/QueryUtilTest.java|,2,3,3,2014-09-03 23:29:26 +0000,2014-09-04 09:44:10 -0700,4a1ec7ec44248315023db41cf4c941a366a1d294,phoenix
PHOENIX-1226,2014-09-05 23:45:31 +0000,phoenix-hadoop-compat/src/main/java/org/apache/phoenix/trace/TracingCompat.java|phoenix-hadoop2-compat/src/test/java/org/apache/phoenix/trace/TraceMetricsSourceTest.java|,2,3,3,2014-09-01 02:28:50 +0000,2014-09-05 16:44:36 -0700,284435b5ab4e749febf13ad00f9050f6f25f9e15,phoenix
PHOENIX-1225,2014-09-06 19:15:49 +0000,phoenix-core/src/it/java/org/apache/phoenix/end2end/EvaluationOfORIT.java|phoenix-core/src/main/java/org/apache/phoenix/compile/WhereOptimizer.java|,2,3,3,2014-08-30 22:04:22 +0000,2014-09-06 12:16:04 -0700,08d9b98f3a646801f653e69b8e04b7ea6a70d487,phoenix
PHOENIX-1250,2014-09-17 07:27:49 +0000,phoenix-core/pom.xml|phoenix-core/src/main/java/org/apache/phoenix/cache/ServerCacheClient.java|phoenix-core/src/main/java/org/apache/phoenix/cache/aggcache/SpillFile.java|phoenix-core/src/main/java/org/apache/phoenix/cache/aggcache/SpillManager.java|phoenix-core/src/main/java/org/apache/phoenix/cache/aggcache/SpillableGroupByCache.java|phoenix-core/src/main/java/org/apache/phoenix/compile/FromCompiler.java|phoenix-core/src/main/java/org/apache/phoenix/coprocessor/GroupedAggregateRegionObserver.java|phoenix-core/src/main/java/org/apache/phoenix/iterate/TableResultIterator.java|phoenix-core/src/main/java/org/apache/phoenix/query/ConnectionQueryServicesImpl.java|phoenix-core/src/main/java/org/apache/phoenix/util/Closeables.java|phoenix-flume/src/main/java/org/apache/phoenix/flume/sink/PhoenixSink.java|pom.xml|,2,3,3,2014-09-12 10:59:27 +0000,2014-09-17 09:16:36 +0200,3034b6583b7af3a5356ee77bba5028dc243c0bb4,phoenix
PHOENIX-1253,2014-09-17 08:00:59 +0000,phoenix-core/src/main/java/org/apache/phoenix/jdbc/PhoenixPreparedStatement.java|phoenix-core/src/test/java/org/apache/phoenix/jdbc/PhoenixPreparedStatementTest.java|,2,3,3,2014-09-16 10:33:29 +0000,2014-09-17 09:28:40 +0200,486e28b5821fdce014755b695248fba995c37225,phoenix
PHOENIX-1237,2014-09-18 22:46:18 +0000,phoenix-core/src/it/java/org/apache/phoenix/end2end/ClientTimeArithmeticQueryIT.java|phoenix-core/src/it/java/org/apache/phoenix/end2end/CoalesceFunctionIT.java|phoenix-core/src/main/java/org/apache/phoenix/expression/function/CoalesceFunction.java|,2,3,3,2014-09-04 14:37:54 +0000,2014-09-18 15:46:29 -0700,797af91a6b77e3cbea51ec94ba5a01762efa293c,phoenix
PHOENIX-1288,2014-09-24 19:08:38 +0000,phoenix-core/src/it/java/org/apache/phoenix/end2end/ArrayIT.java|phoenix-core/src/main/java/org/apache/phoenix/coprocessor/ScanRegionObserver.java|,2,3,3,2014-09-24 06:52:37 +0000,2014-09-24 20:51:31 +0200,70319eabedfff3b72e3bd8f3aacbbb717808c8cc,phoenix
PHOENIX-1239,2014-10-20 15:43:46 +0000,phoenix-core/src/main/java/org/apache/phoenix/compile/HavingCompiler.java|phoenix-core/src/main/java/org/apache/phoenix/compile/JoinCompiler.java|phoenix-core/src/main/java/org/apache/phoenix/parse/BooleanParseNodeVisitor.java|phoenix-core/src/main/java/org/apache/phoenix/parse/ParseNodeRewriter.java|phoenix-core/src/main/java/org/apache/phoenix/parse/StatelessTraverseAllParseNodeVisitor.java|phoenix-core/src/main/java/org/apache/phoenix/parse/TraverseAllParseNodeVisitor.java|phoenix-core/src/test/java/org/apache/phoenix/compile/HavingCompilerTest.java|,1,3,3,2014-09-04 16:20:23 +0000,2014-09-28 22:30:24 -0400,4fce08c90bf52ba29642a2aa40971c32516b7c20,phoenix
PHOENIX-1293,2014-09-29 18:51:55 +0000,phoenix-core/src/it/java/org/apache/phoenix/end2end/AlterTableIT.java|,2,3,3,2014-09-25 05:13:48 +0000,2014-09-29 08:06:32 +0530,abd049d88ac7940857330aa4900bb8a497e78f41,phoenix
PHOENIX-1337,2014-10-13 08:32:27 +0000,phoenix-core/src/it/java/org/apache/phoenix/end2end/TenantSpecificViewIndexIT.java|phoenix-core/src/main/java/org/apache/phoenix/compile/DeleteCompiler.java|phoenix-core/src/main/java/org/apache/phoenix/compile/ProjectionCompiler.java|phoenix-core/src/main/java/org/apache/phoenix/compile/UpsertCompiler.java|phoenix-core/src/main/java/org/apache/phoenix/compile/WhereOptimizer.java|phoenix-core/src/main/java/org/apache/phoenix/util/ScanUtil.java|,2,3,3,2014-10-10 23:46:14 +0000,2014-10-11 02:56:40 -0700,43afafbe1be31f5781120e90b6cb2e46280de276,phoenix
PHOENIX-1341,2014-10-13 08:02:15 +0000,phoenix-core/src/main/java/org/apache/phoenix/util/PhoenixRuntime.java|,2,3,3,2014-10-11 20:23:42 +0000,2014-10-13 09:01:41 +0200,656acefd146d515de108f3a757ddb0522ea783d0,phoenix
PHOENIX-1353,2014-10-16 23:09:29 +0000,phoenix-core/src/it/java/org/apache/phoenix/end2end/ConnectionQueryServicesTestImpl.java|phoenix-core/src/main/java/org/apache/phoenix/jdbc/PhoenixDriver.java|phoenix-core/src/main/java/org/apache/phoenix/mapreduce/CsvBulkLoadTool.java|phoenix-core/src/main/java/org/apache/phoenix/mapreduce/CsvToKeyValueMapper.java|phoenix-core/src/main/java/org/apache/phoenix/query/ConnectionQueryServicesImpl.java|,2,3,3,2014-10-15 20:30:10 +0000,2014-10-16 14:44:44 -0700,914e7821af30cb0eb75c19b424c6cff7fd2e697a,phoenix
PHOENIX-1242,2014-10-18 22:44:54 +0000,phoenix-core/src/it/java/org/apache/phoenix/end2end/CoalesceFunctionIT.java|phoenix-core/src/it/java/org/apache/phoenix/end2end/DecodeFunctionIT.java|phoenix-core/src/it/java/org/apache/phoenix/end2end/MappingTableDataTypeIT.java|phoenix-core/src/main/java/org/apache/phoenix/expression/LiteralExpression.java|phoenix-core/src/main/java/org/apache/phoenix/expression/function/DecodeFunction.java|phoenix-core/src/main/java/org/apache/phoenix/schema/PDataType.java|phoenix-core/src/test/java/org/apache/phoenix/compile/QueryCompilerTest.java|phoenix-core/src/test/java/org/apache/phoenix/schema/MappingTableDataTypeTest.java|phoenix-core/src/test/java/org/apache/phoenix/schema/PDataTypeTest.java|phoenix-core/src/test/java/org/apache/phoenix/util/ColumnInfoTest.java|,1,3,3,2014-09-07 16:31:28 +0000,2014-10-18 19:41:20 -0700,ed8c82a05bf2887bd78f462afb6eaf834080a2f4,phoenix
PHOENIX-1355,2014-10-20 04:30:08 +0000,bin/end2endTest.py|bin/phoenix_utils.py|bin/psql.py|bin/sqlline.py|,2,3,3,2014-10-16 00:00:13 +0000,2014-10-19 21:27:08 -0700,cf41cc63594ac7d8f3d831511215519fe43afea0,phoenix
PHOENIX-1360,2014-10-20 04:39:38 +0000,phoenix-core/src/main/java/org/apache/phoenix/iterate/SpoolingResultIterator.java|,2,3,3,2014-10-16 20:19:21 +0000,2014-10-19 21:39:19 -0700,b8f32aeaa735689f231268d7c790efbd6051d7f4,phoenix
PHOENIX-1314,2014-10-21 20:57:04 +0000,phoenix-core/src/it/java/org/apache/phoenix/end2end/index/MutableIndexIT.java|phoenix-core/src/main/java/org/apache/phoenix/filter/SkipScanFilter.java|,2,3,3,2014-10-04 04:19:06 +0000,2014-10-20 15:53:34 +0000,ea6b05386493380b7cd2de9a54185a62b608b801,phoenix
PHOENIX-1238,2014-10-21 08:23:12 +0000,phoenix-core/src/main/java/org/apache/hadoop/hbase/regionserver/IndexSplitTransaction.java|phoenix-core/src/main/java/org/apache/hadoop/hbase/regionserver/LocalIndexSplitter.java|,2,3,3,2014-09-04 15:10:34 +0000,2014-10-21 05:35:06 +0000,677e34cae36c57912b7ee1dd3173d0975c3bd25a,phoenix
PHOENIX-1359,2014-10-18 05:52:46 +0000,phoenix-core/src/main/java/org/apache/phoenix/expression/ExpressionType.java|phoenix-core/src/main/java/org/apache/phoenix/expression/LikeExpression.java|phoenix-core/src/main/java/org/apache/phoenix/filter/SkipScanFilter.java|phoenix-core/src/main/java/org/apache/phoenix/join/HashCacheClient.java|phoenix-core/src/main/java/org/apache/phoenix/join/HashCacheFactory.java|,2,3,3,2014-10-16 16:25:38 +0000,2014-10-22 00:46:57 -0700,079c319745cf70a38ec919d4d012f300035c023e,phoenix
PHOENIX-944,2014-10-26 14:39:13 +0000,phoenix-core/src/main/java/org/apache/phoenix/compile/QueryCompiler.java|phoenix-core/src/main/java/org/apache/phoenix/execute/ClientAggregatePlan.java|phoenix-core/src/main/java/org/apache/phoenix/iterate/LookAheadResultIterator.java|,1,2,3,2014-04-22 18:48:59 +0000,2014-10-23 23:08:54 -0400,fba06a80f660462c3e1aa4ff7c8bac5d640168c0,phoenix
PHOENIX-1379,2014-10-27 05:42:41 +0000,phoenix-core/src/main/java/org/apache/phoenix/hbase/index/write/recovery/TrackingParallelWriterIndexCommitter.java|,2,3,3,2014-10-24 13:45:42 +0000,2014-10-26 22:40:03 -0700,79423f8011ef35ae5c8509d67e0935fff549e80b,phoenix
PHOENIX-1381,2014-10-27 16:16:04 +0000,phoenix-core/src/main/java/org/apache/phoenix/hbase/index/wal/IndexedKeyValue.java|,2,3,3,2014-10-25 01:09:01 +0000,2014-10-27 09:14:03 -0700,c0b617f554938ea31832a921b8caa579e87749aa,phoenix
PHOENIX-1385,2014-10-27 20:48:00 +0000,phoenix-core/src/it/java/org/apache/phoenix/end2end/AlterTableIT.java|phoenix-core/src/main/java/org/apache/phoenix/jdbc/PhoenixConnection.java|phoenix-core/src/main/java/org/apache/phoenix/query/ConnectionQueryServicesImpl.java|phoenix-core/src/main/java/org/apache/phoenix/query/ConnectionlessQueryServicesImpl.java|phoenix-core/src/main/java/org/apache/phoenix/query/DelegateConnectionQueryServices.java|phoenix-core/src/main/java/org/apache/phoenix/query/MetaDataMutated.java|phoenix-core/src/main/java/org/apache/phoenix/schema/MetaDataClient.java|phoenix-core/src/main/java/org/apache/phoenix/schema/PMetaDataImpl.java|,2,3,3,2014-10-27 07:02:51 +0000,2014-10-27 13:43:44 -0700,692b8cb1e653b0b7c9329ee1e2890f79d781ea50,phoenix
PHOENIX-1376,2014-10-27 20:47:32 +0000,phoenix-core/src/main/java/org/apache/phoenix/jdbc/PhoenixResultSet.java|phoenix-core/src/main/java/org/apache/phoenix/schema/tuple/ResultTuple.java|,2,3,3,2014-10-23 19:50:41 +0000,2014-10-27 13:44:07 -0700,4ed9ddb8fd28dffcd686671c18dc89d12b0a1c0c,phoenix
PHOENIX-1387,2014-10-31 06:54:06 +0000,phoenix-core/src/it/java/org/apache/phoenix/end2end/index/LocalIndexIT.java|phoenix-core/src/it/java/org/apache/phoenix/end2end/index/MutableIndexIT.java|phoenix-core/src/main/java/org/apache/phoenix/compile/ProjectionCompiler.java|,2,3,3,2014-10-28 06:41:07 +0000,2014-10-31 06:32:16 +0530,4de4251310cfcef12178713d6d6e93b0882a4f4d,phoenix
PHOENIX-1396,2014-11-05 18:02:22 +0000,phoenix-core/src/main/java/org/apache/phoenix/iterate/SpoolingResultIterator.java|,1,3,3,2014-10-31 16:46:03 +0000,2014-11-05 09:56:19 -0800,237c55614133f9317e7171b329ca7b966c0c28ff,phoenix
PHOENIX-1416,2014-11-07 07:03:05 +0000,phoenix-core/src/it/java/org/apache/phoenix/end2end/QueryDatabaseMetaDataIT.java|phoenix-core/src/main/java/org/apache/phoenix/compile/ScanRanges.java|phoenix-core/src/main/java/org/apache/phoenix/expression/AndExpression.java|phoenix-core/src/main/java/org/apache/phoenix/expression/AndOrExpression.java|phoenix-core/src/main/java/org/apache/phoenix/expression/OrExpression.java|phoenix-core/src/test/java/org/apache/phoenix/compile/WhereOptimizerTest.java|,2,3,3,2014-11-06 21:00:29 +0000,2014-11-06 19:49:57 -0800,429c69daea697df280b969f9745fd6351acb03c3,phoenix
PHOENIX-1394,2014-12-03 03:13:06 +0000,phoenix-core/src/main/java/org/apache/phoenix/jdbc/PhoenixResultSetMetaData.java|phoenix-core/src/test/java/org/apache/phoenix/jdbc/PhoenixResultSetMetadataTest.java|,2,3,3,2014-10-29 15:27:20 +0000,2014-11-06 19:50:12 -0800,f39af64243115f99f125dca0986a2ab086f270c2,phoenix
PHOENIX-1420,2014-11-13 07:42:47 +0000,phoenix-core/src/it/java/org/apache/phoenix/end2end/QueryDatabaseMetaDataIT.java|phoenix-core/src/main/java/org/apache/phoenix/jdbc/PhoenixDatabaseMetaData.java|,2,3,3,2014-11-07 15:47:51 +0000,2014-11-07 21:49:09 -0800,ad525844fbbdb1fe1ca84938fc8eeff51ab49979,phoenix
PHOENIX-1456,2014-11-25 21:58:21 +0000,phoenix-core/src/it/java/org/apache/phoenix/end2end/SpooledSortMergeJoinIT.java|phoenix-core/src/main/java/org/apache/phoenix/iterate/SpoolingResultIterator.java|,1,3,3,2014-11-15 18:40:02 +0000,2014-11-19 11:57:41 -0500,9fa513bea314df33a42822a6faad1afc129ef051,phoenix
PHOENIX-1436,2014-11-22 05:23:06 +0000,phoenix-core/src/main/java/org/apache/phoenix/optimize/QueryOptimizer.java|phoenix-core/src/test/java/org/apache/phoenix/compile/QueryOptimizerTest.java|,2,3,3,2014-11-11 02:29:52 +0000,2014-11-21 21:14:11 -0800,78a735e75ab0a6b6378cce598c9000204affae7f,phoenix
PHOENIX-1346,2014-11-05 18:16:05 +0000,phoenix-core/src/main/java/org/apache/phoenix/optimize/QueryOptimizer.java|,2,3,3,2014-10-13 17:33:46 +0000,2014-11-24 21:26:28 -0800,bff5ddae11ba2ac47804bc6db6afecd5f1bbe76a,phoenix
PHOENIX-1485,2014-12-03 16:37:36 +0000,phoenix-core/src/main/java/org/apache/phoenix/parse/FunctionParseNode.java|phoenix-core/src/test/java/org/apache/phoenix/parse/BuiltInFunctionInfoTest.java|,2,3,3,2014-11-26 06:17:57 +0000,2014-12-03 17:29:29 +0100,6849760296465e1a87bd4d5d533661ec1fd1e0bc,phoenix
PHOENIX-1498,2014-12-10 22:29:41 +0000,phoenix-core/src/it/java/org/apache/phoenix/end2end/BaseQueryIT.java|phoenix-core/src/it/java/org/apache/phoenix/end2end/GroupByIT.java|phoenix-core/src/it/java/org/apache/phoenix/end2end/QueryDatabaseMetaDataIT.java|phoenix-core/src/it/java/org/apache/phoenix/end2end/QueryIT.java|phoenix-core/src/main/java/org/apache/phoenix/coprocessor/MetaDataProtocol.java|phoenix-core/src/main/java/org/apache/phoenix/query/ConnectionQueryServicesImpl.java|phoenix-core/src/main/java/org/apache/phoenix/query/QueryConstants.java|phoenix-core/src/main/java/org/apache/phoenix/query/QueryServices.java|phoenix-core/src/main/java/org/apache/phoenix/query/QueryServicesOptions.java|,1,3,3,2014-12-02 00:28:46 +0000,2014-12-10 14:22:02 -0800,5722a4d31318cb04473fed8bf72c5202b33d1e0d,phoenix
PHOENIX-1533,2015-01-21 03:44:06 +0000,phoenix-core/src/it/java/org/apache/phoenix/end2end/HashJoinIT.java|phoenix-core/src/main/java/org/apache/phoenix/compile/WhereOptimizer.java|,1,3,3,2014-12-15 22:55:08 +0000,2014-12-16 12:45:41 -0500,62b12d99d44f52e539aeb291e84102be99b6e5cf,phoenix
PHOENIX-1362,2014-12-17 00:28:14 +0000,phoenix-core/src/it/java/org/apache/phoenix/end2end/MinMaxAggregateFunctionIT.java|phoenix-core/src/main/java/org/apache/phoenix/expression/function/MaxAggregateFunction.java|phoenix-core/src/main/java/org/apache/phoenix/expression/function/MinAggregateFunction.java|,2,3,3,2014-10-17 06:56:20 +0000,2014-12-16 16:17:49 -0800,cc479e57b05a5dec515d1dbf280b5f5cb3d6c81e,phoenix
PHOENIX-1469,2014-12-23 00:56:54 +0000,phoenix-core/src/it/java/org/apache/phoenix/end2end/index/IndexMetadataIT.java|phoenix-core/src/main/java/org/apache/phoenix/util/IndexUtil.java|phoenix-core/src/test/java/org/apache/phoenix/schema/types/PDataTypeTest.java|phoenix-core/src/test/java/org/apache/phoenix/util/IndexUtilTest.java|,2,3,3,2014-11-19 19:30:47 +0000,2014-12-18 23:13:13 -0800,88ecb78cfabb99541ae357af8deb22ea704ba967,phoenix
PHOENIX-1233,2014-12-20 05:20:45 +0000,phoenix-assembly/src/build/components-major-client.xml|phoenix-assembly/src/build/components/all-common-dependencies.xml|phoenix-assembly/src/build/package-to-tar-all.xml|,2,3,3,2014-09-03 21:39:57 +0000,2014-12-19 21:18:15 -0800,5bf808543b76e482e3b1318fe5071f4a2bca77dc,phoenix
PHOENIX-1336,2015-01-22 12:53:00 +0000,phoenix-core/src/it/java/org/apache/phoenix/end2end/index/LocalIndexIT.java|phoenix-core/src/main/java/org/apache/phoenix/compile/ScanRanges.java|phoenix-core/src/main/java/org/apache/phoenix/coprocessor/BaseScannerRegionObserver.java|phoenix-core/src/main/java/org/apache/phoenix/iterate/ChunkedResultIterator.java|,2,3,3,2014-10-10 11:58:17 +0000,2015-01-22 17:34:51 +0530,f6f71096a57866361bdd2ef8c9e0087cfe2ccbfb,phoenix
PHOENIX-1610,2015-01-29 18:35:27 +0000,phoenix-core/src/it/java/org/apache/phoenix/end2end/DerivedTableIT.java|phoenix-core/src/it/java/org/apache/phoenix/end2end/HashJoinIT.java|phoenix-core/src/it/java/org/apache/phoenix/end2end/SubqueryIT.java|phoenix-core/src/it/java/org/apache/phoenix/end2end/SubqueryUsingSortMergeJoinIT.java|phoenix-core/src/main/antlr3/PhoenixSQL.g|phoenix-core/src/main/java/org/apache/phoenix/compile/QueryCompiler.java|phoenix-core/src/main/java/org/apache/phoenix/execute/HashJoinPlan.java|phoenix-core/src/main/java/org/apache/phoenix/expression/InListExpression.java|phoenix-core/src/main/java/org/apache/phoenix/join/HashCacheClient.java|phoenix-core/src/main/java/org/apache/phoenix/optimize/QueryOptimizer.java|phoenix-core/src/main/java/org/apache/phoenix/parse/HintNode.java|,1,3,3,2015-01-27 23:41:31 +0000,2015-01-29 11:42:24 -0500,1c58f442dea6c19745a119f53e47e78ce9e2ef76,phoenix
PHOENIX-1616,2015-01-31 21:46:50 +0000,phoenix-core/src/it/java/org/apache/phoenix/end2end/HashJoinIT.java|phoenix-core/src/it/java/org/apache/phoenix/end2end/HashJoinLocalIndexIT.java|phoenix-core/src/it/java/org/apache/phoenix/end2end/SortMergeJoinIT.java|phoenix-core/src/it/java/org/apache/phoenix/end2end/SubqueryIT.java|phoenix-core/src/it/java/org/apache/phoenix/end2end/SubqueryUsingSortMergeJoinIT.java|phoenix-core/src/it/java/org/apache/phoenix/end2end/ViewIT.java|phoenix-core/src/it/java/org/apache/phoenix/end2end/index/GlobalIndexOptimizationIT.java|phoenix-core/src/main/java/org/apache/phoenix/compile/ExpressionCompiler.java|phoenix-core/src/main/java/org/apache/phoenix/parse/ColumnParseNode.java|phoenix-core/src/main/java/org/apache/phoenix/parse/TableName.java|phoenix-core/src/main/java/org/apache/phoenix/schema/ColumnRef.java|phoenix-core/src/main/java/org/apache/phoenix/schema/LocalIndexDataColumnRef.java|phoenix-core/src/main/java/org/apache/phoenix/schema/TableRef.java|phoenix-core/src/main/java/org/apache/phoenix/util/IndexUtil.java|phoenix-core/src/main/java/org/apache/phoenix/util/SchemaUtil.java|,1,3,3,2015-01-29 21:46:38 +0000,2015-01-31 11:17:46 -0800,03a5d7ef198f059b289a7195613db8d375b88e46,phoenix
PHOENIX-1248,2015-02-01 17:49:45 +0000,phoenix-core/src/it/java/org/apache/phoenix/mapreduce/CsvBulkLoadToolIT.java|phoenix-core/src/main/java/org/apache/phoenix/mapreduce/CsvBulkLoadTool.java|phoenix-core/src/main/java/org/apache/phoenix/mapreduce/CsvToKeyValueMapper.java|,2,3,3,2014-09-11 16:43:38 +0000,2015-02-01 09:28:29 -0800,d6e7846f491e09780a2d663cc5c23bc21244e26c,phoenix
PHOENIX-1676,2015-03-24 18:52:30 +0000,phoenix-core/src/it/java/org/apache/phoenix/end2end/index/IndexQosIT.java|phoenix-core/src/main/java/org/apache/hadoop/hbase/ipc/PhoenixIndexRpcScheduler.java|phoenix-core/src/main/java/org/apache/phoenix/hbase/index/IndexQosCompat.java|phoenix-core/src/main/java/org/apache/phoenix/hbase/index/IndexQosRpcControllerFactory.java|phoenix-core/src/main/java/org/apache/phoenix/hbase/index/table/CoprocessorHTableFactory.java|phoenix-core/src/main/java/org/apache/phoenix/jdbc/PhoenixDatabaseMetaData.java|phoenix-core/src/main/java/org/apache/phoenix/util/SchemaUtil.java|,1,3,3,2015-02-23 20:05:12 +0000,2015-03-23 23:07:23 -0700,898c7912149a81a0e287a4d82e5faa7163de6ce1,phoenix
PHOENIX-1684,2015-03-27 19:03:32 +0000,phoenix-core/src/it/java/org/apache/phoenix/end2end/index/IndexExpressionIT.java|phoenix-core/src/main/java/org/apache/phoenix/compile/PostIndexDDLCompiler.java|phoenix-core/src/main/java/org/apache/phoenix/parse/IndexExpressionParseNodeRewriter.java|phoenix-core/src/main/java/org/apache/phoenix/schema/MetaDataClient.java|phoenix-core/src/main/java/org/apache/phoenix/util/StringUtil.java|phoenix-core/src/test/java/org/apache/phoenix/compile/QueryCompilerTest.java|,1,3,3,2015-02-25 19:05:59 +0000,2015-03-24 15:58:52 -0700,a94a6f4195af2867379803f19c90045eb3943c2d,phoenix
PHOENIX-1755,2015-04-07 19:17:37 +0000,phoenix-core/src/main/java/org/apache/phoenix/util/csv/CsvUpsertExecutor.java|,2,3,3,2015-03-19 15:08:24 +0000,2015-04-07 21:15:09 +0200,ff0e8e4edceb5847a2eeb86500f4784525881d6d,phoenix
PHOENIX-900,2015-04-23 21:24:59 +0000,phoenix-core/src/it/java/org/apache/phoenix/execute/PartialCommitIT.java|,1,2,3,2014-03-26 23:00:57 +0000,2015-04-22 11:28:04 -0700,784c354af8f21006d695cca7e175fb22be73ebd0,phoenix
PHOENIX-3164,2016-08-15 22:56:10 +0000,phoenix-core/src/main/java/org/apache/phoenix/query/QueryServices.java|phoenix-core/src/main/java/org/apache/phoenix/query/QueryServicesOptions.java|phoenix-queryserver/src/main/java/org/apache/phoenix/queryserver/server/Main.java|phoenix-queryserver/src/test/java/org/apache/phoenix/queryserver/server/PhoenixDoAsCallbackTest.java|,3,3,4,2016-08-09 16:39:03 +0000,2016-08-15 18:31:48 -0400,44cf0827f1e5577510ee95f149df8d552a56da3c,phoenix
PHOENIX-3189,2016-09-01 14:58:38 +0000,phoenix-core/src/test/java/org/apache/phoenix/jdbc/SecureUserConnectionsTest.java|,3,4,4,2016-08-17 03:43:11 +0000,2016-08-31 22:29:40 -0400,1ce9845b8f6c2b456fbab913cd1bd647c6c4d281,phoenix
PHOENIX-2946,2016-09-08 19:32:53 +0000,phoenix-core/src/main/java/org/apache/phoenix/expression/function/CeilDateExpression.java|phoenix-core/src/main/java/org/apache/phoenix/expression/function/CeilTimestampExpression.java|phoenix-core/src/main/java/org/apache/phoenix/expression/function/DateScalarFunction.java|phoenix-core/src/main/java/org/apache/phoenix/expression/function/DayOfMonthFunction.java|phoenix-core/src/main/java/org/apache/phoenix/expression/function/DayOfWeekFunction.java|phoenix-core/src/main/java/org/apache/phoenix/expression/function/DayOfYearFunction.java|phoenix-core/src/main/java/org/apache/phoenix/expression/function/HourFunction.java|phoenix-core/src/main/java/org/apache/phoenix/expression/function/MinuteFunction.java|phoenix-core/src/main/java/org/apache/phoenix/expression/function/MonthFunction.java|phoenix-core/src/main/java/org/apache/phoenix/expression/function/RoundDateExpression.java|phoenix-core/src/main/java/org/apache/phoenix/expression/function/RoundJodaDateExpression.java|phoenix-core/src/main/java/org/apache/phoenix/expression/function/SecondFunction.java|phoenix-core/src/main/java/org/apache/phoenix/expression/function/ToDateFunction.java|phoenix-core/src/main/java/org/apache/phoenix/expression/function/WeekFunction.java|phoenix-core/src/main/java/org/apache/phoenix/expression/function/YearFunction.java|phoenix-core/src/main/java/org/apache/phoenix/jdbc/PhoenixPreparedStatement.java|phoenix-core/src/main/java/org/apache/phoenix/schema/SortOrder.java|phoenix-core/src/main/java/org/apache/phoenix/schema/types/PDataType.java|phoenix-core/src/main/java/org/apache/phoenix/schema/types/PDate.java|phoenix-core/src/main/java/org/apache/phoenix/schema/types/PDecimal.java|phoenix-core/src/main/java/org/apache/phoenix/schema/types/PLong.java|phoenix-core/src/main/java/org/apache/phoenix/schema/types/PTime.java|phoenix-core/src/main/java/org/apache/phoenix/schema/types/PTimestamp.java|phoenix-core/src/main/java/org/apache/phoenix/schema/types/PUnsignedDate.java|phoenix-core/src/main/java/org/apache/phoenix/schema/types/PUnsignedLong.java|phoenix-core/src/main/java/org/apache/phoenix/schema/types/PUnsignedTime.java|phoenix-core/src/main/java/org/apache/phoenix/schema/types/PUnsignedTimestamp.java|phoenix-core/src/main/java/org/apache/phoenix/util/DateUtil.java|phoenix-core/src/main/java/org/apache/phoenix/util/csv/CsvUpsertExecutor.java|phoenix-core/src/test/java/org/apache/phoenix/schema/types/PDataTypeTest.java|,3,3,4,2016-05-28 01:11:27 +0000,2016-09-08 11:13:43 -0700,210445ded95d9da503c13cac24b4148aa819e205,phoenix
PHOENIX-3279,2016-09-20 16:36:04 +0000,phoenix-core/src/it/java/org/apache/phoenix/end2end/DerivedTableIT.java|phoenix-core/src/main/java/org/apache/phoenix/execute/BaseQueryPlan.java|phoenix-core/src/main/java/org/apache/phoenix/execute/ClientAggregatePlan.java|phoenix-core/src/main/java/org/apache/phoenix/execute/ClientProcessingPlan.java|phoenix-core/src/main/java/org/apache/phoenix/execute/ClientScanPlan.java|phoenix-core/src/main/java/org/apache/phoenix/execute/CorrelatePlan.java|phoenix-core/src/main/java/org/apache/phoenix/execute/DelegateQueryPlan.java|phoenix-core/src/main/java/org/apache/phoenix/execute/HashJoinPlan.java|phoenix-core/src/main/java/org/apache/phoenix/execute/TupleProjectionPlan.java|phoenix-core/src/main/java/org/apache/phoenix/execute/UnionPlan.java|phoenix-core/src/main/java/org/apache/phoenix/execute/UnnestArrayPlan.java|phoenix-core/src/main/java/org/apache/phoenix/iterate/UnionResultIterators.java|,3,4,4,2016-09-14 21:56:08 +0000,2016-09-20 09:19:06 -0700,7601d5942fdeb55c114295292e2100aafb84e861,phoenix
PHOENIX-3240,2016-10-11 19:47:18 +0000,phoenix-assembly/src/build/components/all-common-jars.xml|phoenix-client/pom.xml|phoenix-pig/pom.xml|,3,4,4,2016-09-02 10:06:31 +0000,2016-10-11 14:14:44 -0400,d507ee7eb34bd058c320c6917d3609e5b7411e98,phoenix
PHOENIX-3382,2016-10-26 00:26:46 +0000,phoenix-core/src/it/java/org/apache/phoenix/end2end/QueryMoreIT.java|phoenix-core/src/main/java/org/apache/phoenix/compile/WhereOptimizer.java|phoenix-core/src/test/java/org/apache/phoenix/compile/WhereOptimizerTest.java|,3,4,4,2016-10-14 11:16:50 +0000,2016-10-15 17:25:27 -0700,3e4aec1bc440ad503d5058237e3b508392df9266,phoenix
PHOENIX-3432,2016-11-02 22:31:20 +0000,phoenix-core/src/main/java/org/apache/phoenix/query/ConnectionQueryServicesImpl.java|phoenix-core/src/main/java/org/apache/phoenix/util/UpgradeUtil.java|,3,5,5,2016-11-02 02:30:37 +0000,2016-11-02 10:52:37 -0700,d7b821a7bcc4772f30ac01716415bcd47f211b18,phoenix
PHOENIX-3208,2016-11-02 20:29:27 +0000,phoenix-core/src/main/java/org/apache/phoenix/execute/MutationState.java|phoenix-core/src/test/java/org/apache/phoenix/execute/MutationStateTest.java|,3,4,5,2016-08-25 16:00:28 +0000,2016-11-02 11:42:52 -0700,184194775aa1aa79a94cc93610667bd6124f059c,phoenix
PHOENIX-3387,2016-11-02 20:10:18 +0000,phoenix-hive/src/it/java/org/apache/phoenix/hive/HiveTestUtil.java|phoenix-hive/src/main/java/org/apache/phoenix/hive/objectinspector/PhoenixBooleanObjectInspector.java|phoenix-hive/src/main/java/org/apache/phoenix/hive/objectinspector/PhoenixByteObjectInspector.java|phoenix-hive/src/main/java/org/apache/phoenix/hive/objectinspector/PhoenixDecimalObjectInspector.java|phoenix-hive/src/main/java/org/apache/phoenix/hive/objectinspector/PhoenixDoubleObjectInspector.java|phoenix-hive/src/main/java/org/apache/phoenix/hive/objectinspector/PhoenixFloatObjectInspector.java|phoenix-hive/src/main/java/org/apache/phoenix/hive/objectinspector/PhoenixIntObjectInspector.java|phoenix-hive/src/main/java/org/apache/phoenix/hive/objectinspector/PhoenixLongObjectInspector.java|phoenix-hive/src/main/java/org/apache/phoenix/hive/objectinspector/PhoenixShortObjectInspector.java|,3,4,5,2016-10-18 07:32:51 +0000,2016-11-02 12:36:57 -0700,86f51602b59100e67b0f87b247a07bdec6dfcb17,phoenix
PHOENIX-3416,2016-11-02 20:11:07 +0000,phoenix-hive/src/main/java/org/apache/phoenix/hive/PhoenixStorageHandler.java|phoenix-hive/src/main/java/org/apache/phoenix/hive/mapreduce/PhoenixInputFormat.java|phoenix-hive/src/main/java/org/apache/phoenix/hive/ppd/PhoenixPredicateDecomposer.java|phoenix-hive/src/main/java/org/apache/phoenix/hive/ppd/PhoenixPredicateDecomposerManager.java|,3,4,5,2016-10-27 07:14:15 +0000,2016-11-02 12:37:05 -0700,e1afbcce546b822e81f7fa0fc37e0de6fe5b8d0c,phoenix
PHOENIX-3386,2016-11-02 20:13:23 +0000,phoenix-core/src/main/java/org/apache/phoenix/mapreduce/util/PhoenixConfigurationUtil.java|phoenix-hive/src/main/java/org/apache/phoenix/hive/PhoenixStorageHandler.java|phoenix-hive/src/main/java/org/apache/phoenix/hive/util/PhoenixStorageHandlerUtil.java|,3,4,5,2016-10-18 07:29:27 +0000,2016-11-02 12:37:17 -0700,41c16a020fcd1cb143675ea17e2d9d3a56750a8a,phoenix
PHOENIX-3422,2016-11-02 20:14:08 +0000,phoenix-hive/pom.xml|phoenix-hive/src/main/java/org/apache/phoenix/hive/query/PhoenixQueryBuilder.java|phoenix-hive/src/main/java/org/apache/phoenix/hive/util/PhoenixStorageHandlerUtil.java|phoenix-hive/src/test/java/org/apache/phoenix/hive/query/PhoenixQueryBuilderTest.java|,3,4,5,2016-10-28 01:38:51 +0000,2016-11-02 12:37:24 -0700,a37403cd9ff5c9c6913394fcbb18c97a6a267675,phoenix
PHOENIX-3423,2016-11-02 20:15:12 +0000,phoenix-hive/src/main/java/org/apache/phoenix/hive/objectinspector/PhoenixCharObjectInspector.java|phoenix-hive/src/main/java/org/apache/phoenix/hive/objectinspector/PhoenixObjectInspectorFactory.java|,3,4,5,2016-10-28 08:45:02 +0000,2016-11-02 12:38:44 -0700,b477f370c0519d5f5385927d3809fb4a5433a2ec,phoenix
PHOENIX-3421,2016-11-03 23:52:03 +0000,phoenix-core/src/it/java/org/apache/phoenix/end2end/QueryMoreIT.java|phoenix-core/src/main/java/org/apache/phoenix/util/PhoenixRuntime.java|phoenix-core/src/test/java/org/apache/phoenix/util/PhoenixEncodeDecodeTest.java|phoenix-core/src/test/java/org/apache/phoenix/util/PhoenixRuntimeTest.java|,4,4,5,2016-10-27 21:06:31 +0000,2016-11-03 16:47:01 -0700,49914c2e8062bf6b175dc987fac97b3f0e659dbe,phoenix
PHOENIX-3199,2016-11-04 16:31:18 +0000,phoenix-core/src/main/java/org/apache/phoenix/cache/ServerCacheClient.java|,3,4,5,2016-08-23 16:13:14 +0000,2016-11-04 09:15:19 -0700,e4e1570b83ca0141fc19421a0bd5217ebb37f512,phoenix
PHOENIX-3469,2016-11-17 06:49:51 +0000,phoenix-core/src/it/java/org/apache/phoenix/end2end/OrderByIT.java|phoenix-core/src/main/java/org/apache/phoenix/compile/OrderByCompiler.java|phoenix-core/src/main/java/org/apache/phoenix/expression/OrderByExpression.java|phoenix-core/src/main/java/org/apache/phoenix/jdbc/PhoenixDatabaseMetaData.java|phoenix-core/src/test/java/org/apache/phoenix/compile/QueryCompilerTest.java|,3,5,5,2016-11-10 05:30:38 +0000,2016-11-16 21:45:50 -0800,0d138cfae748510d58631a93af2a5c402f3c9e3f,phoenix
PHOENIX-3452,2016-11-17 06:49:06 +0000,phoenix-core/src/it/java/org/apache/phoenix/end2end/GroupByCaseIT.java|phoenix-core/src/main/java/org/apache/phoenix/compile/OrderPreservingTracker.java|phoenix-core/src/test/java/org/apache/phoenix/compile/QueryCompilerTest.java|,3,5,5,2016-11-04 11:02:25 +0000,2016-11-16 21:45:50 -0800,6fd8e72045fd0a8808cb774f7f5f7a96ef0cef79,phoenix
PHOENIX-3490,2016-11-17 20:09:54 +0000,phoenix-hive/src/main/java/org/apache/phoenix/hive/PhoenixStorageHandler.java|,3,5,5,2016-11-17 01:06:42 +0000,2016-11-17 12:06:34 -0800,659671a411cdbf055ce107d2e83571e66024b4f1,phoenix
PHOENIX-3494,2016-11-18 05:53:58 +0000,phoenix-core/src/main/java/org/apache/phoenix/schema/types/PDataType.java|phoenix-core/src/test/java/org/apache/phoenix/schema/types/PDataTypeTest.java|,4,5,5,2016-11-17 21:25:14 +0000,2016-11-17 17:02:17 -0800,29c025e25430bb9705ec15896f6d02aa7a5e1131,phoenix
PHOENIX-3484,2016-11-18 21:33:16 +0000,phoenix-core/src/it/java/org/apache/phoenix/end2end/GroupByCaseIT.java|phoenix-core/src/main/java/org/apache/phoenix/schema/stats/DefaultStatisticsCollector.java|,4,5,5,2016-11-15 20:36:05 +0000,2016-11-18 13:26:23 -0800,66d6bba6d8fa1d58eb636458f9f7095b8f4f5059,phoenix
PHOENIX-3516,2016-12-22 19:03:34 +0000,phoenix-core/src/main/java/org/apache/phoenix/compile/WhereOptimizer.java|,4,5,5,2016-12-03 00:52:29 +0000,2016-12-27 11:44:54 -0800,07f92732f9c6d2d9464012cebeb4cefc10da95d5,phoenix
PHOENIX-3563,2017-01-08 08:05:19 +0000,phoenix-core/src/main/java/org/apache/phoenix/query/ConnectionQueryServicesImpl.java|,4,5,5,2017-01-05 00:11:27 +0000,2017-01-07 10:03:23 -0800,d8f4594989c0b73945aaffec5649a0b62ac59724,phoenix
PHOENIX-3553,2017-01-13 19:16:44 +0000,phoenix-core/src/main/java/org/apache/phoenix/schema/stats/DefaultStatisticsCollector.java|,4,5,5,2016-12-30 03:34:58 +0000,2017-01-13 11:12:48 -0800,eb72fa892ac105251e21355eb8b9fefb35e92819,phoenix
PHOENIX-3609,2017-02-06 07:58:44 +0000,phoenix-core/src/it/java/org/apache/phoenix/end2end/index/LocalIndexIT.java|phoenix-core/src/main/java/org/apache/hadoop/hbase/regionserver/DataTableLocalIndexRegionScanner.java|phoenix-core/src/main/java/org/apache/hadoop/hbase/regionserver/IndexHalfStoreFileReaderGenerator.java|phoenix-core/src/main/java/org/apache/phoenix/coprocessor/MetaDataRegionObserver.java|phoenix-core/src/main/java/org/apache/phoenix/hbase/index/Indexer.java|phoenix-core/src/main/java/org/apache/phoenix/schema/MetaDataClient.java|phoenix-core/src/main/java/org/apache/phoenix/util/IndexUtil.java|phoenix-core/src/main/java/org/apache/phoenix/util/MetaDataUtil.java|phoenix-core/src/main/java/org/apache/phoenix/util/RepairUtil.java|phoenix-core/src/main/java/org/apache/phoenix/util/SchemaUtil.java|,3,5,5,2017-01-19 04:34:41 +0000,2017-02-06 13:14:45 +0530,76e4264d0c0b234fe300dbbaf33dbe7984cf92e8,phoenix
PHOENIX-3652,2017-02-06 15:02:35 +0000,phoenix-core/src/main/java/org/apache/phoenix/query/ConnectionQueryServicesImpl.java|,3,5,5,2017-02-03 11:36:10 +0000,2017-02-06 20:06:19 +0530,54ddb916ee1a6cc1b412aa28221b1d2770fb814b,phoenix
PHOENIX-3661,2017-02-13 23:51:59 +0000,phoenix-core/src/main/java/org/apache/phoenix/mapreduce/AbstractBulkLoadTool.java|phoenix-core/src/main/java/org/apache/phoenix/mapreduce/MultiHfileOutputFormat.java|phoenix-core/src/main/java/org/apache/phoenix/mapreduce/index/IndexTool.java|,3,5,5,2017-02-10 03:16:13 +0000,2017-02-13 15:26:17 -0800,7567fcd6d569a2ece7556c4e3a966a1baf34c3a5,phoenix
PHOENIX-3453,2017-02-14 20:24:52 +0000,phoenix-core/src/it/java/org/apache/phoenix/end2end/GroupByCaseIT.java|phoenix-core/src/main/java/org/apache/phoenix/expression/CoerceExpression.java|phoenix-core/src/test/java/org/apache/phoenix/compile/QueryCompilerTest.java|,3,5,5,2016-11-04 14:41:17 +0000,2017-02-14 12:19:17 -0800,799d217f6cab6fd57cd3b1c87553b607024de4f0,phoenix
PHOENIX-3512,2017-02-22 06:17:20 +0000,phoenix-hive/src/main/java/org/apache/phoenix/hive/query/PhoenixQueryBuilder.java|phoenix-hive/src/test/java/org/apache/phoenix/hive/query/PhoenixQueryBuilderTest.java|,3,5,5,2016-11-30 06:42:09 +0000,2017-02-21 22:04:00 -0800,05c37a91511b21d01b30107b5fd4dc98eacb041f,phoenix
PHOENIX-3694,2017-02-27 11:48:04 +0000,phoenix-core/src/it/java/org/apache/phoenix/end2end/DropSchemaIT.java|phoenix-core/src/main/java/org/apache/phoenix/coprocessor/MetaDataEndpointImpl.java|,3,5,5,2017-02-24 20:14:57 +0000,2017-02-27 17:07:52 +0530,07b32b95e4a92756d0acf9af1b801e2869ceb6bd,phoenix
PHOENIX-3705,2017-03-04 03:04:38 +0000,phoenix-core/src/main/java/org/apache/phoenix/filter/SkipScanFilter.java|phoenix-core/src/main/java/org/apache/phoenix/schema/RowKeySchema.java|phoenix-core/src/test/java/org/apache/phoenix/filter/SkipScanFilterTest.java|,4,5,5,2017-03-01 10:01:06 +0000,2017-03-04 10:45:57 +0800,c8612fa1b09f883726102951626798244f73db17,phoenix
PHOENIX-3745,2017-03-31 02:12:04 +0000,phoenix-core/src/it/java/org/apache/phoenix/end2end/SortMergeJoinMoreIT.java|phoenix-core/src/main/java/org/apache/phoenix/compile/JoinCompiler.java|phoenix-core/src/main/java/org/apache/phoenix/compile/SubselectRewriter.java|phoenix-core/src/main/java/org/apache/phoenix/exception/SQLExceptionCode.java|phoenix-core/src/main/java/org/apache/phoenix/execute/DelegateQueryPlan.java|phoenix-core/src/main/java/org/apache/phoenix/execute/SortMergeJoinPlan.java|phoenix-core/src/test/java/org/apache/phoenix/compile/QueryCompilerTest.java|,4,6,6,2017-03-20 11:22:26 +0000,2017-03-31 09:58:35 +0800,2c53fc9856ba3770e742c0729cdef9b2c0181873,phoenix
PHOENIX-3781,2017-04-21 06:01:30 +0000,phoenix-core/src/main/java/org/apache/phoenix/schema/PTableImpl.java|,5,6,6,2017-04-12 00:30:53 +0000,2017-04-12 10:45:38 -0700,adf5606835f954a4e6b62d2fde8777b15cfec434,phoenix
PHOENIX-3751,2017-04-21 06:31:11 +0000,phoenix-spark/src/it/resources/globalSetup.sql|phoenix-spark/src/main/scala/org/apache/phoenix/spark/PhoenixRDD.scala|,5,6,6,2017-03-23 17:26:02 +0000,2017-04-21 11:47:27 +0530,28af89c46fa54d7f60adc8be88fdf559cad811d2,phoenix
PHOENIX-3759,2017-04-21 06:30:09 +0000,phoenix-core/src/it/java/org/apache/phoenix/end2end/index/LocalIndexIT.java|phoenix-core/src/main/java/org/apache/phoenix/util/RepairUtil.java|,5,6,6,2017-04-04 21:06:14 +0000,2017-04-21 11:48:54 +0530,92b951e5387768e084ed09729884a59160cd81d3,phoenix
PHOENIX-3800,2017-05-05 06:18:19 +0000,phoenix-core/src/it/java/org/apache/phoenix/end2end/UpsertSelectIT.java|phoenix-core/src/main/java/org/apache/phoenix/compile/UpsertCompiler.java|,5,6,6,2017-04-20 15:58:13 +0000,2017-05-05 11:38:44 +0530,f51c0db9f2d2ee261e602a114d47dd63353bbba8,phoenix
PHOENIX-3806,2017-05-09 00:12:39 +0000,phoenix-core/src/main/java/org/apache/phoenix/hbase/index/covered/update/IndexUpdateManager.java|phoenix-core/src/main/java/org/apache/phoenix/hbase/index/covered/update/SortedCollection.java|,5,6,6,2017-04-21 22:38:29 +0000,2017-05-08 16:58:01 -0700,a1d3c1697eb478a04c7f94e37cdfc2334f94b4f5,phoenix
PHOENIX-3824,2017-05-09 00:33:30 +0000,phoenix-core/src/main/java/org/apache/phoenix/hbase/index/covered/data/LocalTable.java|phoenix-core/src/test/java/org/apache/phoenix/hbase/index/covered/TestNonTxIndexBuilder.java|phoenix-core/src/test/java/org/apache/phoenix/hbase/index/covered/data/TestLocalTable.java|,5,6,6,2017-05-03 01:13:54 +0000,2017-05-08 17:18:54 -0700,85e344fdfcc65d4992336eb52868d7ba78ba55d1,phoenix
PHOENIX-3825,2017-05-12 01:08:14 +0000,phoenix-core/src/main/java/org/apache/phoenix/hbase/index/covered/IndexMetaData.java|phoenix-core/src/main/java/org/apache/phoenix/hbase/index/covered/NonTxIndexBuilder.java|phoenix-core/src/main/java/org/apache/phoenix/hbase/index/covered/example/CoveredColumnIndexer.java|phoenix-core/src/main/java/org/apache/phoenix/hbase/index/covered/update/IndexUpdateManager.java|phoenix-core/src/test/java/org/apache/phoenix/hbase/index/covered/TestNonTxIndexBuilder.java|phoenix-core/src/test/java/org/apache/phoenix/hbase/index/covered/update/TestIndexUpdateManager.java|,5,6,6,2017-05-03 01:16:21 +0000,2017-05-11 17:07:30 -0700,4153c82e3b6fbc49232b6cdc2a0b98d3af05648e,phoenix
PHOENIX-3832,2017-05-17 01:10:04 +0000,phoenix-core/src/it/java/org/apache/phoenix/end2end/index/LocalIndexIT.java|phoenix-core/src/main/java/org/apache/phoenix/index/IndexMaintainer.java|,5,6,6,2017-05-05 18:57:43 +0000,2017-05-16 17:53:25 -0700,1666e932d157be732946e02b474b6c342199bc0f,phoenix
PHOENIX-3840,2017-05-17 19:23:34 +0000,phoenix-core/src/main/java/org/apache/phoenix/expression/function/FirstLastValueBaseFunction.java|phoenix-core/src/main/java/org/apache/phoenix/expression/function/FirstValueFunction.java|phoenix-core/src/main/java/org/apache/phoenix/expression/function/LastValueFunction.java|phoenix-core/src/main/java/org/apache/phoenix/expression/function/NthValueFunction.java|,4,6,6,2017-05-09 09:28:57 +0000,2017-05-17 12:18:02 -0700,0e652b6ecd9081ddfddc32854a08fc68684e8958,phoenix
PHOENIX-3850,2017-05-19 11:49:08 +0000,phoenix-core/src/main/java/org/apache/phoenix/hbase/index/Indexer.java|,5,6,6,2017-05-13 01:50:28 +0000,2017-05-19 19:26:35 +0800,bd27512666904a727adcd71b13725b02e655902b,phoenix
PHOENIX-3877,2017-05-23 23:18:15 +0000,phoenix-core/src/it/java/org/apache/phoenix/monitoring/PhoenixMetricsIT.java|phoenix-core/src/main/java/org/apache/phoenix/query/ConnectionQueryServicesImpl.java|,5,6,6,2017-05-23 16:58:04 +0000,2017-05-23 15:56:53 -0700,dfb2586aff0541fd596350823512500b86e932e1,phoenix
PHOENIX-3708,2017-06-10 17:13:34 +0000,phoenix-hive/pom.xml|phoenix-hive/src/it/java/org/apache/phoenix/hive/BaseHivePhoenixStoreIT.java|phoenix-hive/src/it/java/org/apache/phoenix/hive/HiveMapReduceIT.java|phoenix-hive/src/it/java/org/apache/phoenix/hive/HiveTestUtil.java|phoenix-hive/src/it/java/org/apache/phoenix/hive/HiveTezIT.java|phoenix-hive/src/main/java/org/apache/phoenix/hive/query/PhoenixQueryBuilder.java|,5,5,6,2017-03-03 00:12:56 +0000,2017-06-10 10:09:25 -0700,616cd057d3c7d587aafe278948f8cff84efc9d29,phoenix
PHOENIX-3890,2017-06-14 22:38:56 +0000,phoenix-core/src/it/java/org/apache/phoenix/end2end/MultiCfQueryExecIT.java|phoenix-core/src/main/java/org/apache/phoenix/util/EncodedColumnsUtil.java|,5,6,6,2017-05-25 17:04:50 +0000,2017-06-14 11:19:58 -0700,489a945159e08e663dc73d3cd51568e6ba0a0f38,phoenix
PHOENIX-3964,2017-06-30 09:11:57 +0000,phoenix-core/src/main/java/org/apache/phoenix/hbase/index/Indexer.java|,5,6,6,2017-06-20 13:30:39 +0000,2017-06-30 16:57:00 +0800,5c43b347a4cd2c3c38b28bee2983e716460e50db,phoenix
PHOENIX-3986,2017-07-06 23:16:07 +0000,phoenix-core/src/it/java/org/apache/phoenix/execute/UpsertSelectOverlappingBatchesIT.java|phoenix-core/src/main/java/org/apache/phoenix/coprocessor/UngroupedAggregateRegionObserver.java|phoenix-core/src/main/java/org/apache/phoenix/util/ServerUtil.java|,4,6,6,2017-06-30 21:50:14 +0000,2017-07-06 16:10:16 -0700,f5f32e3b8d111b47c3f5c83f4dfff4e4e7af6863,phoenix
PHOENIX-3994,2017-08-22 00:30:19 +0000,phoenix-core/src/main/java/org/apache/phoenix/index/PhoenixTransactionalIndexer.java|,6,6,7,2017-07-06 04:31:08 +0000,2017-07-16 00:52:07 -0700,18ea6edc00029e7e900ad95562fa73da0e5ccf51,phoenix
PHOENIX-4021,2017-07-17 16:55:46 +0000,phoenix-core/src/main/java/org/apache/phoenix/hbase/index/table/CachingHTableFactory.java|phoenix-core/src/main/java/org/apache/phoenix/hbase/index/write/ParallelWriterIndexCommitter.java|phoenix-core/src/main/java/org/apache/phoenix/hbase/index/write/recovery/TrackingParallelWriterIndexCommitter.java|phoenix-core/src/test/java/org/apache/phoenix/hbase/index/write/TestCachingHTableFactory.java|phoenix-core/src/test/java/org/apache/phoenix/hbase/index/write/TestIndexWriter.java|phoenix-core/src/test/java/org/apache/phoenix/hbase/index/write/TestParalleIndexWriter.java|phoenix-core/src/test/java/org/apache/phoenix/hbase/index/write/TestParalleWriterIndexCommitter.java|,6,7,7,2017-07-13 21:37:33 +0000,2017-07-17 09:24:35 -0700,b2ab339a1690384c89d928c9dd3244d7518a8033,phoenix
PHOENIX-3960,2017-07-25 23:00:09 +0000,phoenix-hive/src/main/java/org/apache/phoenix/hive/PhoenixStorageHandler.java|,5,6,7,2017-06-19 19:49:02 +0000,2017-07-25 14:17:16 -0700,9c458fa3d3ecdeb17de5b717c26cfdea1608c358,phoenix
PHOENIX-3769,2017-08-07 20:53:06 +0000,phoenix-core/src/main/java/org/apache/phoenix/index/PhoenixIndexBuilder.java|,6,6,7,2017-04-06 09:03:59 +0000,2017-08-07 16:20:54 -0400,27170bd78dc59c999d94259f14fffd93ae5e89e8,phoenix
PHOENIX-4088,2017-08-17 19:22:19 +0000,phoenix-core/src/main/java/org/apache/phoenix/exception/SQLExceptionCode.java|phoenix-core/src/main/java/org/apache/phoenix/query/ConnectionQueryServicesImpl.java|,3,7,7,2017-08-16 15:01:14 +0000,2017-08-17 12:52:29 -0400,f8bd40e9fdd57b3af5ed8dc4f08357b22b78b479,phoenix
PHOENIX-3954,2017-08-18 23:03:10 +0000,phoenix-core/src/main/java/org/apache/phoenix/exception/SQLExceptionCode.java|,3,6,7,2017-06-16 22:12:35 +0000,2017-08-18 15:39:56 -0700,671b10c6e8878ae381b4c8260c3e895fd97441e7,phoenix
PHOENIX-4094,2017-08-22 03:50:02 +0000,phoenix-core/src/it/java/org/apache/hadoop/hbase/regionserver/wal/WALRecoveryRegionPostOpenIT.java|,6,7,7,2017-08-17 14:04:01 +0000,2017-08-23 16:02:57 +0800,1aff98f90170ae2cce9a07e362be2847e1d3ee84,phoenix
PHOENIX-3406,2017-09-05 20:14:25 +0000,phoenix-core/src/it/java/org/apache/phoenix/end2end/CsvBulkLoadToolIT.java|phoenix-core/src/main/java/org/apache/phoenix/mapreduce/FormatToBytesWritableMapper.java|phoenix-core/src/main/java/org/apache/phoenix/mapreduce/FormatToKeyValueReducer.java|,3,4,7,2016-10-25 21:00:18 +0000,2017-09-05 12:46:47 -0700,cec7e1cf8794e7ec0ee5c8be9a32e33cd211ec3b,phoenix
PHOENIX-4068,2017-09-05 20:40:32 +0000,phoenix-core/src/it/java/org/apache/phoenix/end2end/OnDuplicateKeyIT.java|phoenix-core/src/main/java/org/apache/phoenix/compile/UpsertCompiler.java|phoenix-core/src/main/java/org/apache/phoenix/index/PhoenixIndexBuilder.java|,5,7,7,2017-08-07 00:53:18 +0000,2017-09-05 13:31:30 -0700,839be97e9ef2d23d3e9713313d4a93521bc74028,phoenix
PHOENIX-4165,2017-09-09 04:53:22 +0000,phoenix-core/src/main/java/org/apache/phoenix/cache/GlobalCache.java|phoenix-core/src/main/java/org/apache/phoenix/memory/GlobalMemoryManager.java|phoenix-core/src/main/java/org/apache/phoenix/query/BaseQueryServicesImpl.java|phoenix-core/src/main/java/org/apache/phoenix/query/QueryServices.java|phoenix-core/src/main/java/org/apache/phoenix/query/QueryServicesOptions.java|phoenix-core/src/test/java/org/apache/phoenix/cache/TenantCacheTest.java|phoenix-core/src/test/java/org/apache/phoenix/iterate/SpoolingResultIteratorTest.java|phoenix-core/src/test/java/org/apache/phoenix/memory/MemoryManagerTest.java|phoenix-core/src/test/java/org/apache/phoenix/query/QueryServicesTestImpl.java|,6,7,7,2017-09-06 05:12:04 +0000,2017-09-08 21:54:11 -0700,44c00345b946cbdd9fc8205f8121cd60a065c0fe,phoenix
PHOENIX-4182,2017-09-11 21:55:23 +0000,phoenix-core/src/it/java/org/apache/phoenix/end2end/QueryDatabaseMetaDataIT.java|phoenix-core/src/main/java/org/apache/phoenix/jdbc/PhoenixDatabaseMetaData.java|,6,7,7,2017-09-08 12:17:06 +0000,2017-09-11 14:53:36 -0700,3392fa6fc2b8b0eb5ce683fb8bad4a421110b817,phoenix
PHOENIX-4229,2017-10-11 18:16:21 +0000,phoenix-core/src/it/java/org/apache/phoenix/replication/SystemCatalogWALEntryFilterIT.java|phoenix-core/src/main/java/org/apache/phoenix/replication/SystemCatalogWALEntryFilter.java|,6,7,7,2017-09-25 17:19:53 +0000,2017-10-11 10:25:56 -0700,ff80555537ef103f73258115fc766bbe89c430a0,phoenix
PHOENIX-4283,2017-10-19 18:51:07 +0000,phoenix-core/src/it/java/org/apache/phoenix/end2end/AggregateIT.java|phoenix-core/src/main/java/org/apache/phoenix/schema/types/PLong.java|,6,7,7,2017-10-11 23:55:11 +0000,2017-10-16 11:13:34 -0700,bab06d688acde9801ae171420f94871b8e78684f,phoenix
PHOENIX-4292,2017-10-19 04:03:25 +0000,phoenix-core/src/it/java/org/apache/phoenix/end2end/ViewIT.java|,5,7,7,2017-10-17 04:55:40 +0000,2017-10-24 20:33:35 -0700,fe13b257e5dfe29581b1c3265d79596f194954cd,phoenix
PHOENIX-3460,2017-11-02 21:31:24 +0000,phoenix-core/src/main/antlr3/PhoenixSQL.g|phoenix-core/src/test/java/org/apache/phoenix/parse/QueryParserTest.java|,3,5,7,2016-11-07 17:17:14 +0000,2017-11-02 14:15:56 -0700,d36558f4ad7be955f307eec02c59cd989ea138bb,phoenix
PHOENIX-4379,2017-11-15 03:07:21 +0000,phoenix-core/src/it/java/org/apache/phoenix/end2end/UpgradeIT.java|phoenix-core/src/main/java/org/apache/phoenix/util/UpgradeUtil.java|,6,7,7,2017-11-14 21:41:53 +0000,2017-11-14 18:22:53 -0800,10a0778ebb63e0b85b55a588694b0291c9469d0b,phoenix
PHOENIX-4381,2017-11-16 05:02:38 +0000,phoenix-core/src/main/java/org/apache/phoenix/execute/MutationState.java|phoenix-core/src/main/java/org/apache/phoenix/util/PhoenixKeyValueUtil.java|,6,7,7,2017-11-16 01:29:30 +0000,2017-11-15 20:59:41 -0800,6a45c40fc7187ec994db389c579ebe21e13ded52,phoenix
PHOENIX-4449,2017-12-13 21:22:35 +0000,NOTICE|bin/argparse-1.4.0/argparse.py|bin/sqlline-thin.py|bin/sqlline.py|,5,7,7,2017-12-11 21:16:26 +0000,2017-12-13 15:40:50 -0500,7a0caf838511e40f81f45af6f1ad99aeb9f52a97,phoenix
PHOENIX-4509,2018-01-03 17:59:40 +0000,bin/performance.py|,6,7,7,2018-01-02 21:04:11 +0000,2018-01-03 12:22:12 -0500,3b891b2c978ad86bda6710aa7242b86ade6ea6be,phoenix
PHOENIX-4510,2018-01-03 17:59:47 +0000,bin/phoenix_utils.py|,6,7,7,2018-01-02 21:20:58 +0000,2018-01-03 12:22:53 -0500,fcf48f312e0fb961753edaa11613f3c98b7e9672,phoenix
PHOENIX-4056,2018-02-09 20:20:59 +0000,phoenix-spark/src/main/scala/org/apache/phoenix/spark/DataFrameFunctions.scala|phoenix-spark/src/main/scala/org/apache/phoenix/spark/ProductRDDFunctions.scala|,6,7,7,2017-08-01 17:17:32 +0000,2018-02-09 15:15:51 -0500,f1ea371053e641759784895310e82f012a47ee8e,phoenix
PHOENIX-3050,2017-12-06 20:08:25 +0000,phoenix-core/src/it/java/org/apache/phoenix/end2end/join/HashJoinMoreIT.java|phoenix-core/src/main/java/org/apache/phoenix/compile/JoinCompiler.java|phoenix-core/src/main/java/org/apache/phoenix/compile/QueryCompiler.java|phoenix-core/src/main/java/org/apache/phoenix/compile/WhereOptimizer.java|,3,3,8,2016-07-06 17:14:00 +0000,2018-02-19 22:29:40 -0800,b2da76c6d77d97d9a4d199a4a0351c948d2fa79f,phoenix
PHOENIX-3837,2017-12-07 20:03:52 +0000,phoenix-core/src/it/java/org/apache/phoenix/end2end/AlterTableIT.java|phoenix-core/src/it/java/org/apache/phoenix/end2end/index/IndexMetadataIT.java|phoenix-core/src/main/antlr3/PhoenixSQL.g|phoenix-core/src/main/java/org/apache/phoenix/jdbc/PhoenixStatement.java|phoenix-core/src/main/java/org/apache/phoenix/parse/AddColumnStatement.java|phoenix-core/src/main/java/org/apache/phoenix/parse/AlterIndexStatement.java|phoenix-core/src/main/java/org/apache/phoenix/parse/ParseNodeFactory.java|phoenix-core/src/main/java/org/apache/phoenix/query/ConnectionQueryServices.java|phoenix-core/src/main/java/org/apache/phoenix/query/ConnectionQueryServicesImpl.java|phoenix-core/src/main/java/org/apache/phoenix/query/ConnectionlessQueryServicesImpl.java|phoenix-core/src/main/java/org/apache/phoenix/query/DelegateConnectionQueryServices.java|phoenix-core/src/main/java/org/apache/phoenix/schema/MetaDataClient.java|,5,6,8,2017-05-08 21:22:00 +0000,2018-02-23 13:06:50 -0800,beb3a767690f4faafb6ee08ae0b14a5a8f3133d5,phoenix
PHOENIX-3856,2018-05-09 20:54:30 +0000,phoenix-core/src/main/java/org/apache/phoenix/compile/StatementContext.java|,5,6,8,2017-05-17 00:30:14 +0000,2018-05-09 13:44:22 -0700,23b0faa87333040d5634903c5c1d4c8405d75c41,phoenix
PHOENIX-3163,2018-05-10 20:34:50 +0000,phoenix-core/src/main/java/org/apache/phoenix/iterate/TableResultIterator.java|,3,3,8,2016-08-08 23:47:15 +0000,2018-05-15 11:37:28 -0700,e58fee341b9904c1c91b3295640ff4342d719105,phoenix
PHOENIX-4739,2018-05-21 21:50:03 +0000,phoenix-hive/src/main/java/org/apache/phoenix/hive/PhoenixRecordUpdater.java|phoenix-hive/src/main/java/org/apache/phoenix/hive/mapreduce/PhoenixRecordWriter.java|pom.xml|,7,8,8,2018-05-17 00:56:21 +0000,2018-05-21 14:49:49 -0700,b760e27fba3f664e64e01d32283b7c3b0e48c015,phoenix
PHOENIX-4788,2018-06-22 22:57:25 +0000,phoenix-server/pom.xml|,7,8,8,2018-06-17 19:32:14 +0000,2018-06-22 15:57:04 -0700,aa2f12db9ac7e90fbc26f7906e184131f4917782,phoenix
PHOENIX-3991,2018-07-26 20:45:07 +0000,phoenix-core/src/it/java/org/apache/phoenix/end2end/RowTimestampIT.java|phoenix-core/src/main/java/org/apache/phoenix/execute/MutationState.java|,5,6,8,2017-07-04 14:48:00 +0000,2018-07-26 13:37:23 -0700,6641f42d1f71864ed8bb1d00a1c082bcbff25ad7,phoenix
PHOENIX-3236,2018-08-24 18:00:36 +0000,phoenix-client/pom.xml|,3,4,8,2016-09-01 07:03:11 +0000,2018-08-24 10:56:19 -0700,16c5570d38a3aa0527cbbdef21fd3859be4e729f,phoenix
PHOENIX-4791,2018-09-06 17:37:58 +0000,phoenix-core/src/it/java/org/apache/phoenix/end2end/ProjectArrayElemAfterHashJoinIT.java|phoenix-core/src/main/java/org/apache/phoenix/coprocessor/HashJoinRegionScanner.java|phoenix-core/src/main/java/org/apache/phoenix/iterate/NonAggregateRegionScannerFactory.java|phoenix-core/src/main/java/org/apache/phoenix/iterate/RegionScannerFactory.java|,6,8,8,2018-06-20 00:58:05 +0000,2018-09-06 10:33:25 -0700,56c714edba8e10ff2437dfb54604d76dae8c378d,phoenix
PHOENIX-4358,2018-10-12 20:50:23 +0000,phoenix-core/src/main/java/org/apache/phoenix/schema/types/PDataType.java|phoenix-core/src/test/java/org/apache/phoenix/schema/types/PDataTypeTest.java|,6,7,8,2017-11-08 04:31:20 +0000,2018-10-12 13:48:04 -0700,39f30b94761486f53f38067157d0aeb0e6f131ab,phoenix
PHOENIX-4872,2018-10-30 22:06:20 +0000,phoenix-core/src/it/java/org/apache/phoenix/end2end/CsvBulkLoadToolIT.java|phoenix-core/src/main/java/org/apache/phoenix/mapreduce/FormatToBytesWritableMapper.java|,6,8,8,2018-08-28 01:52:57 +0000,2018-10-30 14:54:38 -0700,214c9eecaf2a7cda869e4d032f42f9f586742663,phoenix
PHOENIX-4971,2018-11-26 18:23:00 +0000,phoenix-core/src/it/java/org/apache/phoenix/end2end/ViewIT.java|phoenix-core/src/it/java/org/apache/phoenix/end2end/index/DropMetadataIT.java|phoenix-core/src/it/java/org/apache/phoenix/end2end/index/IndexMetadataIT.java|phoenix-core/src/main/java/org/apache/phoenix/coprocessor/MetaDataEndpointImpl.java|phoenix-core/src/main/java/org/apache/phoenix/exception/SQLExceptionCode.java|phoenix-core/src/main/java/org/apache/phoenix/schema/MetaDataClient.java|,8,8,9,2018-10-14 14:08:39 +0000,2018-11-26 10:22:05 -0800,12c8f1b1f67e56cd4f3f2a0dde9035a5b72b9de9,phoenix
PHOENIX-5051,2018-12-05 18:07:34 +0000,phoenix-core/src/main/java/org/apache/phoenix/iterate/ScanningResultIterator.java|,8,9,9,2018-11-30 11:49:32 +0000,2018-12-05 10:05:34 -0800,aa276bfd2ef856f9da24c32710c616c9d195463b,phoenix
PHOENIX-5070,2018-12-19 19:21:09 +0000,phoenix-core/src/main/java/org/apache/phoenix/coprocessor/PhoenixAccessController.java|,8,9,9,2018-12-14 09:32:04 +0000,2018-12-19 11:17:46 -0800,85ab5d616bfefee9c23e70a29b6733861694af9f,phoenix
PHOENIX-5084,2019-01-02 09:01:04 +0000,phoenix-core/src/main/java/org/apache/phoenix/jdbc/PhoenixDatabaseMetaData.java|,8,9,9,2018-12-27 20:59:08 +0000,2019-01-02 00:59:10 -0800,3671097af252fd15f6481f4b2e7090b10cd0ff14,phoenix
PHOENIX-5055,2019-01-05 14:22:56 +0000,phoenix-core/src/it/java/org/apache/phoenix/end2end/MutationStateIT.java|phoenix-core/src/it/java/org/apache/phoenix/end2end/QueryMoreIT.java|phoenix-core/src/main/java/org/apache/phoenix/execute/MutationState.java|phoenix-core/src/test/java/org/apache/phoenix/execute/MutationStateTest.java|,8,9,9,2018-12-03 13:37:03 +0000,2019-01-05 22:20:12 +0800,52a89f05f5e8a131fdf3ac990d7cfe29cc204711,phoenix
PHOENIX-5109,2019-01-25 06:06:55 +0000,phoenix-core/src/it/java/org/apache/phoenix/end2end/index/LocalIndexIT.java|phoenix-core/src/it/java/org/apache/phoenix/end2end/index/MutableIndexIT.java|phoenix-core/src/main/java/org/apache/phoenix/optimize/QueryOptimizer.java|,8,9,9,2019-01-23 18:31:29 +0000,2019-01-27 18:46:44 -0800,573ec9f73a86d236a6e69a2bac23f177a29f3c44,phoenix
PHOENIX-5111,2019-02-06 22:05:54 +0000,phoenix-core/src/main/java/org/apache/phoenix/mapreduce/index/IndexTool.java|,8,9,9,2019-01-25 18:48:13 +0000,2019-02-06 13:30:48 -0800,4a8a4bc18475ff3f69b7e1ebbf6653962c7caf9b,phoenix
PHOENIX-5178,2019-03-12 00:22:40 +0000,phoenix-core/src/main/java/org/apache/phoenix/coprocessor/MetaDataEndpointImpl.java|,3,9,9,2019-03-06 19:34:29 +0000,2019-03-11 21:54:40 -0700,f969444c96a060a5619e70e543c6d6fb21b32bed,phoenix
PHOENIX-5188,2019-03-12 23:54:54 +0000,phoenix-core/src/main/java/org/apache/phoenix/hbase/index/wal/IndexedKeyValue.java|phoenix-core/src/test/java/org/apache/hadoop/hbase/regionserver/wal/IndexedKeyValueTest.java|,8,9,9,2019-03-12 02:57:52 +0000,2019-03-12 16:45:07 -0700,0de237eb22c6005d5ed00b0e99d31b632c7b4e3c,phoenix
PHOENIX-5207,2019-03-29 00:02:27 +0000,phoenix-core/src/it/java/org/apache/phoenix/end2end/index/BaseIndexIT.java|,8,9,9,2019-03-22 23:17:11 +0000,2019-03-28 17:00:53 -0700,81e4a23cf5f7d8c805d22b6662d117240e908526,phoenix
PHOENIX-5132,2019-02-12 23:52:10 +0000,phoenix-core/src/it/java/org/apache/phoenix/end2end/UpgradeIT.java|phoenix-core/src/it/java/org/apache/phoenix/end2end/index/ViewIndexIT.java|phoenix-core/src/main/java/org/apache/phoenix/coprocessor/MetaDataEndpointImpl.java|phoenix-core/src/main/java/org/apache/phoenix/query/ConnectionQueryServicesImpl.java|phoenix-core/src/main/java/org/apache/phoenix/util/MetaDataUtil.java|phoenix-core/src/main/java/org/apache/phoenix/util/UpgradeUtil.java|,8,9,9,2019-02-11 23:35:50 +0000,2019-04-09 13:12:23 -0700,6ca7ff61ca9d8d89343fb331aed25afe174c8ca5,phoenix
PHOENIX-5137,2019-04-19 00:27:27 +0000,phoenix-core/src/main/java/org/apache/phoenix/coprocessor/UngroupedAggregateRegionObserver.java|,8,9,9,2019-02-13 11:42:01 +0000,2019-04-18 17:26:41 -0700,d9f6e969e66b99604a654a3ba51084b622723a74,phoenix
PHOENIX-5217,2019-04-19 06:24:00 +0000,phoenix-core/src/it/java/org/apache/phoenix/end2end/DistinctCountIT.java|phoenix-core/src/main/java/org/apache/phoenix/iterate/BaseResultIterators.java|phoenix-core/src/test/java/org/apache/phoenix/compile/QueryCompilerTest.java|phoenix-core/src/test/java/org/apache/phoenix/util/TestUtil.java|,8,9,9,2019-03-28 10:49:26 +0000,2019-04-19 14:53:05 +0800,f80c5b1c74a1e6903e3417a9a19c1a53d74552e0,phoenix
PHOENIX-5199,2019-04-25 07:00:42 +0000,phoenix-pherf/src/main/java/org/apache/phoenix/pherf/Pherf.java|phoenix-pherf/src/main/java/org/apache/phoenix/pherf/workload/WriteWorkload.java|,8,9,9,2019-03-15 11:05:58 +0000,2019-04-24 23:54:05 -0700,c1e7744c4b2b4591c15a62421ab39c048fbc2090,phoenix
PHOENIX-5101,2019-05-03 21:18:04 +0000,phoenix-core/src/it/java/org/apache/phoenix/monitoring/PhoenixMetricsIT.java|phoenix-core/src/main/java/org/apache/phoenix/iterate/ScanningResultIterator.java|,8,9,9,2019-01-15 05:05:26 +0000,2019-05-03 14:13:48 -0700,bb1327ef89fb0844094470ada74cbe5071b43a0d,phoenix
PHOENIX-5273,2019-05-08 18:22:52 +0000,phoenix-core/src/it/java/org/apache/phoenix/end2end/UpdateCacheAcrossDifferentClientsIT.java|,8,9,9,2019-05-07 18:35:21 +0000,2019-05-08 10:55:24 -0700,700c6436984f23c0a9783e3ea37dd1251b824528,phoenix
PHOENIX-5266,2019-05-10 08:39:37 +0000,phoenix-core/src/it/java/org/apache/phoenix/end2end/MutationStateIT.java|phoenix-core/src/main/java/org/apache/phoenix/execute/MutationState.java|,8,9,9,2019-05-02 10:32:04 +0000,2019-05-10 11:11:11 +0530,f8bb2bcceb6428b8b97e6bb9eb85dd8ff3099b85,phoenix
PHOENIX-5233,2019-05-13 00:20:14 +0000,phoenix-core/src/it/java/org/apache/phoenix/tx/TxCheckpointIT.java|,8,9,9,2019-04-09 09:09:37 +0000,2019-05-13 11:08:24 -0700,746bf1c275461dc5e6622fc004b74044b7ff1b38,phoenix
PHOENIX-4322,2017-12-05 19:00:27 +0000,phoenix-core/src/main/java/org/apache/phoenix/expression/RowValueConstructorExpression.java|,6,7,10,2017-10-25 22:02:28 +0000,2019-06-07 11:59:26 -0700,b8f465cd3649b66f19e307e5e00dea20ac0a8667,phoenix
PHOENIX-5156,2019-06-13 00:54:00 +0000,phoenix-core/src/main/java/org/apache/phoenix/schema/MetaDataClient.java|,8,9,10,2019-02-24 00:00:55 +0000,2019-06-13 13:37:13 -0700,2fe8d5b65219941d65107afc44d803abe9ca8b87,phoenix
PHOENIX-5269,2019-06-20 06:46:04 +0000,phoenix-core/src/it/java/org/apache/phoenix/end2end/PermissionsCacheIT.java|phoenix-core/src/main/java/org/apache/phoenix/coprocessor/MetaDataEndpointImpl.java|phoenix-core/src/main/java/org/apache/phoenix/coprocessor/PhoenixAccessController.java|phoenix-core/src/main/java/org/apache/phoenix/coprocessor/PhoenixMetaDataCoprocessorHost.java|,8,9,10,2019-05-05 21:16:07 +0000,2019-06-19 11:17:45 +0530,1f2508dbde365aaedac628c89df237e8b6b46df8,phoenix
PHOENIX-5211,2019-07-01 05:54:38 +0000,phoenix-core/src/it/java/org/apache/phoenix/end2end/IndexToolForPartialBuildIT.java|phoenix-core/src/it/java/org/apache/phoenix/end2end/IndexToolIT.java|phoenix-core/src/it/java/org/apache/phoenix/end2end/index/ImmutableIndexIT.java|phoenix-core/src/main/java/org/apache/phoenix/execute/MutationState.java|phoenix-core/src/main/java/org/apache/phoenix/hbase/index/IndexRegionObserver.java|phoenix-core/src/main/java/org/apache/phoenix/index/IndexMaintainer.java|phoenix-core/src/main/java/org/apache/phoenix/query/ConnectionQueryServicesImpl.java|phoenix-core/src/main/java/org/apache/phoenix/query/QueryServicesOptions.java|phoenix-core/src/main/java/org/apache/phoenix/util/IndexUtil.java|phoenix-core/src/test/java/org/apache/phoenix/util/TestUtil.java|,8,9,10,2019-03-25 19:58:19 +0000,2019-06-30 16:36:17 -0700,067f61292b1453beafe58df7bbf74ccd2433931c,phoenix
PHOENIX-5373,2019-09-16 21:11:24 +0000,phoenix-core/src/main/java/org/apache/phoenix/query/ConnectionQueryServicesImpl.java|,9,10,10,2019-06-25 20:34:47 +0000,2019-07-01 14:05:45 -0700,eb02a0ce6eb0168b134676c6d9e929bf4ce91c0e,phoenix
PHOENIX-3541,2019-07-11 01:50:23 +0000,phoenix-core/src/it/java/org/apache/phoenix/end2end/CsvBulkLoadToolIT.java|phoenix-core/src/main/java/org/apache/phoenix/mapreduce/AbstractBulkLoadTool.java|,3,5,10,2016-12-16 08:31:24 +0000,2019-07-10 18:37:01 -0700,bca29e25a7356a35044a98e92ae1451b991ba887,phoenix
PHOENIX-5290,2019-07-16 22:46:45 +0000,phoenix-core/src/it/java/org/apache/phoenix/end2end/RowValueConstructorIT.java|phoenix-core/src/main/java/org/apache/phoenix/compile/WhereOptimizer.java|phoenix-core/src/main/java/org/apache/phoenix/schema/types/PVarchar.java|,8,9,10,2019-05-21 03:55:18 +0000,2019-07-16 15:45:48 -0700,b5242ff75f18696ea29fe4c95fde27a5d557966d,phoenix
PHOENIX-5302,2019-07-24 22:42:46 +0000,phoenix-core/src/it/java/org/apache/phoenix/end2end/SystemCatalogCreationOnConnectionIT.java|phoenix-core/src/main/java/org/apache/phoenix/query/ConnectionQueryServicesImpl.java|,9,9,10,2019-05-24 22:51:18 +0000,2019-07-18 12:45:53 -0700,62a7927f0af57520abba56105a249f2f85b70ff0,phoenix
PHOENIX-5403,2019-07-31 18:14:19 +0000,phoenix-core/src/it/java/org/apache/phoenix/end2end/Array2IT.java|phoenix-core/src/main/java/org/apache/phoenix/compile/FromCompiler.java|phoenix-core/src/main/java/org/apache/phoenix/query/ConnectionQueryServicesImpl.java|phoenix-core/src/main/java/org/apache/phoenix/schema/MetaDataClient.java|,9,10,10,2019-07-19 21:19:59 +0000,2019-07-31 10:34:26 -0700,12c538ce2db4779b91bc294ebe8e4880673ff8c2,phoenix
PHOENIX-5455,2019-09-05 20:19:40 +0000,phoenix-core/src/main/java/org/apache/phoenix/hbase/index/Indexer.java|phoenix-core/src/main/java/org/apache/phoenix/hbase/index/wal/IndexedKeyValue.java|phoenix-core/src/main/java/org/apache/phoenix/hbase/index/wal/KeyValueCodec.java|phoenix-core/src/test/java/org/apache/hadoop/hbase/regionserver/wal/IndexedKeyValueTest.java|phoenix-core/src/test/java/org/apache/hadoop/hbase/regionserver/wal/ReadWriteKeyValuesWithCodecTest.java|,10,11,11,2019-08-27 18:24:46 +0000,2019-09-05 13:05:20 -0700,50a6aeb47a1d5a4f97ad48bb298292becfe5776e,phoenix
PHOENIX-5401,2019-07-22 20:15:28 +0000,phoenix-core/src/main/java/org/apache/phoenix/query/QueryServicesOptions.java|,8,10,11,2019-07-18 16:58:48 +0000,2019-09-16 10:44:53 -0700,1e9d73a012c57270c132dacd8fd196c7d90c2153,phoenix
PHOENIX-5439,2019-09-24 22:09:20 +0000,phoenix-core/src/main/java/org/apache/phoenix/hbase/index/master/IndexMasterObserver.java|,9,10,11,2019-08-12 21:06:38 +0000,2019-09-24 14:50:47 -0700,11997d48d1957cf613526f01c5ccbe2812cf095d,phoenix
PHOENIX-5503,2019-10-01 21:39:10 +0000,phoenix-core/src/main/java/org/apache/phoenix/mapreduce/index/IndexTool.java|,10,11,11,2019-10-01 00:04:59 +0000,2019-10-01 20:36:48 -0700,61e3994166b07e6756a79be1c7c561b6f528960a,phoenix
PHOENIX-5505,2019-10-06 15:41:31 +0000,phoenix-core/src/it/java/org/apache/phoenix/end2end/index/GlobalMutableNonTxIndexIT.java|,10,11,11,2019-10-01 20:40:53 +0000,2019-10-05 23:28:08 -0700,1a8ae8adcf1d129ef69c7e21b750bd43fa102537,phoenix
PHOENIX-5515,2019-10-15 06:23:37 +0000,phoenix-core/src/main/java/org/apache/phoenix/hbase/index/IndexRegionObserver.java|,10,11,11,2019-10-10 23:26:10 +0000,2019-10-14 18:06:20 -0700,eebccf59a2a19ff2d3b328b113117c7e6685e75e,phoenix
