Bug ID,Bug Resolution Date by Jira,Classes Touched by Last Fix,Earliest AV,Version of Ticket Creation,Version of Fix,Ticket Creation Date,Fix Date (of most recent commit),Hash (of most recent commit),Git Directory
DISPATCH-18,2014-02-03 22:02:52 +0000,src/server.c|,1,2,2,2014-01-30 19:59:27 +0000,2014-02-03 22:02:44 +0000,dd951fdc038af4ab3ba473f3222fac207e0cf12d,qpid-dispatch
DISPATCH-27,2014-02-07 19:56:39 +0000,tests/system_tests_two_routers.py|,1,2,2,2014-02-07 13:32:53 +0000,2014-02-07 19:51:42 +0000,0227163c42888844173fd15832c427555f9e85e5,qpid-dispatch
DISPATCH-29,2014-02-21 15:02:08 +0000,python/qpid_dispatch_internal/router/data.py|python/qpid_dispatch_internal/router/mobile.py|,1,2,2,2014-02-20 21:24:35 +0000,2014-02-21 15:00:53 +0000,c03bd567fd3cf8b7fe240d376884a341385ed3a7,qpid-dispatch
DISPATCH-40,2014-03-31 16:36:00 +0000,python/qpid_dispatch_internal/config/parser.py|python/qpid_dispatch_internal/config/schema.py|,1,2,2,2014-03-31 12:17:22 +0000,2014-03-31 16:33:53 +0000,cfa4deeadc3f7de780e24a1599be8e5c1310ce08,qpid-dispatch
DISPATCH-31,2014-05-21 20:27:55 +0000,include/qpid/dispatch/alloc.h|include/qpid/dispatch/config.h|include/qpid/dispatch/container.h|include/qpid/dispatch/server.h|src/agent.c|src/alloc.c|src/alloc_private.h|src/config.c|src/connection_manager.c|src/container.c|src/dispatch.c|src/dispatch_private.h|src/hash.c|src/log.c|src/python_embedded.c|src/router_config.c|src/router_node.c|src/router_private.h|src/server.c|tests/alloc_test.c|tests/run_unit_tests.c|tests/server_test.c|tests/timer_test.c|,2,2,3,2014-02-27 20:49:58 +0000,2014-05-21 20:25:40 +0000,7150696cdced0760356ee9e21a1cc1688432585d,qpid-dispatch
DISPATCH-37,2014-05-22 13:09:29 +0000,src/dispatch.c|src/router_node.c|,1,2,3,2014-03-27 11:39:43 +0000,2014-05-21 21:02:51 +0000,5eca93f87f737f74d0152cbcfe39a19bc474ad35,qpid-dispatch
DISPATCH-46,2014-05-23 17:00:35 +0000,src/alloc.c|src/server.c|,2,2,3,2014-04-17 10:38:06 +0000,2014-05-23 17:00:06 +0000,b834a87f1cc95cccf94d46808f4c18728368cc0d,qpid-dispatch
DISPATCH-66,2014-08-06 14:34:44 +0000,src/message.c|src/message_private.h|,2,3,3,2014-08-04 16:27:21 +0000,2014-08-06 14:34:27 +0000,e1c1eb378ce072484b7d4652275aed2425938f2e,qpid-dispatch
DISPATCH-76,2014-11-19 21:19:20 +0000,include/qpid/dispatch/log.h|,2,3,3,2014-11-19 16:44:10 +0000,2014-11-19 21:19:13 +0000,ff9885b8c761a229c7d418e651facddc8472156e,qpid-dispatch
DISPATCH-79,2014-12-05 13:44:06 +0000,python/qpid_dispatch_internal/management/agent.py|tests/system_tests_management.py|,2,3,3,2014-12-03 22:21:27 +0000,2014-12-05 13:42:53 +0000,4cedf919418a1f6860cc1e6d3747c1f8183f8f91,qpid-dispatch
DISPATCH-83,2014-12-10 22:18:43 +0000,include/qpid/dispatch/error.h|python/qpid_dispatch_internal/management/config.py|router/src/main.c|src/error.c|,2,3,3,2014-12-09 21:23:38 +0000,2014-12-10 22:17:29 +0000,e67db1162d0649abd0d9fbdeb20d9376b4bcbed3,qpid-dispatch
DISPATCH-82,2014-12-11 18:41:59 +0000,python/qpid_dispatch/management/client.py|python/qpid_dispatch_internal/proton_future/__init__.py|python/qpid_dispatch_internal/proton_future/handlers.py|python/qpid_dispatch_internal/proton_future/reactors.py|python/qpid_dispatch_internal/proton_future/utils.py|tests/system_test.py|tests/system_tests_management.py|tools/qdstat|,2,3,3,2014-12-08 15:23:20 +0000,2014-12-11 15:51:01 +0000,1794dd7c0780d7fade29a24aa0b2a6ea4807c252,qpid-dispatch
DISPATCH-85,2014-12-12 04:15:44 +0000,python/qpid_dispatch/management/qdrouter.json|src/alloc.c|src/alloc_private.h|src/dispatch.c|tests/system_test.py|,2,3,3,2014-12-11 05:16:59 +0000,2014-12-12 04:15:20 +0000,ef7189ee836af7245962cc76c7348777d6f19999,qpid-dispatch
DISPATCH-87,2014-12-16 15:32:16 +0000,CMakeLists.txt|python/qpid_dispatch_internal/dispatch_c.py|python/qpid_dispatch_internal/management/agent.py|python/qpid_dispatch_internal/management/config.py|router/CMakeLists.txt|router/src/config.h.in|src/CMakeLists.txt|src/dispatch.c|,2,3,3,2014-12-15 17:12:40 +0000,2014-12-16 15:29:27 +0000,de480acf8b2a2cc9a4b6cf502bc4ab7668170718,qpid-dispatch
DISPATCH-73,2014-12-16 18:19:39 +0000,src/config.h.in|,2,3,3,2014-11-12 18:32:00 +0000,2014-12-16 20:23:05 +0000,dc5bdc0bb357853019905b8b49565dea4efbe92f,qpid-dispatch
DISPATCH-59,2014-12-17 21:45:16 +0000,python/qpid_dispatch_internal/router/data.py|python/qpid_dispatch_internal/router/engine.py|python/qpid_dispatch_internal/router/link.py|python/qpid_dispatch_internal/router/mobile.py|python/qpid_dispatch_internal/router/neighbor.py|python/qpid_dispatch_internal/router/node.py|python/qpid_dispatch_internal/router/routing.py|src/router_agent.c|tests/router_engine_test.py|tools/qdstat|,2,3,3,2014-06-17 07:06:58 +0000,2014-12-17 21:44:29 +0000,9e9e470fb53f255f5c2c60e03eadc7b5b28ff570,qpid-dispatch
DISPATCH-107,2015-01-29 19:09:07 +0000,src/container.c|,3,4,4,2015-01-29 18:53:31 +0000,2015-01-29 19:08:44 +0000,693e647fb7eb4fa871b95034cf10250c026b4153,qpid-dispatch
DISPATCH-106,2015-02-05 15:32:51 +0000,src/server.c|,3,4,4,2015-01-26 13:49:58 +0000,2015-02-05 15:32:28 +0000,290155243db1dee7d50a1670215e6d4a55b36ccc,qpid-dispatch
DISPATCH-112,2015-02-12 17:40:10 +0000,python/qpid_dispatch_internal/management/agent.py|,3,4,4,2015-02-12 17:24:31 +0000,2015-02-12 17:38:26 +0000,eae3bd7f84102c7910bd93fb4394e927649bcc38,qpid-dispatch
DISPATCH-114,2015-02-20 18:37:58 +0000,src/connection_manager.c|src/server.c|,3,4,4,2015-02-17 18:30:03 +0000,2015-02-17 21:19:25 +0000,2a8fd6e164165a21c00a7d18ddbca446bec785fb,qpid-dispatch
DISPATCH-117,2015-02-19 23:14:33 +0000,src/server.c|src/server_private.h|,3,4,4,2015-02-19 21:34:50 +0000,2015-02-19 21:36:38 +0000,ce4683d57d3099ca7d1e9e17c9022cb6ea0cd85f,qpid-dispatch
DISPATCH-122,2015-03-04 20:10:26 +0000,src/python_embedded.c|src/router_node.c|tests/compose_test.c|,3,4,4,2015-03-04 19:35:52 +0000,2015-03-04 20:09:52 +0000,853e9020047366ee66e4ecc7f011f3973d128095,qpid-dispatch
DISPATCH-110,2015-03-07 02:53:05 +0000,doc/man/qdmanage.8.noopt.md.in|python/qpid_dispatch/management/client.py|python/qpid_dispatch/management/qdrouter.json|python/qpid_dispatch_internal/dispatch.py|python/qpid_dispatch_internal/management/agent.py|python/qpid_dispatch_internal/management/config.py|python/qpid_dispatch_internal/tools/command.py|src/log.c|tests/system_tests_qdmanage.py|tests/system_tests_qdstat.py|tools/qdmanage|tools/qdstat|,3,4,4,2015-02-11 18:02:21 +0000,2015-03-06 22:39:45 +0000,3a30c0fabbf6e42cdf4d556b865d1e8d15b11dff,qpid-dispatch
DISPATCH-134,2015-04-10 19:04:38 +0000,src/posix/driver.c|,4,5,5,2015-04-10 18:21:44 +0000,2015-04-10 18:29:20 +0000,1af439c7eafde1fe6bc95e17a5ce007ad2dd9f3b,qpid-dispatch
DISPATCH-133,2015-04-14 18:53:20 +0000,include/qpid/dispatch/container.h|src/container.c|src/router_node.c|src/router_private.h|,4,5,5,2015-04-09 15:33:59 +0000,2015-04-10 19:35:45 +0000,ca9d9086038680c8b154803f07b05a79ebe95dd2,qpid-dispatch
DISPATCH-143,2015-06-08 19:54:42 +0000,src/container.c|src/router_agent.c|src/router_node.c|,4,5,5,2015-06-08 15:57:46 +0000,2015-06-08 19:49:40 +0000,cbe3f042e073d78a941e761ebdb2a2752d5f4af1,qpid-dispatch
DISPATCH-146,2015-07-08 18:00:22 +0000,python/qpid_dispatch/management/client.py|python/qpid_dispatch/management/entity.py|python/qpid_dispatch/management/error.py|python/qpid_dispatch_internal/management/agent.py|python/qpid_dispatch_internal/management/qdrouter.py|tools/qdmanage|,4,5,5,2015-06-23 12:32:03 +0000,2015-07-08 17:58:57 +0000,cbb4aeaf05dde27a9a4f590579f472cb1553d878,qpid-dispatch
DISPATCH-171,2015-09-21 18:51:05 +0000,src/server.c|,5,6,6,2015-09-21 17:06:56 +0000,2015-09-21 13:10:14 -0400,b6e4890cd5879779fe735b87ab7337b66a531eb9,qpid-dispatch
DISPATCH-172,2015-10-09 20:23:11 +0000,tests/system_tests_qdstat.py|,5,6,6,2015-09-28 14:31:18 +0000,2015-09-28 10:55:06 -0400,4226b9fd7d9c28ede559670ba4e0fb2a8f12c78d,qpid-dispatch
DISPATCH-173,2015-09-28 16:44:50 +0000,src/posix/driver.c|,5,6,6,2015-09-28 15:46:53 +0000,2015-09-28 12:43:30 -0400,7b1c3d3c802f74b5d5065106215679af31057a7f,qpid-dispatch
DISPATCH-174,2015-09-29 15:21:11 +0000,src/container.c|src/router_node.c|,5,6,6,2015-09-29 14:25:23 +0000,2015-09-29 11:12:03 -0400,6406f040b5f121714eb93a3d6fbf90f2ff3d8a07,qpid-dispatch
DISPATCH-183,2015-10-22 20:58:43 +0000,python/qpid_dispatch/management/qdrouter.json|python/qpid_dispatch_internal/management/agent.py|python/qpid_dispatch_internal/management/schema.py|,5,6,6,2015-10-15 19:01:49 +0000,2015-10-22 16:49:47 -0400,e5135fc8f889cb549de10334fe1fc9911b85d445,qpid-dispatch
DISPATCH-196,2015-11-25 13:02:13 +0000,python/qpid_dispatch/management/qdrouter.json|,5,6,6,2015-11-25 10:26:12 +0000,2015-11-25 07:57:52 -0500,9cf04d3f52c6f52518b2a8a7643af62b3a0d9984,qpid-dispatch
DISPATCH-198,2015-12-01 17:36:37 +0000,src/message.c|,5,6,6,2015-12-01 17:15:28 +0000,2015-12-01 12:34:30 -0500,3d73a89c143e5406b575b17e6e92cd65eddcfc0c,qpid-dispatch
DISPATCH-43,2016-03-18 23:08:51 +0000,include/qpid/dispatch/router_core.h|python/qpid_dispatch_internal/router/engine.py|src/python_embedded.c|src/router_core/router_core_private.h|src/router_core/transfer.c|,2,2,6,2014-04-14 20:25:48 +0000,2015-12-22 16:19:25 -0500,40b4440159a622feff22579f78f8183f249fa36f,qpid-dispatch
DISPATCH-219,2016-02-18 18:38:29 +0000,tests/CMakeLists.txt|tests/sasl_configs/qdrouterd.sasldb|tests/sasl_configs/tests-mech-EXTERNAL.conf|tests/sasl_configs/tests-mech-NOEXTERNAL.conf|tests/sasl_configs/tests-mech-PLAIN.conf.in|tests/system_test.py|tests/system_tests_qdstat.py|tests/system_tests_sasl_plain.py|,5,6,6,2016-02-17 19:26:30 +0000,2016-02-17 16:05:32 -0500,4c35796c4c514f92164b47a7dbf85739dd8a5a7c,qpid-dispatch
DISPATCH-207,2016-05-10 17:51:49 +0000,src/message.c|,5,6,6,2016-01-26 20:49:42 +0000,2016-02-23 08:33:21 -0500,57b2d6029e13d7676490810deae8a8c409fb35d8,qpid-dispatch
DISPATCH-225,2016-03-03 18:00:17 +0000,include/qpid/dispatch/error.h|src/log.c|tests/system_tests_qdmanage.py|,5,6,6,2016-02-28 20:27:20 +0000,2016-03-03 10:31:45 -0500,abd6b5ce27e222e068543ec42478db02d0fe5cd5,qpid-dispatch
DISPATCH-226,2016-03-04 14:35:49 +0000,python/qpid_dispatch/management/entity.py|python/qpid_dispatch_internal/management/schema.py|tests/system_tests_qdmanage.py|,5,6,6,2016-02-28 23:19:22 +0000,2016-03-09 17:16:32 -0500,6b5067e7ec6d37694175013e6776cb9630ba7b64,qpid-dispatch
DISPATCH-231,2016-03-18 23:10:49 +0000,src/router_core/connections.c|,5,6,6,2016-03-03 15:22:14 +0000,2016-03-18 16:38:12 -0400,51d0793e2ff43037f8b561194ad4c13e3c7a8608,qpid-dispatch
DISPATCH-127,2016-03-31 17:00:40 +0000,include/qpid/dispatch/amqp.h|include/qpid/dispatch/message.h|include/qpid/dispatch/router_core.h|src/amqp.c|src/message.c|src/message_private.h|src/router_core/connections.c|src/router_node.c|tests/system_tests_link_routes.py|,3,4,6,2015-03-16 19:51:05 +0000,2016-03-31 12:59:14 -0400,9d08d0a678d71c275ab0c05d4f28b1549630e132,qpid-dispatch
DISPATCH-235,2016-04-01 16:01:12 +0000,include/qpid/dispatch/container.h|src/container.c|src/router_node.c|tests/system_tests_one_router.py|,5,6,6,2016-03-08 20:44:19 +0000,2016-04-01 11:42:30 -0400,20447d5782ea12281b8e366d7d715f58fba2ab21,qpid-dispatch
DISPATCH-177,2016-08-17 17:54:23 +0000,src/router_core/connections.c|src/router_core/forwarder.c|,5,6,6,2015-09-30 14:08:49 +0000,2016-04-02 11:53:04 -0400,3f2905fe376f70c4923bf03093b7a81ca44aa8b5,qpid-dispatch
DISPATCH-237,2016-04-14 12:44:57 +0000,tests/system_tests_link_routes.py|,5,6,6,2016-03-14 14:17:09 +0000,2016-04-15 10:04:52 -0400,e43f475f4b2cceea9b43a752c53e7a7937534f27,qpid-dispatch
DISPATCH-289,2016-04-22 13:16:01 +0000,tests/server_test.c|tests/system_test.py|,5,6,6,2016-04-21 14:43:58 +0000,2016-04-22 09:14:16 -0400,8f4f174748ad1d8ef62734aa58bbcccc674728f5,qpid-dispatch
DISPATCH-208,2016-04-22 21:56:06 +0000,src/router_core/connections.c|src/router_core/forwarder.c|src/router_core/route_tables.c|src/router_core/router_core_private.h|,5,6,6,2016-01-26 22:05:41 +0000,2016-04-22 17:51:38 -0400,9b056fcad8fb7a5b23afa27301f55c6c509ffe4d,qpid-dispatch
DISPATCH-238,2016-05-04 14:40:18 +0000,doc/man/qdstat.rst|tools/qdstat|,5,6,6,2016-03-14 15:56:11 +0000,2016-05-04 10:39:41 -0400,3521b559530187a04f582f43f7dbf79186a37a5c,qpid-dispatch
DISPATCH-290,2016-05-10 20:42:33 +0000,src/error.c|,5,6,6,2016-04-21 17:11:15 +0000,2016-05-12 08:41:52 -0400,3f5c33211b2786c8f68d8ba10b7870d05296f7d5,qpid-dispatch
DISPATCH-155,2016-05-17 20:55:32 +0000,python/qpid_dispatch_internal/management/agent.py|,4,5,6,2015-08-19 15:53:22 +0000,2016-05-31 14:05:44 -0400,07acd8e1ba0eab421f1be7528891d49c73af2975,qpid-dispatch
DISPATCH-389,2016-06-14 21:00:31 +0000,python/qpid_dispatch/management/qdrouter.json|,6,7,7,2016-06-14 14:03:56 +0000,2016-06-14 16:59:19 -0400,c66ba93ccca3c4a3b6b37c25698503bd47d488f8,qpid-dispatch
DISPATCH-363,2016-06-15 17:50:43 +0000,doc/man/qdrouterd_conf_man.py|,6,6,7,2016-06-07 08:21:54 +0000,2016-06-15 16:01:11 -0400,0638cf52ed4173b350546e8dc5a5ffae2c2013cb,qpid-dispatch
DISPATCH-392,2016-06-17 14:16:07 +0000,console/hawtio/src/main/webapp/plugin/js/qdrService.js|,6,7,7,2016-06-16 14:02:25 +0000,2016-06-16 10:15:03 -0400,0a1ae2b935002e19bbc4e29487e37f439e0203d8,qpid-dispatch
DISPATCH-396,2016-06-16 18:28:35 +0000,doc/man/qdrouterd_conf_man.py|python/qpid_dispatch/management/qdrouter.json|,6,7,7,2016-06-16 14:59:16 +0000,2016-06-16 14:20:44 -0400,439d77891737505edefb2b54716820c144fdc4a7,qpid-dispatch
DISPATCH-394,2016-06-17 14:17:11 +0000,console/hawtio/src/main/webapp/plugin/css/dispatch.css|console/hawtio/src/main/webapp/plugin/html/qdrList.html|console/hawtio/src/main/webapp/plugin/js/qdrList.js|,6,7,7,2016-06-16 14:14:55 +0000,2016-06-17 10:11:55 -0400,0afd215ddd597ef71e8305b652f1c505ee8d28ac,qpid-dispatch
DISPATCH-393,2016-06-17 15:58:51 +0000,console/hawtio/src/main/webapp/plugin/js/dispatchPlugin.js|console/hawtio/src/main/webapp/plugin/js/qdrTopology.js|,6,7,7,2016-06-16 14:13:02 +0000,2016-06-17 11:52:42 -0400,c7ff8612f89e8df950d0d62f3a9b63fec7fd6343,qpid-dispatch
DISPATCH-397,2016-06-17 17:33:18 +0000,console/hawtio/src/main/webapp/plugin/js/qdrList.js|,6,7,7,2016-06-17 09:58:54 +0000,2016-06-17 13:32:21 -0400,cf2cacd9875e8cc248401d18c9a896d29167c802,qpid-dispatch
DISPATCH-354,2016-06-17 19:12:08 +0000,tools/qdstat|,6,6,7,2016-05-27 15:17:39 +0000,2016-06-17 15:10:27 -0400,59f84dd5e31e90d5f954833807e84d9138ad5e13,qpid-dispatch
DISPATCH-402,2016-06-22 15:52:28 +0000,console/hawtio/README.md|doc/book/auto_links.rst|doc/book/link_routing.rst|doc/man/qdrouterd_conf_man.py|python/qpid_dispatch_internal/management/config.py|python/qpid_dispatch_internal/management/schema.py|tests/config-2/A-ssl.conf.in|tests/config-2/B-ssl.conf.in|tests/management/entity.py|tests/management/qdrouter.py|tests/system_tests_broker.py|tests/system_tests_one_router.py|tests/system_tests_qdmanage.py|tests/system_tests_qdstat.py|tests/system_tests_sasl_plain.py|tests/system_tests_two_routers.py|tests/system_tests_user_id.py|,6,7,7,2016-06-22 15:21:39 +0000,2016-06-22 11:45:13 -0400,b5ca35fc770262850cec2b7bd134a667fd713fff,qpid-dispatch
DISPATCH-391,2016-06-16 17:43:33 +0000,doc/man/qdrouterd.conf.5.py|,6,7,7,2016-06-16 07:07:45 +0000,2016-06-23 17:15:20 -0400,fd7b63831eb85f55b797734e46b361493e380a13,qpid-dispatch
DISPATCH-406,2016-06-25 15:20:25 +0000,console/hawtio/src/main/webapp/plugin/js/qdrChartService.js|,6,7,7,2016-06-25 13:29:34 +0000,2016-06-25 11:16:31 -0400,7e6a9156b8a78be105a35afb556bb7fa1533317e,qpid-dispatch
DISPATCH-443,2016-07-07 18:51:20 +0000,tests/system_tests_link_routes.py|,6,7,7,2016-07-06 20:27:29 +0000,2016-07-07 15:47:09 -0400,16b44b7738d01f090771b34e2493fc65e32f5d94,qpid-dispatch
DISPATCH-401,2016-07-11 19:10:41 +0000,python/qpid_dispatch_internal/tools/command.py|tests/system_tests_qdmanage.py|tests/system_tests_qdstat.py|tests/system_tests_sasl_plain.py|,6,7,7,2016-06-22 13:31:40 +0000,2016-07-11 12:46:49 -0400,d7dc541a4ed325548571b7aed4bbc8175dd3bf4b,qpid-dispatch
DISPATCH-444,2016-07-11 19:02:23 +0000,python/qpid_dispatch_internal/management/schema.py|,6,7,7,2016-07-08 16:44:22 +0000,2016-07-11 14:57:41 -0400,934fb9a358f6cffd24f3c67b422e30fccfacd89d,qpid-dispatch
DISPATCH-445,2016-07-12 03:51:23 +0000,console/hawtio/src/main/webapp/plugin/js/qdrList.js|console/hawtio/src/main/webapp/plugin/js/qdrService.js|,6,7,7,2016-07-12 03:49:39 +0000,2016-07-11 23:50:24 -0400,b0e63ca71b41e5ef3ab15c7acb76f6725dd15086,qpid-dispatch
DISPATCH-455,2016-07-22 15:49:18 +0000,console/hawtio/src/main/webapp/plugin/js/dispatchPlugin.js|console/hawtio/src/main/webapp/plugin/js/qdrService.js|console/hawtio/src/main/webapp/plugin/lib/rhea-min.js|,6,7,7,2016-07-22 15:41:50 +0000,2016-07-22 11:47:50 -0400,52b2d8d468b20fc7e84992cbb541795dfe722265,qpid-dispatch
DISPATCH-456,2016-07-22 18:00:29 +0000,console/hawtio/src/main/webapp/plugin/js/qdrList.js|console/hawtio/src/main/webapp/plugin/js/qdrOverview.js|console/hawtio/src/main/webapp/plugin/js/qdrSchema.js|console/hawtio/src/main/webapp/plugin/js/qdrService.js|console/hawtio/src/main/webapp/plugin/js/qdrSettings.js|console/hawtio/src/main/webapp/plugin/js/qdrTopology.js|,6,7,7,2016-07-22 17:51:56 +0000,2016-07-22 13:59:11 -0400,6e559d7798aed114a9447e63609617d99d6c5cd1,qpid-dispatch
DISPATCH-460,2016-07-25 16:38:01 +0000,src/router_core/connections.c|src/router_core/terminus.c|tests/system_tests_link_routes.py|,6,7,7,2016-07-25 13:07:18 +0000,2016-07-25 12:20:15 -0400,7968e159e8ed45707a7b0bd6709d12ce9956c6e9,qpid-dispatch
DISPATCH-458,2016-07-25 18:50:40 +0000,src/router_core/connections.c|src/router_core/router_core_private.h|src/router_core/transfer.c|tests/system_tests_one_router.py|,6,7,7,2016-07-22 22:01:01 +0000,2016-07-25 14:49:00 -0400,4c12a62b964ab27b14ef41dc917d53a43e8df0fb,qpid-dispatch
DISPATCH-454,2016-07-25 23:08:13 +0000,console/hawtio/src/main/webapp/plugin/js/qdrTopology.js|,6,7,7,2016-07-22 13:02:08 +0000,2016-07-25 19:07:30 -0400,89bdcb58f139583a14510de61df6768a688801ac,qpid-dispatch
DISPATCH-457,2016-07-28 18:49:57 +0000,console/hawtio/src/main/webapp/plugin/css/plugin.css|console/hawtio/src/main/webapp/plugin/js/dispatchPlugin.js|console/hawtio/src/main/webapp/plugin/js/qdrList.js|console/hawtio/src/main/webapp/plugin/js/qdrOverview.js|console/hawtio/src/main/webapp/plugin/js/qdrService.js|,6,7,7,2016-07-22 18:05:04 +0000,2016-07-28 14:48:52 -0400,de617bfc4109621e9dc16712bb2c2e6d31cb1316,qpid-dispatch
DISPATCH-449,2016-08-04 17:08:45 +0000,src/container.c|src/router_core/connections.c|src/router_node.c|tests/system_tests_link_routes.py|,6,7,7,2016-07-19 18:54:51 +0000,2016-08-04 13:08:00 -0400,cc8f70a6caf5c2177ff325078c766af09144549d,qpid-dispatch
DISPATCH-373,2016-08-22 14:49:33 +0000,python/qpid_dispatch_internal/management/agent.py|src/router_core/agent_config_address.c|src/router_core/agent_config_auto_link.c|src/router_core/agent_config_link_route.c|src/router_core/router_core.c|src/router_core/router_core_private.h|tests/system_tests_link_routes.py|,6,6,7,2016-06-09 07:40:24 +0000,2016-08-04 14:32:35 -0400,a2612ca4fc5296ed7144ac8d5045192cc121eb77,qpid-dispatch
DISPATCH-336,2016-08-17 17:42:01 +0000,src/router_core/forwarder.c|src/router_core/router_core_private.h|src/router_core/transfer.c|tests/system_tests_drain_support.py|tests/system_tests_one_router.py|,6,6,8,2016-05-13 18:47:17 +0000,2016-08-17 13:38:10 -0400,c9d14137d44f6bec809ea818f4e9f4082723c534,qpid-dispatch
DISPATCH-484,2016-08-29 15:09:22 +0000,console/stand-alone/plugin/css/plugin.css|console/stand-alone/plugin/js/qdrList.js|console/stand-alone/plugin/js/qdrOverview.js|console/stand-alone/plugin/js/qdrService.js|,7,8,8,2016-08-29 15:07:46 +0000,2016-08-29 11:08:42 -0400,3c2765ab715ee3c01d1bd1eca39b7c151231b56a,qpid-dispatch
DISPATCH-405,2016-09-09 15:30:59 +0000,console/stand-alone/plugin/js/qdrChartService.js|,6,7,8,2016-06-25 13:25:14 +0000,2016-08-29 12:10:54 -0400,4671aa0b45dd7e74a15bd88a813b5f1eb2fb3e2c,qpid-dispatch
DISPATCH-485,2016-08-29 20:09:49 +0000,console/hawtio/src/main/webapp/plugin/js/dispatchPlugin.js|console/stand-alone/plugin/css/plugin.css|console/stand-alone/plugin/html/qdrOverview.html|console/stand-alone/plugin/js/qdrList.js|console/stand-alone/plugin/js/qdrOverview.js|console/stand-alone/plugin/js/qdrService.js|,7,8,8,2016-08-29 20:05:04 +0000,2016-08-29 16:09:04 -0400,87cbf482f7521e0040408ff27c762b2d62bb93c2,qpid-dispatch
DISPATCH-486,2016-08-29 20:33:32 +0000,console/hawtio/src/main/webapp/plugin/html/tmplListTree.html|console/stand-alone/plugin/css/plugin.css|console/stand-alone/plugin/html/tmplListTree.html|console/stand-alone/plugin/js/qdrService.js|,7,8,8,2016-08-29 20:31:18 +0000,2016-08-29 16:32:37 -0400,80c0eed51bd32f3777196597dd37e0ae17410daf,qpid-dispatch
DISPATCH-487,2016-08-30 00:08:13 +0000,console/hawtio/src/main/webapp/plugin/js/dispatchPlugin.js|console/stand-alone/plugin/html/qdrConnect.html|console/stand-alone/plugin/js/qdrOverview.js|,7,8,8,2016-08-30 00:05:58 +0000,2016-08-29 20:06:57 -0400,9683f5a7b99beb012aa8bfde8d7f71031f7c092d,qpid-dispatch
DISPATCH-488,2016-08-30 12:37:32 +0000,console/stand-alone/index.html|console/stand-alone/plugin/js/dispatchPlugin.js|console/stand-alone/plugin/js/qdrList.js|console/stand-alone/plugin/js/qdrOverview.js|,7,8,8,2016-08-30 12:35:14 +0000,2016-08-30 08:36:33 -0400,ec71b2edfbaff83a382ea8d3fc0d7246fd85c8e3,qpid-dispatch
DISPATCH-489,2016-08-30 13:52:39 +0000,console/stand-alone/plugin/html/qdrList.html|console/stand-alone/plugin/js/qdrList.js|console/stand-alone/plugin/js/qdrService.js|,7,8,8,2016-08-30 13:48:14 +0000,2016-08-30 09:51:30 -0400,a921025439450b9b894c70883dc3e22fb609d926,qpid-dispatch
DISPATCH-491,2016-08-31 16:52:11 +0000,python/qpid_dispatch_internal/router/hello.py|tests/router_engine_test.py|,7,8,8,2016-08-31 16:39:55 +0000,2016-08-31 12:50:22 -0400,19e85bce187b43baab833f266902df4f38af8947,qpid-dispatch
DISPATCH-494,2016-09-02 15:20:22 +0000,python/qpid_dispatch/management/qdrouter.json|python/qpid_dispatch_internal/management/agent.py|python/qpid_dispatch_internal/policy/policy_local.py|python/qpid_dispatch_internal/policy/policy_manager.py|tests/system_tests_policy.py|,7,8,8,2016-09-01 16:06:19 +0000,2016-09-02 10:12:08 -0400,d356593fef5935edda538734f5ccb48c2bb37764,qpid-dispatch
DISPATCH-496,2016-09-02 21:17:01 +0000,src/router_core/connections.c|,7,8,8,2016-09-02 20:23:45 +0000,2016-09-02 16:24:37 -0400,41b740761adf7fb24dd0de8a5aa0bef604240d5c,qpid-dispatch
DISPATCH-453,2016-09-09 15:29:27 +0000,console/stand-alone/plugin/js/qdrTopology.js|,6,7,8,2016-07-22 02:43:51 +0000,2016-09-09 11:28:31 -0400,d441abbdeaafb8c6b06e0bf18d77111419b975f2,qpid-dispatch
DISPATCH-507,2016-09-12 15:59:32 +0000,console/hawtio/src/main/webapp/plugin/js/dispatchPlugin.js|,7,8,8,2016-09-12 15:36:37 +0000,2016-09-12 11:58:28 -0400,f388772d93bf7e5ab1eb7454926f68236ee75b3d,qpid-dispatch
DISPATCH-495,2016-09-02 21:17:39 +0000,tests/system_tests_autolinks.py|,7,8,8,2016-09-02 16:38:26 +0000,2016-09-14 19:37:04 -0400,87bc8fce5a1ba2b8e1197bceeb195f3b5721958e,qpid-dispatch
DISPATCH-505,2016-09-16 13:23:32 +0000,src/router_core/transfer.c|,7,8,8,2016-09-08 15:12:35 +0000,2016-09-16 09:15:22 -0400,521e0cafe9eb59d76819e4aa14cd40fbb596ea0f,qpid-dispatch
DISPATCH-498,2016-09-16 14:40:19 +0000,src/connection_manager.c|,7,8,8,2016-09-06 17:21:59 +0000,2016-09-16 10:32:56 -0400,1ee98d4950b18f10ebed623c1a4f711b0ca6f8a0,qpid-dispatch
DISPATCH-508,2016-09-21 19:45:39 +0000,tests/system_tests_broker.py|tests/system_tests_deprecated.py|tests/system_tests_link_routes.py|tests/system_tests_management.py|tests/system_tests_protocol_family.py|tests/system_tests_sasl_plain.py|,7,8,8,2016-09-12 19:28:15 +0000,2016-09-21 15:43:56 -0400,118518516e143815767183adbb8ef25755b2488b,qpid-dispatch
DISPATCH-523,2016-09-23 21:13:34 +0000,src/router_core/transfer.c|,7,8,8,2016-09-23 20:44:36 +0000,2016-09-23 17:11:36 -0400,0e2a34abd3387f95c53325ddc92cf781070b4330,qpid-dispatch
DISPATCH-524,2016-09-27 18:18:39 +0000,src/posix/driver.c|,7,8,8,2016-09-27 18:03:08 +0000,2016-09-27 14:12:00 -0400,5bf550fb294cf60f77537928c5c7c07b1679e125,qpid-dispatch
DISPATCH-160,2016-09-28 19:54:55 +0000,include/qpid/dispatch/amqp.h|include/qpid/dispatch/iterator.h|src/amqp.c|src/iterator.c|src/message.c|src/parse.c|tests/message_test.c|tests/system_tests_one_router.py|tests/system_tests_two_routers.py|,4,5,8,2015-09-01 17:49:47 +0000,2016-09-28 15:52:21 -0400,0545502f8670a710447c4f2a9e8d5c72539273e3,qpid-dispatch
DISPATCH-8,2016-09-20 19:51:41 +0000,src/router_node.c|,1,2,8,2014-01-30 18:23:38 +0000,2016-09-30 09:28:45 -0400,7db71b8176de3ca1a698fcfea46785bc8b01bdfa,qpid-dispatch
DISPATCH-224,2016-10-04 17:35:06 +0000,etc/qdrouterd.conf|,5,6,8,2016-02-25 15:46:15 +0000,2016-10-04 13:27:22 -0400,1d34face7e986df206fc8958f7177199c9282850,qpid-dispatch
DISPATCH-451,2016-10-10 20:36:42 +0000,include/qpid/dispatch/amqp.h|include/qpid/dispatch/server.h|python/qpid_dispatch/management/qdrouter.json|python/qpid_dispatch/management/qdrouter.policyRuleset.settings.txt|src/connection_manager.c|src/container.c|src/policy.c|src/server.c|tests/CMakeLists.txt|tests/system_tests_protocol_settings.py|,6,7,8,2016-07-21 21:13:23 +0000,2016-10-10 16:14:37 -0400,acbae29e5888d75564702fa435ffdd269e094e8e,qpid-dispatch
DISPATCH-504,2016-10-12 20:31:04 +0000,python/qpid_dispatch_internal/display_name/display_name.py|,7,8,8,2016-09-08 14:57:43 +0000,2016-10-12 16:30:21 -0400,ce98384ecfa89899fd9f27dd00cc6953f62e454d,qpid-dispatch
DISPATCH-528,2016-10-13 20:30:06 +0000,src/policy.c|,7,8,8,2016-10-13 20:12:11 +0000,2016-10-13 16:27:25 -0400,d84356fe394bc375073d8bde0d935262906e97be,qpid-dispatch
DISPATCH-530,2016-10-18 13:53:22 +0000,console/stand-alone/plugin/lib/rhea-min.js|,7,8,8,2016-10-18 13:41:11 +0000,2016-10-18 09:52:13 -0400,979030344ea1b3efcd5faa2ec8a519f9737ce007,qpid-dispatch
DISPATCH-532,2016-10-19 21:32:37 +0000,doc/CMakeLists.txt|,7,8,8,2016-10-19 17:34:16 +0000,2016-10-19 13:34:58 -0400,176e52c0b3d7751e757f9dd1654dbbe09bbaf791,qpid-dispatch
DISPATCH-352,2017-03-13 17:13:06 +0000,include/qpid/dispatch/dispatch.h|router/src/main.c|src/dispatch.c|tests/config-0-empty/qdrouterd-empty.conf|tests/run_unit_tests.c|,6,6,8,2016-05-26 11:37:05 +0000,2016-11-03 23:28:21 -0230,67c8b70c7c18f59f148dca384c7a7d096201238c,qpid-dispatch
DISPATCH-573,2016-11-23 15:41:55 +0000,include/qpid/dispatch/router_core.h|src/connection_manager.c|src/dispatch.c|src/dispatch_private.h|src/hash.c|src/router_config.c|src/router_core/agent.c|src/router_core/agent_config_address.c|src/router_core/connections.c|src/router_core/management_agent.c|src/router_core/route_tables.c|src/router_core/router_core.c|src/router_core/router_core_private.h|src/trace_mask.c|,8,9,9,2016-11-23 15:36:24 +0000,2016-11-23 10:37:10 -0500,fbf6cfca44acc06b4aa2be958825a55b0bc1943c,qpid-dispatch
DISPATCH-581,2016-11-30 15:53:24 +0000,include/qpid/dispatch/container.h|include/qpid/dispatch/router_core.h|src/container.c|src/router_core/connections.c|src/router_core/route_control.c|src/router_core/router_core_private.h|src/router_node.c|tests/system_tests_link_routes.py|,8,9,9,2016-11-29 20:32:34 +0000,2016-11-30 10:50:37 -0500,f65cc10b9da9914928189b769d1e832cf756c5ee,qpid-dispatch
DISPATCH-506,2017-03-31 14:06:31 +0000,src/container.c|src/router_core/connections.c|,7,8,9,2016-09-12 10:24:59 +0000,2016-11-30 16:20:32 -0500,3f4bc69b580665d7f763737966289d76c6d379ef,qpid-dispatch
DISPATCH-566,2016-12-07 14:10:03 +0000,src/message.c|tests/system_tests_link_routes.py|,8,9,9,2016-11-15 21:08:17 +0000,2016-12-07 09:08:27 -0500,4ae3c161d2d4a903c170554251ede3d915493a5a,qpid-dispatch
DISPATCH-556,2016-12-08 14:24:56 +0000,tests/system_tests_link_routes.py|tests/system_tests_qdstat.py|tools/qdstat|,8,8,9,2016-11-02 20:11:10 +0000,2016-12-08 09:12:32 -0500,07eb9c404bd3375c95993c0ddb7cec4bf1d33dd9,qpid-dispatch
DISPATCH-574,2016-11-23 15:58:30 +0000,doc/CMakeLists.txt|,8,9,9,2016-11-23 15:53:58 +0000,2016-12-09 15:54:36 -0500,e7bcfea402852524ad4ef3c50795fb7cbecebf67,qpid-dispatch
DISPATCH-582,2016-12-02 14:17:41 +0000,src/router_core/connections.c|,8,9,9,2016-11-30 01:08:33 +0000,2016-12-14 09:56:40 -0500,611e7d6d078d1078d8e53b711285539506e536ea,qpid-dispatch
DISPATCH-594,2016-12-15 20:19:51 +0000,src/log.c|,8,9,9,2016-12-13 15:50:39 +0000,2016-12-15 15:18:54 -0500,85372a6aee200e7db59dba53301fa8cfca045008,qpid-dispatch
DISPATCH-577,2017-01-05 21:02:57 +0000,src/posix/driver.c|,8,9,9,2016-11-28 21:05:30 +0000,2016-12-20 16:07:00 -0500,b325f6bea366d029bf6366a0aa8ad69f82ce2b17,qpid-dispatch
DISPATCH-598,2016-12-21 13:22:21 +0000,src/container.c|,8,9,9,2016-12-15 21:20:19 +0000,2016-12-21 08:19:46 -0500,be75d9cee1c839e3793b2f39d81dce81d2cc4e66,qpid-dispatch
DISPATCH-557,2017-01-03 20:37:35 +0000,include/qpid/dispatch/router_core.h|src/router_core/agent_connection.c|src/router_core/agent_connection.h|src/router_core/connections.c|src/router_core/router_core_private.h|src/router_node.c|,8,8,9,2016-11-02 20:14:16 +0000,2017-01-03 10:25:27 -0500,1a3775066d5a13f1a37da55148718bd0ae5070ef,qpid-dispatch
DISPATCH-55,2017-01-05 18:59:34 +0000,src/connection_manager.c|,2,3,9,2014-05-16 14:16:44 +0000,2017-01-05 13:52:56 -0500,a88046c3bbe78d259c644f87818a3e7f727a2429,qpid-dispatch
DISPATCH-603,2017-01-05 21:26:08 +0000,include/qpid/dispatch/router_core.h|src/router_core/connections.c|src/router_core/forwarder.c|src/router_core/router_core_private.h|src/router_core/transfer.c|src/router_node.c|,8,9,9,2017-01-04 19:10:59 +0000,2017-01-05 16:23:42 -0500,4e3843dc3b2320382e7ede869391ae51070f85ca,qpid-dispatch
DISPATCH-596,2016-12-19 21:11:59 +0000,src/router_core/connections.c|src/router_core/forwarder.c|src/router_node.c|,8,9,9,2016-12-14 12:57:41 +0000,2017-01-06 14:56:21 -0500,ba6aacb9523fe9479dbd7a544b419d96c34f499b,qpid-dispatch
DISPATCH-610,2017-01-20 03:29:35 +0000,src/router_core/connections.c|src/router_core/router_core_private.h|,8,9,9,2017-01-16 20:46:39 +0000,2017-01-19 22:27:39 -0500,2a7745df95b406d5c0d3592af7b2341c0d7b7d23,qpid-dispatch
DISPATCH-625,2017-06-19 17:58:36 +0000,router/src/main.c|src/dispatch.c|src/error.c|src/python_embedded.c|,8,9,9,2017-01-25 16:52:52 +0000,2017-01-26 00:32:54 -0500,610739ff529adc295892390294b6cfdb87f84602,qpid-dispatch
DISPATCH-216,2017-02-01 15:46:23 +0000,tests/router_policy_test.py|tests/system_test.py|tests/system_tests_protocol_family.py|,5,6,9,2016-02-11 21:47:50 +0000,2017-02-01 10:43:30 -0500,0a60abbf6b06048e1ac7a71a48da82145fa77036,qpid-dispatch
DISPATCH-608,2017-02-07 20:12:17 +0000,src/container.c|,8,9,9,2017-01-11 22:35:23 +0000,2017-02-07 15:05:28 -0500,4cb6e737a8df4d94079fbf94bb4385897c567168,qpid-dispatch
DISPATCH-634,2017-02-16 19:48:14 +0000,src/router_core/connections.c|src/router_core/terminus.c|tests/CMakeLists.txt|tests/system_tests_dynamic_terminus.py|tests/system_tests_link_routes.py|,8,9,9,2017-02-15 19:23:04 +0000,2017-02-16 14:33:18 -0500,3c8f95c8dd21c1a9274e43d4b2c3e1bf43a62461,qpid-dispatch
DISPATCH-633,2017-02-16 20:22:16 +0000,src/python_embedded.c|src/router_core/management_agent.c|,8,9,9,2017-02-15 15:32:29 +0000,2017-02-16 15:11:39 -0500,1c6d489a2f9a936e3c32b9da88ee214a28ddedcb,qpid-dispatch
DISPATCH-643,2017-02-27 22:19:58 +0000,src/container.c|,8,9,9,2017-02-27 21:22:17 +0000,2017-02-27 17:13:44 -0500,178612056f7fc241feee01298c1ea17eeb4180fb,qpid-dispatch
DISPATCH-644,2017-02-28 14:29:55 +0000,router/src/main.c|,8,9,9,2017-02-28 11:04:14 +0000,2017-02-28 12:27:46 +0100,67bf5013fbcd16c5f5f335dfc16f442745890356,qpid-dispatch
DISPATCH-623,2017-03-01 14:32:01 +0000,tests/field_test.c|,8,9,9,2017-01-23 15:51:05 +0000,2017-03-01 09:30:41 -0500,551ec4cda67424142b4f089f7b611da02f631de4,qpid-dispatch
DISPATCH-642,2017-03-01 16:30:18 +0000,console/stand-alone/plugin/css/plugin.css|console/stand-alone/plugin/js/qdrService.js|console/stand-alone/plugin/js/qdrTopology.js|,8,9,9,2017-02-27 18:51:33 +0000,2017-03-01 11:13:25 -0500,144520e818b6d7adff089b65c35100b75fb91811,qpid-dispatch
DISPATCH-620,2017-03-01 16:50:37 +0000,src/CMakeLists.txt|,8,9,9,2017-01-23 15:50:06 +0000,2017-03-01 11:49:44 -0500,9dc17c6974965d82cfcac5b6d0cbdd369785ff65,qpid-dispatch
DISPATCH-640,2017-03-01 18:08:53 +0000,tests/system_tests_qdmanage.py|,8,9,9,2017-02-23 17:34:30 +0000,2017-03-01 13:57:47 -0500,7a8c2b9d4ffa7e337192d03331718f2d5e2925cd,qpid-dispatch
DISPATCH-309,2016-05-06 18:00:51 +0000,src/server.c|,6,6,9,2016-05-05 20:21:48 +0000,2017-03-01 13:59:59 -0500,798878ab40c13ffd45208824c6a26cf70e84efe9,qpid-dispatch
DISPATCH-615,2017-03-03 21:21:37 +0000,src/entity.c|,8,9,9,2017-01-23 15:49:28 +0000,2017-03-03 16:20:03 -0500,a333a5039eb3a709e279f7fda6a73c2a358aa715,qpid-dispatch
DISPATCH-626,2017-03-03 21:44:29 +0000,python/qpid_dispatch_internal/policy/policy_util.py|,8,9,9,2017-01-26 08:14:42 +0000,2017-03-03 16:43:23 -0500,037904579d47b742c9017c4adfa07fa4e36d019c,qpid-dispatch
DISPATCH-621,2017-03-03 22:08:32 +0000,src/router_core/connections.c|src/router_core/forwarder.c|src/router_core/router_core.c|src/router_core/terminus.c|,8,9,9,2017-01-23 15:50:11 +0000,2017-03-03 17:07:45 -0500,468b38d2882d2c56fadef3eec12d16bbb9a8cb31,qpid-dispatch
DISPATCH-646,2017-03-13 13:09:30 +0000,include/qpid/dispatch/router_core.h|src/router_core/connections.c|src/router_core/forwarder.c|src/router_core/router_core.c|src/router_core/router_core_private.h|src/router_core/transfer.c|src/router_node.c|tests/system_tests_drain_support.py|,8,9,9,2017-03-03 18:59:18 +0000,2017-03-13 09:04:21 -0400,40b52d9fe21d03230914fbc4576cec8f2130ded6,qpid-dispatch
DISPATCH-631,2017-03-13 15:04:03 +0000,tests/system_tests_deprecated.py|tests/system_tests_qdstat.py|tests/system_tests_sasl_plain.py|,8,9,9,2017-02-08 14:14:50 +0000,2017-03-13 11:02:51 -0400,d72f2278f050d4aaaa2fa0163b72d8a4831eab60,qpid-dispatch
DISPATCH-611,2017-03-13 15:19:33 +0000,python/qpid_dispatch/management/qdrouter.json|src/dispatch.c|,8,9,9,2017-01-20 15:07:07 +0000,2017-03-13 11:04:26 -0400,1a59f1fcab5a5e83cfb33eac9c8c273c9edd32c8,qpid-dispatch
DISPATCH-612,2017-03-13 18:24:02 +0000,CMakeLists.txt|,8,9,9,2017-01-23 15:48:25 +0000,2017-03-13 14:23:36 -0400,94ac71cd42aaa2bafe50e9b5effdad8cdac9eaca,qpid-dispatch
DISPATCH-622,2017-03-13 19:35:06 +0000,CMakeLists.txt|,8,9,9,2017-01-23 15:50:56 +0000,2017-03-13 15:33:35 -0400,81eee449441012b1771abd8c2a048c52b532e349,qpid-dispatch
DISPATCH-728,2017-03-17 15:18:38 +0000,src/posix/driver.c|,8,9,9,2017-03-15 17:57:30 +0000,2017-03-17 11:16:45 -0400,9ee07b1d65c30a1a5f029d22deb4fa1bf76fa226,qpid-dispatch
DISPATCH-357,2017-03-22 13:04:56 +0000,include/qpid/dispatch/router_core.h|src/router_core/agent_link.c|src/router_core/connections.c|src/router_core/forwarder.c|src/router_core/router_core_private.h|src/router_node.c|tests/system_tests_link_routes.py|,6,6,9,2016-05-31 17:52:38 +0000,2017-03-22 08:56:13 -0400,adc3ca6a4b98572a8f18f99fe75349ef0b84fb71,qpid-dispatch
DISPATCH-616,2017-03-22 18:23:36 +0000,CMakeLists.txt|include/qpid/dispatch/message.h|src/alloc_pool.c|src/alloc_pool.h|src/http-libwebsockets.c|src/message.c|tests/alloc_test.c|tests/buffer_test.c|tests/compose_test.c|tests/failoverlist_test.c|tests/field_test.c|tests/message_test.c|tests/parse_test.c|tests/policy_test.c|tests/test_case.h|tests/timer_test.c|tests/tool_test.c|,8,9,9,2017-01-23 15:49:37 +0000,2017-03-22 14:22:05 -0400,8842c71fb18597d25430c425fcac5d977a255294,qpid-dispatch
DISPATCH-618,2017-03-22 19:40:55 +0000,src/posix/driver.c|,8,9,9,2017-01-23 15:49:51 +0000,2017-03-22 15:39:31 -0400,141a1e38327551e80cdde1b0c39e4e201924ccfd,qpid-dispatch
DISPATCH-619,2017-03-22 20:03:37 +0000,include/qpid/dispatch/ctools.h|,8,9,9,2017-01-23 15:49:59 +0000,2017-03-22 16:02:40 -0400,66ac8672f1c0d90eb3fdc09526b9fe892a267f03,qpid-dispatch
DISPATCH-729,2017-03-15 20:43:17 +0000,src/connection_manager.c|,8,9,9,2017-03-15 18:08:32 +0000,2017-03-22 17:00:48 -0400,3e7ed2a7fbf0bdb4b0959c4cef818c49cbe46217,qpid-dispatch
DISPATCH-624,2017-03-24 13:26:41 +0000,include/qpid/dispatch/atomic.h|,8,9,9,2017-01-25 11:45:33 +0000,2017-03-24 09:24:39 -0400,d8045ca93fd6776d0b1d6b2d806328d775fc3238,qpid-dispatch
DISPATCH-735,2017-03-31 14:14:41 +0000,python/qpid_dispatch_internal/management/config.py|,8,9,9,2017-03-31 13:49:28 +0000,2017-03-31 10:13:12 -0400,886d3cbca95db8c3e46f91d8c3e3924f428d3e09,qpid-dispatch
DISPATCH-613,2017-03-22 18:23:28 +0000,src/alloc_malloc.h|,8,9,9,2017-01-23 15:49:10 +0000,2017-04-04 16:28:29 -0400,41efe0710f7a8284d05545da65a4ff93b9490535,qpid-dispatch
DISPATCH-736,2017-04-04 20:38:14 +0000,tests/system_tests_policy.py|,8,9,9,2017-03-31 15:37:42 +0000,2017-04-05 09:25:08 -0400,bb1b085bbe7b0d493dbdb25151cbbff2ce37c381,qpid-dispatch
DISPATCH-741,2017-04-07 14:57:33 +0000,tests/field_test.c|tests/message_test.c|,8,9,9,2017-04-07 14:53:14 +0000,2017-04-07 10:55:07 -0400,b7b9d560fe0b1196544307cf41621d36818b07e9,qpid-dispatch
DISPATCH-205,2017-04-28 23:59:05 +0000,python/qpid_dispatch/management/entity.py|python/qpid_dispatch_internal/dispatch.py|python/qpid_dispatch_internal/management/agent.py|python/qpid_dispatch_internal/management/qdrouter.py|python/qpid_dispatch_internal/management/schema.py|python/qpid_dispatch_internal/management/schema_doc.py|tests/management/schema.py|,6,6,9,2016-01-26 19:14:03 +0000,2017-04-25 18:08:53 -0400,3b1fe11453b2ac7a776a56c94f135cedafd9bd0b,qpid-dispatch
DISPATCH-754,2017-04-27 13:42:17 +0000,src/router_core/agent_connection.c|src/server.c|tools/qdstat|,8,9,9,2017-04-27 13:13:52 +0000,2017-04-27 09:41:20 -0400,a2a31e9e2988ac59300c65e01038d29fdea4221a,qpid-dispatch
DISPATCH-752,2017-09-28 16:49:49 +0000,src/server.c|,8,9,9,2017-04-26 20:27:08 +0000,2017-04-27 09:59:50 -0400,361a7e9a6b79039b378a36d18ba5d3e8d1f3aed9,qpid-dispatch
DISPATCH-756,2017-05-16 19:00:18 +0000,dockerfiles/Dockerfile-fedora|,8,9,9,2017-04-28 19:55:17 +0000,2017-04-28 15:57:09 -0400,a00781c01461d7dc87f02742e54f5d47cabbf5fd,qpid-dispatch
DISPATCH-758,2017-05-01 15:22:54 +0000,tests/system_tests_http.py|tests/system_tests_one_router.py|,8,10,10,2017-05-01 14:57:35 +0000,2017-05-01 11:17:25 -0400,7c795ac65eaddc39314a9318d86837cef33b21eb,qpid-dispatch
DISPATCH-768,2017-05-12 16:11:11 +0000,console/hawtio/src/main/webapp/plugin/js/qdrTopology.js|console/stand-alone/plugin/css/plugin.css|console/stand-alone/plugin/js/qdrTopology.js|,9,10,10,2017-05-11 14:22:25 +0000,2017-05-11 10:50:15 -0400,0f0645592e13ecbf6e5ac58633a25cea25b078fc,qpid-dispatch
DISPATCH-769,2017-05-12 16:14:49 +0000,console/stand-alone/plugin/css/plugin.css|console/stand-alone/plugin/js/qdrTopology.js|,9,10,10,2017-05-11 14:26:25 +0000,2017-05-12 12:13:58 -0400,22b11be60ae24a474a0d12a3adc61469c0af17fa,qpid-dispatch
DISPATCH-784,2017-06-12 20:17:19 +0000,tests/system_tests_two_routers.py|,9,10,10,2017-06-01 13:27:48 +0000,2017-06-12 16:13:49 -0400,592553d7c4d83ed6889ceacac1a21612f91ac8fb,qpid-dispatch
DISPATCH-750,2017-10-25 18:19:15 +0000,console/stand-alone/index.html|console/stand-alone/plugin/css/dispatchpf.css|console/stand-alone/plugin/css/plugin.css|console/stand-alone/plugin/css/site-base.css|,9,9,10,2017-04-23 09:58:01 +0000,2017-06-17 20:23:31 -0400,47724c7c42ee9fca15a06baeab5af40abf9aed2b,qpid-dispatch
DISPATCH-753,2017-10-25 18:17:21 +0000,console/hawtio/src/main/webapp/plugin/js/qdrTopology.js|console/stand-alone/plugin/js/qdrOverview.js|console/stand-alone/plugin/js/qdrService.js|console/stand-alone/plugin/js/qdrTopology.js|,9,9,10,2017-04-27 06:57:29 +0000,2017-06-19 16:07:18 -0400,e22091b3fb3eba0870463d096a2c88ad15beb249,qpid-dispatch
DISPATCH-747,2017-06-26 17:52:50 +0000,console/stand-alone/plugin/js/qdrOverview.js|,9,9,10,2017-04-19 14:52:07 +0000,2017-06-26 13:34:58 -0400,36766377da5ae0b02d06036cfe27d9463c73bf99,qpid-dispatch
DISPATCH-430,2017-06-30 23:51:21 +0000,console/stand-alone/plugin/js/qdrChartService.js|,7,7,10,2016-06-30 13:34:05 +0000,2017-06-30 19:50:13 -0400,a8aecae5bd9459350ef7e50dd2d149d94af490fa,qpid-dispatch
DISPATCH-421,2017-06-30 21:06:10 +0000,console/hawtio/src/main/webapp/plugin/js/qdrList.js|,7,7,10,2016-06-30 07:42:10 +0000,2017-06-30 21:37:25 -0400,b5acca6df81d4d3224f9dae4381ed9a89016f24e,qpid-dispatch
DISPATCH-748,2017-07-01 02:16:52 +0000,console/stand-alone/plugin/js/qdrService.js|,9,9,10,2017-04-20 10:10:39 +0000,2017-06-30 22:11:33 -0400,41fc94588ae90761c6ff34f2e337a58f429f4dde,qpid-dispatch
DISPATCH-760,2017-07-10 14:44:34 +0000,include/qpid/dispatch/amqp.h|src/amqp.c|src/message.c|src/parse.c|tests/message_test.c|,9,10,10,2017-05-01 19:48:31 +0000,2017-07-07 10:39:23 -0400,50637b770400e106bfb1c2e2ad7c57f8f8b2321e,qpid-dispatch
DISPATCH-759,2017-07-19 18:57:18 +0000,src/router_core/transfer.c|,9,10,10,2017-05-01 19:10:43 +0000,2017-07-10 16:17:23 -0400,2def0a9b444288cc1c87f80b6b80e64bd59f478c,qpid-dispatch
DISPATCH-737,2017-07-14 20:11:47 +0000,python/qpid_dispatch/management/client.py|,8,9,10,2017-03-31 16:13:34 +0000,2017-07-17 22:27:29 +0200,40f1005c4aa0b4c9b74fbde0d9ad65050b8328d7,qpid-dispatch
DISPATCH-799,2017-07-31 21:10:13 +0000,CMakeLists.txt|,9,10,10,2017-07-31 21:07:24 +0000,2017-07-31 17:09:30 -0400,4dd8764b341cdf9e1d5c06c99697f454d4eaa468,qpid-dispatch
DISPATCH-805,2017-08-11 16:35:19 +0000,tests/system_tests_sasl_plain.py|,9,10,10,2017-08-11 16:00:09 +0000,2017-08-11 12:29:22 -0400,d1838e6b6dde4fd5aa7dd715b5cc60a70c2e033e,qpid-dispatch
DISPATCH-810,2017-08-23 08:05:39 +0000,include/qpid/dispatch/router_core.h|src/router_core/connections.c|src/router_node.c|,9,10,10,2017-08-18 15:39:11 +0000,2017-08-21 18:53:12 +0100,e8a9156489ac9c8d1d4e9c758b31440d5a443a60,qpid-dispatch
DISPATCH-802,2017-08-24 14:37:19 +0000,src/router_core/connections.c|src/router_core/router_core_private.h|src/router_core/terminus.c|tests/system_tests_one_router.py|,9,10,10,2017-08-03 15:07:08 +0000,2017-08-23 13:23:41 -0400,667fab3282a20c96e2a741914b8cbfedd075d041,qpid-dispatch
DISPATCH-815,2017-09-07 16:03:50 +0000,python/setup.py.in|,9,10,10,2017-09-07 15:02:38 +0000,2017-09-07 11:56:56 -0400,75ebbd13adb7f86892bc3d7235499272cac9fc3a,qpid-dispatch
DISPATCH-816,2017-09-08 14:35:56 +0000,src/router_node.c|,9,10,10,2017-09-08 14:23:42 +0000,2017-09-08 10:35:28 -0400,9d0a684db2b632690c611b9b05988d3fe3f7ab37,qpid-dispatch
DISPATCH-820,2017-09-14 18:12:11 +0000,src/router_core/route_tables.c|,9,10,10,2017-09-11 15:27:34 +0000,2017-09-14 14:09:22 -0400,02ed034cdc5ecd57715d1fa57cacb4734094c3f1,qpid-dispatch
DISPATCH-807,2017-09-18 19:41:44 +0000,include/qpid/dispatch/message.h|,9,10,10,2017-08-11 20:18:11 +0000,2017-09-15 14:50:33 -0400,fd545d4b0c06c5d7e67431daa040e380679aa578,qpid-dispatch
DISPATCH-835,2017-09-22 15:00:28 +0000,include/qpid/dispatch/router_core.h|src/router_core/connections.c|src/router_core/router_core_private.h|,9,10,10,2017-09-21 20:46:51 +0000,2017-09-22 10:58:17 -0400,f8f2b0ae736e03d31a697ecd02dcdfd774f2bdeb,qpid-dispatch
DISPATCH-824,2017-09-25 18:13:27 +0000,python/qpid_dispatch/management/qdrouter.json|python/qpid_dispatch_internal/dispatch.py|python/qpid_dispatch_internal/management/agent.py|python/qpid_dispatch_internal/management/config.py|src/connection_manager.c|src/dispatch.c|src/dispatch_private.h|src/router_config.c|src/router_core/DESIGN|src/router_core/agent_connection.c|src/router_core/agent_router.c|src/router_core/agent_router.h|src/router_node.c|src/router_private.h|tests/CMakeLists.txt|tests/config-1/A.conf|tests/config-1/A.json|tests/config-2-broker/A.conf|tests/config-2-broker/B.conf|tests/config-2/A-ssl.conf.in|tests/config-2/A.conf|tests/config-2/B-ssl.conf.in|tests/config-2/B.conf|tests/config-6/A.conf|tests/config-6/B.conf|tests/config-6/C.conf|tests/config-6/D.conf|tests/config-6/X.conf|tests/config-6/Y.conf|tests/management/schema.py|tests/router_engine_test.py|tests/system_test.py|tests/system_tests_deprecated.py|tests/system_tests_link_routes.py|tests/system_tests_management.py|tests/system_tests_qdmanage.py|tests/system_tests_sasl_plain.py|tests/system_tests_two_routers.py|tests/threads4.conf|tools/qdstat|,9,10,10,2017-09-12 15:38:50 +0000,2017-09-25 14:00:55 -0400,71b3b7dfd9380235c17122db1e41af108000e473,qpid-dispatch
DISPATCH-841,2017-09-27 18:22:21 +0000,tools/qdstat|,9,10,10,2017-09-27 18:05:58 +0000,2017-09-27 14:20:33 -0400,7817694e24bab0be33edd0512204f96bf98aeb1e,qpid-dispatch
DISPATCH-806,2017-09-28 14:52:04 +0000,python/qpid_dispatch/management/qdrouter.json|python/qpid_dispatch_internal/management/agent.py|python/qpid_dispatch_internal/management/config.py|,9,10,10,2017-08-11 16:16:54 +0000,2017-09-28 10:51:41 -0400,2f253d4c8091136429159f3c853e50aeea6f6f01,qpid-dispatch
DISPATCH-846,2017-10-06 17:17:11 +0000,src/container.c|src/router_core/connections.c|src/router_core/router_core.c|src/router_core/router_core_private.h|src/router_node.c|src/server.c|,9,10,10,2017-10-03 19:32:29 +0000,2017-10-06 13:15:16 -0400,1e6164dc5e883a37ee4d68def880396c7d72e065,qpid-dispatch
DISPATCH-798,2017-10-10 18:31:12 +0000,doc/book/policy.adoc|,9,10,10,2017-07-21 06:01:19 +0000,2017-10-10 14:27:40 -0400,69ee4b85f413bab6972867d0c3a91c8fb6f29959,qpid-dispatch
DISPATCH-580,2017-11-01 19:07:20 +0000,python/qpid_dispatch/management/qdrouter.json|,9,9,10,2016-11-29 15:24:25 +0000,2017-11-01 15:03:29 -0400,ec6bcacdf992eb5fea98b308bbd6f5cbb2bf1947,qpid-dispatch
DISPATCH-881,2017-11-20 15:14:30 +0000,src/router_node.c|,10,11,11,2017-11-20 14:02:10 +0000,2017-11-20 09:03:34 -0500,bbd6be1fe429938abff3596fafba0041e1aae48e,qpid-dispatch
DISPATCH-883,2017-11-21 18:04:39 +0000,src/router_core/agent_connection.c|tests/system_tests_one_router.py|,10,11,11,2017-11-21 00:31:22 +0000,2017-11-21 12:59:13 -0500,b46e5de3def3b26ebe3cbb45d8c03cbe2e163598,qpid-dispatch
DISPATCH-887,2017-11-28 14:47:43 +0000,src/connection_manager.c|,10,11,11,2017-11-28 04:22:10 +0000,2017-11-28 09:46:55 -0500,e2a05e14eaa5740cfcd1d6be528ee548aa000441,qpid-dispatch
DISPATCH-886,2017-11-29 20:08:48 +0000,console/stand-alone/plugin/js/qdrList.js|console/stand-alone/plugin/js/qdrOverview.js|,10,11,11,2017-11-27 19:22:20 +0000,2017-11-29 15:07:03 -0500,8e592559a6f1fa7cf1709b6c6fa53cbdfb64c3d3,qpid-dispatch
DISPATCH-889,2017-12-04 18:12:26 +0000,src/parse_tree.c|tests/parse_tree_tests.c|,10,11,11,2017-12-04 15:13:21 +0000,2017-12-04 13:07:03 -0500,e531e1cff723702952836d369d5d731679f121b9,qpid-dispatch
DISPATCH-874,2017-12-04 20:46:20 +0000,src/http-libwebsockets.c|,9,10,11,2017-11-11 20:22:28 +0000,2017-12-04 15:40:19 -0500,611f8b70628d65067129a639e8df693ecde8244a,qpid-dispatch
DISPATCH-895,2017-12-07 14:57:19 +0000,src/router_node.c|,9,11,11,2017-12-07 03:56:55 +0000,2017-12-07 09:56:49 -0500,7ff1f32372b13f1de9073e7572f1200b167de852,qpid-dispatch
DISPATCH-831,2017-12-19 19:39:49 +0000,python/qpid_dispatch/management/qdrouter.json|,9,10,11,2017-09-20 22:08:51 +0000,2017-12-19 14:38:29 -0500,86ef580e429beb68ac4167e8f96ca284f2668dd2,qpid-dispatch
DISPATCH-905,2017-12-21 13:31:14 +0000,include/qpid/dispatch/proton_utils.h|src/CMakeLists.txt|src/proton_utils.c|src/router_node.c|tests/CMakeLists.txt|tests/proton_utils_tests.c|tests/run_unit_tests.c|,10,11,11,2017-12-18 19:17:10 +0000,2017-12-21 08:27:12 -0500,5ca979d53c7761e36ff95052971c1009f29441fc,qpid-dispatch
DISPATCH-900,2017-12-21 15:16:04 +0000,python/qpid_dispatch_internal/management/agent.py|src/server.c|,10,11,11,2017-12-13 21:26:22 +0000,2017-12-21 10:14:39 -0500,3bf8cfe9c326a74a076cb7e1e3ff0cee43137d10,qpid-dispatch
DISPATCH-894,2017-12-21 20:02:56 +0000,.travis.yml|README|tests/CMakeLists.txt|tests/router_engine_test.py|tests/router_policy_test.py|tests/run_system_tests.py|tests/system_tests_auth_service_plugin.py|tests/system_tests_autolinks.py|tests/system_tests_broker.py|tests/system_tests_default_distribution.py|tests/system_tests_delivery_abort.py|tests/system_tests_denied_unsettled_multicast.py|tests/system_tests_distribution.py|tests/system_tests_drain.py|tests/system_tests_drain_support.py|tests/system_tests_dynamic_terminus.py|tests/system_tests_failover_list.py|tests/system_tests_handle_failover.py|tests/system_tests_http.py|tests/system_tests_link_routes.py|tests/system_tests_log_message_components.py|tests/system_tests_management.py|tests/system_tests_multi_tenancy.py|tests/system_tests_one_router.py|tests/system_tests_policy.py|tests/system_tests_protocol_family.py|tests/system_tests_protocol_settings.py|tests/system_tests_qdmanage.py|tests/system_tests_qdstat.py|tests/system_tests_sasl_plain.py|tests/system_tests_topology.py|tests/system_tests_two_routers.py|tests/system_tests_user_id.py|tests/system_tests_user_id_proxy.py|,10,11,11,2017-12-06 14:56:58 +0000,2017-12-21 14:11:29 -0500,4a173e1ec0f7e0e8f9d7d37b9549d4f9c9d37fb0,qpid-dispatch
DISPATCH-893,2018-01-02 21:39:17 +0000,cmake/FindLibWebSockets.cmake|src/http-none.c|,10,11,11,2017-12-06 13:55:45 +0000,2018-01-02 16:36:38 -0500,33feac55c690a9b7c7e7e251deb076a14b5692f2,qpid-dispatch
DISPATCH-909,2018-01-12 19:47:52 +0000,console/stand-alone/index.html|console/stand-alone/plugin/css/dispatchpf.css|console/stand-alone/plugin/html/qdrOverview.html|console/stand-alone/plugin/js/navbar.js|console/stand-alone/plugin/js/qdrOverviewChartsController.js|,10,11,11,2018-01-12 15:10:29 +0000,2018-01-12 14:47:01 -0500,c36f3af0d1ad38d90dd5b738bc3e40577f07ae1d,qpid-dispatch
DISPATCH-907,2018-01-16 14:25:56 +0000,tests/system_tests_qdmanage.py|tools/qdmanage|,10,11,11,2018-01-09 16:28:31 +0000,2018-01-16 09:21:46 -0500,791592a935fd2d9998fbf42fe4442d92cb999568,qpid-dispatch
DISPATCH-916,2018-01-24 22:03:05 +0000,tests/system_tests_qdmanage.py|tools/qdmanage|,10,11,11,2018-01-19 16:06:43 +0000,2018-01-24 16:55:31 -0500,cf10d5c15f78ae3d771b8ba67dee209041233f5d,qpid-dispatch
DISPATCH-922,2018-01-30 14:13:21 +0000,src/log.c|,10,11,11,2018-01-29 20:08:40 +0000,2018-01-29 16:57:31 -0500,b08d98165ef5f5fc9ef3d7922a2887f66059585d,qpid-dispatch
DISPATCH-919,2018-01-30 14:10:23 +0000,CMakeLists.txt|,10,11,11,2018-01-25 14:42:13 +0000,2018-01-30 09:08:29 -0500,fe8e38bfb602fd6c6f628407421f0a51a22eb0c2,qpid-dispatch
DISPATCH-920,2018-01-29 21:41:35 +0000,tests/policy-5/permissive-default.json|,10,11,11,2018-01-27 18:45:12 +0000,2018-01-31 13:30:54 -0500,67747035a35537d52ba92247b067697079ade5ca,qpid-dispatch
DISPATCH-931,2018-03-20 16:11:27 +0000,dockerfiles/Dockerfile-fedora|dockerfiles/Dockerfile-ubuntu|,10,12,12,2018-02-22 15:32:44 +0000,2018-02-22 12:00:26 -0500,f0b2e52eafeb8a46397acf8fb5bc2f48342b88ba,qpid-dispatch
DISPATCH-928,2018-02-23 18:39:32 +0000,src/router_core/route_control.c|src/router_core/route_tables.c|,10,12,13,2018-02-16 20:04:28 +0000,2018-02-23 14:05:17 +0000,00a0233c337c8db24006acab7eece8970e5fe616,qpid-dispatch
DISPATCH-948,2018-03-22 11:10:09 +0000,console/stand-alone/package-lock.json|console/stand-alone/package.json|,12,13,13,2018-03-21 17:51:22 +0000,2018-03-22 07:09:14 -0400,da873abe4248918fadbf8dd2d08ed722d3d928e6,qpid-dispatch
DISPATCH-945,2018-03-23 21:36:33 +0000,src/server.c|,12,13,13,2018-03-20 12:53:15 +0000,2018-03-23 11:42:24 -0400,f790e9975bb9503d8a7acc257586812f63217696,qpid-dispatch
DISPATCH-954,2018-04-02 19:25:20 +0000,router/src/main.c|,12,13,13,2018-04-02 14:29:02 +0000,2018-04-02 15:20:13 -0400,fc7ed088a719df0571575d52404314fc70631777,qpid-dispatch
DISPATCH-964,2018-04-11 20:25:11 +0000,src/router_core/route_control.c|tests/system_tests_autolinks.py|,12,13,13,2018-04-11 19:02:50 +0000,2018-04-11 15:50:51 -0400,0ad6e6ff54443bcfaeac7ca5bcbe6081be2c17e7,qpid-dispatch
DISPATCH-962,2018-04-11 22:59:25 +0000,src/router_node.c|,10,13,13,2018-04-11 14:50:45 +0000,2018-04-12 08:00:44 -0400,3ce8f4b626f550aa84f53fc12239e2bd50001f60,qpid-dispatch
DISPATCH-967,2018-04-13 17:03:41 +0000,python/qpid_dispatch_internal/policy/policy_manager.py|tests/policy-6/vhost-bad-attribute.json|tests/system_tests_policy.py|,12,13,13,2018-04-12 19:15:02 +0000,2018-04-13 09:40:16 -0400,e6473b4ced6dddcb1a2ab33fa8651ca0b4ae07ee,qpid-dispatch
DISPATCH-969,2018-04-18 18:53:40 +0000,console/stand-alone/index.html|console/stand-alone/package.json|,9,13,13,2018-04-18 16:29:16 +0000,2018-04-18 13:33:26 -0400,a6a4445cd74ce2e8c6e5193abfdf30dc13d24ca3,qpid-dispatch
DISPATCH-979,2018-04-30 21:51:50 +0000,tests/router_policy_test.py|,12,13,13,2018-04-25 19:59:42 +0000,2018-04-25 16:03:02 -0400,c6f08def6099707f316e73fc112ca18f6f63736a,qpid-dispatch
DISPATCH-984,2018-04-30 21:50:04 +0000,python/qpid_dispatch_internal/management/config.py|,12,13,13,2018-04-30 20:28:36 +0000,2018-04-30 16:37:20 -0400,b00283fd42e7908e3688f8107448e60fc1e8e2e7,qpid-dispatch
DISPATCH-985,2018-05-01 17:32:08 +0000,doc/book/policy.adoc|doc/new-book/configuration-security.adoc|python/qpid_dispatch/management/qdrouter.json|,12,13,13,2018-05-01 13:34:07 +0000,2018-05-01 12:41:13 -0400,689441c3ac47dee2678c910c236581594d4451c7,qpid-dispatch
DISPATCH-988,2018-05-08 13:26:47 +0000,doc/new-book/configuration-security.adoc|python/qpid_dispatch/management/qdrouter.json|,12,13,13,2018-05-07 18:12:59 +0000,2018-05-07 14:28:26 -0400,945cac6fded031c0f47b93d620bf975ee38f089d,qpid-dispatch
DISPATCH-927,2018-02-23 18:39:21 +0000,tests/system_tests_link_routes.py|,10,12,13,2018-02-15 21:38:57 +0000,2018-05-07 22:37:42 -0300,7e4dfd7334ea994719e178cba78998c1933f60dc,qpid-dispatch
DISPATCH-998,2018-05-10 14:39:09 +0000,src/parse_tree.c|src/parse_tree.h|tests/parse_tree_tests.c|,12,13,13,2018-05-10 14:26:57 +0000,2018-05-10 10:38:05 -0400,4bd79a3d51400d74a53f225b8ec9d43f2c975e08,qpid-dispatch
DISPATCH-966,2018-05-17 17:01:11 +0000,include/qpid/dispatch/message.h|src/message.c|src/message_private.h|src/router_core/forwarder.c|src/router_core/transfer.c|,12,13,13,2018-04-12 09:35:29 +0000,2018-05-17 12:54:04 -0400,e9f8a852adcbb138fdaebac6fd4c5c4c104efeee,qpid-dispatch
DISPATCH-941,2018-05-29 18:24:02 +0000,src/http-libwebsockets.c|,12,13,13,2018-03-13 13:45:12 +0000,2018-05-29 14:21:15 -0400,c728d7f41c78ccc8db127b87c11470a5b9bc8c82,qpid-dispatch
DISPATCH-1022,2018-06-04 19:15:49 +0000,src/container.c|,12,13,13,2018-06-01 19:31:01 +0000,2018-06-04 15:07:48 -0400,43b3b2e03c182e4bffd33a96daa3a911dd4132ea,qpid-dispatch
DISPATCH-1010,2018-10-12 15:04:49 +0000,tests/system_tests_disallow_link_resumable_link_route.py|,10,13,13,2018-05-24 19:04:20 +0000,2018-06-06 20:14:52 -0400,068d4980f44e7b46ab073261823e5d29eb7acb5a,qpid-dispatch
DISPATCH-1021,2018-06-07 18:36:32 +0000,src/router_core/router_core_private.h|src/router_core/transfer.c|,12,13,13,2018-06-01 14:10:55 +0000,2018-06-07 14:12:49 -0400,c1e0ceeecc9348c7633022681a7ac19e6fd0f1b8,qpid-dispatch
DISPATCH-1023,2018-06-07 18:36:06 +0000,src/router_core/router_core_private.h|src/router_core/transfer.c|,12,13,13,2018-06-01 21:53:20 +0000,2018-06-07 14:26:59 -0400,e96c7ed5083d4563f8b82b8aaaa52d3367d59da9,qpid-dispatch
DISPATCH-1003,2018-06-13 13:08:57 +0000,console/hawtio/pom.xml|console/hawtio/src/main/webapp/plugin/js/qdrSettings.js|console/stand-alone/plugin/js/qdrSettings.js|,13,13,14,2018-05-17 21:07:52 +0000,2018-06-12 15:05:29 -0400,8c7e87275fb481f25d8deaa4f639f3a4d1c532d9,qpid-dispatch
DISPATCH-1029,2018-06-13 11:31:39 +0000,console/stand-alone/plugin/js/qdrList.js|console/stand-alone/plugin/js/qdrOverview.js|,13,13,14,2018-06-11 18:09:12 +0000,2018-06-13 07:30:05 -0400,33fa99832f2012fb6fa39ab29b41d0c65bcb914c,qpid-dispatch
DISPATCH-1031,2018-06-13 12:49:20 +0000,console/stand-alone/plugin/js/qdrTopAddressesController.js|,13,13,14,2018-06-11 18:15:09 +0000,2018-06-13 07:50:39 -0400,5402cd33cccc6754d900bb79f58f32531e3abeb3,qpid-dispatch
DISPATCH-1033,2018-06-13 12:57:38 +0000,console/stand-alone/plugin/html/qdrChord.html|,13,13,14,2018-06-11 18:22:41 +0000,2018-06-13 08:56:26 -0400,c91e13cb663d54bfad31e63739ce62260d3489de,qpid-dispatch
DISPATCH-1036,2018-06-13 13:19:28 +0000,console/stand-alone/plugin/html/qdrList.html|,13,14,14,2018-06-13 13:13:38 +0000,2018-06-13 09:18:46 -0400,21af29f056bc9f9998e17f18272c8181d8dfaf98,qpid-dispatch
DISPATCH-1030,2018-06-13 13:49:58 +0000,console/stand-alone/plugin/html/qdrList.html|console/stand-alone/plugin/js/qdrList.js|,13,13,14,2018-06-11 18:11:40 +0000,2018-06-13 09:47:36 -0400,0682ec69552a897bf890d2466ade50adabb737d1,qpid-dispatch
DISPATCH-976,2018-05-09 15:31:10 +0000,src/policy.c|,12,13,14,2018-04-23 19:43:17 +0000,2018-06-13 14:29:59 -0400,e6864f63e7086b1fee0063ff22803cae1fc14a35,qpid-dispatch
DISPATCH-1034,2018-06-12 16:26:02 +0000,src/remote_sasl.c|,13,14,14,2018-06-12 13:23:56 +0000,2018-06-13 22:25:57 +0100,7f229d13326e2fe35ca367a082bf040c284a3700,qpid-dispatch
DISPATCH-1043,2018-06-19 16:05:12 +0000,src/router_core/transfer.c|,13,14,14,2018-06-19 15:40:21 +0000,2018-06-19 11:44:45 -0400,6d5d7cd29207637550f019f1bdc744a541b696c3,qpid-dispatch
DISPATCH-1044,2018-06-22 14:27:31 +0000,src/router_core/forwarder.c|src/router_core/transfer.c|,13,14,14,2018-06-20 16:16:11 +0000,2018-06-21 20:01:00 -0400,2e766f35cf2b3a172aaa58cef6c996376e69f1c9,qpid-dispatch
DISPATCH-1041,2018-06-25 17:14:57 +0000,tests/CMakeLists.txt|,13,14,14,2018-06-15 16:54:33 +0000,2018-06-25 14:04:05 -0400,af997544e1c7954f5ff0bdb3b17bdc69c21557d9,qpid-dispatch
DISPATCH-1045,2018-06-28 13:32:49 +0000,include/qpid/dispatch/router_core.h|src/router_core/transfer.c|src/router_node.c|tests/system_tests_one_router.py|,13,14,14,2018-06-20 18:33:29 +0000,2018-06-28 09:22:49 -0400,5d7304f2c4caf206c9304fcbd22be0a972116e3d,qpid-dispatch
DISPATCH-1056,2018-06-28 17:10:11 +0000,docs/man/CMakeLists.txt|,13,14,14,2018-06-27 20:42:22 +0000,2018-06-28 09:36:48 -0700,550c6711d38a27b1dd3eab14d2e884a7779a9bd2,qpid-dispatch
DISPATCH-1057,2018-07-02 20:53:22 +0000,tests/system_tests_console.py|,13,14,14,2018-06-28 17:50:14 +0000,2018-06-28 18:06:21 -0400,ed515fb7009913b08e6c61fd3a6f8175be1380df,qpid-dispatch
DISPATCH-1058,2018-06-29 17:23:35 +0000,src/policy.c|src/router_core/forwarder.c|src/server.c|,13,14,14,2018-06-29 13:15:16 +0000,2018-06-29 11:58:57 -0400,9a48334eb32c261b527db1920a574dc5998f27b6,qpid-dispatch
DISPATCH-1061,2018-07-03 12:42:22 +0000,console/stand-alone/plugin/js/topology/qdrTopology.js|,14,15,15,2018-07-03 12:40:39 +0000,2018-07-03 08:41:46 -0400,be5c1648d9c799fe38fda28448bf0f593198668a,qpid-dispatch
DISPATCH-1063,2018-07-05 17:43:31 +0000,include/qpid/dispatch/router_core.h|src/router_core/connections.c|src/router_core/route_control.c|src/router_core/router_core_private.h|src/router_node.c|tests/system_tests_multi_tenancy.py|,13,15,15,2018-07-03 18:13:25 +0000,2018-07-05 13:38:36 -0400,e2f73cdc27fdc81fcc92d0cb882323562b119f5d,qpid-dispatch
DISPATCH-1072,2018-07-11 12:07:25 +0000,console/stand-alone/plugin/js/topology/qdrTopology.js|,14,15,15,2018-07-11 09:23:45 +0000,2018-07-11 08:04:17 -0400,aaf5f2cb79a43c9ab9eae110728b3d96c0e3d517,qpid-dispatch
DISPATCH-1055,2018-07-11 13:47:32 +0000,src/router_core/transfer.c|tests/system_tests_drain.py|tests/system_tests_drain_support.py|,13,14,15,2018-06-27 19:19:16 +0000,2018-07-11 08:47:07 -0400,a6c4b94b87f4b11981b1a549ddee6f614ee6e0a3,qpid-dispatch
DISPATCH-1062,2018-07-09 20:34:07 +0000,tests/system_tests_autolinks.py|tests/system_tests_multi_tenancy.py|,14,15,15,2018-07-03 13:19:16 +0000,2018-07-11 13:06:40 -0400,0e6932fae833898ab0f44addff17f5215cee5dd4,qpid-dispatch
DISPATCH-1078,2018-07-17 13:23:35 +0000,console/stand-alone/plugin/html/qdrChord.html|,14,15,15,2018-07-11 13:31:10 +0000,2018-07-17 09:22:22 -0400,6a4d571f6c7cd17cbf2c1df313273e403d689ffc,qpid-dispatch
DISPATCH-1074,2018-07-17 13:30:18 +0000,console/stand-alone/plugin/html/qdrChord.html|,14,15,15,2018-07-11 09:31:18 +0000,2018-07-17 09:28:42 -0400,51cba5cd7e04c5436ded3986986035c9b29b5bc9,qpid-dispatch
DISPATCH-1083,2018-07-18 17:10:07 +0000,console/stand-alone/package-lock.json|,14,15,15,2018-07-18 16:02:45 +0000,2018-07-18 13:02:00 -0400,ce81ad8fe406dc92323d3ef406baa46754c1d857,qpid-dispatch
DISPATCH-1080,2018-07-17 15:00:17 +0000,tests/system_tests_ssl.py|,14,15,15,2018-07-16 13:50:22 +0000,2018-07-18 15:36:24 -0400,0f092ac43d7fef50304dddd01b4451e41ddca75e,qpid-dispatch
DISPATCH-1069,2018-07-10 23:46:48 +0000,src/container.c|src/router_node.c|src/server.c|src/server_private.h|,14,15,15,2018-07-10 22:34:59 +0000,2018-07-19 15:33:30 -0400,936c46b193c07a7fcfc89e71c490ad092e7cffa5,qpid-dispatch
DISPATCH-993,2018-08-07 21:01:20 +0000,tests/system_tests_topology_disposition.py|,13,13,15,2018-05-09 15:42:51 +0000,2018-07-20 10:56:25 -0400,2d6bef53ac984e4cd5fe0afb0eeb7495f93a991d,qpid-dispatch
DISPATCH-1077,2018-07-23 11:12:00 +0000,console/stand-alone/plugin/js/chord/data.js|,14,15,15,2018-07-11 12:31:32 +0000,2018-07-23 07:10:48 -0400,69af7476e1631ccfd1a223daec943f9aaad18570,qpid-dispatch
DISPATCH-1084,2018-07-23 18:29:34 +0000,console/stand-alone/plugin/js/topology/traffic.js|,14,15,15,2018-07-23 18:06:53 +0000,2018-07-23 14:29:04 -0400,53493714c631ebfdaa0687525a0da531b44f1ea9,qpid-dispatch
DISPATCH-1071,2018-07-24 14:21:24 +0000,console/stand-alone/plugin/js/topology/traffic.js|,14,15,15,2018-07-11 09:19:25 +0000,2018-07-25 08:34:57 -0400,ef4776e28499c09f40bb2b4c3be99075bf547d2f,qpid-dispatch
DISPATCH-1087,2018-07-25 19:07:07 +0000,CMakeLists.txt|python/setup.py.in|run.py.in|tests/authservice.py.in|tools/qdmanage.in|tools/qdstat.in|,14,15,15,2018-07-24 21:24:53 +0000,2018-07-25 15:00:42 -0400,30ff7ff1d54b8f280b36f76dc8c340cb4c88567b,qpid-dispatch
DISPATCH-1089,2018-07-26 20:32:28 +0000,src/router_core/route_control.c|,13,15,15,2018-07-26 16:14:38 +0000,2018-07-26 16:29:43 -0400,7a77931a16d272fda58c4b7b854de041fa6df1e7,qpid-dispatch
DISPATCH-1091,2018-07-27 19:51:08 +0000,python/qpid_dispatch_internal/dispatch.py|,14,15,15,2018-07-27 19:37:13 +0000,2018-07-27 15:38:23 -0400,7285a47dcdd255af5ecc8d9c95fe8bdd28fb981d,qpid-dispatch
DISPATCH-1092,2018-08-02 13:22:05 +0000,src/container.c|tests/system_test.py|tests/system_tests_link_routes.py|,14,15,15,2018-07-31 18:35:09 +0000,2018-08-01 14:21:11 -0400,ecfd325276cadc8c5da3e81159e30aa8ed582fef,qpid-dispatch
DISPATCH-1095,2018-08-02 19:58:47 +0000,tests/system_tests_ssl.py|,14,15,15,2018-08-02 17:56:01 +0000,2018-08-03 09:20:16 -0400,5e7c75d9c20a85be48854e14f8e40b4fcceb73c5,qpid-dispatch
DISPATCH-1093,2018-08-03 19:55:58 +0000,src/connection_manager.c|src/server.c|src/server_private.h|tests/system_tests_two_routers.py|,14,15,15,2018-07-31 20:13:46 +0000,2018-08-03 15:50:14 -0400,69c093f939e5fc106701665588cf2459e6f961d1,qpid-dispatch
DISPATCH-1094,2018-08-06 20:03:19 +0000,src/log.c|,14,15,15,2018-08-01 18:11:46 +0000,2018-08-06 15:55:28 -0400,d28002a492abf73f9a12ad13c2a7c43007ca52c7,qpid-dispatch
DISPATCH-1097,2018-08-07 15:20:38 +0000,src/router_core/route_control.c|src/router_core/router_core_private.h|src/router_core/terminus.c|src/router_node.c|src/server.c|,14,15,15,2018-08-06 20:32:55 +0000,2018-08-07 11:16:58 -0400,e545dd9cc3c3bc967e04752b6c28414987a86e63,qpid-dispatch
DISPATCH-1098,2018-08-09 19:55:35 +0000,CMakeLists.txt|tests/CMakeLists.txt|,14,15,15,2018-08-08 21:08:07 +0000,2018-08-09 15:52:35 -0400,18c73aeed0e0ae906eea3a903121c03bec815088,qpid-dispatch
DISPATCH-1101,2018-08-10 14:46:18 +0000,tests/system_tests_link_routes_add_external_prefix.py|,14,16,16,2018-08-10 13:41:24 +0000,2018-08-10 10:34:26 -0400,6576b3e9d0113cd691fcd092a4e36076579498d4,qpid-dispatch
DISPATCH-1102,2018-08-22 18:13:05 +0000,src/router_core/router_core.c|,15,16,16,2018-08-10 19:14:33 +0000,2018-08-10 15:21:09 -0400,788fe2a4ee4b28cd88b0dbd0c7e21979f08d25fb,qpid-dispatch
DISPATCH-1104,2018-08-16 18:21:05 +0000,src/log.c|tests/system_tests_qdmanage.py|tests/system_tests_qdstat.py|,15,16,16,2018-08-16 13:55:40 +0000,2018-08-16 14:13:56 -0400,385bbe9ebe69cf567b4e88d016d5eaca38ce73d2,qpid-dispatch
DISPATCH-1106,2018-08-24 19:56:41 +0000,src/router_node.c|,15,16,16,2018-08-23 14:00:51 +0000,2018-08-23 16:30:58 -0400,8a8b6376cbcf2e04e4dddcfd18bb5a683e837964,qpid-dispatch
DISPATCH-1111,2018-08-31 18:32:53 +0000,src/remote_sasl.c|,15,16,16,2018-08-31 14:15:29 +0000,2018-08-31 15:16:41 +0100,d2159771650adf8d67364009a0b53ceef62d5e71,qpid-dispatch
DISPATCH-1113,2018-09-06 19:49:22 +0000,python/qpid_dispatch/management/qdrouter.json|,15,16,16,2018-09-05 14:30:59 +0000,2018-09-06 20:23:34 +0100,eb766e3ade97b4ee5bca0b21ebe7403a8317d6e9,qpid-dispatch
DISPATCH-1086,2018-09-20 11:27:54 +0000,include/qpid/dispatch/server.h|src/connection_manager.c|src/remote_sasl.c|src/server.c|,13,15,16,2018-07-24 10:52:46 +0000,2018-09-19 17:50:36 +0100,194747dcd4ddf6973a6f5f85e893f769706fa47d,qpid-dispatch
DISPATCH-1124,2018-09-20 14:08:37 +0000,src/message.c|,15,16,16,2018-09-18 17:01:28 +0000,2018-09-20 08:54:16 -0400,82aca48e2f7c6a919a082b50fc2dc73c1a758722,qpid-dispatch
DISPATCH-1134,2018-10-01 16:11:37 +0000,tests/system_tests_console.py|,15,16,16,2018-09-28 18:12:54 +0000,2018-10-01 12:08:40 -0400,4031dddee1f25e40529c60ebe68c31a3dbabe45c,qpid-dispatch
DISPATCH-1136,2018-10-02 14:48:41 +0000,src/router_core/forwarder.c|tests/system_tests_one_router.py|,15,16,16,2018-10-02 14:04:34 +0000,2018-10-02 10:43:54 -0400,430efa0777c87289f5b59a83d0d36cab7647adac,qpid-dispatch
DISPATCH-1081,2018-10-02 19:19:16 +0000,docs/books/user-guide/theory_of_operation.adoc|,14,15,16,2018-07-18 09:00:04 +0000,2018-10-02 15:17:35 -0400,6689d5f1d6dc343ab0482befcf3286479aef2e04,qpid-dispatch
DISPATCH-1137,2018-10-08 13:03:37 +0000,src/router_core/connections.c|src/router_core/router_core_private.h|,15,16,16,2018-10-03 15:21:13 +0000,2018-10-04 10:44:52 -0400,3b1d84c969dad91d66641a719bc4374728902b58,qpid-dispatch
DISPATCH-1131,2018-10-09 18:47:11 +0000,src/router_core/agent_config_address.c|src/router_core/agent_config_address.h|src/router_core/agent_config_link_route.c|src/router_core/route_control.c|src/router_core/route_control.h|tests/system_tests_link_routes.py|,15,16,16,2018-09-27 14:56:12 +0000,2018-10-09 14:43:30 -0400,d1d6e92df2d3adbba5d86e650e0d44a0ffc0b33e,qpid-dispatch
DISPATCH-1126,2018-10-11 21:36:26 +0000,src/router_core/connections.c|src/router_core/router_core.c|src/router_core/router_core_private.h|tests/CMakeLists.txt|tests/system_tests_priority.py|,15,16,16,2018-09-21 21:21:25 +0000,2018-10-11 17:35:09 -0400,e813f085b5319eba38961859ddb82ceaa7e94a9e,qpid-dispatch
DISPATCH-1148,2018-10-18 21:38:52 +0000,src/remote_sasl.c|,16,17,17,2018-10-18 20:48:16 +0000,2018-10-18 21:58:18 +0100,b4385f9e79ac981fdd2d1faf1d9b0588661da0b2,qpid-dispatch
DISPATCH-1151,2018-10-23 13:31:29 +0000,console/stand-alone/gulpfile.js|console/stand-alone/package-lock.json|console/stand-alone/package.json|console/stand-alone/plugin/js/amqp/topology.js|,16,17,17,2018-10-23 13:22:57 +0000,2018-10-23 09:30:17 -0400,0a66246e58df2758eb12abd7aa4e983bcbbee8c9,qpid-dispatch
DISPATCH-1153,2018-10-24 13:54:39 +0000,src/router_core/transfer.c|,16,17,17,2018-10-24 13:41:20 +0000,2018-10-24 09:54:02 -0400,6203bb92786f4ec535dbd538cc1f98df26982373,qpid-dispatch
DISPATCH-1157,2018-10-25 13:52:31 +0000,src/policy.c|src/remote_sasl.c|,16,17,17,2018-10-24 22:26:57 +0000,2018-10-24 23:27:43 +0100,033252a6f132f8dc30864bf2083a8bdba57353d8,qpid-dispatch
DISPATCH-1163,2018-11-30 16:52:18 +0000,src/router_core/connections.c|,17,18,18,2018-10-31 18:25:59 +0000,2018-11-01 12:27:55 -0400,0af3cd861ae76fc716a49d2df030b0279d23ac53,qpid-dispatch
DISPATCH-1196,2018-11-28 15:27:40 +0000,src/router_node.c|,17,18,18,2018-11-28 15:24:25 +0000,2018-11-28 10:25:17 -0500,ea579f9119f8088c55841c6c924b0d77caffe314,qpid-dispatch
DISPATCH-1121,2018-10-11 18:00:38 +0000,pom.xml|,15,16,18,2018-09-15 23:30:54 +0000,2018-12-03 15:22:01 -0500,663a997c3abc8e03c3cfeeea46116745309c99f8,qpid-dispatch
DISPATCH-1198,2018-12-04 17:09:38 +0000,src/router_core/modules/address_lookup_client/lookup_client.c|,17,18,18,2018-11-30 16:05:37 +0000,2018-12-04 12:08:42 -0500,3b0bad1438167494ee88b1c8b755d1935fe5b51f,qpid-dispatch
DISPATCH-1212,2018-12-06 16:51:21 +0000,src/router_core/connections.c|,17,18,18,2018-12-05 20:01:47 +0000,2018-12-06 11:38:13 -0500,f080baabd1a5eb37f94178b0b54a7a70c6271e73,qpid-dispatch
DISPATCH-1197,2018-11-29 17:41:26 +0000,tests/system_tests_one_router.py|,17,18,18,2018-11-29 17:28:21 +0000,2018-12-06 16:52:25 -0500,58567f979deef3ecc4d797610f92539396de5f40,qpid-dispatch
DISPATCH-1169,2018-11-05 12:11:50 +0000,console/stand-alone/plugin/js/topology/qdrTopology.js|,17,18,18,2018-11-05 12:08:37 +0000,2018-12-11 12:54:25 -0500,716214b2dd5ebf9467414af2c881269c798a9c0f,qpid-dispatch
DISPATCH-1222,2018-12-18 20:47:13 +0000,src/address_lookup_utils.c|src/message.c|src/router_core/core_client_api.c|src/router_core/modules/address_lookup_client/lookup_client.c|src/router_core/modules/address_lookup_server/address_lookup_server.c|src/router_core/modules/edge_router/edge_mgmt.c|src/router_core/modules/test_hooks/core_test_hooks.c|tests/field_test.c|tests/message_test.c|tests/parse_test.c|tests/parse_tree_tests.c|tests/policy_test.c|tests/tool_test.c|,17,18,18,2018-12-13 19:23:30 +0000,2018-12-13 14:35:23 -0500,16674f44b0cdf037614e8e4378e24e9af0eb7ab9,qpid-dispatch
DISPATCH-1189,2018-12-18 18:11:31 +0000,docs/man/qdrouterd.conf.5.py|,17,18,18,2018-11-20 09:38:47 +0000,2018-12-18 13:10:39 -0500,d05c129d9611bb6ac4ac49c6dc5ba0edae1c5b80,qpid-dispatch
DISPATCH-1213,2018-12-18 15:24:53 +0000,src/router_core/transfer.c|,17,18,18,2018-12-06 19:30:47 +0000,2018-12-19 13:00:28 -0500,6631c2ad270b6fc27ab504a6f7585f1e8ac56475,qpid-dispatch
DISPATCH-1228,2018-12-19 21:53:00 +0000,tools/qdstat.in|,17,18,18,2018-12-19 20:10:45 +0000,2018-12-19 16:07:55 -0500,65927db66f37687ab6f37e3b5b6dd81178e04c3f,qpid-dispatch
DISPATCH-1233,2019-01-03 01:24:37 +0000,tests/system_tests_global_delivery_counts.py|,17,18,18,2019-01-02 18:59:57 +0000,2019-01-02 14:02:11 -0500,049b97b47cdde3d41ac6af77ede70dd35b0a550f,qpid-dispatch
DISPATCH-1244,2019-01-16 19:29:58 +0000,console/stand-alone/plugin/js/topology/qdrTopology.js|,18,19,19,2019-01-16 18:49:49 +0000,2019-01-16 14:28:35 -0500,cbfce9d3bead7e36ea339f51015820a9ca7197e8,qpid-dispatch
DISPATCH-1245,2019-01-23 13:44:25 +0000,console/CMakeLists.txt|console/stand-alone/.eslintrc|,18,19,19,2019-01-17 17:07:31 +0000,2019-01-18 15:22:39 -0500,0ca9161ca2bcc0738c45b0f7da7b500a1ab88c0c,qpid-dispatch
DISPATCH-1252,2019-01-23 14:02:23 +0000,console/stand-alone/plugin/js/amqp/topology.js|console/stand-alone/plugin/js/qdrGlobals.js|console/stand-alone/plugin/js/qdrService.js|,18,19,19,2019-01-23 13:59:35 +0000,2019-01-23 09:01:32 -0500,ae6f30dea2e5da7eee632711d061fbb17e5f8ebd,qpid-dispatch
DISPATCH-1247,2019-01-24 15:47:50 +0000,src/router_node.c|,18,19,19,2019-01-18 15:58:59 +0000,2019-01-24 10:45:39 -0500,5785683387f85adb58299b2104def41bf1cb049e,qpid-dispatch
DISPATCH-1254,2019-01-25 14:22:59 +0000,tools/qdstat.in|,14,19,19,2019-01-23 15:41:25 +0000,2019-01-25 09:20:20 -0500,6991beced175939222c92cffd3c230bd281be8c4,qpid-dispatch
DISPATCH-1257,2019-01-25 21:57:40 +0000,python/qpid_dispatch/management/client.py|tests/system_tests_qdstat.py|,18,19,19,2019-01-25 19:37:12 +0000,2019-01-25 21:56:19 +0000,50fcfc5c1fdfbd0034ab066f525b597d434f65b9,qpid-dispatch
DISPATCH-1260,2019-02-01 18:06:02 +0000,console/stand-alone/plugin/js/topology/traffic.js|,18,19,19,2019-02-01 18:04:18 +0000,2019-02-01 13:05:18 -0500,37e81fb68b1772514791d1645556abc72da2f935,qpid-dispatch
DISPATCH-1261,2019-02-04 16:32:27 +0000,console/stand-alone/gulpfile.js|console/stand-alone/vendor-js.txt|,18,19,19,2019-02-01 18:32:15 +0000,2019-02-01 13:34:22 -0500,0310f91fe587d1a7aea266ed0168918dddbdbed8,qpid-dispatch
DISPATCH-1263,2019-02-04 16:39:33 +0000,console/stand-alone/plugin/css/dispatch.css|console/stand-alone/plugin/js/topology/qdrTopology.js|,18,19,19,2019-02-04 16:37:24 +0000,2019-02-04 11:38:44 -0500,1cbc2d7b97cc645464137bdf19b840ca7110b2ec,qpid-dispatch
DISPATCH-1011,2018-06-04 17:12:06 +0000,src/policy_internal.h|,12,13,19,2018-05-25 12:47:43 +0000,2019-02-04 12:18:57 +0100,0f7ab6d623b90cc57d99c1a4b42090c48cd4ac28,qpid-dispatch
DISPATCH-1267,2019-02-08 17:04:33 +0000,tests/system_tests_bad_configuration.py|,18,19,19,2019-02-08 17:01:47 +0000,2019-02-08 12:03:17 -0500,9b45cb98bbccb070a285eb5e25ca32d363517c37,qpid-dispatch
DISPATCH-1272,2019-02-27 17:58:31 +0000,src/container.c|,18,19,19,2019-02-27 16:58:59 +0000,2019-02-27 12:57:20 -0500,8e94c5cf6f98083af3066b8cff2fd5aa0b176027,qpid-dispatch
DISPATCH-1273,2019-02-28 18:01:31 +0000,src/policy.c|src/policy.h|src/router_node.c|tests/system_tests_authz_service_plugin.py.in|,18,19,19,2019-02-27 22:08:56 +0000,2019-02-28 10:42:21 +0000,ee82bac3d890f652bc5776c5b3954e6b30bde9c0,qpid-dispatch
DISPATCH-1277,2019-03-05 20:13:00 +0000,tests/one-router-policy/default.json|,18,19,19,2019-03-05 18:41:04 +0000,2019-03-05 15:10:20 -0500,fb7731ba0f73b88f741002c440837cee9ac3afe8,qpid-dispatch
DISPATCH-1276,2019-03-15 18:22:38 +0000,src/router_core/modules/edge_addr_tracking/edge_addr_tracking.c|src/router_core/modules/edge_router/addr_proxy.c|,18,19,19,2019-03-05 14:16:40 +0000,2019-03-15 13:49:36 -0400,644935decfeb90af1fd0315437fd2256a0ba576c,qpid-dispatch
DISPATCH-1287,2019-03-18 19:33:48 +0000,src/router_core/transfer.c|,18,19,19,2019-03-14 18:37:44 +0000,2019-03-18 19:07:32 +0000,0f7d271d5f49357d72abd05df4ba15fe4f5d4378,qpid-dispatch
DISPATCH-1293,2019-03-19 13:12:20 +0000,console/stand-alone/package-lock.json|console/stand-alone/package.json|console/stand-alone/plugin/js/amqp/topology.js|,18,19,19,2019-03-19 13:07:31 +0000,2019-03-19 09:09:57 -0400,1915f3e8b63e3b6369744be662185b576ef4422e,qpid-dispatch
DISPATCH-1285,2019-03-22 13:49:22 +0000,src/router_node.c|,18,19,19,2019-03-14 14:54:08 +0000,2019-03-22 09:45:35 -0400,16826bc29e8772feeda84c07f546a5db60d755a8,qpid-dispatch
DISPATCH-1288,2019-03-22 16:20:13 +0000,python/qpid_dispatch/management/qdrouter.json|src/connection_manager.c|src/container.c|src/policy.c|src/policy.h|src/server.c|src/server_private.h|tests/system_tests_policy.py|,18,19,19,2019-03-14 20:43:39 +0000,2019-03-22 11:42:34 -0400,60d2e75f1ace295a68a5d3878997e543b2b79cc5,qpid-dispatch
DISPATCH-1275,2019-03-22 16:16:11 +0000,tests/system_tests_one_router.py|tests/system_tests_qdmanage.py|tests/system_tests_two_routers.py|,18,19,19,2019-03-01 15:56:21 +0000,2019-03-22 17:44:44 -0400,d84d75ea48954a3064e1c776fead7e061445308e,qpid-dispatch
DISPATCH-1292,2019-03-19 16:36:35 +0000,src/connection_manager.c|,18,19,19,2019-03-19 11:57:38 +0000,2019-03-22 20:31:56 -0400,c3079b3c2fec654ecfc667abc3c29cc787307c96,qpid-dispatch
DISPATCH-1301,2019-03-25 16:08:38 +0000,tests/system_tests_one_router.py|tests/system_tests_two_routers.py|,18,19,19,2019-03-23 15:27:37 +0000,2019-03-25 12:05:07 -0400,817ecb9b6bd91965a255c941cdafa750ee0fb97f,qpid-dispatch
DISPATCH-1305,2019-03-26 16:04:58 +0000,tests/system_tests_policy.py|,18,19,19,2019-03-26 16:02:33 +0000,2019-03-26 12:04:03 -0400,9e10ba9dbc7328b02bad101c8563e0c51508a815,qpid-dispatch
DISPATCH-1304,2019-03-26 17:25:10 +0000,tests/authservice.py.in|,18,19,20,2019-03-26 13:49:17 +0000,2019-03-28 14:55:50 -0400,8e5a6b024110dc43d76ada9c1fed5a9cb6b95f27,qpid-dispatch
DISPATCH-1302,2019-04-03 20:22:57 +0000,src/message.c|src/router_core/transfer.c|src/router_node.c|tests/CMakeLists.txt|tests/system_tests_multicast.py|,18,19,20,2019-03-25 13:13:01 +0000,2019-04-03 15:43:23 -0400,425edb6ecba873f547feb279a18220a2be24e3de,qpid-dispatch
DISPATCH-1314,2019-04-09 14:07:14 +0000,src/http-libwebsockets.c|,19,20,20,2019-04-08 14:48:11 +0000,2019-04-09 13:50:13 +0100,c354fa42cc7159e155639a16c9589bae85665799,qpid-dispatch
DISPATCH-1315,2019-04-09 14:07:54 +0000,src/http-libwebsockets.c|,19,20,20,2019-04-08 18:38:50 +0000,2019-04-09 13:50:37 +0100,dfadc670b4b80db44054061d7d9166b2e56681aa,qpid-dispatch
DISPATCH-1316,2019-04-09 14:08:14 +0000,src/remote_sasl.c|,19,20,20,2019-04-08 21:00:30 +0000,2019-04-09 13:51:40 +0100,2f91e200a1cf5739e0163709cbb1fa14f8302d1c,qpid-dispatch
DISPATCH-1270,2019-04-10 20:38:45 +0000,include/qpid/dispatch/timer.h|src/http-libwebsockets.c|src/timer.c|,18,19,20,2019-02-24 16:07:27 +0000,2019-04-10 22:37:14 +0200,9bb06620c63ab47441d2e4c68c81f66fe0aff050,qpid-dispatch
DISPATCH-1309,2019-04-09 13:27:19 +0000,include/qpid/dispatch/alloc_malloc.h|include/qpid/dispatch/alloc_pool.h|include/qpid/dispatch/router_core.h|src/router_core/connections.c|src/router_core/core_link_endpoint.c|src/router_core/forwarder.c|src/router_core/router_core_private.h|src/router_core/transfer.c|src/router_node.c|,19,20,20,2019-04-02 13:33:32 +0000,2019-04-11 13:44:50 -0400,67e8ef6f10a4a3b2f92f39aa63f9aa0f51800000,qpid-dispatch
DISPATCH-1319,2019-04-16 19:41:27 +0000,src/container.c|,19,20,20,2019-04-12 15:08:54 +0000,2019-04-12 12:05:52 -0400,bce3ac6f3e88092556e8004fe41494d21bc60de4,qpid-dispatch
DISPATCH-1317,2019-04-15 14:59:17 +0000,tests/system_tests_http.py|,19,20,20,2019-04-09 14:27:48 +0000,2019-04-15 10:56:56 -0400,957264b40d19b2c4710e4140bc5c7af03f6cef26,qpid-dispatch
DISPATCH-1322,2019-04-26 19:33:00 +0000,src/router_core/delivery.c|src/router_core/transfer.c|,20,20,21,2019-04-15 01:07:28 +0000,2019-04-26 15:19:22 -0400,39309ea3b1606e1a0382ee4177b5df984eea536a,qpid-dispatch
DISPATCH-1318,2019-04-29 14:50:43 +0000,tests/system_tests_edge_router.py|,19,20,21,2019-04-11 20:02:34 +0000,2019-04-29 10:34:22 -0400,350a1395a43ad8cbb5c22d24b00fbbabc9b583c8,qpid-dispatch
DISPATCH-1325,2019-05-01 18:21:09 +0000,src/router_core/transfer.c|src/router_node.c|,20,21,21,2019-04-26 15:46:39 +0000,2019-05-01 14:02:32 -0400,b44882d0ae7bccec818d0080d414d5ac6e36bb64,qpid-dispatch
DISPATCH-1324,2019-05-03 13:36:19 +0000,tools/scraper/common.py|tools/scraper/log_splitter.py|tools/scraper/nicknamer.py|tools/scraper/scraper.py|,20,21,21,2019-04-25 19:36:33 +0000,2019-05-02 11:45:02 -0400,ed1deb5fd203c4ba7e562835cb2e09eb1d66384b,qpid-dispatch
DISPATCH-1085,2018-08-06 15:43:42 +0000,src/router_node.c|,14,15,21,2018-07-23 19:04:28 +0000,2019-05-03 09:33:43 -0400,9fe78f2cd87568a8737203f0c0f5311e12283a3c,qpid-dispatch
DISPATCH-1312,2019-05-03 20:07:34 +0000,CMakeLists.txt|bin/grinder|include/qpid/dispatch/alloc.h|include/qpid/dispatch/alloc_malloc.h|src/CMakeLists.txt|src/config.h.in|tests/CMakeLists.txt|tests/run_unit_tests.c|,19,20,21,2019-04-04 18:51:09 +0000,2019-05-03 15:09:23 -0400,9500b454cd304e2f22c101cd99bcb749cadafd70,qpid-dispatch
DISPATCH-1330,2019-05-03 20:57:57 +0000,include/qpid/dispatch/container.h|src/message.c|src/message_private.h|src/router_node.c|tests/system_tests_one_router.py|,19,21,21,2019-05-01 14:39:56 +0000,2019-05-03 16:48:10 -0400,e5680326cfa93b7dbcb440aa0081c2ed34df772e,qpid-dispatch
DISPATCH-1334,2019-05-10 11:49:10 +0000,console/stand-alone/plugin/js/amqp/utilities.js|console/stand-alone/plugin/js/qdrService.js|console/stand-alone/plugin/js/topology/qdrTopology.js|console/stand-alone/plugin/js/topology/topoUtils.js|console/stand-alone/plugin/js/topology/traffic.js|,20,21,21,2019-05-10 11:44:32 +0000,2019-05-10 07:47:12 -0400,f76154e687d1663bf6476e7c2eab4eddca103e03,qpid-dispatch
DISPATCH-1335,2019-05-10 14:23:28 +0000,console/stand-alone/plugin/js/topology/links.js|console/stand-alone/plugin/js/topology/qdrTopology.js|,20,21,21,2019-05-10 11:51:50 +0000,2019-05-10 10:21:53 -0400,a8a0e5c1682d72b7be259973135e8bee481c834f,qpid-dispatch
DISPATCH-974,2019-05-10 19:06:20 +0000,python/qpid_dispatch/management/client.py|tests/system_tests_qdmanage.py|tests/system_tests_qdstat.py|tools/qdstat.in|,12,13,21,2018-04-23 12:12:41 +0000,2019-05-10 15:02:02 -0400,e4197eacf8b60d600174fca743432d5b6f8f0c9b,qpid-dispatch
DISPATCH-1326,2019-05-08 13:21:43 +0000,include/qpid/dispatch/router_core.h|src/router_core/connections.c|src/router_node.c|,18,21,21,2019-04-26 19:14:00 +0000,2019-05-10 16:54:02 -0400,4c9786c000df9ad2e54b81490231100489640604,qpid-dispatch
DISPATCH-1323,2019-05-13 13:36:25 +0000,docs/books/old-user-guide/auto_links.adoc|docs/books/user-guide/configuration-reference.adoc|docs/books/user-guide/logging.adoc|docs/books/user-guide/reliability.adoc|docs/books/user-guide/routing.adoc|python/qpid_dispatch/management/qdrouter.json|src/router_config.c|src/router_core/agent_config_auto_link.c|src/router_core/agent_config_auto_link.h|tests/system_tests_autolinks.py|tests/system_tests_deprecated.py|tests/system_tests_distribution.py|tests/system_tests_edge_router.py|tests/system_tests_global_delivery_counts.py|tests/system_tests_link_routes.py|tests/system_tests_multi_tenancy.py|tests/system_tests_policy.py|tests/system_tests_qdmanage.py|tools/qdstat.in|,20,21,21,2019-04-18 19:35:05 +0000,2019-05-13 09:14:20 -0400,0e03aea5cd7a3be06922541e7ef4a2b87a8beaee,qpid-dispatch
DISPATCH-1339,2019-05-21 12:04:15 +0000,console/stand-alone/plugin/js/topology/links.js|,20,21,21,2019-05-21 10:45:42 +0000,2019-05-21 06:47:14 -0400,1bcf0c3c9bcf13078d9088329ec25609952562cf,qpid-dispatch
DISPATCH-1365,2019-06-14 17:41:01 +0000,console/stand-alone/plugin/js/qdrDelayedDeliveriesController.js|,21,22,22,2019-06-11 21:01:55 +0000,2019-06-14 13:38:33 -0400,4eea5a7be230e7a40b9c2478cf9eee74c8ede449,qpid-dispatch
DISPATCH-1359,2019-09-09 21:22:45 +0000,CMakeLists.txt|tests/CMakeLists.txt|,20,21,22,2019-06-10 17:11:42 +0000,2019-06-14 16:59:38 -0400,b172f501028b36d786b4c83bcee1e195cd17fcf2,qpid-dispatch
DISPATCH-1380,2019-07-10 15:13:36 +0000,src/container.c|,21,22,22,2019-07-01 14:49:37 +0000,2019-07-05 15:12:24 -0400,08691d68a337f71d2da5008bffb3fa73c237e44e,qpid-dispatch
DISPATCH-1378,2019-07-10 15:14:50 +0000,src/router_core/transfer.c|,21,22,22,2019-06-28 20:06:02 +0000,2019-07-05 15:13:58 -0400,9ec19640722ac3a1a31b5755d1e0e68441f154ab,qpid-dispatch
DISPATCH-1383,2019-08-23 20:35:55 +0000,tests/system_tests_policy.py|,21,22,22,2019-07-03 18:46:32 +0000,2019-07-08 10:05:49 -0400,f22766996be12f5a0d6b388d04be6d7ccad1eb80,qpid-dispatch
DISPATCH-1391,2019-07-24 19:33:49 +0000,src/container.c|src/router_node.c|,21,22,22,2019-07-24 16:08:54 +0000,2019-07-24 15:31:08 -0400,afa65d6ad9f274c235f24bc1875b1041cbbdb0d2,qpid-dispatch
DISPATCH-1398,2019-08-19 16:07:37 +0000,console/hawtio/src/main/webapp/plugin/html/tmplListTree.html|console/stand-alone/plugin/html/qdrList.html|console/stand-alone/plugin/js/qdrList.js|,21,22,22,2019-08-14 13:39:28 +0000,2019-08-19 12:05:22 -0400,3132b882ac97dd83cf737d7936ddd4914781adcc,qpid-dispatch
DISPATCH-1407,2019-09-09 13:10:40 +0000,src/container.c|,21,22,22,2019-09-05 22:16:19 +0000,2019-09-09 09:16:12 +0100,0ed5d5c5c0f00c92e8ac0d02cac3e462a9ebdfd6,qpid-dispatch
DISPATCH-1394,2019-09-06 13:27:06 +0000,tests/message_test.c|,21,22,22,2019-08-05 14:42:42 +0000,2019-09-09 14:47:57 -0400,46816cbaad39a01027e6e9cb11117f41a406c6e2,qpid-dispatch
DISPATCH-1387,2019-07-18 18:03:31 +0000,src/router_core/agent_address.c|src/router_core/agent_config_address.c|src/router_core/agent_config_link_route.c|,21,22,22,2019-07-17 17:35:16 +0000,2019-09-09 16:17:41 -0400,1547a2fe47a83f2e83d6ee9b8ec92ea2dec2c1c8,qpid-dispatch
DISPATCH-1413,2019-09-09 15:57:27 +0000,tests/system_tests_two_routers.py|,21,22,22,2019-09-09 15:44:43 +0000,2019-09-11 16:15:01 -0400,d0e391ce53e036156197d0a7c3ebab33aac7b5e8,qpid-dispatch
DISPATCH-1417,2019-09-16 14:09:14 +0000,src/dispatch_private.h|src/router_core/router_core_thread.c|src/server.c|,21,22,22,2019-09-11 17:47:48 +0000,2019-09-16 10:07:01 -0400,2b95158826f32ca9f43e15c891602ec0acc63c18,qpid-dispatch
DISPATCH-1406,2019-09-09 14:03:58 +0000,tests/CMakeLists.txt|tests/system_test.py|tests/system_tests_edge_router.py|tests/system_tests_link_routes.py|tests/system_tests_router_mesh.py|tests/test-receiver.c|tests/test-sender.c|,20,22,22,2019-09-04 21:03:40 +0000,2019-09-18 11:07:53 -0400,759dfd6be57c2d32a371b1529194831356de61c5,qpid-dispatch
DISPATCH-1426,2019-09-30 15:40:44 +0000,include/qpid/dispatch/container.h|src/container.c|src/router_node.c|,21,22,23,2019-09-18 12:28:38 +0000,2019-09-30 10:58:23 -0400,17f20fb58b32d07bb1f95067c7210819e24b4b5d,qpid-dispatch
DISPATCH-1433,2019-09-30 23:03:43 +0000,tests/system_tests_delivery_abort.py|,22,23,23,2019-09-30 21:45:16 +0000,2019-09-30 19:01:53 -0400,c3fd202f5ce17cb553ea3fc4b04cde376fe86e5b,qpid-dispatch
DISPATCH-1408,2019-09-06 19:52:24 +0000,tests/system_tests_distribution.py|,21,22,23,2019-09-06 16:26:44 +0000,2019-10-01 11:44:01 -0400,b08babc21637ef99af60da893837c5b40c8c0ceb,qpid-dispatch
DISPATCH-1418,2019-10-03 13:03:54 +0000,src/router_core/transfer.c|tests/system_tests_router_mesh.py|,21,22,23,2019-09-11 18:26:39 +0000,2019-10-02 17:32:44 -0400,fc9c4380d796656ad964e04bb389d3223d94b1c5,qpid-dispatch
DISPATCH-1423,2019-10-07 14:14:38 +0000,src/router_core/transfer.c|tests/system_test.py|tests/system_tests_multicast.py|,21,22,23,2019-09-17 15:33:54 +0000,2019-10-04 11:47:34 -0400,366c6e61a299a6a672b6ea81974d96f465499e71,qpid-dispatch
DISPATCH-779,2017-09-08 15:57:49 +0000,src/router_core/transfer.c|tests/system_test.py|tests/system_tests_multicast.py|,9,10,23,2017-05-23 21:30:27 +0000,2019-10-04 11:47:34 -0400,366c6e61a299a6a672b6ea81974d96f465499e71,qpid-dispatch
DISPATCH-1443,2019-10-11 17:19:03 +0000,CMakeLists.txt|Dockerfile|README|dockerfiles/Dockerfile-fedora|dockerfiles/Dockerfile-fedora-only-python3|dockerfiles/Dockerfile-ubuntu|tests/CMakeLists.txt|tests/router_engine_test.py|tests/router_policy_test.py|tests/run_system_tests.py|tests/system_test.py|tests/system_tests_address_lookup.py|tests/system_tests_auth_service_plugin.py|tests/system_tests_authz_service_plugin.py.in|tests/system_tests_autolinks.py|tests/system_tests_broker.py|tests/system_tests_cmdline_parsing.py|tests/system_tests_core_endpoint.py|tests/system_tests_default_distribution.py|tests/system_tests_delivery_abort.py|tests/system_tests_disallow_link_resumable_link_route.py|tests/system_tests_distribution.py|tests/system_tests_drain.py|tests/system_tests_drain_support.py|tests/system_tests_dynamic_terminus.py|tests/system_tests_edge_router.py|tests/system_tests_exchange_bindings.py|tests/system_tests_failover_list.py|tests/system_tests_fallback_dest.py|tests/system_tests_handle_failover.py.in|tests/system_tests_http.py|tests/system_tests_interior_sync_up.py|tests/system_tests_link_route_credit.py|tests/system_tests_link_routes.py|tests/system_tests_link_routes_add_external_prefix.py|tests/system_tests_log_message_components.py|tests/system_tests_management.py|tests/system_tests_multi_phase.py|tests/system_tests_multi_tenancy.py|tests/system_tests_multicast.py|tests/system_tests_one_router.py|tests/system_tests_priority.py|tests/system_tests_protocol_family.py|tests/system_tests_protocol_settings.py|tests/system_tests_qdmanage.py|tests/system_tests_router_mesh.py|tests/system_tests_sasl_plain.py|tests/system_tests_ssl.py|tests/system_tests_topology.py|tests/system_tests_two_routers.py|tests/system_tests_user_id.py|tests/system_tests_user_id_proxy.py|,22,23,23,2019-10-07 13:35:18 +0000,2019-10-10 13:46:08 -0400,3a4552832ef6e9f24269d6c7d9d1ec971b8202fd,qpid-dispatch
