Bug ID,Bug Resolution Date by Jira,Classes Touched by Last Fix,Earliest AV,Version of Ticket Creation,Version of Fix,Ticket Creation Date,Fix Date (of most recent commit),Hash (of most recent commit),Git Directory
BUILDR-22,2008-02-18 10:13:10 +0000,doc/pages/packaging.textile|lib/core/checks.rb|lib/core/common.rb|lib/tasks/zip.rb|spec/archive_spec.rb|,1,2,2,2008-01-19 01:31:29 +0000,2008-02-18 10:11:48 +0000,44838264be4ccf72976b327d03d3b67fec6d6cd9,buildr
BUILDR-66,2008-05-05 21:01:21 +0000,lib/buildr/java/bdd_frameworks.rb|,2,3,3,2008-05-03 20:02:53 +0000,2008-05-05 21:01:10 +0000,18a2ca6f897860a8ce65c0491875b6bbde80303c,buildr
BUILDR-67,2008-05-07 16:35:46 +0000,lib/buildr/core/transports.rb|spec/transport_spec.rb|,1,3,3,2008-05-07 00:07:29 +0000,2008-05-07 15:38:11 +0000,78153b0d1175758466da11b0db690f468de5a854,buildr
BUILDR-68,2008-05-13 07:42:50 +0000,CHANGELOG|lib/buildr/java.rb|spec/java_spec.rb|,2,3,3,2008-05-12 20:11:42 +0000,2008-05-13 04:21:11 +0000,297d04b73d33e764ca8340b07f093278e3576ce7,buildr
BUILDR-63,2008-06-07 00:46:17 +0000,CHANGELOG|lib/buildr/java/pom.rb|,2,2,4,2008-04-30 03:33:35 +0000,2008-05-19 20:05:52 +0000,666043642f72751c19022c22f38723472cd2141c,buildr
BUILDR-79,2008-06-02 21:30:09 +0000,CHANGELOG|lib/buildr/java/compilers.rb|spec/scala_compilers_spec.rb|,2,4,4,2008-06-02 03:10:54 +0000,2008-06-02 21:29:46 +0000,86a556026ed5f5cae56e696c4d8db74024fe342a,buildr
BUILDR-80,2008-06-04 23:06:22 +0000,addon/buildr/nailgun.rb|,3,4,4,2008-06-03 10:46:33 +0000,2008-06-04 23:02:44 +0000,685ae805252a1f2589dcac6aab2a2f27d724c7ba,buildr
BUILDR-76,2008-06-04 23:05:27 +0000,lib/buildr/core/compile.rb|spec/compile_spec.rb|,2,4,4,2008-05-28 15:00:37 +0000,2008-06-04 23:03:09 +0000,75fdd232eeda34e317a33d0a373f3a0d062ee5af,buildr
BUILDR-77,2008-06-04 23:05:07 +0000,lib/buildr/core/project.rb|,2,4,4,2008-05-29 02:29:02 +0000,2008-06-04 23:03:42 +0000,785012b21cbcd940ff1bea14a9c4fcdf81742a9e,buildr
BUILDR-89,2008-06-27 21:51:09 +0000,lib/buildr/java/org/apache/buildr/JavaTestFilter.class|lib/buildr/java/org/apache/buildr/JavaTestFilter.java|spec/java_test_frameworks_spec.rb|,3,4,4,2008-06-26 16:54:54 +0000,2008-06-28 00:18:07 +0000,9ed0c2dd069d2522203dba9197e0a91e2fdc105e,buildr
BUILDR-73,2008-06-27 23:19:34 +0000,CHANGELOG|lib/buildr/ide/idea7x.rb|,2,4,4,2008-05-19 05:13:48 +0000,2008-06-28 00:18:52 +0000,a94170f491963b9b438f0c767fac97f17aa67170,buildr
BUILDR-90,2008-06-28 00:18:02 +0000,CHANGELOG|buildr.gemspec|,3,4,4,2008-06-26 20:52:39 +0000,2008-06-28 00:19:08 +0000,7043ac05cbca08309ee5feb688cb60ae28996069,buildr
BUILDR-81,2008-07-01 00:59:25 +0000,doc/pages/contributing.textile|doc/pages/download.textile|doc/pages/getting_started.textile|,2,4,4,2008-06-05 00:51:46 +0000,2008-07-01 00:59:29 +0000,d0325505e0f87e7ec6f5cd9d8b1474b26e095dda,buildr
BUILDR-101,2008-08-04 19:22:07 +0000,lib/buildr/core/transports.rb|spec/transport_spec.rb|,3,4,4,2008-07-09 03:11:23 +0000,2008-07-09 18:28:56 +0000,484a65975500bcfd368d5ee508775c3a67b7f684,buildr
BUILDR-100,2008-07-09 19:59:31 +0000,CHANGELOG|doc/pages/projects.textile|,3,4,4,2008-07-08 16:56:16 +0000,2008-07-09 20:04:46 +0000,4204cbb31c931e0df51ca50c2a008ac8f7e01dd2,buildr
BUILDR-110,2008-07-29 00:39:06 +0000,CHANGELOG|lib/buildr/core/generate.rb|,3,5,5,2008-07-28 23:41:30 +0000,2008-07-29 00:39:01 +0000,da2fec68f36aceadeb36ead6a0ffc275c39194a5,buildr
BUILDR-117,2008-08-04 23:00:00 +0000,lib/buildr/ide/eclipse.rb|,4,5,5,2008-08-03 17:22:48 +0000,2008-08-04 18:53:53 +0000,13c65bd722a3e83832ce64d96b2a28bb8bd3f6e1,buildr
BUILDR-124,2008-08-06 06:28:47 +0000,CHANGELOG|lib/buildr/packaging/zip.rb|spec/archive_spec.rb|,4,5,5,2008-08-06 04:29:38 +0000,2008-08-06 06:29:26 +0000,2cbdadd74b3d5cc3379544f731cafa8c6e43a1d6,buildr
BUILDR-138,2008-08-28 02:53:13 +0000,CHANGELOG|lib/buildr/core/test.rb|lib/buildr/java/test_frameworks.rb|spec/sandbox.rb|,4,5,5,2008-08-26 07:44:12 +0000,2008-08-28 02:59:10 +0000,db0640361b4f3ed4fdf217d39a4adb67e2c2ebe8,buildr
BUILDR-129,2008-09-01 19:20:56 +0000,CHANGELOG|lib/buildr/java/packaging.rb|,4,5,5,2008-08-13 03:38:33 +0000,2008-09-01 19:18:57 +0000,cf806dd0158bd5a587ee6f61c246f141dec9d754,buildr
BUILDR-137,2008-10-02 01:24:59 +0000,CHANGELOG|lib/buildr/core/transports.rb|rakelib/rspec.rake|,4,5,5,2008-08-22 15:46:36 +0000,2008-10-02 01:23:13 +0000,72dfa1a072972ef6335f31e1a3b22e00432fe0b5,buildr
BUILDR-157,2008-10-02 19:04:26 +0000,CHANGELOG|lib/buildr/core/application.rb|,4,5,5,2008-10-02 18:53:24 +0000,2008-10-02 19:03:44 +0000,09482d1b9c96aa3f0f77fb7642c5326ee471d88a,buildr
BUILDR-82,2008-06-28 00:22:40 +0000,buildr|,3,4,6,2008-06-05 21:07:59 +0000,2008-10-17 19:20:00 +0000,768be0454c3525a098c14aa6e55b4eaa1a4af251,buildr
BUILDR-159,2008-10-19 14:10:30 +0000,CHANGELOG|doc/pages/testing.textile|lib/buildr/packaging/tar.rb|spec/core/checks_spec.rb|,5,5,6,2008-10-05 13:48:24 +0000,2008-10-19 14:09:44 +0000,c0e4f4991546189e2c8bb792055d7437d43143fb,buildr
BUILDR-192,2009-01-08 02:03:56 +0000,CHANGELOG|lib/buildr/java/tests.rb|,5,6,6,2008-10-29 18:03:06 +0000,2008-10-30 00:39:17 +0000,1b58694e05e72ec221ff4434af53ba1f118ce845,buildr
BUILDR-194,2008-11-06 21:08:59 +0000,CHANGELOG|lib/buildr/java/packaging.rb|spec/java/packaging_spec.rb|,4,6,6,2008-10-30 08:17:36 +0000,2008-11-06 21:09:42 +0000,d7a0c3bf7fe08e0d2e5d67a17ec230026816a5e3,buildr
BUILDR-175,2008-11-06 19:12:54 +0000,lib/buildr/core/project.rb|,5,6,6,2008-10-16 18:14:05 +0000,2008-11-06 21:10:33 +0000,a8c8d3f6ce6fb7a315c7473aef0f36841db68f53,buildr
BUILDR-170,2008-11-06 21:27:34 +0000,CHANGELOG|lib/buildr/packaging/artifact_namespace.rb|,4,5,6,2008-10-11 19:18:28 +0000,2008-11-06 21:26:29 +0000,70f64d225a981767d37aee129abcde7f0397cccd,buildr
BUILDR-216,2008-11-17 21:02:52 +0000,CHANGELOG|doc/pages/settings_profiles.textile|,5,6,6,2008-11-16 23:17:25 +0000,2008-11-17 21:01:52 +0000,d0a015a03d5a08cd5ec5244cf1aef8f37f4d1d21,buildr
BUILDR-261,2009-02-22 17:14:29 +0000,lib/buildr/scala/tests.rb|,5,6,6,2009-02-22 17:13:18 +0000,2009-02-22 17:13:38 +0000,5ab8ada06fa5e4ddbae7ea48cb24e40cc4330cd3,buildr
BUILDR-263,2009-03-06 02:11:32 +0000,CHANGELOG|lib/buildr/core/filter.rb|lib/buildr/packaging/archive.rb|lib/buildr/packaging/ziptask.rb|spec/packaging/archive_spec.rb|,5,6,6,2009-03-05 21:51:42 +0000,2009-03-06 01:38:03 +0000,3f13febcc63fd72d531e1c3f20804917e652a112,buildr
BUILDR-235,2009-03-12 22:52:51 +0000,CHANGELOG|doc/scripts/install-jruby.sh|,5,6,6,2009-01-07 20:26:20 +0000,2009-03-12 23:35:27 +0000,ce6a00f8954e668a7345c026953af5b4120687a2,buildr
BUILDR-185,2009-03-12 22:58:04 +0000,CHANGELOG|lib/buildr/packaging/artifact_namespace.rb|spec/packaging/artifact_namespace_spec.rb|,4,6,6,2008-10-22 12:55:54 +0000,2009-03-12 23:36:52 +0000,8472118b7dda2d16918eed93f56308a0ec8a54db,buildr
BUILDR-226,2009-03-12 23:02:46 +0000,CHANGELOG|lib/buildr/core/build.rb|spec/core/build_spec.rb|,5,6,6,2008-12-10 15:46:58 +0000,2009-03-12 23:38:38 +0000,9fbc9eb162a27d61aafa1161b38bebce4e13aa62,buildr
BUILDR-239,2009-03-12 23:20:28 +0000,CHANGELOG|lib/buildr/core/transports.rb|spec/core/transport_spec.rb|,5,6,6,2009-01-29 00:44:50 +0000,2009-03-12 23:42:37 +0000,86af14816ae703e672dceebde91d026073208312,buildr
BUILDR-241,2009-03-12 23:29:19 +0000,spec/core/util_spec.rb|spec/ide/idea7x_spec.rb|,5,6,6,2009-02-04 17:19:01 +0000,2009-03-13 02:50:15 +0000,11618e9956d0b957b69ceb23db0b98ef2f5d5135,buildr
BUILDR-247,2009-03-12 23:14:23 +0000,spec/core/util_spec.rb|spec/ide/idea7x_spec.rb|,5,6,6,2009-02-10 04:13:40 +0000,2009-03-13 02:50:15 +0000,11618e9956d0b957b69ceb23db0b98ef2f5d5135,buildr
BUILDR-230,2009-03-13 02:26:58 +0000,CHANGELOG|lib/buildr/core/build.rb|lib/buildr/core/util.rb|spec/core/build_spec.rb|,5,6,6,2008-12-19 18:44:22 +0000,2009-03-13 03:00:45 +0000,25f90b205b9faf71c93aa541f9d35208dadbf92b,buildr
BUILDR-286,2009-06-15 19:59:42 +0000,spec/scala/bdd_spec.rb|,6,7,7,2009-06-15 18:22:02 +0000,2009-06-15 19:58:43 +0000,29157daa3befaa25425bebc43a1160e48a1dcec9,buildr
BUILDR-290,2010-07-02 17:43:36 +0000,CHANGELOG|lib/buildr/core/transports.rb|,6,7,7,2009-06-25 11:37:36 +0000,2009-06-26 17:37:57 +0000,c7b77432ff6f68471873700d31f8e21793f70026,buildr
BUILDR-292,2009-07-30 04:01:51 +0000,lib/buildr/core/util.rb|,6,7,7,2009-07-02 11:55:21 +0000,2009-07-30 05:35:00 +0000,cb63930ad35f131199a9dfc1ee928a5e6c8b683f,buildr
BUILDR-278,2009-08-25 15:50:17 +0000,CHANGELOG|,6,7,7,2009-05-12 15:12:03 +0000,2009-08-25 15:47:54 +0000,ec6dd7a73af54ab00577722bbdd4bba2c417bd6c,buildr
BUILDR-304,2009-08-30 00:33:10 +0000,CHANGELOG|,5,7,7,2009-08-26 16:21:14 +0000,2009-08-30 00:32:50 +0000,b0d3b003f896954dee1693b22e28add88241bac8,buildr
BUILDR-315,2009-09-14 22:23:00 +0000,CHANGELOG|lib/buildr/ide/eclipse.rb|spec/ide/eclipse_spec.rb|,6,7,7,2009-09-14 22:21:04 +0000,2009-09-14 22:22:18 +0000,126992c17b37db9c18dbefb5c645b6787c7ad7b6,buildr
BUILDR-313,2009-09-16 17:47:04 +0000,CHANGELOG|lib/buildr/core/build.rb|spec/core/build_spec.rb|,2,7,7,2009-09-11 19:21:41 +0000,2009-09-16 17:46:36 +0000,8e2090379ae47d6bdf07fdb51f40157eef9ad275,buildr
BUILDR-301,2009-09-17 23:48:09 +0000,CHANGELOG|lib/buildr/java/tests.rb|spec/java/tests_spec.rb|,6,7,7,2009-08-10 23:08:50 +0000,2009-09-17 23:47:46 +0000,df12848c97bc22c51d48176f76cec27b619e6055,buildr
BUILDR-283,2009-09-18 18:40:24 +0000,doc/settings_profiles.textile|,6,7,7,2009-06-03 00:25:51 +0000,2009-09-18 18:40:04 +0000,61a50281079388579749392e27163595be1077a3,buildr
BUILDR-289,2009-09-18 19:09:14 +0000,CHANGELOG|lib/buildr/java/commands.rb|spec/java/java_spec.rb|,6,7,7,2009-06-23 17:48:23 +0000,2009-09-18 19:09:01 +0000,4566fed6cc0b56afdfd50b65fb0a75a35a0548f5,buildr
BUILDR-322,2009-09-28 17:38:49 +0000,lib/buildr/core/compile.rb|,4,7,7,2009-09-28 17:35:10 +0000,2009-09-28 17:36:52 +0000,e0222de8a3f055103e15d6e91a48fcfc22df84fa,buildr
BUILDR-324,2009-09-30 22:44:56 +0000,CHANGELOG|lib/buildr/core/test.rb|spec/java/tests_spec.rb|,2,7,7,2009-09-30 00:56:59 +0000,2009-09-30 22:41:48 +0000,c43828e58afa633973cf11ad185413237c53e6a4,buildr
BUILDR-181,2009-09-30 22:59:05 +0000,CHANGELOG|lib/buildr/groovy/bdd.rb|spec/groovy/bdd_spec.rb|,5,6,7,2008-10-20 19:40:27 +0000,2009-09-30 22:58:35 +0000,a21b05823607341748ff60fb21183aceca15563c,buildr
BUILDR-323,2009-09-30 23:10:02 +0000,spec/core/application_spec.rb|,6,7,7,2009-09-29 22:15:17 +0000,2009-09-30 23:09:07 +0000,861acd6f33b9a12dba6e70ec3354249c51fdc63a,buildr
BUILDR-327,2009-10-11 00:28:11 +0000,CHANGELOG|lib/buildr/ide/eclipse/java.rb|lib/buildr/ide/eclipse/plugin.rb|spec/ide/eclipse_spec.rb|,7,8,8,2009-10-09 18:19:51 +0000,2009-10-11 00:27:47 +0000,8e24f8fd01d469940e4b000e90ea3c250b6552b7,buildr
BUILDR-334,2009-10-29 13:08:44 +0000,CHANGELOG|lib/buildr/ide/eclipse.rb|spec/ide/eclipse_spec.rb|,7,8,8,2009-10-29 07:08:41 +0000,2009-10-29 13:07:42 +0000,f4e947b25cdbc978bc17cac71caed2099a56af94,buildr
BUILDR-330,2009-11-13 21:32:01 +0000,CHANGELOG|lib/buildr/packaging/artifact.rb|spec/packaging/artifact_spec.rb|,1,8,8,2009-10-20 06:44:11 +0000,2009-11-13 21:30:48 +0000,357e31cc593c7e967fdd02c15b66c2faafb435a1,buildr
BUILDR-347,2009-11-18 23:07:18 +0000,CHANGELOG|lib/buildr/core/compile.rb|spec/core/compile_spec.rb|,7,8,8,2009-11-18 20:40:15 +0000,2009-11-18 23:06:49 +0000,1bab69387d48cdf43bb972bae25eb39403406342,buildr
BUILDR-346,2009-11-18 23:15:20 +0000,CHANGELOG|lib/buildr/core/test.rb|spec/core/test_spec.rb|,7,8,8,2009-11-18 07:37:35 +0000,2009-11-18 23:14:28 +0000,36ed44c7a4b770fee0118714c0c26aa1e6a273ed,buildr
BUILDR-349,2009-11-20 19:08:06 +0000,CHANGELOG|lib/buildr/core/filter.rb|spec/core/compile_spec.rb|,7,8,8,2009-11-20 18:50:01 +0000,2009-11-20 19:04:53 +0000,e1016944ad52c3b7a6679594de8871b1da8590f8,buildr
BUILDR-360,2010-01-13 19:13:34 +0000,lib/buildr/core/build.rb|,7,8,8,2010-01-08 01:18:16 +0000,2010-01-13 19:11:55 +0000,d5b329441d277c718aa0be9a0285cd3682c53bcc,buildr
BUILDR-364,2010-01-22 19:53:29 +0000,CHANGELOG|lib/buildr/packaging/package.rb|,7,8,8,2010-01-21 13:41:35 +0000,2010-01-22 19:53:02 +0000,002253cf7e71eec43afaa9fff86a67a0f93e7647,buildr
BUILDR-365,2010-01-23 19:09:19 +0000,CHANGELOG|spec/core/test_spec.rb|,7,8,8,2010-01-23 19:08:21 +0000,2010-01-23 19:09:08 +0000,f97fd452277311094488669ee431f5396cc3fdba,buildr
BUILDR-366,2010-01-23 19:52:32 +0000,CHANGELOG|lib/buildr/core/test.rb|lib/buildr/groovy/compiler.rb|lib/buildr/java/bdd.rb|lib/buildr/java/tests.rb|lib/buildr/scala/bdd.rb|lib/buildr/scala/compiler.rb|,7,8,8,2010-01-23 19:46:43 +0000,2010-01-23 19:52:11 +0000,1148c5c27cfa30aaa330edf9e26c88da2eae139a,buildr
BUILDR-383,2010-02-27 22:16:44 +0000,CHANGELOG|lib/buildr/packaging/artifact.rb|spec/packaging/artifact_spec.rb|,7,8,8,2010-02-26 17:50:34 +0000,2010-02-27 22:16:12 +0000,5f36f6116fe51213d1a5749d88667ec4451c5856,buildr
BUILDR-380,2010-02-27 23:10:58 +0000,CHANGELOG|lib/buildr/core/build.rb|,7,8,8,2010-02-25 15:30:14 +0000,2010-02-27 23:10:36 +0000,a45cd8d4f2e1e0b7c5f6d9c98dd86d836a2a9fe8,buildr
BUILDR-382,2010-02-28 00:05:40 +0000,CHANGELOG|lib/buildr/core/doc.rb|lib/buildr/packaging/package.rb|spec/packaging/packaging_spec.rb|,7,8,8,2010-02-26 14:06:18 +0000,2010-02-28 00:04:33 +0000,95810c00a6ec81488a7ce5a6e6bd81c7853eec56,buildr
BUILDR-343,2010-02-28 02:00:16 +0000,doc/languages.textile|,7,8,8,2009-11-17 02:45:18 +0000,2010-02-28 01:59:41 +0000,5e960dc622aaaff75ed6f087ef5ea90670a1b65c,buildr
BUILDR-381,2010-02-28 04:38:06 +0000,CHANGELOG|lib/buildr/groovy/compiler.rb|lib/buildr/java/packaging.rb|lib/buildr/java/tests.rb|spec/groovy/compiler_spec.rb|spec/sandbox.rb|,7,8,8,2010-02-26 11:14:04 +0000,2010-02-28 04:35:57 +0000,22fb7c3191dcc2a316e10d19f9d9a02e7bcd4852,buildr
BUILDR-183,2010-02-28 16:49:56 +0000,CHANGELOG|lib/buildr/packaging/artifact_namespace.rb|spec/packaging/artifact_namespace_spec.rb|,4,6,8,2008-10-22 05:13:02 +0000,2010-02-28 16:49:17 +0000,93b71fe6df9faa2ca4bedcbba3ab059bd9c4cb4e,buildr
BUILDR-281,2010-02-28 17:00:09 +0000,CHANGELOG|lib/buildr/core/application.rb|,6,7,8,2009-05-27 11:41:38 +0000,2010-02-28 16:57:34 +0000,09339068962795c70e8283575751ea854f188980,buildr
BUILDR-233,2010-02-28 17:45:57 +0000,CHANGELOG|,4,6,8,2008-12-30 13:33:21 +0000,2010-02-28 17:47:50 +0000,469a296a55cd0a651ad9ad57ef2e032baf7bf666,buildr
BUILDR-267,2010-02-28 22:14:35 +0000,CHANGELOG|lib/buildr/core/test.rb|spec/core/test_spec.rb|,6,6,8,2009-03-12 06:24:14 +0000,2010-02-28 22:13:22 +0000,225060c2a05acafec240b8224a063b4c420ba410,buildr
BUILDR-348,2010-04-03 06:52:02 +0000,CHANGELOG|lib/buildr/core/util.rb|,7,8,8,2009-11-19 13:18:12 +0000,2010-03-01 17:09:49 +0000,927078045c5f1c0cc89a3031207376b5e4372a39,buildr
BUILDR-391,2010-03-02 05:56:41 +0000,CHANGELOG|lib/buildr/core/filter.rb|spec/core/compile_spec.rb|,7,8,8,2010-03-01 21:50:20 +0000,2010-03-02 05:56:21 +0000,4776895b3417a9152bd90c6c15ba44b3d2da0e7c,buildr
BUILDR-373,2010-03-02 06:05:31 +0000,CHANGELOG|lib/buildr/packaging/artifact.rb|spec/packaging/artifact_spec.rb|,7,8,8,2010-02-10 20:26:14 +0000,2010-03-02 06:05:00 +0000,3ae058f38973930b0c411fa911059b1a0c133030,buildr
BUILDR-341,2010-03-02 06:13:51 +0000,CHANGELOG|lib/buildr/java/bdd.rb|,7,8,8,2009-11-17 00:13:46 +0000,2010-03-02 06:13:12 +0000,80820246176d1eedb6301b579e1e57eaf175c73a,buildr
BUILDR-392,2010-03-05 05:25:53 +0000,CHANGELOG|lib/buildr/ide/eclipse.rb|spec/ide/eclipse_spec.rb|,7,8,8,2010-03-02 05:26:01 +0000,2010-03-05 05:25:33 +0000,552684b6672824d2601107a810f480b0a74f0af8,buildr
BUILDR-395,2010-03-05 05:28:28 +0000,lib/buildr/packaging/artifact_namespace.rb|lib/buildr/scala/compiler.rb|lib/buildr/scala/tests.rb|,7,8,8,2010-03-04 10:05:00 +0000,2010-03-05 05:27:26 +0000,126f0b52a455bac7a77afa8ac0e738b1fe6f1624,buildr
BUILDR-399,2010-03-15 22:29:17 +0000,CHANGELOG|lib/buildr/core/application.rb|spec/core/application_spec.rb|,7,8,8,2010-03-15 22:05:25 +0000,2010-03-15 22:28:19 +0000,02a1fd319a1e291cd4de8aa2c3e35efbb6d5694f,buildr
BUILDR-411,2010-04-01 03:02:36 +0000,CHANGELOG|lib/buildr/core/doc.rb|lib/buildr/packaging/artifact.rb|,7,8,8,2010-04-01 02:00:08 +0000,2010-04-01 03:02:09 +0000,ebb6c8514e68694557e7f3ed11af9e44e5df6551,buildr
BUILDR-208,2010-04-03 20:45:03 +0000,lib/buildr/core/application.rb|,6,6,8,2008-11-09 16:05:46 +0000,2010-04-03 20:43:38 +0000,65246552e16c57ea8eca1ecfa49b3ebb4b3baccd,buildr
BUILDR-417,2010-04-07 15:10:14 +0000,CHANGELOG|lib/buildr/java/packaging.rb|,7,8,8,2010-04-07 09:20:19 +0000,2010-04-07 15:08:53 +0000,009d8cb78341378417414064d397ca292c1acf56,buildr
BUILDR-419,2010-04-10 17:57:33 +0000,CHANGELOG|lib/buildr/packaging/archive.rb|spec/java/packaging_spec.rb|,7,8,8,2010-04-09 00:35:47 +0000,2010-04-10 18:02:44 +0000,3ec7df1de57a13b0682a9c3b4a3e1db423ddd9a8,buildr
BUILDR-412,2010-04-10 18:14:07 +0000,CHANGELOG|buildr.gemspec|,7,8,8,2010-04-01 03:56:14 +0000,2010-04-10 18:19:32 +0000,b7969162294dc8c273f6b8e5dd6bfd60d7ce2f65,buildr
BUILDR-423,2010-04-11 22:39:33 +0000,CHANGELOG|lib/buildr/java/packaging.rb|spec/java/packaging_spec.rb|,7,8,8,2010-04-11 22:02:12 +0000,2010-04-11 22:39:12 +0000,88897d26ac9718c8aab6a02e85644bfed6325ec6,buildr
BUILDR-398,2010-04-11 23:51:05 +0000,lib/buildr/core/util.rb|,7,8,8,2010-03-12 13:42:28 +0000,2010-04-11 23:44:41 +0000,4d544f77d53c5a64be167a002eaac044522c326e,buildr
BUILDR-374,2010-06-05 06:54:02 +0000,CHANGELOG|lib/buildr/packaging/artifact.rb|spec/packaging/packaging_spec.rb|,7,8,8,2010-02-11 17:03:49 +0000,2010-06-05 06:53:21 +0000,b0343d657691605fa2f74728efef1fa8009153a9,buildr
BUILDR-459,2010-06-24 21:18:10 +0000,CHANGELOG|buildr.gemspec|,8,9,9,2010-06-22 00:31:02 +0000,2010-06-24 21:17:22 +0000,0d47ef5e5603216576b901535655b8117007d308,buildr
BUILDR-461,2010-07-01 07:12:57 +0000,lib/buildr/packaging/package.rb|,8,9,9,2010-07-01 07:11:43 +0000,2010-07-01 08:46:53 +0000,573a8ad7bf56bb78a276bfb395a640e7f62550d4,buildr
BUILDR-463,2010-07-02 05:31:44 +0000,CHANGELOG|lib/buildr/java/rjb.rb|,8,9,9,2010-07-01 22:02:06 +0000,2010-07-02 05:30:54 +0000,7ca4ed4ea551c28f85ad3417c547b798df428801,buildr
BUILDR-256,2010-07-08 01:43:15 +0000,CHANGELOG|lib/buildr/java/bdd.rb|,5,6,10,2009-02-17 21:15:20 +0000,2010-07-08 01:41:40 +0000,ffd6e570c096c63f3661c3176123b81875da2fc0,buildr
BUILDR-342,2010-07-08 01:42:37 +0000,CHANGELOG|lib/buildr/java/bdd.rb|,7,8,10,2009-11-17 01:12:56 +0000,2010-07-08 01:41:40 +0000,ffd6e570c096c63f3661c3176123b81875da2fc0,buildr
BUILDR-225,2010-07-08 01:56:00 +0000,CHANGELOG|spec/packaging/archive_spec.rb|,4,6,10,2008-12-10 12:57:41 +0000,2010-07-08 01:54:49 +0000,d1745f7b2587f67a51f44165178fb2f6ec375819,buildr
BUILDR-203,2010-07-08 02:40:14 +0000,CHANGELOG|lib/buildr/core/compile.rb|,4,6,10,2008-11-04 08:57:44 +0000,2010-07-08 02:39:18 +0000,7db48b8fd9a43db2dc6b6b53a502deb071988f6a,buildr
BUILDR-468,2010-07-11 01:47:29 +0000,CHANGELOG|lib/buildr/core/test.rb|spec/core/test_spec.rb|,9,10,10,2010-07-08 15:44:37 +0000,2010-07-11 01:32:55 +0000,d44d4359b62c8b706048179d4b831fd795284801,buildr
BUILDR-466,2010-07-13 22:40:29 +0000,doc/css/default.css|doc/packaging.textile|,9,10,10,2010-07-07 15:30:40 +0000,2010-07-13 22:39:34 +0000,319a883ab1c70f7780ac9bdf0e82d8998d11476f,buildr
BUILDR-469,2010-07-15 17:29:18 +0000,CHANGELOG|lib/buildr/core/test.rb|spec/core/test_spec.rb|,9,10,10,2010-07-08 16:26:32 +0000,2010-07-15 17:27:45 +0000,890e656315ff9af22d2e96789422377be188a041,buildr
BUILDR-436,2010-07-16 07:20:36 +0000,lib/buildr/core/build.rb|spec/core/build_spec.rb|,7,8,10,2010-05-18 13:48:51 +0000,2010-07-16 07:19:49 +0000,219171ac0722f86c7586e98354c82def1287eed9,buildr
BUILDR-475,2010-07-17 06:58:16 +0000,CHANGELOG|buildr.gemspec|,9,10,10,2010-07-13 02:50:37 +0000,2010-07-17 06:57:23 +0000,0db1ca4393d245057501583fb619e57360454f7e,buildr
BUILDR-477,2010-08-13 06:09:12 +0000,CHANGELOG|lib/buildr/packaging/artifact.rb|spec/packaging/artifact_spec.rb|,9,10,10,2010-07-14 16:44:21 +0000,2010-08-13 06:07:57 +0000,266383b5098ecae47ea0dfe53736ce76dfba0797,buildr
BUILDR-491,2010-08-19 15:04:02 +0000,CHANGELOG|lib/buildr/core/transports.rb|,7,10,10,2010-08-18 19:47:09 +0000,2010-08-19 15:02:39 +0000,2837419fb225195f6b9fbadd6b0b724d74552ba6,buildr
BUILDR-285,2010-08-24 05:04:28 +0000,CHANGELOG|lib/buildr/java/cobertura.rb|spec/java/cobertura_spec.rb|,6,7,10,2009-06-09 21:41:30 +0000,2010-08-24 05:05:16 +0000,24a0078deb5283debc78b75789edf8f6b07ece78,buildr
BUILDR-143,2010-08-24 05:17:20 +0000,CHANGELOG|lib/buildr/core/transports.rb|spec/core/transport_spec.rb|,1,5,10,2008-09-02 20:02:10 +0000,2010-08-24 05:16:00 +0000,ac3fa01f244a5f296863be4d9c0e34f011583e77,buildr
BUILDR-498,2010-08-28 18:01:37 +0000,lib/buildr/core/progressbar.rb|,9,10,10,2010-08-27 22:43:51 +0000,2010-08-28 18:00:22 +0000,889773842c36628850c1d444eb3e493a5bb31231,buildr
BUILDR-499,2010-08-29 05:18:52 +0000,CHANGELOG|lib/buildr/java/rjb.rb|,8,10,10,2010-08-29 05:14:05 +0000,2010-08-29 05:15:51 +0000,1f54bf32a4132f6688b9a6ba99c36af13f233b7e,buildr
BUILDR-503,2010-09-17 21:12:03 +0000,lib/buildr/packaging/archive.rb|spec/packaging/archive_spec.rb|,9,10,10,2010-09-02 17:57:22 +0000,2010-09-17 21:11:31 +0000,09b62d275ee317a893fd56b6d2af5988b4adf457,buildr
BUILDR-403,2010-09-17 22:31:09 +0000,CHANGELOG|lib/buildr/core/util.rb|spec/core/application_spec.rb|,7,8,10,2010-03-17 09:02:15 +0000,2010-09-17 22:30:04 +0000,892457a89f88276004aa556aa6dd1774fe7b6380,buildr
BUILDR-512,2010-09-21 12:59:27 +0000,CHANGELOG|lib/buildr/core/util.rb|,10,11,11,2010-09-21 03:57:36 +0000,2010-09-21 12:59:04 +0000,ed1c0689b5fb57edd8b040795d6668185a502fd5,buildr
BUILDR-513,2010-09-21 13:22:35 +0000,CHANGELOG|lib/buildr/core/application.rb|spec/core/application_spec.rb|,10,11,11,2010-09-21 04:51:11 +0000,2010-09-21 13:21:09 +0000,38d57736d4613e7e7161518e9e5fc6a6c2a1284e,buildr
BUILDR-527,2010-10-10 04:27:14 +0000,lib/buildr/java/packaging.rb|spec/java/packaging_spec.rb|,10,11,11,2010-10-10 04:17:15 +0000,2010-10-10 04:26:57 +0000,cea691bf78a714b097851f9f00e9a41fe3ab9e11,buildr
BUILDR-525,2010-10-10 15:42:46 +0000,CHANGELOG|doc/settings_profiles.textile|,10,11,11,2010-10-09 03:42:19 +0000,2010-10-10 15:41:00 +0000,9042333749bcef6513b332876f94c2af9d8ee655,buildr
BUILDR-517,2010-10-12 01:12:44 +0000,lib/buildr/packaging/ziptask.rb|spec/packaging/archive_spec.rb|,10,11,11,2010-09-25 00:35:05 +0000,2010-10-12 01:43:52 +0000,c083d0761cc40176275878ad3d5c54d1d24b85a4,buildr
BUILDR-532,2010-10-13 05:46:22 +0000,CHANGELOG|lib/buildr/packaging/package.rb|spec/java/packaging_spec.rb|,10,11,11,2010-10-11 21:31:00 +0000,2010-10-12 16:41:44 +0000,76e0b8e30c5adb2d704c8baf501c43bd864f1f6a,buildr
BUILDR-529,2010-10-13 04:45:18 +0000,CHANGELOG|spec/core/application_spec.rb|,10,11,12,2010-10-10 06:02:40 +0000,2010-10-13 04:44:19 +0000,b033644bbdf41e4b56bf54fd43cdee86c0577f44,buildr
BUILDR-534,2010-10-13 05:27:31 +0000,CHANGELOG|lib/buildr/java/packaging.rb|spec/java/packaging_spec.rb|,10,11,12,2010-10-12 18:38:40 +0000,2010-10-13 05:25:33 +0000,d4c9593589577164803e00ad368ecf0f57a2c6af,buildr
BUILDR-535,2010-10-14 04:40:15 +0000,CHANGELOG|lib/buildr/core/util.rb|,10,12,12,2010-10-13 06:03:46 +0000,2010-10-14 04:39:17 +0000,cdbd0696fb7b8a9a66f3718f1ee7d94da0d6e8a7,buildr
BUILDR-542,2010-10-22 13:51:40 +0000,CHANGELOG|lib/buildr/core/build.rb|,11,12,12,2010-10-22 13:40:59 +0000,2010-10-22 13:50:22 +0000,16b43dda5641dc6f90a5408e545f9c85ba1eea04,buildr
BUILDR-543,2010-10-23 15:21:00 +0000,CHANGELOG|lib/buildr/packaging/artifact.rb|spec/packaging/artifact_spec.rb|,11,12,12,2010-10-23 00:29:21 +0000,2010-10-23 15:19:49 +0000,7a7fe5885c2de33bba657b02c5ec1fd7f3e8cdfd,buildr
BUILDR-547,2010-11-14 08:13:05 +0000,CHANGELOG|lib/buildr/java/ecj.rb|,11,13,13,2010-11-14 08:10:42 +0000,2010-11-14 08:11:07 +0000,97e5cdfa36cb778621cd65ba8c962e54b369ab7f,buildr
BUILDR-549,2010-11-17 01:39:53 +0000,CHANGELOG|buildr.gemspec|lib/buildr/version.rb|,9,13,13,2010-11-15 19:12:11 +0000,2010-11-22 23:28:17 +0000,238585873338e48762501f4ed6955477a01c8aba,buildr
BUILDR-551,2010-11-29 05:35:20 +0000,CHANGELOG|lib/buildr/core/cc.rb|spec/core/cc_spec.rb|,12,13,13,2010-11-27 19:47:01 +0000,2010-11-29 05:33:39 +0000,05d5629074335b8da2b1f9b668811bc10faf7743,buildr
BUILDR-557,2010-12-06 22:46:38 +0000,CHANGELOG|lib/buildr/core/transports.rb|,12,13,13,2010-12-06 22:18:17 +0000,2010-12-06 22:46:27 +0000,91a4bff295d37c0ed97203b755dfa701b06f4360,buildr
BUILDR-571,2011-03-08 09:36:26 +0000,CHANGELOG|lib/buildr/ide/idea.rb|spec/ide/idea_spec.rb|,12,14,14,2011-03-07 14:07:42 +0000,2011-03-08 09:35:17 +0000,5b23d74e29735d01c5ce729d1408216e73615908,buildr
BUILDR-573,2011-03-16 17:03:23 +0000,CHANGELOG|lib/buildr/core/transports.rb|,13,14,14,2011-03-16 13:16:36 +0000,2011-03-16 17:01:16 +0000,fb14ffa9ac1647106f8d677f0d763d310c00089c,buildr
BUILDR-578,2011-03-25 16:37:58 +0000,CHANGELOG|lib/buildr/packaging/tar.rb|,13,14,14,2011-03-25 16:20:29 +0000,2011-03-25 16:37:46 +0000,ad5b6bbd619aabee5909f5be34bbd1ec566f7a8e,buildr
BUILDR-574,2011-04-26 04:44:07 +0000,CHANGELOG|,13,14,14,2011-03-17 14:48:16 +0000,2011-04-26 04:43:19 +0000,1360ce30839e0291ef8735c4151c7eee394334d2,buildr
BUILDR-251,2011-05-20 14:57:28 +0000,CHANGELOG|lib/buildr/packaging/artifact.rb|spec/packaging/artifact_spec.rb|,6,6,14,2009-02-16 05:28:30 +0000,2011-05-20 14:55:44 +0000,0dbb8f1ff086846948578ea8171c86a484ff28bc,buildr
BUILDR-585,2011-05-27 18:03:38 +0000,CHANGELOG|lib/buildr/packaging/zip.rb|,13,14,14,2011-05-27 17:57:18 +0000,2011-05-27 17:59:19 +0000,4f283ada8972a52254d7dc7ecd83b8e1695b2585,buildr
BUILDR-586,2011-06-07 23:33:29 +0000,CHANGELOG|lib/buildr/scala/tests.rb|,13,14,14,2011-06-07 17:11:15 +0000,2011-06-07 23:32:05 +0000,f03b94a2a5902d5253ce05e20730baa76e23e654,buildr
BUILDR-587,2011-06-17 19:40:58 +0000,CHANGELOG|lib/buildr/scala/tests.rb|spec/sandbox.rb|spec/scala/tests_spec.rb|,13,14,14,2011-06-08 03:33:45 +0000,2011-06-17 19:40:41 +0000,9c3f1b973d911bba92d1d27bbaac1c02cfd9e8f2,buildr
BUILDR-596,2011-07-08 08:29:43 +0000,CHANGELOG|doc/installing.textile|,13,15,15,2011-07-08 08:18:40 +0000,2011-07-08 08:20:14 +0000,e2e62ac804d0f77fde6f9f97835d362e82f367c6,buildr
BUILDR-548,2011-07-19 07:16:02 +0000,CHANGELOG|doc/languages.textile|lib/buildr/java/bdd.rb|lib/buildr/java/jtestr_result.rb|lib/buildr/java/jtestr_runner.rb.erb|spec/java/bdd_spec.rb|,11,13,15,2010-11-14 08:44:14 +0000,2011-07-19 07:15:09 +0000,eb2e97ec182c91e92ce5c609b5d34c510c7ec078,buildr
BUILDR-611,2012-11-15 06:20:53 +0000,CHANGELOG|lib/buildr/core/compile.rb|spec/core/compile_spec.rb|,14,15,15,2011-09-14 10:02:08 +0000,2011-09-14 13:24:01 +0000,ab4f08d8ca66935770ba4c24e667527e54bf820c,buildr
BUILDR-617,2011-11-28 01:34:26 +0000,CHANGELOG|lib/buildr/java/pom.rb|spec/java/pom_spec.rb|,14,15,15,2011-11-24 08:10:24 +0000,2011-11-28 01:33:06 +0000,04e74a95388039300df9c903aad05155ed710fd5,buildr
BUILDR-615,2011-11-28 06:27:09 +0000,CHANGELOG|lib/buildr/packaging/version_requirement.rb|spec/version_requirement_spec.rb|,14,15,15,2011-11-15 11:16:15 +0000,2011-11-28 06:25:58 +0000,5b57fb67d958bfcdcf1348e0a7ef0a45e45c066e,buildr
BUILDR-629,2012-03-11 17:54:55 +0000,CHANGELOG|lib/buildr/core/run.rb|lib/buildr/run.rb|spec/core/run_spec.rb|,14,15,15,2012-03-09 15:01:28 +0000,2012-03-11 17:54:11 +0000,8a001facd5d9e80e0eab636269206c8a087f26e8,buildr
BUILDR-630,2012-03-11 17:54:36 +0000,CHANGELOG|lib/buildr/core/run.rb|lib/buildr/run.rb|spec/core/run_spec.rb|,14,15,15,2012-03-09 15:05:50 +0000,2012-03-11 17:54:11 +0000,8a001facd5d9e80e0eab636269206c8a087f26e8,buildr
BUILDR-628,2012-03-11 19:09:50 +0000,CHANGELOG|lib/buildr/core/generate.rb|lib/buildr/java/ant.rb|,13,15,15,2012-03-08 18:27:34 +0000,2012-03-11 19:09:20 +0000,7a9c78ae6b1d952aa30e1a81106d60b5207a25e3,buildr
BUILDR-624,2012-05-02 04:42:09 +0000,CHANGELOG|buildr.gemspec|,14,15,15,2012-01-30 17:00:32 +0000,2012-05-02 04:40:17 +0000,c3e6740b6949ea9e980d3802a7234ed69b3e68fe,buildr
BUILDR-618,2012-05-23 09:19:30 +0000,CHANGELOG|lib/buildr/java/pom.rb|spec/java/pom_spec.rb|,14,15,15,2011-11-30 02:47:00 +0000,2012-05-23 09:17:55 +0000,db02ff7828806de8c45dd076b7867a2123707b35,buildr
BUILDR-654,2012-09-23 00:41:47 +0000,CHANGELOG|addon/buildr/bnd.rb|spec/addon/bnd_spec.rb|,15,16,16,2012-09-22 15:03:31 +0000,2012-09-23 00:40:28 +0000,b315166310c425409bb79661c396c433f71da286,buildr
BUILDR-640,2012-09-23 10:11:03 +0000,CHANGELOG|buildr.gemspec|rakelib/doc.rake|,14,15,16,2012-05-03 11:24:04 +0000,2012-09-23 10:10:27 +0000,840fc5d04bbd236234310e4ab48e19dbebea7b7b,buildr
BUILDR-606,2012-09-23 11:30:17 +0000,CHANGELOG|lib/buildr/packaging/artifact.rb|spec/packaging/artifact_spec.rb|,14,15,16,2011-08-08 19:52:04 +0000,2012-09-23 11:29:38 +0000,51a78f358b2ceecf9272d8ebf58b1b7777da32ba,buildr
BUILDR-627,2012-09-23 12:13:04 +0000,CHANGELOG|lib/buildr/core/cc.rb|,15,15,16,2012-02-28 06:03:31 +0000,2012-09-23 12:12:28 +0000,02334a5d0ae4bdb7e11fa75efc19382cd7b8bd5d,buildr
BUILDR-655,2013-01-29 02:04:52 +0000,CHANGELOG|lib/buildr/java/rjb.rb|,15,16,16,2012-09-26 15:14:00 +0000,2012-10-05 21:50:08 +0000,7ff7ba4127bc18edae82d16540b446cb10f537c9,buildr
BUILDR-622,2012-10-07 00:25:23 +0000,doc/settings_profiles.textile|,14,15,16,2012-01-13 11:22:29 +0000,2012-10-07 00:24:34 +0000,4574e2be05e9383208a8fa8f82f9c391deae2da3,buildr
BUILDR-660,2013-02-04 19:15:35 +0000,CHANGELOG|lib/buildr/core/application.rb|,14,18,18,2013-02-04 13:13:41 +0000,2013-02-04 19:14:39 +0000,b84ffe8dfc8b7889d21d2f47e47af2af3a4159b6,buildr
BUILDR-662,2013-03-22 20:54:50 +0000,lib/buildr/core/application.rb|,17,20,20,2013-03-21 10:56:33 +0000,2013-03-22 20:54:15 +0000,ac37e455d90dab09dfeae4bb87670afb47c682d8,buildr
BUILDR-665,2013-04-14 01:53:40 +0000,CHANGELOG|lib/buildr/packaging/archive.rb|,18,20,20,2013-04-09 14:03:00 +0000,2013-04-14 01:53:16 +0000,7c837db3dfb135610234fb5818a210a67ee5e6ac,buildr
BUILDR-663,2013-04-14 02:36:08 +0000,CHANGELOG|lib/buildr/core/application.rb|,19,20,20,2013-03-24 08:47:57 +0000,2013-04-14 02:34:40 +0000,aaf12b3b24b27a529de61efa44717f894bbb7112,buildr
BUILDR-666,2013-04-28 23:39:52 +0000,CHANGELOG|lib/buildr/packaging/zip.rb|,19,20,20,2013-04-19 11:08:26 +0000,2013-04-28 23:38:04 +0000,0099a708a33eb921d4131dc876b07793f8a65f4c,buildr
BUILDR-668,2013-06-08 23:46:35 +0000,CHANGELOG|lib/buildr/core/application.rb|,20,21,21,2013-05-19 19:43:51 +0000,2013-06-08 23:42:40 +0000,0b11cee78b48374a9ff7b5a22ec30902eb6d80fd,buildr
BUILDR-672,2013-08-10 06:08:37 +0000,CHANGELOG|addon/buildr/checkstyle.rb|,20,21,21,2013-07-31 14:55:03 +0000,2013-08-10 06:06:45 +0000,c5996941ca2622fb89ffcb0e51742192d243de80,buildr
BUILDR-673,2013-08-10 09:18:53 +0000,CHANGELOG|lib/buildr/java/tests.rb|spec/java/tests_spec.rb|,19,21,21,2013-08-10 01:46:51 +0000,2013-08-10 09:17:23 +0000,b82bcd28efbe34d2036166a1db3d44faf1920a07,buildr
BUILDR-676,2013-09-27 23:12:38 +0000,CHANGELOG|lib/buildr/java/commands.rb|,20,21,21,2013-09-26 04:04:05 +0000,2013-09-27 23:12:06 +0000,ba9b6c430e2750701b43f768306e93ed0cc7f0cf,buildr
BUILDR-677,2013-10-01 22:04:34 +0000,CHANGELOG|addon/buildr/gpg.rb|,20,21,21,2013-10-01 20:34:49 +0000,2013-10-01 22:04:06 +0000,491e3ffe0494673565880d9c1866bafea2f68b98,buildr
BUILDR-439,2013-10-02 00:40:59 +0000,CHANGELOG|lib/buildr/java/commands.rb|,7,8,22,2010-05-19 17:24:51 +0000,2013-10-02 00:39:46 +0000,c0eb268029e974176419345b5819ea921b015e40,buildr
BUILDR-681,2013-10-09 06:07:12 +0000,CHANGELOG|lib/buildr/core/assets.rb|,20,22,22,2013-10-08 15:05:06 +0000,2013-10-09 06:06:06 +0000,2ac0e4a840cb199673467d0fe0ff04ae17f05b1f,buildr
BUILDR-609,2013-10-11 08:54:54 +0000,CHANGELOG|lib/buildr/core/compile.rb|spec/java/compiler_spec.rb|,14,15,23,2011-08-29 22:54:23 +0000,2013-10-11 08:54:01 +0000,c673115cc3e32ab97d142e76dd1018b7e74e2213,buildr
BUILDR-605,2013-10-11 22:39:31 +0000,CHANGELOG|lib/buildr/packaging/archive.rb|spec/packaging/archive_spec.rb|,13,15,23,2011-08-08 13:21:00 +0000,2013-10-11 22:38:48 +0000,44e52a0bfeca648de10727171538cfcf32b518ec,buildr
BUILDR-689,2013-10-23 00:03:30 +0000,CHANGELOG|lib/buildr/java/packaging.rb|spec/java/packaging_spec.rb|,22,23,23,2013-10-22 21:57:18 +0000,2013-10-22 23:50:23 +0000,d85074bd3f0676ced1c57e3e0477ffc26e5af105,buildr
BUILDR-664,2014-06-16 23:56:44 +0000,CHANGELOG|addon/buildr/checkstyle.rb|,18,20,26,2013-04-02 10:05:04 +0000,2014-06-17 09:55:42 +1000,090b0035674b2388d6419972ce861114a513078d,buildr
BUILDR-694,2014-06-24 11:24:34 +0000,CHANGELOG|lib/buildr/core/transports.rb|,23,24,27,2014-02-25 20:50:22 +0000,2014-06-24 15:09:09 +1000,72af938e8c23fde3e67ec6b3aa5805ad516512e4,buildr
BUILDR-699,2014-06-24 11:23:56 +0000,CHANGELOG|addon/buildr/custom_pom.rb|,25,26,27,2014-06-23 12:38:14 +0000,2014-06-24 18:53:24 +1000,a4c95466b0fa814c36baf7609bd3d168c1b4712c,buildr
BUILDR-700,2014-07-05 02:07:02 +0000,CHANGELOG|lib/buildr/core/common.rb|,26,27,27,2014-06-28 12:39:28 +0000,2014-07-05 12:05:22 +1000,85e45f87e0e637cd9880c2386873c283152ac56b,buildr
BUILDR-702,2014-08-28 21:24:47 +0000,CHANGELOG|lib/buildr/packaging/archive.rb|lib/buildr/packaging/tar.rb|lib/buildr/packaging/ziptask.rb|spec/packaging/archive_spec.rb|,28,29,29,2014-08-28 15:02:25 +0000,2014-08-28 17:12:59 +0200,5b7933a57bbc53ba80c90538c8681fabe7b82568,buildr
BUILDR-706,2015-05-03 10:48:14 +0000,CHANGELOG|addon/buildr/checkstyle.rb|spec/addon/checkstyle_spec.rb|,29,31,31,2015-04-30 19:30:32 +0000,2015-05-03 20:43:53 +1000,6c660221c717fa9276cba3ea74cbe6c72a4cc055,buildr
BUILDR-705,2015-06-18 21:11:51 +0000,CHANGELOG|lib/buildr/java/test_result.rb|,28,30,31,2015-01-24 02:34:46 +0000,2015-06-06 10:31:28 +1000,e02fbf89d94b2052665ff9c4e6b4046286c2887a,buildr
BUILDR-709,2015-11-26 22:44:56 +0000,CHANGELOG|addon/buildr/jacoco.rb|,28,32,32,2015-11-26 12:45:50 +0000,2015-11-27 09:18:02 +1100,4e24616239d8c455f51e1b2058c3e83060731511,buildr
BUILDR-565,2016-05-20 06:22:31 +0000,CHANGELOG|doc/projects.textile|,12,13,34,2011-01-29 05:12:47 +0000,2016-05-19 23:21:04 -0700,fa4750b70c40398bf528daa79ef0c1931405eff6,buildr
BUILDR-621,2016-05-20 06:56:12 +0000,CHANGELOG|lib/buildr/packaging/ziptask.rb|,15,15,34,2012-01-12 23:04:49 +0000,2016-05-19 23:55:03 -0700,ea4103fb8e01cd29df7729fec75796fe3c792dc5,buildr
BUILDR-695,2016-06-16 07:22:50 +0000,CHANGELOG|lib/buildr/java/pom.rb|spec/java/pom_spec.rb|,23,24,34,2014-02-27 07:08:14 +0000,2016-06-16 00:21:39 -0700,2d716e04cf7fc8fb594d2d2396ed88db5f672a7b,buildr
BUILDR-454,2016-08-14 06:27:21 +0000,CHANGELOG|,8,8,34,2010-06-11 03:33:33 +0000,2016-08-13 23:26:24 -0700,2f14379226c3616f426819e5d58e18551ed2cf7f,buildr
BUILDR-476,2016-08-14 06:38:20 +0000,doc/artifacts.textile|doc/settings_profiles.textile|,9,10,34,2010-07-13 09:05:31 +0000,2016-08-13 23:37:56 -0700,6eb4586d32a4e258868d627bc2c400cbcce522c3,buildr
BUILDR-620,2016-08-14 07:07:46 +0000,CHANGELOG|lib/buildr/core/filter.rb|spec/core/common_spec.rb|,14,15,34,2011-12-15 13:44:09 +0000,2016-08-14 00:07:03 -0700,4fd3b06bcc4dd05599a2e6149b8d2af4790ba9ae,buildr
BUILDR-489,2016-08-15 07:00:03 +0000,CHANGELOG|lib/buildr/scala/compiler.rb|spec/scala/compiler_spec.rb|,9,10,34,2010-08-05 08:18:17 +0000,2016-08-14 23:59:08 -0700,e2f18acdff4b1e13d077da0ff178c58fa1fe7f50,buildr
BUILDR-320,2016-08-15 07:23:41 +0000,tests/integration_testing.rb|,6,7,34,2009-09-19 18:32:41 +0000,2016-08-15 00:24:47 -0700,c0c415558b88dd3bfd5f6923e2ee2c88e9701b9c,buildr
BUILDR-723,2016-09-17 05:33:08 +0000,CHANGELOG|lib/buildr/java/org/apache/buildr/JavaTestFilter.class|lib/buildr/java/org/apache/buildr/JavaTestFilter.java|spec/java/tests_spec.rb|,32,34,34,2016-09-14 16:25:20 +0000,2016-09-16 22:32:36 -0700,0916a14b23ce2e79d20f2d31d7e70f67d4073761,buildr
BUILDR-728,2016-11-01 05:29:14 +0000,CHANGELOG|lib/buildr/packaging/artifact.rb|spec/packaging/artifact_spec.rb|,34,35,35,2016-10-26 13:36:10 +0000,2016-10-31 22:27:15 -0700,c06ee879e855165856e2688abf28098cba5264e2,buildr
