Bug ID,Bug Resolution Date by Jira,Classes Touched by Last Fix,Earliest AV,Version of Ticket Creation,Version of Fix,Ticket Creation Date,Fix Date (of most recent commit),Hash (of most recent commit),Git Directory
DIRMINA-164,2006-01-19 17:45:44 +0000,core/src/main/java/org/apache/mina/common/ByteBuffer.java|core/src/test/java/org/apache/mina/common/ByteBufferTest.java|,8,10,10,2006-01-12 09:35:56 +0000,2006-01-19 08:45:05 +0000,c99f7401676ebdc87929f4421161d26b5fe8e628,mina
DIRMINA-143,2006-01-24 12:39:27 +0000,core/src/main/java/org/apache/mina/common/ConnectFuture.java|core/src/main/java/org/apache/mina/transport/socket/nio/support/DatagramAcceptorDelegate.java|core/src/main/java/org/apache/mina/transport/socket/nio/support/SocketConnectorDelegate.java|core/src/main/java/org/apache/mina/transport/vmpipe/support/VmPipeSessionImpl.java|core/src/main/java/org/apache/mina/util/ExceptionUtil.java|,7,9,10,2005-12-09 10:39:38 +0000,2006-01-24 03:39:06 +0000,ff95b9683f62222d7111f1b612acdef1f5b0e723,mina
DIRMINA-171,2006-02-19 22:30:16 +0000,core/src/main/java/org/apache/mina/common/support/BaseIoSession.java|,8,11,11,2006-02-19 19:43:32 +0000,2006-02-19 13:30:05 +0000,cf6fe015ef7fb6cdfa9cf789206b84adcc56e5c0,mina
DIRMINA-177,2006-02-24 15:07:28 +0000,core/src/main/java/org/apache/mina/filter/codec/ProtocolEncoderOutput.java|core/src/main/java/org/apache/mina/filter/codec/support/SimpleProtocolEncoderOutput.java|,8,12,12,2006-02-24 14:57:36 +0000,2006-02-24 06:05:40 +0000,5b4f98b840afaae144f46c36e2a864cdbab5825c,mina
DIRMINA-180,2006-03-04 14:26:18 +0000,core/src/main/java/org/apache/mina/transport/socket/nio/support/DatagramAcceptorDelegate.java|core/src/main/java/org/apache/mina/transport/socket/nio/support/DatagramConnectorDelegate.java|core/src/main/java/org/apache/mina/transport/socket/nio/support/DatagramSessionImpl.java|core/src/main/java/org/apache/mina/transport/socket/nio/support/SocketSessionImpl.java|,11,12,12,2006-03-03 23:40:54 +0000,2006-03-04 05:23:58 +0000,6463e0928ed3a85bd2c8f0d68a2ae375a786c3d0,mina
DIRMINA-169,2006-03-07 13:43:31 +0000,core/src/main/java/org/apache/mina/filter/ThreadPoolFilter.java|,8,10,12,2006-02-04 00:35:18 +0000,2006-03-06 21:12:17 +0000,95a609fcc5cdc496a1d3a6626c56f0e76a09eb8f,mina
DIRMINA-186,2006-03-12 00:26:12 +0000,core/src/main/java/org/apache/mina/common/ByteBuffer.java|core/src/test/java/org/apache/mina/common/ByteBufferTest.java|,8,12,12,2006-03-08 05:31:30 +0000,2006-03-11 16:00:31 +0000,c1f08bccdcc92b237cefe276147d383b59f4ae15,mina
DIRMINA-181,2006-03-12 13:34:24 +0000,core/src/main/java/org/apache/mina/common/support/BaseIoSession.java|,8,12,12,2006-03-04 00:02:21 +0000,2006-03-12 04:52:01 +0000,dfd1f6fda504f094b52ed794ba0aab26fc21e1d9,mina
DIRMINA-207,2006-04-13 14:29:15 +0000,core/src/main/java/org/apache/mina/filter/codec/textline/TextLineCodecFactory.java|core/src/main/java/org/apache/mina/util/CharsetUtil.java|core/src/test/java/org/apache/mina/util/CharsetUtilTest.java|,12,13,13,2006-04-13 01:04:42 +0000,2006-04-13 06:28:44 +0000,68a32a6f7f969e58fc71c46b55b4d43bf0f0a62c,mina
DIRMINA-212,2006-05-09 10:27:31 +0000,core/src/main/java/org/apache/mina/transport/socket/nio/SocketConnector.java|,9,14,14,2006-05-06 05:06:47 +0000,2006-05-09 03:26:37 +0000,8a276f3a8937c889434058412cdb0f3466379fdc,mina
DIRMINA-213,2006-05-09 10:33:24 +0000,filter-compression/lib/jzlib-1.0.7.jar|filter-compression/pom.xml|,12,14,14,2006-05-08 18:16:07 +0000,2006-05-09 03:31:20 +0000,46b0bd17574c248ca6a8fdecd6edc41e6d79778f,mina
DIRMINA-222,2006-06-20 13:04:28 +0000,core/src/main/java/org/apache/mina/transport/socket/nio/support/DatagramAcceptorDelegate.java|core/src/main/java/org/apache/mina/transport/socket/nio/support/DatagramConnectorDelegate.java|core/src/test/java/org/apache/mina/transport/AbstractBindTest.java|core/src/test/java/org/apache/mina/transport/AbstractTrafficControlTest.java|core/src/test/java/org/apache/mina/transport/socket/nio/DatagramConfigTest.java|,13,14,14,2006-06-20 12:59:27 +0000,2006-06-20 06:02:18 +0000,d52c885e637e6ef23ce00bb5625284688c2f27ea,mina
DIRMINA-200,2006-08-09 07:33:17 +0000,core/src/main/java/org/apache/mina/transport/socket/nio/SocketSessionImpl.java|,12,13,14,2006-04-04 22:33:51 +0000,2006-06-21 01:52:54 +0000,4ac9b9e2101d5b790c92337e1521abec9ae9d652,mina
DIRMINA-219,2006-06-26 13:50:10 +0000,examples/src/main/java/org/apache/mina/examples/echoserver/ssl/BogusSSLContextFactory.java|,8,14,14,2006-06-06 21:12:56 +0000,2006-06-26 06:49:45 +0000,0c82308974e6443970cf18bc76c199e97bd9a089,mina
DIRMINA-225,2006-07-06 17:08:10 +0000,core/src/main/java/org/apache/mina/filter/codec/ProtocolCodecFilter.java|core/src/main/java/org/apache/mina/filter/codec/support/SimpleProtocolDecoderOutput.java|core/src/main/java/org/apache/mina/filter/codec/support/SimpleProtocolEncoderOutput.java|,13,14,14,2006-07-06 17:05:36 +0000,2006-07-06 10:08:08 +0000,6c9fd488195eb688bcf8cab79d77530804aa40ba,mina
DIRMINA-226,2006-07-16 19:22:08 +0000,core/src/main/java/org/apache/mina/handler/support/IoSessionInputStream.java|,13,14,14,2006-07-16 19:07:08 +0000,2006-07-16 19:23:30 +0000,2108c31be3f26cd5fed1bcc2e2bb213125825bc2,mina
DIRMINA-229,2006-08-01 18:35:56 +0000,core/src/main/java/org/apache/mina/handler/support/IoSessionOutputStream.java|,13,14,14,2006-07-30 12:10:38 +0000,2006-08-01 18:14:17 +0000,b7280d51151ea735019edf0f9686bff661656020,mina
DIRMINA-231,2006-08-09 08:13:19 +0000,core/src/main/java/org/apache/mina/common/PooledThreadModel.java|core/src/main/java/org/apache/mina/common/support/BaseIoServiceConfig.java|,13,14,14,2006-07-31 10:57:49 +0000,2006-08-09 08:08:32 +0000,9cf1bfdb9ba2ffa79733b57e824af93010e92488,mina
DIRMINA-243,2006-08-11 05:46:23 +0000,core/src/main/java/org/apache/mina/common/ByteBuffer.java|core/src/main/java/org/apache/mina/common/ByteBufferProxy.java|core/src/main/java/org/apache/mina/common/PooledByteBufferAllocator.java|core/src/main/java/org/apache/mina/common/SimpleByteBufferAllocator.java|core/src/main/java/org/apache/mina/common/support/BaseByteBuffer.java|core/src/test/java/org/apache/mina/common/ByteBufferTest.java|,8,14,14,2006-08-10 18:37:23 +0000,2006-08-11 05:45:57 +0000,805db5f3926a9e51d8b9b8539186029e70e7eae9,mina
DIRMINA-240,2006-08-22 03:40:20 +0000,core/src/main/java/org/apache/mina/transport/vmpipe/VmPipeConnector.java|core/src/main/java/org/apache/mina/util/AnonymousSocketAddress.java|,1,14,14,2006-08-07 09:19:36 +0000,2006-08-22 03:41:04 +0000,f1cf9724a9b2aca59a301c28eac721af07d3425c,mina
DIRMINA-245,2006-09-08 03:36:49 +0000,core/src/main/java/org/apache/mina/common/ExecutorThreadModel.java|core/src/main/java/org/apache/mina/common/IoServiceConfig.java|core/src/main/java/org/apache/mina/common/PooledThreadModel.java|core/src/main/java/org/apache/mina/common/support/BaseIoServiceConfig.java|core/src/main/java/org/apache/mina/filter/ReadThrottleFilterBuilder.java|core/src/main/java/org/apache/mina/filter/executor/ExecutorFilter.java|core/src/main/java/org/apache/mina/filter/executor/ExecutorFilterMBean.java|core/src/main/java/org/apache/mina/filter/executor/LeaderFollowersThreadPool.java|core/src/main/java/org/apache/mina/filter/executor/ThreadPool.java|core/src/test/java/org/apache/mina/filter/executor/ExecutorFilterRegressionTest.java|java5/src/main/java/org/apache/mina/filter/executor/ExecutorExecutor.java|java5/src/main/java/org/apache/mina/filter/executor/ExecutorThreadPool.java|,13,14,15,2006-08-17 05:35:17 +0000,2006-09-08 03:38:20 +0000,957d6c95b0134453429123aca46ed79bce6a8a0f,mina
DIRMINA-199,2006-09-13 19:52:17 +0000,core/src/main/java/org/apache/mina/filter/codec/CumulativeProtocolDecoder.java|,11,13,15,2006-04-04 16:07:10 +0000,2006-09-13 19:50:43 +0000,e9dcc85a405c75ca0315a6a21f6118d680112b31,mina
DIRMINA-265,2006-09-15 12:24:58 +0000,core/src/main/java/org/apache/mina/filter/codec/ProtocolCodecFilter.java|,14,15,15,2006-09-15 12:18:12 +0000,2006-09-15 12:22:40 +0000,6ce522c49c69d04dee192b1ca39126af0be24764,mina
DIRMINA-162,2006-09-12 09:27:30 +0000,core/src/main/java/org/apache/mina/common/ExpiringSessionRecycler.java|core/src/main/java/org/apache/mina/common/IoSessionRecycler.java|core/src/main/java/org/apache/mina/util/ExpiringMap.java|core/src/test/java/org/apache/mina/transport/socket/nio/DatagramRecyclerTest.java|,8,10,15,2006-01-11 07:55:53 +0000,2006-09-20 02:28:07 +0000,95c8a64382b1a428b6dc29ef8b128587ba87b85b,mina
DIRMINA-275,2006-10-09 04:29:00 +0000,core/src/main/java/org/apache/mina/transport/socket/nio/SocketAcceptor.java|,15,16,16,2006-10-03 02:59:00 +0000,2006-10-09 04:27:59 +0000,626bbf0b90d61c6926cfb202a15d42732b3af08a,mina
DIRMINA-273,2006-10-17 06:08:41 +0000,core/src/main/java/org/apache/mina/common/support/AbstractIoFilterChain.java|core/src/main/java/org/apache/mina/transport/socket/nio/SocketAcceptor.java|core/src/main/java/org/apache/mina/transport/socket/nio/SocketConnector.java|core/src/main/java/org/apache/mina/transport/socket/nio/SocketIoProcessor.java|core/src/main/java/org/apache/mina/transport/socket/nio/SocketSessionImpl.java|core/src/main/java/org/apache/mina/transport/socket/nio/support/DatagramConnectorDelegate.java|core/src/main/java/org/apache/mina/transport/vmpipe/VmPipeConnector.java|core/src/main/java/org/apache/mina/transport/vmpipe/support/VmPipeFilterChain.java|core/src/main/java/org/apache/mina/transport/vmpipe/support/VmPipeSessionImpl.java|core/src/test/java/org/apache/mina/transport/AbstractConnectorTest.java|core/src/test/java/org/apache/mina/transport/socket/nio/DatagramConnectorTest.java|core/src/test/java/org/apache/mina/transport/socket/nio/SocketConnectorTest.java|,13,16,16,2006-10-02 04:19:58 +0000,2006-10-17 06:08:44 +0000,a8c1e6218ae458c85665a3c054d9b1d04343f6fa,mina
DIRMINA-283,2006-10-09 03:22:33 +0000,core/src/main/java/org/apache/mina/common/support/AbstractIoFilterChain.java|core/src/main/java/org/apache/mina/transport/socket/nio/SocketAcceptor.java|core/src/main/java/org/apache/mina/transport/socket/nio/SocketConnector.java|core/src/main/java/org/apache/mina/transport/socket/nio/SocketIoProcessor.java|core/src/main/java/org/apache/mina/transport/socket/nio/SocketSessionImpl.java|core/src/main/java/org/apache/mina/transport/socket/nio/support/DatagramConnectorDelegate.java|core/src/main/java/org/apache/mina/transport/vmpipe/VmPipeConnector.java|core/src/main/java/org/apache/mina/transport/vmpipe/support/VmPipeFilterChain.java|core/src/main/java/org/apache/mina/transport/vmpipe/support/VmPipeSessionImpl.java|core/src/test/java/org/apache/mina/transport/AbstractConnectorTest.java|core/src/test/java/org/apache/mina/transport/socket/nio/DatagramConnectorTest.java|core/src/test/java/org/apache/mina/transport/socket/nio/SocketConnectorTest.java|,15,16,16,2006-10-09 03:12:30 +0000,2006-10-17 06:08:44 +0000,a8c1e6218ae458c85665a3c054d9b1d04343f6fa,mina
DIRMINA-285,2006-10-17 06:26:07 +0000,core/src/main/java/org/apache/mina/common/support/BaseIoSession.java|core/src/main/java/org/apache/mina/filter/codec/ProtocolCodecFilter.java|core/src/main/java/org/apache/mina/transport/socket/nio/SocketIoProcessor.java|core/src/main/java/org/apache/mina/transport/socket/nio/support/DatagramAcceptorDelegate.java|core/src/main/java/org/apache/mina/transport/socket/nio/support/DatagramConnectorDelegate.java|core/src/main/java/org/apache/mina/transport/vmpipe/support/VmPipeFilterChain.java|,15,16,16,2006-10-17 06:19:26 +0000,2006-10-17 06:26:18 +0000,c8edab5cc4b79805009fae115e57d3e159de5c7c,mina
DIRMINA-288,2006-10-18 13:51:33 +0000,core/src/main/java/org/apache/mina/filter/LoggingFilter.java|,15,16,16,2006-10-17 13:24:45 +0000,2006-10-18 14:16:12 +0000,fce9edf05defa6c0bb6b2a6c1328ae09d813c5cb,mina
DIRMINA-266,2006-10-24 03:53:01 +0000,core/src/main/java/org/apache/mina/common/support/BaseIoAcceptor.java|core/src/main/java/org/apache/mina/transport/socket/nio/SocketAcceptor.java|core/src/main/java/org/apache/mina/transport/socket/nio/support/DatagramAcceptorDelegate.java|core/src/main/java/org/apache/mina/transport/vmpipe/VmPipeAcceptor.java|core/src/test/java/org/apache/mina/transport/AbstractBindTest.java|core/src/test/java/org/apache/mina/transport/socket/nio/DatagramBindTest.java|core/src/test/java/org/apache/mina/transport/socket/nio/SocketBindTest.java|core/src/test/java/org/apache/mina/transport/vmpipe/VmPipeBindTest.java|,14,15,16,2006-09-16 01:30:43 +0000,2006-10-24 03:53:45 +0000,c6867909562f7ad3f40a61e0940b06d5e69f0536,mina
DIRMINA-313,2006-11-21 08:43:10 +0000,core/src/main/java/org/apache/mina/filter/LoggingFilter.java|,15,17,17,2006-11-21 08:16:53 +0000,2006-11-21 08:41:50 +0000,6d8b5db04613fa968052e8e0fc48ff83976f4f48,mina
DIRMINA-308,2006-11-27 10:03:09 +0000,core/src/main/java/org/apache/mina/transport/socket/nio/SocketIoProcessor.java|,15,16,17,2006-11-17 02:25:43 +0000,2006-11-27 10:01:26 +0000,a66728a4d520aeb68d08eaa29a58e3294c8c0457,mina
DIRMINA-307,2006-11-28 01:03:24 +0000,core/src/main/java/org/apache/mina/filter/ReadThrottleFilterBuilder.java|,15,16,17,2006-11-15 14:27:55 +0000,2006-11-28 01:02:00 +0000,76fc9bdc6d9d26ba599b17d7962bc9b84ac5b75a,mina
DIRMINA-309,2007-02-07 03:09:19 +0000,core/src/main/java/org/apache/mina/transport/socket/nio/SocketAcceptor.java|core/src/main/java/org/apache/mina/transport/socket/nio/SocketConnector.java|core/src/main/java/org/apache/mina/transport/socket/nio/SocketIoProcessor.java|,15,16,17,2006-11-17 06:57:17 +0000,2006-11-28 02:50:59 +0000,c74a26fa5812d61bee28ac1a1a1dfc3a2a108848,mina
DIRMINA-319,2006-12-05 03:37:49 +0000,LICENSE.jzlib.txt|LICENSE.slf4j.txt|LICENSE.springframework.txt|LICENSE.txt|NOTICE.txt|core/LICENSE.txt|core/NOTICE.txt|core/src/main/java/org/apache/mina/transport/socket/nio/DatagramAcceptor.java|core/src/main/java/org/apache/mina/transport/socket/nio/DatagramConnector.java|core/src/main/java/org/apache/mina/transport/socket/nio/DatagramService.java|core/src/main/java/org/apache/mina/transport/socket/nio/support/DatagramConnectorDelegate.java|core/src/main/java/org/apache/mina/transport/socket/nio/support/DatagramService.java|core/src/main/java/org/apache/mina/transport/socket/nio/support/DatagramSessionImpl.java|core/src/test/java/org/apache/mina/transport/socket/nio/DatagramRecyclerTest.java|doap.rdf|example/LICENSE.txt|example/NOTICE.txt|filter-codec-netty/LICENSE.txt|filter-codec-netty/NOTICE.txt|filter-compression/LICENSE.txt|filter-compression/NOTICE.txt|filter-ssl/LICENSE.txt|filter-ssl/NOTICE.txt|integration-jmx/LICENSE.txt|integration-jmx/NOTICE.txt|integration-spring/LICENSE.txt|integration-spring/NOTICE.txt|,15,17,18,2006-11-30 03:39:43 +0000,2006-12-05 03:36:48 +0000,bc76fc3c287c3f67e83c758597b8b0d9183adaca,mina
DIRMINA-321,2006-12-13 07:30:45 +0000,core/src/main/java/org/apache/mina/filter/codec/serialization/ObjectSerializationInputStream.java|core/src/test/java/org/apache/mina/filter/codec/serialization/ObjectSerializationTest.java|,17,18,18,2006-12-13 06:29:17 +0000,2006-12-13 06:47:01 +0000,1448380da6b7e832750426311747e5caa9392b2c,mina
DIRMINA-330,2007-01-11 01:39:54 +0000,core/src/main/java/org/apache/mina/handler/demux/DemuxingIoHandler.java|,15,18,18,2007-01-11 01:38:24 +0000,2007-01-11 01:38:48 +0000,0946383eb937bb84576b72ac93a045b5eea4341a,mina
DIRMINA-324,2007-01-29 02:49:17 +0000,core/src/main/java/org/apache/mina/filter/codec/ProtocolCodecFilter.java|,15,18,18,2006-12-17 18:34:47 +0000,2007-01-29 02:48:52 +0000,9e5176615af4e222bb6ce97e8f69a4efa424017b,mina
DIRMINA-343,2007-01-29 03:28:38 +0000,core/src/main/java/org/apache/mina/filter/codec/textline/TextLineDecoder.java|core/src/test/java/org/apache/mina/filter/codec/textline/TextLineDecoderTest.java|,15,18,18,2007-01-29 03:22:59 +0000,2007-01-29 03:24:59 +0000,a5f90946f7a07828cd079b29b3072efaaecd09d0,mina
DIRMINA-306,2007-01-30 07:20:31 +0000,core/src/main/java/org/apache/mina/transport/vmpipe/VmPipeConnector.java|core/src/main/java/org/apache/mina/transport/vmpipe/support/VmPipeFilterChain.java|core/src/main/java/org/apache/mina/transport/vmpipe/support/VmPipeSessionImpl.java|core/src/test/java/org/apache/mina/transport/vmpipe/VmPipeEventOrderTest.java|,15,16,18,2006-11-13 18:52:40 +0000,2007-01-30 07:05:29 +0000,be7e6d28b57bf09a5554e17322b375ec9ee74d1e,mina
DIRMINA-331,2007-01-30 09:55:31 +0000,core/src/main/java/org/apache/mina/management/IoSessionStat.java|core/src/main/java/org/apache/mina/management/StatCollector.java|,17,18,18,2007-01-12 08:07:46 +0000,2007-01-30 09:53:44 +0000,8da7b9a307765266cc2911528390d1bf37e6f76a,mina
DIRMINA-345,2007-01-31 02:55:45 +0000,core/src/main/java/org/apache/mina/transport/socket/nio/SocketSessionImpl.java|core/src/main/java/org/apache/mina/transport/socket/nio/support/DatagramSessionImpl.java|,15,18,18,2007-01-31 02:11:41 +0000,2007-01-31 02:53:37 +0000,34ca09674f2d0bdec2225ea3ff2e67a18ef6f933,mina
DIRMINA-351,2007-02-14 10:03:19 +0000,filter-ssl/src/main/java/org/apache/mina/filter/SSLFilter.java|,15,18,18,2007-02-14 10:01:57 +0000,2007-02-14 10:02:55 +0000,c5aa54ce8e850410ff40a4d61dd5d663b62f9512,mina
DIRMINA-347,2007-02-14 10:30:54 +0000,core/src/main/java/org/apache/mina/handler/StreamIoHandler.java|,17,18,18,2007-02-09 00:43:08 +0000,2007-02-14 10:30:39 +0000,1317777ceef2cadd1130888537c5fb0cc1e25342,mina
DIRMINA-296,2007-02-20 07:45:39 +0000,core/src/main/java/org/apache/mina/common/ByteBuffer.java|core/src/test/java/org/apache/mina/common/ByteBufferTest.java|,15,16,19,2006-10-27 08:32:42 +0000,2007-02-20 07:45:07 +0000,4eebd3ba32ab342938f8a0a30720af3f307edab8,mina
DIRMINA-359,2007-03-20 02:26:02 +0000,filter-ssl/src/main/java/org/apache/mina/filter/SSLFilter.java|,15,19,19,2007-03-20 02:23:35 +0000,2007-03-20 02:25:46 +0000,a9808a459ace1f34cbc9aabb863836e132b7652c,mina
DIRMINA-326,2007-03-26 08:34:45 +0000,filter-ssl/src/main/java/org/apache/mina/filter/SSLFilter.java|filter-ssl/src/main/java/org/apache/mina/filter/support/SSLHandler.java|,15,18,19,2006-12-17 19:27:09 +0000,2007-03-26 08:32:32 +0000,5285dc2e388d4393c19e7c07c6a9a3e174f14949,mina
DIRMINA-362,2007-03-27 03:13:59 +0000,core/src/main/java/org/apache/mina/transport/socket/nio/SocketIoProcessor.java|,15,19,19,2007-03-26 09:43:21 +0000,2007-03-27 03:12:33 +0000,58426c766109d19a2d3689e9699e8fd6f53ce4a7,mina
DIRMINA-363,2007-03-28 02:20:17 +0000,core/src/main/java/org/apache/mina/filter/codec/ProtocolCodecFilter.java|core/src/main/java/org/apache/mina/filter/codec/SynchronizedProtocolDecoder.java|core/src/main/java/org/apache/mina/filter/codec/SynchronizedProtocolEncoder.java|,15,19,19,2007-03-28 01:58:30 +0000,2007-03-28 02:20:04 +0000,4e20404e36923b0531931a06afea395ab0ea0c91,mina
DIRMINA-366,2007-05-16 02:49:04 +0000,core/src/main/java/org/apache/mina/transport/socket/nio/DefaultSocketSessionConfig.java|,15,19,19,2007-04-05 08:33:35 +0000,2007-04-05 09:36:43 +0000,324b8957d725f26aa2b073f73569d9b0cf943dc4,mina
DIRMINA-369,2007-04-13 12:34:24 +0000,core/src/main/java/org/apache/mina/handler/support/IoSessionOutputStream.java|example/src/main/java/org/apache/mina/example/httpserver/stream/HttpProtocolHandler.java|,17,20,20,2007-04-13 12:22:28 +0000,2007-04-13 12:31:06 +0000,fb835269773d722b95108a496a1189ef083b8237,mina
DIRMINA-279,2007-04-18 03:37:00 +0000,core/src/main/java/org/apache/mina/common/support/AbstractIoFilterChain.java|,15,16,20,2006-10-06 13:31:52 +0000,2007-04-18 03:32:20 +0000,9b00892a49b739a074d0853b48ca9422330d097c,mina
DIRMINA-383,2007-06-07 08:39:51 +0000,core/src/main/java/org/apache/mina/filter/codec/CumulativeProtocolDecoder.java|,18,20,20,2007-06-05 15:55:00 +0000,2007-06-07 08:39:03 +0000,5b3b3f420443d354b2276d903ceea6af794b1322,mina
DIRMINA-386,2007-06-11 07:24:31 +0000,core/src/main/java/org/apache/mina/transport/socket/nio/DefaultDatagramSessionConfig.java|core/src/main/java/org/apache/mina/transport/socket/nio/DefaultSocketSessionConfig.java|,19,20,20,2007-06-08 15:58:14 +0000,2007-06-11 07:20:56 +0000,d7f7fe2efd50d416d64e56d0d5a3a7a9b082ca95,mina
DIRMINA-374,2007-07-05 07:23:34 +0000,core/src/main/java/org/apache/mina/transport/socket/nio/SocketAcceptor.java|core/src/main/java/org/apache/mina/transport/socket/nio/SocketConnector.java|,15,20,20,2007-04-30 13:05:52 +0000,2007-07-05 07:22:32 +0000,9590fec8c140fb4ca7fe8fa5bbbf53b8f876f4a3,mina
DIRMINA-390,2007-07-11 09:02:17 +0000,core/src/main/java/org/apache/mina/common/support/AbstractIoFilterChain.java|example/src/test/java/org/apache/mina/example/echoserver/ssl/SSLFilterTest.java|filter-compression/src/main/java/org/apache/mina/filter/CompressionFilter.java|filter-ssl/src/main/java/org/apache/mina/filter/SSLFilter.java|,19,20,20,2007-06-26 14:32:57 +0000,2007-07-11 08:35:57 +0000,63bf032f201c66abce487180e3ae8c5ea96c53d1,mina
DIRMINA-385,2007-07-16 08:45:31 +0000,filter-ssl/src/main/java/org/apache/mina/filter/SSLFilter.java|,19,20,20,2007-06-07 23:01:18 +0000,2007-07-16 08:39:18 +0000,523932f7e8e433bf398c0c29656a71fda5002f2e,mina
DIRMINA-406,2007-07-26 07:11:45 +0000,core/src/main/java/org/apache/mina/filter/codec/ProtocolCodecFilter.java|,15,21,21,2007-07-26 06:44:24 +0000,2007-07-26 07:06:17 +0000,6ea186ae2b9402c9717c98847492a4f31d239063,mina
DIRMINA-412,2007-07-31 06:14:17 +0000,core/src/main/java/org/apache/mina/common/support/AbstractIoFilterChain.java|core/src/main/java/org/apache/mina/common/support/DefaultIoFuture.java|,15,21,21,2007-07-30 17:06:16 +0000,2007-07-31 06:12:43 +0000,132c4ed5f988a0c39be40168f9cf19e43588c033,mina
DIRMINA-407,2007-07-31 06:43:41 +0000,core/src/main/java/org/apache/mina/transport/socket/nio/SocketSessionImpl.java|core/src/main/java/org/apache/mina/transport/socket/nio/support/DatagramSessionImpl.java|core/src/main/java/org/apache/mina/transport/vmpipe/VmPipeAddress.java|transport-serial/src/main/java/org/apache/mina/transport/serial/SerialSession.java|,20,21,21,2007-07-27 17:53:02 +0000,2007-07-31 06:43:29 +0000,e3051b1f2492565aee88eb440403cf1a4d82de48,mina
DIRMINA-409,2007-07-31 07:24:07 +0000,core/src/main/java/org/apache/mina/transport/socket/nio/SocketAcceptor.java|,15,21,21,2007-07-28 09:32:40 +0000,2007-07-31 07:23:25 +0000,8f5956ea7c57a866cc85b68278c5c0052990c89d,mina
DIRMINA-410,2007-08-03 05:41:09 +0000,core/src/main/java/org/apache/mina/common/DefaultIoFilterChainBuilder.java|core/src/main/java/org/apache/mina/common/IoFilterChain.java|core/src/main/java/org/apache/mina/common/support/AbstractIoFilterChain.java|,15,21,21,2007-07-28 11:36:09 +0000,2007-08-03 05:28:02 +0000,458f083dfb2280366abafc85e4274ed47e8a1113,mina
DIRMINA-413,2007-08-03 05:54:00 +0000,core/src/main/java/org/apache/mina/common/IoHandler.java|,15,21,21,2007-07-31 07:28:31 +0000,2007-08-03 05:53:44 +0000,81ad01120c84f7707672d4fff78babae81fd0cc5,mina
DIRMINA-421,2007-08-17 07:37:03 +0000,core/src/main/java/org/apache/mina/filter/codec/ProtocolCodecFilter.java|,15,22,22,2007-08-17 07:34:12 +0000,2007-08-17 07:36:58 +0000,4e9d1c8df9bb5677a423243505bae7d8e1d189b8,mina
DIRMINA-305,2007-08-18 04:40:23 +0000,core/src/main/java/org/apache/mina/transport/socket/nio/SocketIoProcessor.java|,15,16,22,2006-11-08 02:54:48 +0000,2007-08-18 04:51:52 +0000,3fd354388872807b9a02f161bfe74304078e626e,mina
DIRMINA-436,2007-09-13 09:23:57 +0000,core/src/main/java/org/apache/mina/filter/codec/demux/DemuxingProtocolCodecFactory.java|,15,22,22,2007-09-13 09:21:15 +0000,2007-09-13 09:23:41 +0000,14c3de9205c1967a8c994dae68a8a6a86da5e2f0,mina
DIRMINA-437,2007-09-13 09:34:06 +0000,core/src/main/java/org/apache/mina/transport/socket/nio/DefaultSocketSessionConfig.java|,21,22,22,2007-09-13 09:31:55 +0000,2007-09-13 09:33:04 +0000,66773d849e972b27c584cb5dcb0b7edd4a804976,mina
DIRMINA-431,2007-09-14 10:05:21 +0000,core/src/main/java/org/apache/mina/common/AbstractIoSession.java|core/src/main/java/org/apache/mina/transport/socket/nio/DatagramAcceptor.java|core/src/main/java/org/apache/mina/transport/socket/nio/DatagramConnector.java|core/src/main/java/org/apache/mina/transport/socket/nio/DatagramFilterChain.java|core/src/main/java/org/apache/mina/transport/socket/nio/DatagramSessionImpl.java|core/src/main/java/org/apache/mina/transport/socket/nio/SocketIoProcessor.java|core/src/main/java/org/apache/mina/transport/socket/nio/SocketSessionImpl.java|core/src/main/java/org/apache/mina/transport/vmpipe/VmPipeFilterChain.java|core/src/main/java/org/apache/mina/transport/vmpipe/VmPipeSessionImpl.java|,21,22,22,2007-09-02 16:58:09 +0000,2007-09-14 10:04:45 +0000,d89a5b8dee8624c3dfb980cc729a57b6eb87f3b4,mina
DIRMINA-318,2007-09-27 16:47:28 +0000,core/src/main/java/org/apache/mina/common/AbstractIoProcessor.java|core/src/main/java/org/apache/mina/common/IdleStatusChecker.java|core/src/main/java/org/apache/mina/transport/socket/nio/NioDatagramAcceptor.java|,15,17,22,2006-11-29 02:53:43 +0000,2007-09-27 16:43:59 +0000,5b09f349c6e4e9af7762f45347b8df443ddc6880,mina
DIRMINA-459,2007-10-15 09:25:42 +0000,core/src/main/java/org/apache/mina/common/DefaultIoFilterChain.java|,22,23,23,2007-10-15 09:19:06 +0000,2007-10-15 09:25:29 +0000,8a160de3e61bcb3b09d0bffa84a242e472fd4fc9,mina
DIRMINA-458,2007-10-16 05:59:45 +0000,core/src/main/java/org/apache/mina/common/AbstractIoProcessor.java|core/src/main/java/org/apache/mina/common/AbstractIoSession.java|,22,23,23,2007-10-15 08:49:45 +0000,2007-10-16 05:57:53 +0000,c40cd2c2ea17ceaf8a92eba7a7ed24f9b460eeef,mina
DIRMINA-454,2007-10-16 08:16:53 +0000,core/src/main/java/org/apache/mina/filter/codec/textline/TextLineDecoder.java|core/src/test/java/org/apache/mina/filter/codec/textline/TextLineDecoderTest.java|,22,23,23,2007-10-06 04:52:25 +0000,2007-10-16 07:38:13 +0000,7ab63535e0aee74edc3da1aaf62ec58763b657d0,mina
DIRMINA-452,2007-10-16 08:37:24 +0000,core/src/main/java/org/apache/mina/common/IdleStatusChecker.java|,15,23,23,2007-10-02 15:16:28 +0000,2007-10-16 08:36:14 +0000,ad7024dfde946cca2df52691a84966e1b8582dc5,mina
DIRMINA-465,2007-11-02 01:01:36 +0000,core/src/main/java/org/apache/mina/filter/codec/ProtocolCodecFilter.java|core/src/main/java/org/apache/mina/filter/codec/ProtocolDecoder.java|core/src/main/java/org/apache/mina/filter/codec/ProtocolEncoder.java|core/src/main/java/org/apache/mina/filter/codec/RecoverableProtocolDecoderException.java|,23,24,24,2007-11-01 13:37:51 +0000,2007-11-02 00:48:24 +0000,d835a1bc94c4175934dbfc8d1f3c06d2746d91b8,mina
DIRMINA-302,2007-11-02 12:18:50 +0000,core/src/main/java/org/apache/mina/filter/traffic/ReadThrottleFilter.java|core/src/main/java/org/apache/mina/filter/traffic/ReadThrottleFilterChainBuilder.java|core/src/main/java/org/apache/mina/filter/traffic/WriteThrottleFilter.java|core/src/main/java/org/apache/mina/filter/traffic/WriteThrottlePolicy.java|,15,16,24,2006-11-02 12:18:02 +0000,2007-11-02 12:15:47 +0000,1f02720add784dac9277e09aad119d44aa54dda4,mina
DIRMINA-469,2007-11-05 03:02:38 +0000,core/src/main/java/org/apache/mina/common/AbstractIoProcessor.java|,17,24,24,2007-11-05 02:58:51 +0000,2007-11-05 08:33:26 +0000,86fa73b781da3fc4240ca40351e0a6801f240a44,mina
DIRMINA-481,2007-11-16 01:32:16 +0000,core/src/main/java/org/apache/mina/common/IoBuffer.java|core/src/main/java/org/apache/mina/filter/executor/DefaultIoEventSizeEstimator.java|core/src/main/java/org/apache/mina/filter/traffic/DefaultMessageSizeEstimator.java|core/src/test/java/org/apache/mina/common/IoBufferTest.java|,15,24,24,2007-11-16 01:29:41 +0000,2007-11-16 01:31:56 +0000,2f8af59602e5ca5185c7f580b9ddff28a89de247,mina
DIRMINA-435,2007-12-04 06:45:25 +0000,core/src/main/java/org/apache/mina/common/AbstractPollingIoConnector.java|core/src/main/java/org/apache/mina/transport/socket/nio/NioDatagramConnector.java|core/src/main/java/org/apache/mina/transport/socket/nio/NioSocketConnector.java|transport-apr/src/main/java/org/apache/mina/transport/socket/apr/AprSocketConnector.java|,15,22,25,2007-09-07 03:10:59 +0000,2007-12-04 06:38:46 +0000,e53a207e999c64f06fa2a444c30bbcaa1db7873b,mina
DIRMINA-488,2007-12-07 02:44:40 +0000,core/src/main/java/org/apache/mina/common/AbstractIoBuffer.java|,24,25,25,2007-12-06 10:59:29 +0000,2007-12-07 02:45:54 +0000,a0bbdc9f052380799564e37fcfbdd7498412a814,mina
DIRMINA-506,2008-01-04 16:36:35 +0000,core/src/main/java/org/apache/mina/filter/codec/textline/TextLineDecoder.java|core/src/test/java/org/apache/mina/filter/codec/textline/TextLineDecoderTest.java|,1,25,25,2008-01-04 16:27:59 +0000,2008-01-04 16:29:40 +0000,174428a2caecf4bed7f1718400b9459704a82aea,mina
DIRMINA-502,2008-01-15 04:09:15 +0000,pom.xml|,24,25,25,2007-12-22 20:55:03 +0000,2008-01-15 04:08:44 +0000,cac7eea29110cdf0d64b9e7cfb24412f19da4b35,mina
DIRMINA-512,2008-01-15 06:16:04 +0000,core/src/main/java/org/apache/mina/filter/codec/ProtocolCodecFilter.java|core/src/main/java/org/apache/mina/filter/codec/demux/DemuxingProtocolDecoder.java|,24,25,25,2008-01-15 06:14:29 +0000,2008-01-15 06:16:14 +0000,ccb8fce23cf07378b0d606c2f4d65e067be0892f,mina
DIRMINA-530,2008-02-20 03:16:57 +0000,filter-compression/src/main/java/org/apache/mina/filter/compression/CompressionFilter.java|filter-compression/src/main/java/org/apache/mina/filter/compression/Zlib.java|,25,26,26,2008-02-13 23:00:47 +0000,2008-02-20 03:18:28 +0000,f4078e0a76014564f3daa69c0b1a975942ed16a0,mina
DIRMINA-540,2008-03-10 05:45:07 +0000,core/src/main/java/org/apache/mina/common/IoServiceListenerSupport.java|core/src/main/java/org/apache/mina/util/Log4jXmlFormatter.java|,25,27,27,2008-03-10 05:40:38 +0000,2008-03-10 05:45:59 +0000,81865bcc94f9d86f8b6a8627a8f0387540999fd9,mina
DIRMINA-542,2008-03-10 06:33:35 +0000,core/src/main/java/org/apache/mina/util/CircularQueue.java|core/src/test/java/org/apache/mina/util/CircularQueueTest.java|,26,27,27,2008-03-10 06:32:12 +0000,2008-03-10 06:34:13 +0000,6ac1e8b309fe3044f71197c58a0f09e07079fb01,mina
DIRMINA-543,2008-03-10 09:04:10 +0000,core/src/main/java/org/apache/mina/transport/vmpipe/VmPipeFilterChain.java|core/src/main/java/org/apache/mina/util/CircularQueue.java|core/src/test/java/org/apache/mina/transport/vmpipe/VmPipeEventOrderTest.java|core/src/test/java/org/apache/mina/util/CircularQueueTest.java|,25,27,27,2008-03-10 07:47:09 +0000,2008-03-10 09:04:45 +0000,c0347ddda617cc001368fc7cd21792f49f49ef59,mina
DIRMINA-544,2008-03-10 10:35:34 +0000,core/src/main/java/org/apache/mina/filter/logging/MdcInjectionFilter.java|core/src/test/java/org/apache/mina/filter/logging/MdcInjectionFilterTest.java|,26,27,27,2008-03-10 10:27:34 +0000,2008-03-10 10:35:00 +0000,12e38140c5de3fbbe2595a9cc804045b128b5609,mina
DIRMINA-536,2008-03-12 06:54:31 +0000,core/src/main/java/org/apache/mina/filter/codec/textline/TextLineDecoder.java|,25,27,27,2008-02-25 14:49:45 +0000,2008-03-12 06:55:07 +0000,b4a4c0194478a5478a2b6de019170eb30cc94d56,mina
DIRMINA-533,2008-02-20 11:45:40 +0000,integration-jmx/src/main/java/org/apache/mina/integration/jmx/Foo.java|integration-jmx/src/main/java/org/apache/mina/integration/jmx/IoServiceMBean.java|integration-jmx/src/main/java/org/apache/mina/integration/jmx/IoSessionMBean.java|,26,26,27,2008-02-20 11:43:44 +0000,2008-03-17 06:28:41 +0000,17d271b3f730b303ab1b358c5e56d2d00db43676,mina
DIRMINA-552,2008-03-17 06:38:10 +0000,core/src/main/java/org/apache/mina/common/AbstractIoSession.java|core/src/main/java/org/apache/mina/common/AbstractPollingConnectionlessIoAcceptor.java|core/src/main/java/org/apache/mina/common/AbstractPollingIoProcessor.java|core/src/main/java/org/apache/mina/common/DefaultIoFilterChain.java|,26,27,27,2008-03-17 06:15:59 +0000,2008-03-17 06:39:20 +0000,0fe4f9bac1aad2ff40b77433f18ea54b2b3b9f07,mina
DIRMINA-548,2008-03-17 14:50:28 +0000,core/src/main/java/org/apache/mina/common/UnderivableBuffer.java|core/src/main/java/org/apache/mina/filter/codec/CumulativeProtocolDecoder.java|core/src/test/java/org/apache/mina/filter/codec/CumulativeProtocolDecoderTest.java|,26,27,27,2008-03-11 17:00:32 +0000,2008-03-17 14:50:47 +0000,7552914ee19534ce18409bca581723551f6d008e,mina
DIRMINA-557,2008-03-19 18:35:19 +0000,core/src/main/java/org/apache/mina/common/AbstractIoBuffer.java|core/src/test/java/org/apache/mina/common/IoBufferTest.java|,26,27,27,2008-03-19 18:31:28 +0000,2008-03-19 18:36:43 +0000,d36ca5b2e0c65b198272e31972d97a19bce386ff,mina
DIRMINA-559,2008-03-25 22:21:08 +0000,statemachine/src/main/java/org/apache/mina/statemachine/StateMachine.java|statemachine/src/main/java/org/apache/mina/statemachine/StateMachineProxyBuilder.java|statemachine/src/main/java/org/apache/mina/statemachine/event/EventFactory.java|statemachine/src/test/java/org/apache/mina/statemachine/StateMachineProxyBuilderTest.java|,26,27,27,2008-03-25 22:18:43 +0000,2008-03-25 22:22:35 +0000,92d4586b9a99a4d4344fb526ce5f84ab23790b02,mina
DIRMINA-561,2008-04-09 09:51:40 +0000,core/src/main/java/org/apache/mina/transport/socket/nio/NioSocketConnector.java|,15,27,27,2008-03-28 19:36:26 +0000,2008-03-31 15:01:38 +0000,edd5ddb7040594978e8ac10250d3b8c33730ea54,mina
DIRMINA-562,2008-04-04 08:37:43 +0000,core/src/main/java/org/apache/mina/filter/keepalive/KeepAliveFilter.java|,26,27,27,2008-04-04 08:29:57 +0000,2008-04-04 08:34:53 +0000,dc0a8bfaf6b6e0a986f8d2534ca9cb2b40bee01a,mina
DIRMINA-563,2008-04-04 09:11:57 +0000,core/src/main/java/org/apache/mina/filter/keepalive/KeepAliveFilter.java|,26,27,27,2008-04-04 09:10:14 +0000,2008-04-04 09:13:22 +0000,24f7222a1981d3ea3ecb63bff9cc75992b7b8512,mina
DIRMINA-566,2008-04-07 11:10:21 +0000,core/src/main/java/org/apache/mina/filter/firewall/ConnectionThrottleFilter.java|,26,27,27,2008-04-07 11:08:40 +0000,2008-04-07 11:11:39 +0000,2dead9ca300eb1776203c64ec29f62288b105ab0,mina
DIRMINA-567,2008-04-08 08:51:19 +0000,core/src/main/java/org/apache/mina/common/AbstractIoSession.java|,26,27,27,2008-04-07 12:55:48 +0000,2008-04-08 08:52:47 +0000,2eb3067109a5661951862f9ebf199ccec8ed007c,mina
DIRMINA-560,2008-04-11 05:39:16 +0000,core/src/main/java/org/apache/mina/transport/socket/DefaultSocketSessionConfig.java|,25,27,27,2008-03-28 17:58:26 +0000,2008-04-11 05:40:04 +0000,fd14978cab7f1ae292572b8f86b5c13e45f77732,mina
DIRMINA-570,2008-04-20 05:14:51 +0000,core/src/main/java/org/apache/mina/transport/socket/nio/NioProcessor.java|,26,27,28,2008-04-16 18:03:05 +0000,2008-04-20 05:17:16 +0000,dc5113f84adb899be393ef71f2de00570153a182,mina
DIRMINA-583,2008-05-13 03:27:06 +0000,core/src/main/java/org/apache/mina/transport/socket/nio/NioSocketAcceptor.java|transport-apr/src/main/java/org/apache/mina/transport/socket/apr/AprSocketAcceptor.java|,26,28,28,2008-05-13 03:25:17 +0000,2008-05-13 03:26:23 +0000,5468d2cc684f39aa75349314a315a0b56b4d89da,mina
DIRMINA-580,2008-05-14 04:50:59 +0000,core/src/main/java/org/apache/mina/filter/ssl/SslHandler.java|,26,28,28,2008-05-06 05:46:17 +0000,2008-05-14 04:50:17 +0000,749a222b4fa9cbf0783eb084a9de8c36e71dac84,mina
DIRMINA-578,2008-05-14 05:29:19 +0000,core/src/main/java/org/apache/mina/transport/vmpipe/VmPipeFilterChain.java|,26,28,28,2008-04-30 09:40:19 +0000,2008-05-14 05:27:24 +0000,e0316ce98cd7313ca36140e0095d42496a3c469d,mina
DIRMINA-579,2008-05-19 09:59:05 +0000,core/src/main/java/org/apache/mina/filter/codec/statemachine/ConsumeToEndOfSessionDecodingState.java|,26,28,28,2008-05-02 09:46:31 +0000,2008-05-19 07:24:46 +0000,a7d304efe9fcc10835f35b3e64630f27b89aa7d1,mina
DIRMINA-584,2008-06-06 08:25:40 +0000,transport-apr/src/main/java/org/apache/mina/transport/socket/apr/AprIoProcessor.java|transport-apr/src/main/java/org/apache/mina/transport/socket/apr/AprSession.java|,26,28,28,2008-05-14 00:35:15 +0000,2008-06-06 08:23:38 +0000,89734ea88700b181551be5c77de90ee95a016144,mina
DIRMINA-610,2008-07-22 21:30:28 +0000,core/src/main/java/org/apache/mina/core/polling/AbstractPollingIoProcessor.java|,27,29,29,2008-07-18 18:37:33 +0000,2008-07-28 08:22:53 +0000,c6497062e34aab2d237aab01581f402224c032ca,mina
DIRMINA-613,2008-07-30 12:00:20 +0000,core/src/main/java/org/apache/mina/filter/codec/CumulativeProtocolDecoder.java|,26,29,29,2008-07-30 11:52:21 +0000,2008-07-30 11:58:19 +0000,763425fb6785be08ef18126729b1d33a6535cf58,mina
DIRMINA-633,2008-10-29 23:53:12 +0000,core/src/main/java/org/apache/mina/filter/codec/ProtocolCodecFilter.java|,29,30,30,2008-10-29 22:50:29 +0000,2008-10-29 23:42:19 +0000,5690e4df6cb602f5b0d217d9db234871c91b9f0d,mina
DIRMINA-635,2008-11-11 20:03:18 +0000,core/src/main/java/org/apache/mina/filter/codec/ProtocolCodecFilter.java|core/src/main/java/org/apache/mina/filter/codec/ProtocolCodecSession.java|core/src/main/java/org/apache/mina/filter/codec/ProtocolDecoderOutput.java|core/src/main/java/org/apache/mina/filter/codec/statemachine/DecodingStateMachine.java|example/src/main/java/org/apache/mina/example/tapedeck/CommandDecoder.java|,29,30,30,2008-11-11 15:50:17 +0000,2008-11-11 19:32:26 +0000,a5285026042a535ab743a16343d8a12377def0e8,mina
DIRMINA-636,2008-11-11 20:03:50 +0000,core/src/main/java/org/apache/mina/filter/codec/ProtocolCodecFilter.java|core/src/main/java/org/apache/mina/filter/codec/ProtocolCodecSession.java|core/src/main/java/org/apache/mina/filter/codec/ProtocolDecoderOutput.java|core/src/main/java/org/apache/mina/filter/codec/statemachine/DecodingStateMachine.java|example/src/main/java/org/apache/mina/example/tapedeck/CommandDecoder.java|,29,30,30,2008-11-11 18:52:14 +0000,2008-11-11 19:32:26 +0000,a5285026042a535ab743a16343d8a12377def0e8,mina
DIRMINA-656,2009-01-12 22:21:37 +0000,core/src/main/java/org/apache/mina/filter/logging/LoggingFilter.java|,30,31,31,2009-01-12 19:53:42 +0000,2009-01-12 22:19:21 +0000,9c1600b434e85ce1f5832030d5cd98fba812f515,mina
DIRMINA-658,2009-01-27 23:44:34 +0000,core/src/main/java/org/apache/mina/filter/buffer/BufferedWriteFilter.java|,30,31,31,2009-01-27 18:52:04 +0000,2009-01-27 23:25:41 +0000,4cf3824a7cc63fd43244c5c75b4d1826a0846800,mina
DIRMINA-661,2009-02-13 08:12:46 +0000,core/src/main/java/org/apache/mina/core/session/DummySession.java|,30,31,31,2009-02-13 05:06:14 +0000,2009-02-13 08:09:10 +0000,584157b38da8daacb5cb4e3b90ba4477ffe401b3,mina
DIRMINA-664,2009-02-27 13:46:42 +0000,core/src/main/java/org/apache/mina/core/buffer/IoBuffer.java|,30,31,31,2009-02-26 17:11:55 +0000,2009-02-27 13:45:31 +0000,475c76899ed7752f49be242708d8645338dc549d,mina
DIRMINA-665,2009-03-01 22:40:17 +0000,core/src/main/java/org/apache/mina/core/session/AbstractIoSession.java|,30,31,31,2009-02-28 23:21:36 +0000,2009-03-01 22:39:07 +0000,bc86246be89ed414fd7689ea68bbcea51b383f9d,mina
DIRMINA-667,2009-03-08 20:19:25 +0000,core/src/main/java/org/apache/mina/transport/socket/nio/NioDatagramConnector.java|,30,31,31,2009-03-07 02:42:58 +0000,2009-03-08 20:17:47 +0000,7d28dfd30055a2e91ab1ce213b8ccec8298d4b2a,mina
DIRMINA-647,2009-03-09 09:17:48 +0000,transport-serial/src/main/java/org/apache/mina/transport/serial/SerialSessionImpl.java|,29,31,31,2008-12-11 07:07:22 +0000,2009-03-09 09:17:16 +0000,5e6c6f62a5a0220908493b53170137d7ba1654c8,mina
DIRMINA-646,2009-03-09 09:20:30 +0000,transport-serial/src/main/java/org/apache/mina/transport/serial/SerialSessionImpl.java|,29,31,31,2008-12-11 06:52:53 +0000,2009-03-09 09:20:18 +0000,a85b16cd2e8e64e59225a1b5912f54546bf15963,mina
DIRMINA-675,2009-03-17 10:24:09 +0000,core/src/main/java/org/apache/mina/filter/codec/AbstractProtocolEncoderOutput.java|,30,31,31,2009-03-16 15:22:58 +0000,2009-03-17 10:22:02 +0000,7459ac943d73cbe782c7ac1f3acb92ae3f8d50b5,mina
DIRMINA-676,2009-03-18 09:04:47 +0000,integration-jmx/src/main/java/org/apache/mina/integration/jmx/ObjectMBean.java|,30,31,31,2009-03-17 10:08:57 +0000,2009-03-18 09:02:54 +0000,a6298bc6bf530527c8ce5ba3191ea1f35f155e57,mina
DIRMINA-677,2009-03-19 23:52:00 +0000,core/src/main/java/org/apache/mina/core/session/AbstractIoSession.java|,30,31,31,2009-03-18 20:37:55 +0000,2009-03-19 23:49:57 +0000,edeb5f70cfe77c3c4464de16ec9997edfc4cc91a,mina
DIRMINA-674,2009-03-20 00:04:38 +0000,integration-xbean/pom.xml|,30,31,31,2009-03-16 03:55:50 +0000,2009-03-20 00:03:51 +0000,4a141938cd29a4c205144ec724874d9d4761f45d,mina
DIRMINA-672,2009-05-06 12:14:28 +0000,core/src/main/java/org/apache/mina/filter/codec/CumulativeProtocolDecoder.java|,26,31,31,2009-03-13 18:26:51 +0000,2009-03-21 19:07:19 +0000,6c7ad9c34415531d6bb1e27ed1b06fe7c93fb4a3,mina
DIRMINA-648,2009-04-17 18:25:52 +0000,core/src/main/java/org/apache/mina/filter/logging/LoggingFilter.java|,30,31,32,2008-12-15 12:24:45 +0000,2009-04-17 18:24:06 +0000,d243d65a2bd266416a778033cf97e53a9bafd526,mina
DIRMINA-706,2009-04-28 22:21:45 +0000,core/src/main/java/org/apache/mina/core/service/AbstractIoAcceptor.java|core/src/main/java/org/apache/mina/core/service/IoAcceptor.java|,31,32,32,2009-04-28 08:02:09 +0000,2009-04-28 22:20:36 +0000,c03f96c1b8af35857e97a58b7aafdbcd845a909c,mina
DIRMINA-687,2009-05-13 23:25:26 +0000,core/src/main/java/org/apache/mina/filter/executor/OrderedThreadPoolExecutor.java|,31,32,32,2009-04-16 20:48:40 +0000,2009-05-13 23:13:48 +0000,d021fc1ef7295af8a5b1a9afb3fc9f5328db53ae,mina
DIRMINA-712,2009-05-20 20:44:08 +0000,core/src/main/java/org/apache/mina/core/filterchain/DefaultIoFilterChainBuilder.java|,26,32,32,2009-05-20 10:52:51 +0000,2009-05-20 20:42:23 +0000,b918aa3c95cb8acd100a65f534ab9dc8aa9ee3f2,mina
DIRMINA-713,2009-05-20 21:05:03 +0000,core/src/main/java/org/apache/mina/core/buffer/IoBufferHexDumper.java|,31,32,32,2009-05-20 14:38:20 +0000,2009-05-20 21:02:49 +0000,57556bb60c825d27031e01eafa7165012bb3ee65,mina
DIRMINA-717,2009-06-04 13:40:38 +0000,core/src/main/java/org/apache/mina/core/future/DefaultIoFuture.java|core/src/main/java/org/apache/mina/core/polling/AbstractPollingIoAcceptor.java|,32,33,33,2009-06-04 10:25:24 +0000,2009-06-04 11:16:53 +0000,0c1d3018e3450e4a5119e985c1bf98f05bdbcae8,mina
DIRMINA-709,2009-06-14 20:42:22 +0000,core/src/main/java/org/apache/mina/core/polling/AbstractPollingIoProcessor.java|,30,32,33,2009-05-05 11:16:32 +0000,2009-06-14 18:39:57 +0000,ddcbeadcc2693be05203e358d1d737a9ac61f5d0,mina
DIRMINA-718,2009-06-16 07:40:47 +0000,core/src/main/java/org/apache/mina/core/session/AbstractIoSession.java|,32,33,33,2009-06-16 05:06:19 +0000,2009-06-16 07:38:40 +0000,4e618741ff1ac4a76ce3d713d221dbb9e19532fa,mina
DIRMINA-632,2009-06-22 17:55:42 +0000,core/src/test/java/org/apache/mina/transport/socket/nio/PollingIoProcessorTest.java|,27,30,33,2008-10-24 06:09:27 +0000,2009-06-22 17:54:55 +0000,7e4571d5e7ba8d3abe18b171628474ac28509182,mina
DIRMINA-728,2009-07-15 13:33:34 +0000,example/src/main/java/org/apache/mina/example/chat/client/ChatClientSupport.java|,32,33,33,2009-07-10 09:45:21 +0000,2009-07-15 13:31:44 +0000,691633f485b826965a107a541783c38b78c6a1f2,mina
DIRMINA-719,2009-08-18 15:37:44 +0000,transport-serial/src/main/java/org/apache/mina/transport/serial/SerialSessionImpl.java|,30,33,33,2009-06-18 13:40:30 +0000,2009-08-18 09:25:20 +0000,78f3514e9592cf1f8c875b4a9610a5c86eb6d329,mina
DIRMINA-651,2009-08-24 14:56:00 +0000,core/src/main/java/org/apache/mina/core/session/AbstractIoSession.java|,30,31,33,2008-12-19 12:33:00 +0000,2009-08-24 14:55:05 +0000,40e1c38c4d772c62d0b73c26dfabe53a5b10b674,mina
DIRMINA-739,2009-09-01 10:08:56 +0000,core/src/main/java/org/apache/mina/filter/errorgenerating/ErrorGeneratingFilter.java|,32,33,33,2009-09-01 09:18:28 +0000,2009-09-01 10:07:59 +0000,5e9c2b3370c1aba21466a274ce1b90d797766db2,mina
DIRMINA-740,2009-10-12 14:25:20 +0000,transport-serial/src/main/java/org/apache/mina/transport/serial/SerialSession.java|transport-serial/src/main/java/org/apache/mina/transport/serial/SerialSessionImpl.java|,32,33,33,2009-10-09 15:29:30 +0000,2009-10-12 07:50:23 +0000,d7455b48063325ef5859dc5e4f0ead823f338361,mina
DIRMINA-750,2009-12-05 15:05:42 +0000,core/src/main/java/org/apache/mina/core/buffer/IoBuffer.java|,33,34,34,2009-12-05 14:52:25 +0000,2009-12-05 15:04:10 +0000,61bca2f661a39ea1a6ff54d4abd82dc3bbd46e2f,mina
DIRMINA-678,2011-04-09 16:30:50 +0000,core/src/main/java/org/apache/mina/core/polling/AbstractPollingIoProcessor.java|core/src/main/java/org/apache/mina/transport/socket/nio/NioProcessor.java|core/src/test/java/org/apache/mina/transport/socket/nio/PollingIoProcessorTest.java|transport-apr/src/main/java/org/apache/mina/transport/socket/apr/AprIoProcessor.java|,30,31,34,2009-03-19 00:41:37 +0000,2009-12-09 15:38:14 +0000,fb4273fb71e1e9b230946d2290f15464dfb122d1,mina
DIRMINA-650,2009-12-10 00:07:44 +0000,core/src/test/java/org/apache/mina/filter/ssl/SslTest.java|,27,31,34,2008-12-18 18:44:00 +0000,2009-12-10 13:03:58 +0000,0f57cd3748633371c0450366d55faf02cfc82d08,mina
DIRMINA-720,2010-01-12 17:53:08 +0000,transport-serial/src/main/java/org/apache/mina/transport/serial/SerialSessionImpl.java|,30,33,34,2009-06-18 13:56:18 +0000,2010-01-12 17:52:31 +0000,d66670e1a5ff0a29c62fe1aa7bf2bc7b4001eab3,mina
DIRMINA-753,2010-01-13 00:16:55 +0000,core/src/main/java/org/apache/mina/core/polling/AbstractPollingIoProcessor.java|,33,34,34,2009-12-30 01:58:42 +0000,2010-01-13 00:15:53 +0000,5c8eed2f4bd6df7875e0253c4c0ce1d81df811ba,mina
DIRMINA-733,2010-01-14 07:01:37 +0000,core/src/main/java/org/apache/mina/filter/statistic/ProfilerTimerFilter.java|,32,33,34,2009-08-04 18:25:56 +0000,2010-01-14 07:00:48 +0000,af3a005060dda596a5afc2d4f5457738536c9005,mina
DIRMINA-746,2010-01-14 07:12:39 +0000,core/src/main/java/org/apache/mina/transport/socket/DefaultSocketSessionConfig.java|,33,34,34,2009-11-04 10:04:25 +0000,2010-01-14 07:11:25 +0000,e33a1e7d5faf0a08b8e7cff6816a0e0a535b7928,mina
DIRMINA-748,2010-01-14 18:26:37 +0000,core/src/main/java/org/apache/mina/core/buffer/CachedBufferAllocator.java|,33,34,34,2009-11-17 16:49:40 +0000,2010-01-14 18:20:48 +0000,0a981657abf4a2ff7b9dc980a9f306432e90221c,mina
DIRMINA-732,2010-02-12 00:26:31 +0000,core/src/main/java/org/apache/mina/core/polling/AbstractPollingConnectionlessIoAcceptor.java|core/src/main/java/org/apache/mina/transport/socket/nio/NioDatagramAcceptor.java|core/src/main/java/org/apache/mina/transport/socket/nio/NioDatagramSession.java|core/src/test/java/org/apache/mina/transport/socket/nio/DatagramSessionIdleTest.java|,32,33,34,2009-07-29 12:02:47 +0000,2010-01-14 19:29:26 +0000,19fbf91ff58e2a0134f08cb08238792b22882edc,mina
DIRMINA-755,2010-01-17 17:30:44 +0000,core/src/main/java/org/apache/mina/core/polling/AbstractPollingConnectionlessIoAcceptor.java|core/src/main/java/org/apache/mina/core/polling/AbstractPollingIoAcceptor.java|core/src/main/java/org/apache/mina/core/polling/AbstractPollingIoConnector.java|core/src/main/java/org/apache/mina/core/service/AbstractIoConnector.java|core/src/main/java/org/apache/mina/core/service/AbstractIoService.java|core/src/main/java/org/apache/mina/core/session/DummySession.java|core/src/main/java/org/apache/mina/proxy/ProxyConnector.java|core/src/main/java/org/apache/mina/transport/vmpipe/VmPipeAcceptor.java|core/src/main/java/org/apache/mina/transport/vmpipe/VmPipeConnector.java|transport-serial/src/main/java/org/apache/mina/transport/serial/SerialConnector.java|,33,34,34,2010-01-13 10:50:14 +0000,2010-01-17 17:25:44 +0000,7b2707ebf121bb92cf84e52f9f4ff38d721fae64,mina
DIRMINA-763,2010-02-11 15:50:21 +0000,core/src/test/java/org/apache/mina/transport/socket/nio/DatagramSessionIdleTest.java|,33,34,34,2010-02-03 17:48:32 +0000,2010-02-11 15:48:45 +0000,265099a014e98eaa2c626fb277fe14247f1c0ed7,mina
DIRMINA-778,2010-04-21 08:52:13 +0000,core/src/main/java/org/apache/mina/filter/codec/textline/LineDelimiter.java|core/src/main/java/org/apache/mina/filter/codec/textline/TextLineDecoder.java|,33,34,34,2010-04-01 09:52:26 +0000,2010-04-21 08:49:20 +0000,f027f4662aefb65aa8f856cda29c9a5417f853b6,mina
DIRMINA-770,2010-05-10 13:07:55 +0000,core/src/main/java/org/apache/mina/core/buffer/IoBuffer.java|core/src/main/java/org/apache/mina/core/buffer/IoBufferWrapper.java|core/src/main/java/org/apache/mina/core/filterchain/DefaultIoFilterChain.java|core/src/main/java/org/apache/mina/core/filterchain/DefaultIoFilterChainBuilder.java|core/src/main/java/org/apache/mina/core/future/DefaultConnectFuture.java|core/src/main/java/org/apache/mina/core/future/DefaultIoFuture.java|core/src/main/java/org/apache/mina/core/future/DefaultReadFuture.java|core/src/main/java/org/apache/mina/core/future/DefaultWriteFuture.java|core/src/main/java/org/apache/mina/core/polling/AbstractPollingConnectionlessIoAcceptor.java|core/src/main/java/org/apache/mina/core/polling/AbstractPollingIoAcceptor.java|core/src/main/java/org/apache/mina/core/polling/AbstractPollingIoConnector.java|core/src/main/java/org/apache/mina/core/polling/AbstractPollingIoProcessor.java|core/src/main/java/org/apache/mina/core/service/AbstractIoAcceptor.java|core/src/main/java/org/apache/mina/core/service/AbstractIoConnector.java|core/src/main/java/org/apache/mina/core/service/AbstractIoService.java|core/src/main/java/org/apache/mina/core/service/DefaultTransportMetadata.java|core/src/main/java/org/apache/mina/core/service/IoServiceListenerSupport.java|core/src/main/java/org/apache/mina/core/service/SimpleIoProcessorPool.java|core/src/main/java/org/apache/mina/core/session/AbstractIoSession.java|core/src/main/java/org/apache/mina/core/session/AbstractIoSessionConfig.java|core/src/main/java/org/apache/mina/core/session/DefaultIoSessionDataStructureFactory.java|core/src/main/java/org/apache/mina/core/session/DummySession.java|core/src/main/java/org/apache/mina/core/session/IoEvent.java|core/src/main/java/org/apache/mina/core/write/DefaultWriteRequest.java|core/src/main/java/org/apache/mina/core/write/WriteException.java|core/src/main/java/org/apache/mina/core/write/WriteRequestWrapper.java|core/src/main/java/org/apache/mina/filter/codec/AbstractProtocolDecoderOutput.java|core/src/main/java/org/apache/mina/filter/codec/ProtocolCodecFilter.java|core/src/main/java/org/apache/mina/filter/codec/SynchronizedProtocolDecoder.java|core/src/main/java/org/apache/mina/filter/codec/SynchronizedProtocolEncoder.java|core/src/main/java/org/apache/mina/filter/codec/demux/DemuxingProtocolDecoder.java|core/src/main/java/org/apache/mina/filter/codec/demux/DemuxingProtocolEncoder.java|core/src/main/java/org/apache/mina/filter/codec/serialization/ObjectSerializationDecoder.java|core/src/main/java/org/apache/mina/filter/codec/serialization/ObjectSerializationInputStream.java|core/src/main/java/org/apache/mina/filter/codec/serialization/ObjectSerializationOutputStream.java|core/src/main/java/org/apache/mina/filter/codec/statemachine/DecodingStateProtocolDecoder.java|core/src/main/java/org/apache/mina/filter/codec/textline/LineDelimiter.java|core/src/main/java/org/apache/mina/filter/codec/textline/TextLineEncoder.java|core/src/main/java/org/apache/mina/filter/executor/ExecutorFilter.java|core/src/main/java/org/apache/mina/filter/executor/IoEventQueueThrottle.java|core/src/main/java/org/apache/mina/filter/executor/WriteRequestFilter.java|core/src/main/java/org/apache/mina/filter/firewall/BlacklistFilter.java|core/src/main/java/org/apache/mina/filter/firewall/Subnet.java|core/src/main/java/org/apache/mina/filter/keepalive/KeepAliveFilter.java|core/src/main/java/org/apache/mina/filter/logging/MdcInjectionFilter.java|core/src/main/java/org/apache/mina/filter/reqres/Request.java|core/src/main/java/org/apache/mina/filter/reqres/RequestResponseFilter.java|core/src/main/java/org/apache/mina/filter/reqres/RequestTimeoutException.java|core/src/main/java/org/apache/mina/filter/reqres/Response.java|core/src/main/java/org/apache/mina/filter/ssl/KeyStoreFactory.java|core/src/main/java/org/apache/mina/filter/ssl/SslContextFactory.java|core/src/main/java/org/apache/mina/filter/ssl/SslFilter.java|core/src/main/java/org/apache/mina/filter/util/WriteRequestFilter.java|core/src/main/java/org/apache/mina/handler/chain/ChainedIoHandler.java|core/src/main/java/org/apache/mina/handler/chain/IoHandlerChain.java|core/src/main/java/org/apache/mina/handler/multiton/SingleSessionIoHandlerAdapter.java|core/src/main/java/org/apache/mina/handler/multiton/SingleSessionIoHandlerDelegate.java|core/src/main/java/org/apache/mina/proxy/ProxyConnector.java|core/src/main/java/org/apache/mina/proxy/handlers/http/ntlm/NTLMUtilities.java|core/src/main/java/org/apache/mina/proxy/session/ProxyIoSession.java|core/src/main/java/org/apache/mina/proxy/utils/IoBufferDecoder.java|core/src/main/java/org/apache/mina/util/CircularQueue.java|core/src/main/java/org/apache/mina/util/LazyInitializedCacheMap.java|core/src/main/java/org/apache/mina/util/byteaccess/ByteArrayList.java|integration-beans/src/main/java/org/apache/mina/integration/beans/ArrayEditor.java|integration-beans/src/main/java/org/apache/mina/integration/beans/CollectionEditor.java|integration-beans/src/main/java/org/apache/mina/integration/beans/EnumEditor.java|integration-beans/src/main/java/org/apache/mina/integration/beans/MapEditor.java|integration-beans/src/main/java/org/apache/mina/integration/beans/PropertyEditorFactory.java|integration-jmx/src/main/java/org/apache/mina/integration/jmx/ObjectMBean.java|integration-ognl/src/main/java/org/apache/mina/integration/ognl/IoSessionFinder.java|statemachine/src/main/java/org/apache/mina/statemachine/BreakAndCallException.java|statemachine/src/main/java/org/apache/mina/statemachine/BreakAndGotoException.java|statemachine/src/main/java/org/apache/mina/statemachine/State.java|statemachine/src/main/java/org/apache/mina/statemachine/context/AbstractStateContextLookup.java|statemachine/src/main/java/org/apache/mina/statemachine/context/SingletonStateContextLookup.java|statemachine/src/main/java/org/apache/mina/statemachine/event/Event.java|statemachine/src/test/java/org/apache/mina/statemachine/StateTest.java|transport-serial/src/main/java/org/apache/mina/transport/serial/SerialAddress.java|,33,34,34,2010-02-27 00:20:49 +0000,2010-05-10 13:06:07 +0000,00ef038eefe9ed1543c006dafb31c86e4b924c29,mina
DIRMINA-931,2014-09-09 07:03:57 +0000,http/src/main/java/org/apache/mina/http/HttpServerDecoder.java|http/src/test/java/org/apache/mina/http/HttpServerDecoderTest.java|,41,42,42,2013-02-05 14:50:52 +0000,2013-02-09 10:30:44 +0100,9c39f58aba57d87d7efcaa2ecc8014b3796bf352,mina
