Bug ID,Bug Resolution Date by Jira,Classes Touched by Last Fix,Earliest AV,Version of Ticket Creation,Version of Fix,Ticket Creation Date,Fix Date (of most recent commit),Hash (of most recent commit),Git Directory
CRUNCH-59,2012-09-18 17:50:07 +0000,crunch/src/main/java/org/apache/crunch/DoFn.java|,2,2,3,2012-09-09 22:23:11 +0000,2012-09-16 09:19:14 -0700,8b58faa5516a6d6db5833c8ba9289ca60cbc59c6,crunch
CRUNCH-71,2012-09-20 18:27:42 +0000,crunch/src/main/java/org/apache/crunch/lib/Aggregate.java|crunch/src/main/java/org/apache/crunch/lib/join/FullOuterJoinFn.java|crunch/src/main/java/org/apache/crunch/lib/join/InnerJoinFn.java|crunch/src/main/java/org/apache/crunch/lib/join/JoinFn.java|crunch/src/main/java/org/apache/crunch/lib/join/LeftOuterJoinFn.java|crunch/src/main/java/org/apache/crunch/lib/join/RightOuterJoinFn.java|crunch/src/main/java/org/apache/crunch/types/PType.java|crunch/src/main/java/org/apache/crunch/types/avro/AvroGroupedTableType.java|crunch/src/main/java/org/apache/crunch/types/avro/AvroType.java|crunch/src/main/java/org/apache/crunch/types/writable/WritableGroupedTableType.java|crunch/src/main/java/org/apache/crunch/types/writable/WritableTableType.java|crunch/src/main/java/org/apache/crunch/types/writable/WritableType.java|crunch/src/test/java/org/apache/crunch/types/writable/WritableGroupedTableTypeTest.java|crunch/src/test/java/org/apache/crunch/types/writable/WritableTableTypeTest.java|crunch/src/test/java/org/apache/crunch/types/writable/WritableTypeTest.java|,2,3,3,2012-09-20 12:26:09 +0000,2012-09-20 20:21:26 +0200,883c565a31c914dd004c649fa46df1e47fb85bba,crunch
CRUNCH-68,2012-09-23 07:27:49 +0000,crunch-examples/pom.xml|crunch-examples/src/main/java/org/apache/crunch/examples/AverageBytesByIP.java|crunch-examples/src/main/java/org/apache/crunch/examples/TotalBytesByIP.java|crunch-examples/src/main/java/org/apache/crunch/examples/WordCount.java|,2,3,3,2012-09-19 16:43:37 +0000,2012-09-23 09:20:39 +0200,65696ea3b39b905051e711771d86138919f5c502,crunch
CRUNCH-89,2012-10-05 06:54:27 +0000,crunch/src/main/java/org/apache/crunch/impl/mr/MRPipeline.java|crunch/src/main/java/org/apache/crunch/tool/CrunchTool.java|,2,3,3,2012-10-04 21:53:14 +0000,2012-10-05 08:49:13 +0200,ef10e80bcf6b069c1e7fb89afda6855e0c92f2a0,crunch
CRUNCH-88,2012-10-06 07:15:00 +0000,crunch/src/it/java/org/apache/crunch/MRPipelineIT.java|crunch/src/main/java/org/apache/crunch/impl/mr/collect/PCollectionImpl.java|crunch/src/main/java/org/apache/crunch/impl/mr/collect/PGroupedTableImpl.java|,2,3,3,2012-10-04 21:00:34 +0000,2012-10-06 09:08:08 +0200,b0165faaea013a0d6124308154039c33c7b85002,crunch
CRUNCH-99,2012-10-24 14:14:34 +0000,crunch/src/it/java/org/apache/crunch/io/avro/AvroFileSourceTargetIT.java|crunch/src/it/java/org/apache/crunch/io/avro/AvroPipelineIT.java|crunch/src/it/java/org/apache/crunch/io/avro/AvroWritableIT.java|crunch/src/main/java/org/apache/crunch/types/PGroupedTableType.java|crunch/src/main/java/org/apache/crunch/types/avro/Avros.java|,2,3,3,2012-10-20 01:43:51 +0000,2012-10-24 16:00:35 +0200,69105d07b5c5b36d132a3f00e9ac191067db808d,crunch
CRUNCH-106,2012-11-03 16:41:07 +0000,crunch/src/main/java/org/apache/crunch/CombineFn.java|crunch/src/test/java/org/apache/crunch/CombineFnTest.java|,2,3,3,2012-11-03 16:23:07 +0000,2012-11-03 17:28:27 +0100,e0d2cf2ba5a56a3788de13a76aa1eb90f054dc76,crunch
CRUNCH-117,2012-11-21 21:22:29 +0000,crunch/src/it/java/org/apache/crunch/CollectionPObjectIT.java|crunch/src/it/java/org/apache/crunch/CollectionsLengthIT.java|crunch/src/it/java/org/apache/crunch/DeepCopyCustomTuplesIT.java|crunch/src/it/java/org/apache/crunch/FirstElementPObjectIT.java|crunch/src/it/java/org/apache/crunch/PObjectsIT.java|crunch/src/it/java/org/apache/crunch/PageRankIT.java|crunch/src/it/java/org/apache/crunch/lib/AggregateIT.java|crunch/src/main/java/org/apache/crunch/types/TupleFactory.java|crunch/src/test/java/org/apache/crunch/types/TupleFactoryTest.java|,2,4,4,2012-11-20 00:05:11 +0000,2012-11-21 22:15:01 +0100,0ba630bb10765c2e74283b6c23560f55f9ca4e74,crunch
CRUNCH-114,2012-11-24 08:50:16 +0000,pom.xml|,3,4,4,2012-11-16 20:48:43 +0000,2012-11-24 09:47:33 +0100,711eaedff7db459ae3f7c0ebc8230f752635bedb,crunch
CRUNCH-115,2012-11-26 16:36:26 +0000,LICENSE|,3,4,4,2012-11-17 09:37:49 +0000,2012-11-26 17:33:32 +0100,72caac7d8b31a7ef717e673724c2f9cd590224bf,crunch
CRUNCH-121,2012-11-28 01:20:37 +0000,crunch/src/main/java/org/apache/crunch/lib/join/FullOuterJoinFn.java|crunch/src/main/java/org/apache/crunch/lib/join/LeftOuterJoinFn.java|crunch/src/test/java/org/apache/crunch/lib/join/BrokenLeftAndOuterJoinTest.java|,3,4,4,2012-11-27 03:48:51 +0000,2012-11-27 16:38:14 -0800,1e06362b9b8ff43d977d166fc4916e41cbeb3ae3,crunch
CRUNCH-120,2012-12-03 17:15:10 +0000,crunch/src/main/java/org/apache/crunch/GroupingOptions.java|crunch/src/main/java/org/apache/crunch/impl/mem/collect/MemGroupedTable.java|crunch/src/main/java/org/apache/crunch/impl/mem/collect/Shuffler.java|crunch/src/test/java/org/apache/crunch/lib/SecondarySortTest.java|,3,4,4,2012-11-26 20:50:02 +0000,2012-12-03 09:09:25 -0800,f69aa5d2a4d46b04d53566e56e3c64eb7affeb40,crunch
CRUNCH-131,2012-12-13 19:16:45 +0000,crunch/src/main/java/org/apache/crunch/io/SourceTargetHelper.java|,3,4,4,2012-12-13 15:15:28 +0000,2012-12-13 11:15:50 -0800,4a3aa0dfd9dbdfd2532b03776d87b99f71fae5a5,crunch
CRUNCH-125,2012-12-19 20:36:30 +0000,crunch/src/main/java/org/apache/crunch/io/text/TextFileTableSource.java|,1,4,4,2012-12-05 00:51:45 +0000,2012-12-19 12:33:44 -0800,80654bbb319fe9c07e2b290f400ce49a9c07cec9,crunch
CRUNCH-137,2012-12-20 19:07:50 +0000,crunch/src/main/java/org/apache/crunch/types/PTypes.java|,1,4,4,2012-12-20 19:05:27 +0000,2012-12-20 11:07:08 -0800,5919af7bc274e0ff2c5c32ea2cc9e1d18542b3c5,crunch
CRUNCH-110,2012-12-22 16:16:16 +0000,LICENSE|,2,3,4,2012-11-09 23:22:31 +0000,2012-12-22 13:21:51 +0100,c440ca5e227d4e99196bf13a7f0ebe4fbe7a10d7,crunch
CRUNCH-138,2013-01-02 19:30:14 +0000,crunch/src/main/java/org/apache/crunch/io/SequentialFileNamingScheme.java|,3,4,4,2013-01-02 18:58:09 +0000,2013-01-02 20:27:14 +0100,08fa84e592d605a2b3d1465c031db3a64c76faf6,crunch
CRUNCH-142,2013-01-15 05:56:55 +0000,crunch/src/main/java/org/apache/crunch/FilterFn.java|crunch/src/test/java/org/apache/crunch/AndFnTest.java|crunch/src/test/java/org/apache/crunch/NotFnTest.java|crunch/src/test/java/org/apache/crunch/OrFnTest.java|,3,4,4,2013-01-14 13:26:22 +0000,2013-01-15 06:52:41 +0100,438e36a3801a7d71d08c5422cea5fb6ae7bb0682,crunch
CRUNCH-146,2013-01-17 14:53:41 +0000,crunch/src/main/java/org/apache/crunch/types/avro/AvroInputFormat.java|,3,4,4,2013-01-16 17:10:38 +0000,2013-01-17 06:49:53 -0800,5fe2f68b79aa5cd21756619cdc76764b7d502aa5,crunch
CRUNCH-148,2013-01-23 02:02:53 +0000,crunch/src/it/java/org/apache/crunch/lib/join/MapsideJoinIT.java|crunch/src/main/java/org/apache/crunch/lib/join/MapsideJoin.java|,3,4,4,2013-01-22 23:40:40 +0000,2013-01-22 15:41:12 -0800,b3d02387191613c8269ebbf44ad0a87f7ab551a6,crunch
CRUNCH-154,2013-01-29 23:13:25 +0000,crunch/src/it/java/org/apache/crunch/PTableUnionTest.java|crunch/src/main/java/org/apache/crunch/impl/mr/MRPipeline.java|,3,4,4,2013-01-29 14:11:34 +0000,2013-01-29 14:11:41 -0800,d743ce7c8aa9107c3c73bac51bdb5ec3c761f094,crunch
CRUNCH-152,2013-01-30 08:46:31 +0000,crunch/src/main/java/org/apache/crunch/types/MapDeepCopier.java|crunch/src/main/java/org/apache/crunch/types/TupleDeepCopier.java|crunch/src/main/java/org/apache/crunch/types/avro/AvroDeepCopier.java|crunch/src/main/java/org/apache/crunch/types/writable/WritableDeepCopier.java|crunch/src/test/java/org/apache/crunch/types/MapDeepCopierTest.java|crunch/src/test/java/org/apache/crunch/types/TupleDeepCopierTest.java|crunch/src/test/java/org/apache/crunch/types/avro/AvroDeepCopierTest.java|crunch/src/test/java/org/apache/crunch/types/writable/WritableDeepCopierTest.java|,3,4,4,2013-01-29 13:51:56 +0000,2013-01-30 09:30:55 +0100,03f3ce8008da6546193678e1a60f032dda028483,crunch
CRUNCH-155,2013-02-03 16:52:46 +0000,crunch/src/it/java/org/apache/crunch/UnionGbkIT.java|crunch/src/main/java/org/apache/crunch/impl/mr/MRPipeline.java|crunch/src/main/java/org/apache/crunch/impl/mr/collect/InputTable.java|crunch/src/main/java/org/apache/crunch/impl/mr/collect/PCollectionImpl.java|crunch/src/main/java/org/apache/crunch/io/impl/FileSourceImpl.java|crunch/src/main/java/org/apache/crunch/lib/join/MapsideJoin.java|crunch/src/main/java/org/apache/crunch/materialize/MaterializableIterable.java|,3,4,4,2013-01-29 14:21:35 +0000,2013-02-03 08:49:00 -0800,41f01c037007fb54091a69464d81c3269b269710,crunch
CRUNCH-160,2013-02-04 16:13:15 +0000,crunch/src/main/java/org/apache/crunch/impl/mr/run/CrunchInputFormat.java|,3,4,4,2013-02-04 01:50:50 +0000,2013-02-03 17:51:55 -0800,6536f4c909a1b8d952f1c4398195177659d1423d,crunch
CRUNCH-163,2013-02-08 16:16:46 +0000,crunch/src/it/java/org/apache/crunch/UnionFromSameSourceIT.java|crunch/src/main/java/org/apache/crunch/impl/mr/collect/PCollectionImpl.java|crunch/src/main/java/org/apache/crunch/impl/mr/plan/Edge.java|crunch/src/main/java/org/apache/crunch/impl/mr/plan/MSCRPlanner.java|crunch/src/main/java/org/apache/crunch/impl/mr/plan/Vertex.java|,2,4,4,2013-02-06 10:44:58 +0000,2013-02-08 09:55:54 +0100,170ba8eea530b965782fcbfefd1c5f3f236d1897,crunch
CRUNCH-167,2013-02-24 21:39:21 +0000,crunch/src/it/java/org/apache/crunch/lib/SortByValueIT.java|crunch/src/it/java/org/apache/crunch/lib/SortIT.java|crunch/src/it/resources/sort_by_value.txt|crunch/src/main/java/org/apache/crunch/lib/Sort.java|,1,4,4,2013-02-22 06:54:34 +0000,2013-02-24 13:02:55 -0800,855b0ddcb738611abfd9bed445403f18b63d2453,crunch
CRUNCH-170,2013-03-01 16:19:50 +0000,crunch-test/src/main/java/org/apache/crunch/test/CrunchTestSupport.java|,1,4,4,2013-03-01 16:14:32 +0000,2013-03-01 08:17:32 -0800,6ddbf57ff2fd51394357a2af0820782047119a2b,crunch
CRUNCH-185,2013-03-27 09:28:15 +0000,crunch/src/main/java/org/apache/crunch/impl/mem/MemPipeline.java|,1,4,4,2013-03-26 23:10:12 +0000,2013-03-27 09:26:44 +0100,4683a8d4993ae13565de50273fec88edd759d9bf,crunch
CRUNCH-193,2013-04-10 19:16:27 +0000,crunch/src/it/java/org/apache/crunch/lib/CogroupIT.java|crunch/src/it/java/org/apache/crunch/test/Tests.java|crunch/src/it/resources/org/apache/crunch/lib/CogroupITData/src1.txt|crunch/src/it/resources/org/apache/crunch/lib/CogroupITData/src2.txt|crunch/src/main/java/org/apache/crunch/types/writable/GenericArrayWritable.java|crunch/src/test/java/org/apache/crunch/types/writable/GenericArrayWritableTest.java|,1,4,4,2013-04-07 16:21:18 +0000,2013-04-10 11:08:37 -0700,222dd76ac2be2cdc786feeb9e75f86713ff8c559,crunch
CRUNCH-204,2013-05-10 11:14:33 +0000,crunch-core/src/it/java/org/apache/crunch/io/avro/AvroMemPipelineIT.java|,1,4,4,2013-05-08 20:30:00 +0000,2013-05-09 20:37:28 +0200,d75704836d466bcaed0355782ad2bc559ffa2519,crunch
CRUNCH-209,2013-05-23 18:41:43 +0000,crunch-core/src/main/java/org/apache/crunch/impl/mr/run/CrunchInputFormat.java|crunch-core/src/main/java/org/apache/crunch/impl/mr/run/CrunchInputSplit.java|crunch-core/src/main/java/org/apache/crunch/impl/mr/run/CrunchRecordReader.java|crunch-core/src/main/java/org/apache/crunch/io/FormatBundle.java|,1,5,5,2013-05-23 00:25:58 +0000,2013-05-22 17:26:24 -0700,125f1b4e143fbe16b18965e73a7a618effb68215,crunch
CRUNCH-217,2013-06-10 16:44:37 +0000,crunch-core/src/main/java/org/apache/crunch/PipelineResult.java|crunch-core/src/main/java/org/apache/crunch/impl/mem/MemPipeline.java|crunch-core/src/main/java/org/apache/crunch/impl/mr/exec/MRExecutor.java|,4,5,5,2013-06-10 15:56:26 +0000,2013-06-10 09:32:32 -0700,b8ae33ddb7eae55626e718f5f2902565a2104e8c,crunch
CRUNCH-220,2013-06-18 03:29:02 +0000,crunch-core/src/main/java/org/apache/crunch/io/impl/FileTargetImpl.java|,4,5,5,2013-06-17 10:49:33 +0000,2013-06-19 12:45:55 -0700,a97e8e1019334263b8f8b5aeaa9135345e466d2a,crunch
CRUNCH-229,2013-06-29 15:36:21 +0000,crunch-core/src/it/java/org/apache/crunch/io/avro/TextToAvroIT.java|crunch-core/src/main/java/org/apache/crunch/impl/mr/plan/MSCROutputHandler.java|,1,5,5,2013-06-28 23:59:45 +0000,2013-06-28 17:00:05 -0700,2461099628d83b8f4693c562e7f961eeab941c22,crunch
CRUNCH-232,2013-07-03 01:21:05 +0000,crunch-core/src/it/java/org/apache/crunch/lib/join/MapsideJoinStrategyIT.java|crunch-core/src/main/java/org/apache/crunch/impl/mr/run/CrunchMapper.java|crunch-core/src/main/java/org/apache/crunch/impl/mr/run/CrunchReducer.java|crunch-core/src/main/java/org/apache/crunch/impl/mr/run/CrunchTaskContext.java|crunch-core/src/main/java/org/apache/crunch/impl/mr/run/RTNode.java|,4,5,5,2013-07-02 21:39:11 +0000,2013-07-02 18:01:38 -0700,4983a0ca85d814e29cf60d3588dc2a38ce3b5aa0,crunch
CRUNCH-205,2013-07-22 18:05:29 +0000,crunch-hbase/src/it/java/org/apache/crunch/io/hbase/WordCountHBaseIT.java|,4,4,5,2013-05-10 09:19:52 +0000,2013-07-22 12:53:23 -0500,b54ce84e7b1cbc08cfe1431c7033622d13a7a7d3,crunch
CRUNCH-256,2013-08-24 20:12:08 +0000,crunch-core/src/main/java/org/apache/crunch/io/SequentialFileNamingScheme.java|crunch-core/src/main/java/org/apache/crunch/io/To.java|crunch-core/src/main/java/org/apache/crunch/io/avro/AvroFileSourceTarget.java|crunch-core/src/main/java/org/apache/crunch/io/avro/AvroFileTarget.java|crunch-core/src/main/java/org/apache/crunch/io/avro/trevni/TrevniKeySourceTarget.java|crunch-core/src/main/java/org/apache/crunch/io/avro/trevni/TrevniKeyTarget.java|crunch-core/src/main/java/org/apache/crunch/io/impl/TableSourcePathTargetImpl.java|crunch-core/src/main/java/org/apache/crunch/io/seq/SeqFileSourceTarget.java|crunch-core/src/main/java/org/apache/crunch/io/seq/SeqFileTableSourceTarget.java|crunch-core/src/main/java/org/apache/crunch/io/seq/SeqFileTarget.java|crunch-core/src/main/java/org/apache/crunch/io/text/TextFileSourceTarget.java|crunch-core/src/main/java/org/apache/crunch/io/text/TextFileTableSourceTarget.java|crunch-core/src/main/java/org/apache/crunch/io/text/TextFileTarget.java|crunch-core/src/test/java/org/apache/crunch/io/SequentialFileNamingSchemeTest.java|crunch-hbase/src/main/java/org/apache/crunch/io/hbase/HFileTarget.java|,5,6,6,2013-08-23 00:10:47 +0000,2013-08-23 10:57:06 -0700,8d47b3b5097a82c7d0aac62d4ed6859b89cf85cf,crunch
CRUNCH-265,2013-09-16 00:04:11 +0000,crunch-core/src/main/java/org/apache/crunch/lib/join/DefaultJoinStrategy.java|crunch-core/src/main/java/org/apache/crunch/lib/join/OneToManyJoin.java|,5,6,6,2013-09-15 20:14:34 +0000,2013-09-15 13:19:46 -0700,acdf396b516e9a9c8348eb041be6adc1cd0de278,crunch
CRUNCH-266,2013-09-16 22:28:47 +0000,crunch-core/src/main/java/org/apache/crunch/types/avro/AvroDeepCopier.java|crunch-core/src/test/java/org/apache/crunch/types/avro/AvroChildClassloaderTestRunner.java|crunch-core/src/test/java/org/apache/crunch/types/avro/AvroSpecificDeepCopierClassloaderTest.java|,5,6,6,2013-09-16 18:16:10 +0000,2013-09-16 15:23:08 -0700,995f4d9854c3008884171719e419bb9b618740cf,crunch
CRUNCH-269,2013-09-21 20:00:40 +0000,crunch-core/src/main/java/org/apache/crunch/DoFn.java|crunch-core/src/main/java/org/apache/crunch/impl/mr/emit/IntermediateEmitter.java|crunch-core/src/main/java/org/apache/crunch/impl/mr/run/RTNode.java|crunch-core/src/main/java/org/apache/crunch/impl/mr/run/RuntimeParameters.java|crunch-core/src/test/java/org/apache/crunch/impl/mr/emit/IntermediateEmitterTest.java|,5,6,6,2013-09-20 23:35:29 +0000,2013-09-20 16:33:08 -0700,14f0c16b5bcf6496bedcf184d22c10462ababe7e,crunch
CRUNCH-271,2013-09-29 18:28:31 +0000,crunch-core/src/main/java/org/apache/crunch/PipelineResult.java|crunch-core/src/main/java/org/apache/crunch/hadoop/mapreduce/lib/jobcontrol/CrunchControlledJob.java|crunch-core/src/main/java/org/apache/crunch/impl/mr/exec/MRExecutor.java|,5,6,6,2013-09-29 01:55:57 +0000,2013-09-28 19:37:24 -0700,af3df548a3d8c70cf5b4849f5e73e8a7fbe67f3c,crunch
CRUNCH-264,2013-09-29 19:01:48 +0000,crunch-core/src/main/java/org/apache/crunch/impl/mr/plan/DotfileWriter.java|crunch-core/src/main/java/org/apache/crunch/impl/mr/plan/JobPrototype.java|,5,6,6,2013-09-07 03:20:52 +0000,2013-09-29 11:29:11 -0700,ecf5dd01c21e3427cbd2de1f1bc8ca7996ba7c9e,crunch
CRUNCH-268,2013-09-21 20:37:27 +0000,crunch-core/src/main/java/org/apache/crunch/types/avro/Avros.java|,5,6,6,2013-09-20 22:10:45 +0000,2013-10-08 08:55:25 +0200,910b6afbe1deb2d99a42a9665269551c8e77a0c8,crunch
CRUNCH-237,2013-07-16 00:46:11 +0000,crunch-core/src/main/java/org/apache/crunch/impl/mr/plan/MSCRPlanner.java|,4,5,6,2013-07-16 00:28:37 +0000,2013-10-17 06:35:46 -0700,9c42bab14faae4883ceccae23cfe9872d33213a4,crunch
CRUNCH-281,2013-10-17 22:09:41 +0000,crunch-core/src/main/java/org/apache/crunch/impl/mr/plan/MSCRPlanner.java|,5,6,6,2013-10-16 22:55:45 +0000,2013-10-17 06:35:46 -0700,9c42bab14faae4883ceccae23cfe9872d33213a4,crunch
CRUNCH-292,2013-11-02 02:02:51 +0000,crunch-core/src/main/java/org/apache/crunch/impl/mem/CountersWrapper.java|crunch-core/src/main/java/org/apache/crunch/impl/mem/MemPipeline.java|crunch-core/src/test/java/org/apache/crunch/impl/mem/CountersTest.java|,5,6,6,2013-11-01 16:57:19 +0000,2013-11-01 13:50:12 -0700,a7002c1178ae9e8dd522d029c96d80ba7d616df8,crunch
CRUNCH-301,2013-11-21 20:59:13 +0000,crunch-core/src/main/java/org/apache/crunch/DoFn.java|crunch-core/src/main/java/org/apache/crunch/types/avro/AvroType.java|crunch-core/src/main/java/org/apache/crunch/types/writable/WritableType.java|crunch-scrunch/src/it/scala/org/apache/crunch/scrunch/DeepCopyTest.scala|crunch-scrunch/src/main/scala/org/apache/crunch/scrunch/PTypeFamily.scala|,6,8,8,2013-11-20 15:45:06 +0000,2013-11-21 12:57:24 -0800,fb172fd84e35b4a81c4d344961259acd05f936e8,crunch
CRUNCH-304,2013-11-29 18:24:58 +0000,crunch-core/src/main/java/org/apache/crunch/Pipeline.java|crunch-core/src/main/java/org/apache/crunch/impl/mem/MemPipeline.java|crunch-core/src/main/java/org/apache/crunch/impl/mr/MRPipeline.java|,5,8,8,2013-11-25 23:25:06 +0000,2013-11-29 12:03:31 -0600,23bad11d6a2f89f1d069ada121f3cf6d08e7f614,crunch
CRUNCH-309,2013-12-04 17:47:23 +0000,crunch-core/src/it/java/org/apache/crunch/lib/CogroupIT.java|crunch-core/src/main/java/org/apache/crunch/lib/Cogroup.java|,6,8,8,2013-12-04 00:41:01 +0000,2013-12-04 09:44:04 -0800,22965cf87e2793ca79048ac48adf7b41dda23ea2,crunch
CRUNCH-312,2013-12-21 01:18:32 +0000,crunch-core/src/it/java/org/apache/crunch/io/avro/AvroReflectIT.java|crunch-core/src/main/java/org/apache/crunch/types/avro/AvroTableType.java|crunch-core/src/main/java/org/apache/crunch/types/avro/AvroType.java|crunch-core/src/main/java/org/apache/crunch/types/avro/Avros.java|,8,9,9,2013-12-19 20:03:38 +0000,2013-12-20 09:09:02 -0800,9cde3d9005ede9281950a7556d3558101466b3ab,crunch
CRUNCH-313,2013-12-21 01:33:09 +0000,crunch-core/src/it/java/org/apache/crunch/io/avro/AvroPipelineIT.java|crunch-core/src/main/java/org/apache/crunch/impl/mr/run/CrunchInputSplit.java|,8,9,9,2013-12-21 01:14:37 +0000,2013-12-20 17:15:06 -0800,316ccb6bfb8579ee6c269be80ed78e18e83a6402,crunch
CRUNCH-314,2013-12-21 20:18:03 +0000,crunch-core/src/it/java/org/apache/crunch/io/avro/AvroModeIT.java|crunch-core/src/it/resources/strings-100.avro|crunch-core/src/main/java/org/apache/crunch/types/avro/AvroDeepCopier.java|crunch-core/src/main/java/org/apache/crunch/types/avro/AvroGroupedTableType.java|crunch-core/src/main/java/org/apache/crunch/types/avro/AvroMode.java|crunch-core/src/main/java/org/apache/crunch/types/avro/Avros.java|crunch-core/src/main/java/org/apache/crunch/types/avro/SafeAvroSerialization.java|pom.xml|,8,9,9,2013-12-21 01:22:29 +0000,2013-12-21 11:31:07 -0800,58eb227d78e6b1a32a334f83913df275ea1c7811,crunch
CRUNCH-318,2014-01-03 00:32:57 +0000,crunch-core/src/it/java/org/apache/crunch/CheckpointIT.java|,8,9,9,2014-01-03 00:07:14 +0000,2014-01-02 17:53:31 -0800,b4cad9454bac13761091298c0f2a2e470c40ab2d,crunch
CRUNCH-316,2014-01-02 17:45:04 +0000,crunch-core/src/it/java/org/apache/crunch/types/avro/SafeAvroSerializationIT.java|crunch-core/src/it/resources/CRUNCH-316.avsc|,8,9,9,2013-12-31 17:02:16 +0000,2014-01-02 20:30:47 -0600,64c20ad9c2361786c225d874561511ec62dd408d,crunch
CRUNCH-332,2014-01-24 16:51:53 +0000,crunch-core/src/main/java/org/apache/crunch/impl/mem/collect/MemCollection.java|,8,9,9,2014-01-24 16:27:50 +0000,2014-01-24 08:31:10 -0800,0cbccccac919989b9db9d870cef6a3e3c5d1cf4b,crunch
CRUNCH-335,2014-01-29 05:04:51 +0000,crunch-core/src/main/java/org/apache/crunch/io/CrunchInputs.java|crunch-core/src/main/java/org/apache/crunch/io/impl/FileSourceImpl.java|,8,9,9,2014-01-29 04:46:10 +0000,2014-01-28 21:01:17 -0800,ffd8375a22ab42cfc28372516a367e6b7839a5d9,crunch
CRUNCH-338,2014-02-07 08:00:18 +0000,crunch-core/src/it/java/org/apache/crunch/lib/CogroupIT.java|crunch-core/src/main/java/org/apache/crunch/lib/Cogroup.java|,8,9,9,2014-02-04 18:00:08 +0000,2014-02-07 08:39:37 +0100,c938f5e1869509c1eba1bb508dbbe79bc510f88a,crunch
CRUNCH-350,2014-02-21 04:59:01 +0000,crunch-core/src/main/java/org/apache/crunch/lib/join/BloomFilterJoinStrategy.java|,8,9,9,2014-02-21 04:56:06 +0000,2014-02-20 20:56:26 -0800,6a4f9977c452635766801ef620f3ee28bfafd070,crunch
CRUNCH-353,2014-02-23 10:12:18 +0000,crunch-core/src/it/java/org/apache/crunch/impl/mr/exec/MRExecutorIT.java|crunch-core/src/main/java/org/apache/crunch/hadoop/mapreduce/lib/jobcontrol/CrunchJobControl.java|crunch-core/src/main/java/org/apache/crunch/impl/mr/exec/MRExecutor.java|,8,9,9,2014-02-22 13:49:20 +0000,2014-02-23 16:55:07 +0800,0da8e3c3e5b24ad70c1ab1a64ec6dd21d7fdea11,crunch
CRUNCH-358,2014-02-27 01:42:01 +0000,crunch-core/src/test/avro/person.avsc|,8,9,9,2014-02-26 18:12:14 +0000,2014-02-26 17:40:50 -0800,cfee30e988b826d4c89a78622bf327e13555129f,crunch
CRUNCH-363,2014-03-13 21:15:58 +0000,crunch-core/src/it/java/org/apache/crunch/lib/CogroupIT.java|crunch-core/src/it/java/org/apache/crunch/lib/PersonProtos.java|crunch-core/src/it/resources/person.proto|crunch-core/src/main/java/org/apache/crunch/types/writable/Writables.java|,8,9,9,2014-03-12 21:13:03 +0000,2014-03-13 11:55:55 -0700,eac45b00a90e1c248a4dedeade44a82b25347fec,crunch
CRUNCH-373,2014-04-02 12:18:36 +0000,crunch-core/src/it/java/org/apache/crunch/lib/join/MapsideJoinStrategyIT.java|crunch-core/src/main/java/org/apache/crunch/lib/join/MapsideJoinStrategy.java|,8,9,9,2014-04-01 19:02:45 +0000,2014-04-02 13:47:09 +0200,3f86cf9e655bdae5af2617f46f5f256d394abcf0,crunch
CRUNCH-378,2014-04-15 20:26:17 +0000,crunch-core/src/main/java/org/apache/crunch/Target.java|crunch-core/src/main/java/org/apache/crunch/impl/dist/collect/PCollectionImpl.java|,8,9,9,2014-04-15 20:08:51 +0000,2014-04-15 15:09:14 -0500,b559e0e5840ae7f17a831270ed9c9e711cf8bae7,crunch
CRUNCH-379,2014-04-22 02:21:29 +0000,crunch-spark/src/it/java/org/apache/crunch/SparkUnionResultsIT.java|crunch-spark/src/main/java/org/apache/crunch/impl/spark/collect/UnionCollection.java|crunch-spark/src/main/java/org/apache/crunch/impl/spark/collect/UnionTable.java|,8,9,9,2014-04-21 15:28:09 +0000,2014-04-21 08:28:26 -0700,1e142de03d82c7126f3b103fbd4e6a866631b0f4,crunch
CRUNCH-388,2014-05-05 15:25:36 +0000,crunch-core/src/main/java/org/apache/crunch/impl/mem/collect/MemCollection.java|crunch-spark/src/main/java/org/apache/crunch/impl/spark/SparkPipeline.java|crunch-spark/src/main/java/org/apache/crunch/impl/spark/SparkRuntime.java|,8,9,9,2014-05-05 05:31:53 +0000,2014-05-04 22:32:11 -0700,1d4448e64e79724f5973022da3da94655a38c04c,crunch
CRUNCH-391,2014-05-09 14:51:56 +0000,crunch-scrunch/src/main/scala/org/apache/crunch/scrunch/PTypeFamily.scala|,8,9,9,2014-05-09 14:49:50 +0000,2014-05-09 07:50:12 -0700,a4d1f84613e78ca023e52763025988772b7f3913,crunch
CRUNCH-392,2014-05-13 21:54:49 +0000,crunch-core/src/it/java/org/apache/crunch/impl/dist/collect/FailIT.java|crunch-core/src/main/java/org/apache/crunch/impl/mr/exec/MRExecutor.java|,8,9,9,2014-05-09 20:23:57 +0000,2014-05-13 14:52:18 -0700,25c22e58d7cadd29208bab8b5000c2429b115723,crunch
CRUNCH-354,2014-05-29 03:19:30 +0000,crunch-core/src/main/java/org/apache/crunch/impl/mr/run/CrunchInputSplit.java|crunch-core/src/main/java/org/apache/crunch/impl/mr/run/CrunchRecordReader.java|,8,9,9,2014-02-24 07:51:53 +0000,2014-05-28 20:14:39 -0700,dc03c913318d2853eed3751886fe45bdfdf7dfa4,crunch
CRUNCH-408,2014-06-02 01:53:49 +0000,crunch-hbase/src/main/java/org/apache/crunch/io/hbase/HFileSource.java|,8,9,9,2014-06-01 14:44:37 +0000,2014-06-01 20:41:01 -0700,fcb1aa4158f90001c114daa90d68ce99fd8870e4,crunch
CRUNCH-419,2014-06-12 03:44:35 +0000,crunch-core/src/main/java/org/apache/crunch/types/writable/Writables.java|crunch-core/src/test/java/org/apache/crunch/types/writable/WritablesTest.java|,9,10,10,2014-06-11 15:28:45 +0000,2014-06-11 20:04:10 -0700,96ef2d679c9a7bf6c2cb80190e0646f94f558482,crunch
CRUNCH-421,2014-06-16 15:08:06 +0000,crunch-core/src/it/java/org/apache/crunch/io/avro/AvroMemPipelineIT.java|crunch-core/src/main/java/org/apache/crunch/impl/mem/MemPipeline.java|,9,10,10,2014-06-16 10:23:20 +0000,2014-06-16 15:59:44 +0100,9898ee92fc36fed739201fa0b2593175519b2ab4,crunch
CRUNCH-428,2014-06-25 08:19:06 +0000,crunch-core/src/main/java/org/apache/crunch/io/From.java|crunch-core/src/main/java/org/apache/crunch/io/impl/FileSourceImpl.java|crunch-core/src/main/java/org/apache/crunch/io/text/TextFileSource.java|crunch-core/src/test/java/org/apache/crunch/io/FromTest.java|,9,10,10,2014-06-25 07:58:04 +0000,2014-06-25 10:12:22 +0200,8027f706ae47b613c6f0e96e0ee9f7ef21d1d6ed,crunch
CRUNCH-429,2014-06-26 20:22:26 +0000,crunch-core/src/it/java/org/apache/crunch/io/text/csv/CSVFileSourceIT.java|crunch-core/src/main/java/org/apache/crunch/io/text/csv/CSVInputFormat.java|,9,10,10,2014-06-25 14:41:51 +0000,2014-06-26 16:12:25 -0500,ace392bde724273b1d300f7b01c4648e9e1b9060,crunch
CRUNCH-434,2014-07-05 20:23:41 +0000,crunch-core/src/it/java/org/apache/crunch/io/CompressIT.java|crunch-core/src/main/java/org/apache/crunch/io/Compress.java|crunch-core/src/main/java/org/apache/crunch/io/avro/AvroFileTarget.java|crunch-core/src/main/java/org/apache/crunch/io/parquet/AvroParquetFileTarget.java|crunch-core/src/main/java/org/apache/crunch/io/text/TextFileTarget.java|,9,10,10,2014-07-04 23:20:11 +0000,2014-07-04 16:20:33 -0700,e1bfa47e8c77c96bd62334cc3e4cae36c29085da,crunch
CRUNCH-442,2014-07-13 17:21:09 +0000,crunch-core/src/main/java/org/apache/crunch/types/avro/AvroMode.java|crunch-core/src/main/java/org/apache/crunch/types/avro/Avros.java|crunch-core/src/test/java/org/apache/crunch/types/avro/AvroModeTest.java|crunch-core/src/test/java/org/apache/crunch/types/avro/AvrosTest.java|,9,10,10,2014-07-08 01:42:25 +0000,2014-07-10 11:40:27 +0200,63a2e29b82d112d1fff6804378db2457052819b4,crunch
CRUNCH-457,2014-08-06 10:09:49 +0000,crunch-hbase/pom.xml|,9,10,10,2014-08-06 10:06:18 +0000,2014-08-06 12:06:32 +0200,6fc84b125a6dff2dc0c9cadeacb913919670e98c,crunch
CRUNCH-459,2014-08-08 02:02:23 +0000,crunch-core/src/it/java/org/apache/crunch/EmitNullAvroIT.java|crunch-core/src/main/java/org/apache/crunch/types/avro/AvroTableType.java|,9,10,10,2014-08-07 21:44:07 +0000,2014-08-07 18:52:35 -0700,f17d7f7b017ae30ab8c7a164e174cc5280daab3d,crunch
CRUNCH-463,2014-08-19 17:49:52 +0000,crunch-core/src/main/java/org/apache/crunch/impl/mr/run/CrunchInputFormat.java|crunch-core/src/main/java/org/apache/crunch/impl/mr/run/CrunchInputSplit.java|,9,10,10,2014-08-14 14:27:15 +0000,2014-08-16 10:13:21 -0700,f54d3d638022a341fa5ba1eeb6689036d9478e53,crunch
CRUNCH-464,2014-08-19 19:32:30 +0000,crunch-core/src/main/java/org/apache/crunch/lib/Aggregate.java|,9,10,10,2014-08-19 03:22:53 +0000,2014-08-19 10:56:25 -0700,c182309f082757c10e6c817890a8b0f819f3ef89,crunch
CRUNCH-471,2014-09-24 21:50:44 +0000,crunch-core/src/main/java/org/apache/crunch/util/DoFnIterator.java|,10,12,12,2014-09-24 21:10:56 +0000,2014-09-24 14:11:38 -0700,3740f3b1b955d1258cc5f1105f1fe97b8109002c,crunch
CRUNCH-477,2014-10-22 03:39:06 +0000,crunch-hbase/src/it/java/org/apache/crunch/io/hbase/HFileTargetIT.java|,10,12,12,2014-10-19 22:15:00 +0000,2014-10-19 15:15:26 -0700,24c1c176c9cad115b8cb517f33d2cdaf83ddaecc,crunch
CRUNCH-480,2014-11-12 19:46:57 +0000,crunch-core/src/it/java/org/apache/crunch/io/parquet/AvroParquetFileSourceTargetIT.java|crunch-core/src/main/java/org/apache/crunch/io/parquet/AvroParquetFileSource.java|pom.xml|,9,12,12,2014-11-06 07:35:23 +0000,2014-11-12 11:08:13 -0800,2c7821fd353dd1618af112d27cbc3a936142d61c,crunch
CRUNCH-483,2015-01-03 20:44:35 +0000,crunch-scrunch/src/main/scala/org/apache/crunch/scrunch/Conversions.scala|crunch-scrunch/src/main/scala/org/apache/crunch/scrunch/PTable.scala|,10,12,12,2014-12-15 15:18:32 +0000,2015-01-03 12:39:52 -0800,3088d827506c28ecb2b845a55fd14c4a0bda324b,crunch
CRUNCH-485,2015-01-09 21:23:59 +0000,crunch-spark/src/main/java/org/apache/crunch/impl/spark/ByteArray.java|crunch-spark/src/main/java/org/apache/crunch/impl/spark/ByteArrayHelper.java|crunch-spark/src/main/java/org/apache/crunch/impl/spark/IntByteArray.java|crunch-spark/src/main/java/org/apache/crunch/impl/spark/fn/MapOutputFunction.java|crunch-spark/src/main/java/org/apache/crunch/impl/spark/fn/PartitionedMapOutputFunction.java|crunch-spark/src/main/java/org/apache/crunch/impl/spark/serde/AvroSerDe.java|crunch-spark/src/main/java/org/apache/crunch/impl/spark/serde/SerDe.java|crunch-spark/src/main/java/org/apache/crunch/impl/spark/serde/WritableSerDe.java|crunch-spark/src/test/java/org/apache/crunch/impl/spark/AvroByteArrayTest.java|,10,12,12,2015-01-06 14:19:43 +0000,2015-01-09 13:22:27 -0800,48e4e79412b83013bea3e8a7723d4a7917f6ce49,crunch
CRUNCH-486,2015-01-12 19:44:42 +0000,crunch-core/src/main/java/org/apache/crunch/types/writable/TupleWritable.java|crunch-core/src/main/java/org/apache/crunch/types/writable/WritableGroupedTableType.java|crunch-core/src/main/java/org/apache/crunch/types/writable/Writables.java|,10,12,12,2015-01-07 23:20:20 +0000,2015-01-12 10:30:10 -0800,85c2642ca6a759a5d53fc725594ec336edeb0f49,crunch
CRUNCH-490,2015-01-23 21:01:12 +0000,crunch-core/src/main/java/org/apache/crunch/impl/mr/exec/MRExecutor.java|,10,12,12,2015-01-23 07:01:50 +0000,2015-01-22 23:12:27 -0800,ab7e5e4c3b1956d5ae6efe8706110e003179d6b6,crunch
CRUNCH-493,2015-01-29 17:52:18 +0000,crunch-core/src/it/java/org/apache/crunch/MaterializeIT.java|crunch-core/src/main/java/org/apache/crunch/materialize/MaterializableIterable.java|,10,12,12,2015-01-28 20:42:16 +0000,2015-01-29 09:15:36 -0800,4f2b1f25fe21aca7c2df4747e754862d113173be,crunch
CRUNCH-495,2015-01-31 00:56:38 +0000,crunch-scrunch/pom.xml|crunch-scrunch/src/it/avro/person.avsc|crunch-scrunch/src/it/scala/org/apache/crunch/scrunch/JoinTest.scala|crunch-scrunch/src/main/scala/org/apache/crunch/scrunch/PTypeFamily.scala|,10,12,12,2015-01-30 00:32:49 +0000,2015-01-29 16:39:05 -0800,7157c0a1f481ffa6e817065abce3159ef24ec067,crunch
CRUNCH-494,2015-01-31 01:17:03 +0000,crunch-core/src/main/java/org/apache/crunch/impl/dist/collect/PCollectionImpl.java|,9,12,12,2015-01-29 21:23:26 +0000,2015-02-24 09:57:09 -0800,04e02516a975d02014078bfb418fae83c2c8b919,crunch
CRUNCH-503,2015-03-19 22:58:41 +0000,crunch-core/src/main/java/org/apache/crunch/fn/Aggregators.java|crunch-core/src/test/java/org/apache/crunch/fn/AggregatorsTest.java|,10,12,12,2015-03-19 10:39:47 +0000,2015-03-19 15:45:32 -0700,3ab0b078c47f23b3ba893fdfb05fd723f663d02b,crunch
CRUNCH-513,2015-05-07 02:13:08 +0000,crunch-core/src/main/java/org/apache/crunch/io/SourceTargetHelper.java|crunch-hbase/src/it/java/org/apache/crunch/io/hbase/HFileSourceIT.java|,9,12,12,2015-04-24 20:17:51 +0000,2015-05-06 20:58:04 -0500,504a6194edb5e066e248e78f83e4519bb6e82c58,crunch
CRUNCH-517,2015-05-08 21:43:45 +0000,crunch-core/src/it/java/org/apache/crunch/io/FormattedFileIT.java|crunch-core/src/main/java/org/apache/crunch/io/impl/DefaultFileReaderFactory.java|crunch-core/src/main/java/org/apache/crunch/io/impl/FileReadableData.java|crunch-core/src/main/java/org/apache/crunch/io/impl/FileSourceImpl.java|,10,12,12,2015-05-05 19:55:04 +0000,2015-05-08 22:38:43 +0100,9f4193163d739cf1da4049f5793455d41e32b888,crunch
CRUNCH-509,2015-05-08 21:53:06 +0000,crunch-core/src/main/java/org/apache/crunch/io/avro/AvroFileTarget.java|crunch-core/src/main/java/org/apache/crunch/io/avro/AvroPathPerKeyTarget.java|crunch-core/src/main/java/org/apache/crunch/types/avro/AvroOutputFormat.java|crunch-spark/src/main/java/org/apache/crunch/impl/spark/SparkRuntime.java|,10,12,12,2015-04-07 19:51:23 +0000,2015-05-08 22:43:02 +0100,6e3560651ed3a0bd47cab2ad0ec1c808e599e050,crunch
CRUNCH-520,2015-05-20 16:38:46 +0000,crunch-contrib/src/it/java/org/apache/crunch/contrib/bloomfilter/BloomFiltersIT.java|crunch-core/src/it/java/org/apache/crunch/ConfigurationIT.java|crunch-core/src/it/java/org/apache/crunch/MapPObjectIT.java|crunch-core/src/it/java/org/apache/crunch/MaterializeIT.java|crunch-core/src/it/java/org/apache/crunch/PTableKeyValueIT.java|crunch-core/src/it/java/org/apache/crunch/PipelineCallableIT.java|crunch-core/src/it/java/org/apache/crunch/SingleUseIterableExceptionIT.java|crunch-core/src/it/java/org/apache/crunch/StageResultsCountersIT.java|crunch-core/src/it/java/org/apache/crunch/impl/mem/MemPipelineUTF8IT.java|crunch-core/src/it/java/org/apache/crunch/io/ToolRunnerIT.java|crunch-core/src/it/java/org/apache/crunch/lib/AggregateIT.java|crunch-core/src/it/java/org/apache/crunch/lib/join/MapsideJoinStrategyIT.java|crunch-core/src/main/java/org/apache/crunch/fn/Aggregators.java|crunch-core/src/main/java/org/apache/crunch/hadoop/mapreduce/lib/jobcontrol/CrunchJobControl.java|crunch-core/src/main/java/org/apache/crunch/impl/mem/CountersWrapper.java|crunch-core/src/main/java/org/apache/crunch/io/CrunchOutputs.java|crunch-core/src/main/java/org/apache/crunch/lib/Quantiles.java|crunch-core/src/main/java/org/apache/crunch/types/writable/TupleWritable.java|crunch-core/src/main/java/org/apache/crunch/types/writable/WritableGroupedTableType.java|crunch-core/src/main/java/org/apache/crunch/util/PartitionUtils.java|crunch-core/src/test/java/org/apache/crunch/hadoop/mapreduce/lib/jobcontrol/CrunchJobControlTest.java|crunch-core/src/test/java/org/apache/crunch/impl/SingleUseIterableTest.java|crunch-core/src/test/java/org/apache/crunch/types/writable/GenericArrayWritableTest.java|crunch-core/src/test/java/org/apache/crunch/types/writable/WritablesTest.java|crunch-examples/src/main/java/org/apache/crunch/examples/WordAggregationHBase.java|crunch-hbase/src/it/java/org/apache/crunch/io/hbase/HFileTargetIT.java|crunch-hbase/src/it/java/org/apache/crunch/io/hbase/WordCountHBaseIT.java|crunch-hbase/src/main/java/org/apache/crunch/io/hbase/HBaseData.java|crunch-hive/src/main/java/org/apache/crunch/io/orc/OrcWritable.java|crunch-spark/src/it/java/org/apache/crunch/SparkPipelineCallableIT.java|crunch-spark/src/main/java/org/apache/crunch/impl/spark/SparkRuntime.java|,10,13,13,2015-05-20 08:12:39 +0000,2015-05-20 09:31:30 -0700,d0bb205eaf236bf1d81b9070a2db3428cb90a161,crunch
CRUNCH-525,2015-05-22 18:41:03 +0000,crunch-core/src/main/java/org/apache/crunch/fn/CompositeMapFn.java|crunch-core/src/main/java/org/apache/crunch/fn/ExtractKeyFn.java|crunch-core/src/main/java/org/apache/crunch/fn/PairMapFn.java|,12,13,13,2015-05-21 21:51:30 +0000,2015-05-22 11:21:21 -0700,9bb526fd1f67c06641c24e29a3e2b1078877e9f2,crunch
CRUNCH-524,2015-05-23 19:36:49 +0000,crunch-contrib/src/it/java/org/apache/crunch/contrib/io/jdbc/DataBaseSourceIT.java|crunch-core/src/main/java/org/apache/crunch/impl/dist/DistributedPipeline.java|crunch-hbase/src/it/java/org/apache/crunch/io/hbase/WordCountHBaseIT.java|,12,13,13,2015-05-21 21:00:38 +0000,2015-05-23 21:34:04 +0200,6c8c5ffd0447da82e63cf0b74ed2026c77a0c554,crunch
CRUNCH-530,2015-05-31 23:11:23 +0000,crunch-core/src/main/java/org/apache/crunch/types/avro/Avros.java|,12,13,13,2015-05-31 23:02:58 +0000,2015-05-31 19:04:19 -0400,484545a583603f9b69ef87c7b1c981d0267b1275,crunch
CRUNCH-531,2015-06-25 08:11:34 +0000,crunch-core/src/main/java/org/apache/crunch/impl/mr/plan/DotfileUtills.java|,12,13,13,2015-06-04 18:55:56 +0000,2015-06-25 08:55:21 +0100,d4da529985593ecf84c057938baf706a144e9024,crunch
CRUNCH-540,2015-07-08 19:55:00 +0000,crunch-core/src/main/java/org/apache/crunch/types/avro/AvroDeepCopier.java|crunch-core/src/main/java/org/apache/crunch/types/avro/AvroType.java|crunch-core/src/test/java/org/apache/crunch/types/avro/AvroDeepCopierTest.java|,10,13,13,2015-07-07 20:56:24 +0000,2015-07-07 14:16:07 -0700,2bd612eb9c115f857f5776f58fbd336028a438b3,crunch
CRUNCH-539,2015-07-09 18:32:47 +0000,crunch-core/src/main/java/org/apache/crunch/types/writable/Writables.java|crunch-core/src/test/java/org/apache/crunch/types/writable/WritablesTest.java|,12,13,13,2015-07-07 16:43:11 +0000,2015-07-09 20:12:51 +0200,a727606eaeaea2d78a161685d9d29217864e6846,crunch
CRUNCH-552,2015-07-28 02:21:00 +0000,crunch-core/pom.xml|crunch-core/src/main/java/org/apache/crunch/io/parquet/AvroParquetFileTarget.java|crunch-spark/src/it/java/org/apache/crunch/SparkAvroParquetPipelineIT.java|crunch-spark/src/main/java/org/apache/crunch/impl/spark/SparkRuntime.java|crunch-test/pom.xml|crunch-test/src/main/avro/employee.avsc|crunch-test/src/main/avro/person.avsc|,12,13,13,2015-07-28 00:37:28 +0000,2015-07-27 19:07:12 -0700,29d1ce4cddcddc86cda36bd464c26df4bdff3ae4,crunch
CRUNCH-551,2015-07-28 02:35:06 +0000,crunch-core/src/main/java/org/apache/crunch/impl/mr/run/CrunchInputSplit.java|crunch-core/src/main/java/org/apache/crunch/impl/mr/run/CrunchRecordReader.java|,12,13,13,2015-07-27 23:00:28 +0000,2015-07-27 19:21:45 -0700,2f5b33ead752deb4796989f56f9aebf6e3330286,crunch
CRUNCH-553,2015-07-28 03:09:03 +0000,crunch-core/src/it/java/org/apache/crunch/RecordDropIT.java|crunch-core/src/main/java/org/apache/crunch/impl/dist/collect/BaseInputTable.java|,10,13,13,2015-07-28 01:49:04 +0000,2015-07-27 19:35:30 -0700,3a1d474b0514f02a5ce46f6db1fbe2e8abcb03be,crunch
CRUNCH-556,2015-08-25 21:44:57 +0000,crunch-spark/pom.xml|crunch-spark/src/it/java/org/apache/crunch/SparkHFileTargetIT.java|crunch-spark/src/main/java/org/apache/crunch/impl/spark/collect/PGroupedTableImpl.java|crunch-spark/src/main/java/org/apache/crunch/impl/spark/fn/PartitionedMapOutputFunction.java|,13,14,14,2015-08-13 05:15:40 +0000,2015-08-25 14:28:39 -0700,366da2ee0996c573ecb3a3094a29d697ec539db3,crunch
CRUNCH-567,2015-10-03 15:03:20 +0000,crunch-core/src/main/java/org/apache/crunch/types/avro/AvroRecordReader.java|crunch-hbase/src/main/java/org/apache/crunch/io/hbase/HFileInputFormat.java|,12,14,14,2015-10-02 20:09:04 +0000,2015-10-03 17:00:15 +0200,abaa203b6d6ac141e9e11410a62e2655d140e04b,crunch
CRUNCH-565,2015-10-05 19:14:25 +0000,crunch-core/src/main/java/org/apache/crunch/io/text/csv/CSVInputFormat.java|crunch-core/src/test/java/org/apache/crunch/io/text/csv/CSVInputFormatTest.java|,9,14,14,2015-09-30 18:09:20 +0000,2015-10-05 13:59:32 -0500,f8c98a6c69dcd1e971f2b35b94a2bb99a4233b4e,crunch
CRUNCH-568,2015-10-07 21:51:20 +0000,crunch-core/src/main/java/org/apache/crunch/lib/Aggregate.java|crunch-spark/src/it/java/org/apache/crunch/SparkAggregatorIT.java|,12,14,14,2015-10-06 15:21:43 +0000,2015-10-07 10:36:38 -0700,57235348d6628d28c3a869f23aca15888aa377be,crunch
CRUNCH-571,2015-10-19 09:37:02 +0000,crunch-core/src/main/java/org/apache/crunch/impl/mem/collect/MemCollection.java|,12,14,14,2015-10-14 13:12:54 +0000,2015-10-19 10:21:36 +0100,387068d4e68b4b22116af8392418353effd1bb5b,crunch
CRUNCH-561,2015-10-27 09:22:47 +0000,crunch-scrunch/src/main/scala/org/apache/crunch/scrunch/PTypeFamily.scala|,12,14,14,2015-09-21 13:00:42 +0000,2015-10-27 09:22:07 +0000,188360048a7f2d3cedf5fc915b48d7671f1d8d46,crunch
CRUNCH-577,2015-11-11 00:09:24 +0000,crunch-core/src/main/java/org/apache/crunch/impl/mr/run/CrunchCombineFileInputFormat.java|,6,14,14,2015-11-10 10:42:31 +0000,2015-11-10 15:56:25 -0800,85f24c5c8c95964516b691477d949a948149e7a2,crunch
CRUNCH-580,2015-12-10 06:30:50 +0000,crunch-core/src/main/java/org/apache/crunch/impl/mr/run/RuntimeParameters.java|crunch-core/src/main/java/org/apache/crunch/io/impl/FileTargetImpl.java|crunch-core/src/test/java/org/apache/crunch/io/impl/FileTargetImplTest.java|,13,14,14,2015-12-05 01:20:39 +0000,2015-12-09 20:45:36 -0800,46b33437ad19fea88446ceb18ed34e4f3f88a7eb,crunch
CRUNCH-583,2015-12-10 13:28:19 +0000,crunch-core/src/main/java/org/apache/crunch/impl/mem/collect/MemCollection.java|crunch-core/src/main/java/org/apache/crunch/util/ClassloaderFallbackObjectInputStream.java|crunch-core/src/main/java/org/apache/crunch/util/DistCache.java|,13,14,14,2015-12-07 11:02:35 +0000,2015-12-10 13:19:24 +0000,775de6cd8c35f128b5426e0383550218140674d1,crunch
CRUNCH-592,2016-02-10 16:05:01 +0000,crunch-core/src/it/java/org/apache/crunch/EmitNullAvroIT.java|crunch-core/src/main/java/org/apache/crunch/types/avro/Avros.java|crunch-core/src/test/java/org/apache/crunch/types/avro/AvrosTest.java|,13,14,14,2016-02-09 17:41:29 +0000,2016-02-10 16:02:31 +0000,b5b7f48ebf5a88b69084dcc08be76b8819fc00a7,crunch
CRUNCH-586,2016-02-23 18:45:11 +0000,crunch-spark/src/it/java/org/apache/crunch/SparkWordCountHBaseIT.java|crunch-spark/src/main/java/org/apache/crunch/impl/spark/SparkRuntime.java|crunch-spark/src/main/java/org/apache/crunch/impl/spark/collect/InputCollection.java|crunch-spark/src/main/java/org/apache/crunch/impl/spark/collect/InputTable.java|,13,14,14,2016-01-13 12:47:37 +0000,2016-02-23 09:09:37 -0800,20fc3ab79d5c20a887518928c953c98e5e10082d,crunch
CRUNCH-597,2016-03-28 15:12:49 +0000,crunch-core/pom.xml|crunch-core/src/it/java/org/apache/crunch/io/parquet/AvroParquetFileSourceTargetIT.java|crunch-core/src/it/java/org/apache/crunch/io/parquet/AvroParquetPipelineIT.java|crunch-core/src/main/java/org/apache/crunch/PipelineCallable.java|crunch-core/src/main/java/org/apache/crunch/io/Compress.java|crunch-core/src/main/java/org/apache/crunch/io/parquet/AvroParquetFileReaderFactory.java|crunch-core/src/main/java/org/apache/crunch/io/parquet/AvroParquetFileSource.java|crunch-core/src/main/java/org/apache/crunch/io/parquet/AvroParquetFileTarget.java|crunch-core/src/test/java/org/apache/crunch/io/parquet/AvroParquetFileReaderFactoryTest.java|crunch-spark/src/it/java/org/apache/crunch/SparkAvroParquetPipelineIT.java|pom.xml|,13,14,14,2016-03-18 16:34:28 +0000,2016-03-24 09:55:16 -0700,1252e7f9181053132d35d13b0137f997786c79ff,crunch
CRUNCH-607,2016-05-02 15:46:59 +0000,crunch-core/src/main/java/org/apache/crunch/impl/mem/collect/MemCollection.java|crunch-core/src/test/java/org/apache/crunch/WriteModeTest.java|crunch-core/src/test/java/org/apache/crunch/impl/mem/MemPipelinePCollectionReuseTest.java|,11,14,14,2016-05-02 03:29:19 +0000,2016-05-02 17:31:20 +0200,49e4575595e4667a7d2aeef7d4e0aaeace0f59c3,crunch
CRUNCH-614,2016-07-30 00:47:37 +0000,crunch-hbase/src/main/java/org/apache/crunch/io/hbase/HFileUtils.java|,8,15,15,2016-07-27 16:27:07 +0000,2016-07-29 17:47:09 -0700,b0491f20ac9f671020fcbc3f3118cd4eda013c57,crunch
CRUNCH-601,2016-08-26 05:48:19 +0000,crunch-core/src/main/java/org/apache/crunch/impl/dist/collect/BaseDoCollection.java|crunch-core/src/main/java/org/apache/crunch/impl/dist/collect/BaseDoTable.java|crunch-core/src/main/java/org/apache/crunch/lib/Aggregate.java|crunch-core/src/main/java/org/apache/crunch/materialize/pobject/FirstElementPObject.java|crunch-spark/src/it/java/org/apache/crunch/SmallCollectionLengthTest.java|,13,14,15,2016-04-12 16:21:56 +0000,2016-08-25 22:47:02 -0700,f1d074c2a7dcaf44b03dab5b84e9d323f586fdac,crunch
CRUNCH-616,2016-09-08 13:38:35 +0000,LICENSE|crunch-core/src/it/java/org/apache/crunch/CleanTextIT.java|crunch-core/src/it/java/org/apache/crunch/CollectionPObjectIT.java|crunch-core/src/it/java/org/apache/crunch/CollectionsLengthIT.java|crunch-core/src/it/java/org/apache/crunch/DeepCopyCustomTuplesIT.java|crunch-core/src/it/java/org/apache/crunch/FirstElementPObjectIT.java|crunch-core/src/it/java/org/apache/crunch/PObjectsIT.java|crunch-core/src/it/java/org/apache/crunch/PipelineCallableIT.java|crunch-core/src/it/java/org/apache/crunch/RecordDropIT.java|crunch-core/src/it/java/org/apache/crunch/StageResultsCountersIT.java|crunch-core/src/it/java/org/apache/crunch/WordCountIT.java|crunch-core/src/it/java/org/apache/crunch/impl/mr/plan/DotfilesIT.java|crunch-core/src/it/java/org/apache/crunch/lib/MapredIT.java|crunch-core/src/it/java/org/apache/crunch/lib/MapreduceIT.java|crunch-core/src/it/java/org/apache/crunch/lib/join/AbstractFullOuterJoinIT.java|crunch-core/src/it/java/org/apache/crunch/lib/join/AbstractInnerJoinIT.java|crunch-core/src/it/java/org/apache/crunch/lib/join/AbstractLeftOuterJoinIT.java|crunch-core/src/it/java/org/apache/crunch/lib/join/AbstractRightOuterJoinIT.java|crunch-core/src/it/java/org/apache/crunch/lib/join/JoinTester.java|crunch-hbase/src/it/java/org/apache/crunch/io/hbase/HFileTargetIT.java|crunch-scrunch/src/it/scala/org/apache/crunch/scrunch/AggregatorsIntegrationTest.scala|crunch-scrunch/src/it/scala/org/apache/crunch/scrunch/CogroupTest.scala|crunch-scrunch/src/it/scala/org/apache/crunch/scrunch/IncrementTest.scala|crunch-scrunch/src/it/scala/org/apache/crunch/scrunch/JoinTest.scala|crunch-scrunch/src/it/scala/org/apache/crunch/scrunch/PCollectionTest.scala|crunch-scrunch/src/it/scala/org/apache/crunch/scrunch/PipelineAppTest.scala|crunch-scrunch/src/it/scala/org/apache/crunch/scrunch/TopTest.scala|crunch-scrunch/src/it/scala/org/apache/crunch/scrunch/UnionTest.scala|crunch-scrunch/src/it/scala/org/apache/crunch/scrunch/WordCountTest.scala|crunch-spark/src/it/java/org/apache/crunch/SparkHFileTargetIT.java|crunch-spark/src/it/java/org/apache/crunch/SparkPipelineCallableIT.java|crunch-test/src/main/resources/dickens.txt|crunch-test/src/main/resources/maugham.txt|crunch-test/src/main/resources/shakes.txt|,14,15,15,2016-09-05 10:39:44 +0000,2016-09-08 14:12:30 +0100,5d237b36609484d49c30fa92fdf9613b6eee9d91,crunch
CRUNCH-622,2016-12-03 19:59:57 +0000,crunch-core/src/main/java/org/apache/crunch/io/From.java|,13,15,15,2016-09-15 20:27:42 +0000,2016-12-03 11:56:59 -0800,c14acfab04a18d7b57af040c9399ec0cca61eed6,crunch
CRUNCH-641,2017-04-12 14:19:27 +0000,crunch-core/src/main/java/org/apache/crunch/impl/mr/plan/DotfileWriter.java|,15,16,16,2017-03-30 14:51:36 +0000,2017-04-12 15:03:41 +0100,afc171fb7ad06a8c0a12fb00811874a99bf8d310,crunch
CRUNCH-661,2018-01-18 21:52:22 +0000,crunch-contrib/src/main/java/org/apache/crunch/contrib/io/jdbc/DataBaseSource.java|,14,16,16,2018-01-18 21:12:31 +0000,2018-01-18 13:12:39 -0800,614364aa9e005ac350481869cb18e3e44b0d1c3a,crunch
CRUNCH-671,2018-08-13 20:42:38 +0000,pom.xml|,14,16,16,2018-08-09 05:25:58 +0000,2018-08-13 13:32:22 -0700,51d9443f5be3d67588e4c3a974f71ea02158d39e,crunch
